ITEM: TIMESTEP
1780
ITEM: NUMBER OF ATOMS
400
ITEM: BOX BOUNDS ff pp pp
0.0000000000000000e+00 4.0000000000000000e+02
0.0000000000000000e+00 8.6602540000000005e+01
0.0000000000000000e+00 1.0000000000000000e+00
ITEM: ATOMS id type x y z fx fy fz 
52 2 0.5 44.1673 0 0 -0.000397333 0 
152 2 1.5 44.1673 0 0.00430562 -0.000397226 0 
252 1 2.50002 44.1673 0 -0.000204269 -0.000143678 0 
352 1 3.50004 44.1674 0 -0.000391001 -0.000144812 0 
452 1 4.50005 44.1674 0 5.39783e-06 0.000583244 0 
552 1 5.50007 44.1675 0 -7.50256e-05 0.000593783 0 
652 1 6.50009 44.1675 0 -0.000482076 -0.000117844 0 
752 1 7.5001 44.1676 0 -0.000832366 -0.000929227 0 
852 1 8.50011 44.1676 0 -0.000840003 -0.000742027 0 
952 1 9.50011 44.1676 0 -0.000448563 -0.000524228 0 
1052 1 10.5001 44.1676 0 -0.000282356 -0.000276937 0 
1152 1 11.5001 44.1677 0 1.47146e-05 -0.000178849 0 
1252 1 12.5001 44.1677 0 9.52756e-05 -0.000302668 0 
1352 1 13.5001 44.1677 0 0.000225347 -0.000375808 0 
1452 1 14.5001 44.1677 0 0.000208895 -0.000445803 0 
1552 1 15.5001 44.1677 0 0.000345195 -0.000460456 0 
1652 1 16.5001 44.1677 0 0.000248767 -0.000424688 0 
1752 1 17.5001 44.1677 0 0.000229203 -0.000384245 0 
1852 1 18.5001 44.1678 0 0.000248394 -0.000248717 0 
1952 1 19.5001 44.1678 0 5.09277e-05 -0.000164815 0 
2052 1 20.5001 44.1678 0 0.000114498 -9.76624e-05 0 
2152 1 21.5001 44.1678 0 0.000104863 8.03056e-06 0 
2252 1 22.5 44.1678 0 -4.8192e-05 -4.95932e-05 0 
2352 1 23.5 44.1678 0 0.000148785 -6.95929e-05 0 
2452 1 24.5 44.1678 0 0.000160241 -0.000157619 0 
2552 1 25.5 44.1678 0 0.000163384 -0.000327746 0 
2652 1 26.5 44.1678 0 0.000362509 -0.000470453 0 
2752 1 27.5 44.1678 0 0.000382949 -0.000599792 0 
2852 1 28.5 44.1678 0 0.000390004 -0.000741952 0 
2952 1 29.5 44.1678 0 0.00050033 -0.000794248 0 
3052 1 30.5 44.1678 0 0.000475502 -0.000767412 0 
3152 1 31.5 44.1678 0 0.000387262 -0.000746047 0 
3252 1 32.5 44.1678 0 0.000371062 -0.000704732 0 
3352 1 33.5 44.1679 0 0.000322226 -0.00061602 0 
3452 1 34.5 44.1679 0 0.000219256 -0.000525608 0 
3552 1 35.5 44.1679 0 0.000158687 -0.000459117 0 
3652 1 36.5 44.1679 0 0.000131977 -0.000402661 0 
3752 1 37.5 44.1679 0 8.16731e-05 -0.000355272 0 
3852 1 38.5 44.1679 0 2.78247e-05 -0.00032696 0 
3952 1 39.5 44.1679 0 1.08364e-05 -0.000313321 0 
4052 1 40.5 44.1679 0 1.89242e-05 -0.000302942 0 
4152 1 41.5 44.1679 0 2.04992e-05 -0.000292981 0 
4252 1 42.5 44.1679 0 9.50782e-06 -0.000286621 0 
4352 1 43.5 44.1679 0 -1.38351e-06 -0.000284681 0 
4452 1 44.5 44.1679 0 -4.51636e-06 -0.000284823 0 
4552 1 45.5 44.1679 0 -2.34929e-06 -0.000284992 0 
4652 1 46.5 44.1679 0 2.64389e-07 -0.000284784 0 
4752 1 47.5 44.1679 0 1.27641e-06 -0.000284554 0 
4852 1 48.5 44.1679 0 1.07382e-06 -0.000284503 0 
4952 1 49.5 44.1679 0 5.46627e-07 -0.000284568 0 
5052 1 50.5 44.1679 0 1.61492e-07 -0.000284633 0 
5152 1 51.5 44.1679 0 -1.46754e-08 -0.000284653 0 
5252 1 52.5 44.1679 0 -6.05651e-08 -0.000284638 0 
5352 1 53.5 44.1679 0 -5.30677e-08 -0.000284615 0 
5452 1 54.5 44.1679 0 -3.38919e-08 -0.000284596 0 
5552 1 55.5 44.1679 0 -1.81762e-08 -0.000284584 0 
5652 1 56.5 44.1679 0 -8.5151e-09 -0.000284578 0 
5752 1 57.5 44.1679 0 -3.60401e-09 -0.000284576 0 
5852 1 58.5 44.1679 0 -1.3367e-09 -0.000284575 0 
5952 1 59.5 44.1679 0 -4.69147e-10 -0.000284574 0 
6052 1 60.5 44.1679 0 -1.55848e-10 -0.000284574 0 
6152 1 61.5 44.1679 0 -5.05808e-11 -0.000284574 0 
6252 1 62.5 44.1679 0 -1.08197e-11 -0.000284574 0 
6352 1 63.5 44.1679 0 -8.65326e-19 -0.000284574 0 
6452 1 64.5 44.1679 0 -8.6569e-19 -0.000284574 0 
6552 1 65.5 44.1679 0 -8.65326e-19 -0.000284574 0 
6652 1 66.5 44.1679 0 -8.6569e-19 -0.000284574 0 
6752 1 67.5 44.1679 0 -8.6569e-19 -0.000284574 0 
6852 1 68.5 44.1679 0 -8.6569e-19 -0.000284574 0 
6952 1 69.5 44.1679 0 -8.65326e-19 -0.000284574 0 
7052 1 70.5 44.1679 0 -8.6569e-19 -0.000284574 0 
7152 1 71.5 44.1679 0 -8.6569e-19 -0.000284574 0 
7252 1 72.5 44.1679 0 -8.65326e-19 -0.000284574 0 
7352 1 73.5 44.1679 0 -8.65326e-19 -0.000284574 0 
7452 1 74.5 44.1679 0 -8.6569e-19 -0.000284574 0 
7552 1 75.5 44.1679 0 -8.65326e-19 -0.000284574 0 
7652 1 76.5 44.1679 0 -8.65326e-19 -0.000284574 0 
7752 1 77.5 44.1679 0 -8.6569e-19 -0.000284574 0 
7852 1 78.5 44.1679 0 -8.6569e-19 -0.000284574 0 
7952 1 79.5 44.1679 0 -8.6569e-19 -0.000284574 0 
8052 1 80.5 44.1679 0 -8.6569e-19 -0.000284574 0 
8152 1 81.5 44.1679 0 -8.65326e-19 -0.000284574 0 
8252 1 82.5 44.1679 0 -8.65326e-19 -0.000284574 0 
8352 1 83.5 44.1679 0 -8.6569e-19 -0.000284574 0 
8452 1 84.5 44.1679 0 -8.6569e-19 -0.000284574 0 
8552 1 85.5 44.1679 0 -8.65326e-19 -0.000284574 0 
8652 1 86.5 44.1679 0 -8.65326e-19 -0.000284574 0 
8752 1 87.5 44.1679 0 -8.6569e-19 -0.000284574 0 
8852 1 88.5 44.1679 0 -8.65326e-19 -0.000284574 0 
8952 1 89.5 44.1679 0 -8.65326e-19 -0.000284574 0 
9052 1 90.5 44.1679 0 -8.6569e-19 -0.000284574 0 
9152 1 91.5 44.1679 0 -8.6569e-19 -0.000284574 0 
9252 1 92.5 44.1679 0 -8.6569e-19 -0.000284574 0 
9352 1 93.5 44.1679 0 -8.65326e-19 -0.000284574 0 
9452 1 94.5 44.1679 0 -8.6569e-19 -0.000284574 0 
9552 1 95.5 44.1679 0 -8.65326e-19 -0.000284574 0 
9652 1 96.5 44.1679 0 -8.6569e-19 -0.000284574 0 
9752 1 97.5 44.1679 0 -8.65326e-19 -0.000284574 0 
9852 1 98.5 44.1679 0 -8.6569e-19 -0.000284574 0 
9952 1 99.5 44.1679 0 -8.6569e-19 -0.000284574 0 
10052 1 100.5 44.1679 0 -8.6569e-19 -0.000284574 0 
10152 1 101.5 44.1679 0 -8.65326e-19 -0.000284574 0 
10252 1 102.5 44.1679 0 -8.65326e-19 -0.000284574 0 
10352 1 103.5 44.1679 0 -8.65326e-19 -0.000284574 0 
10452 1 104.5 44.1679 0 -8.65326e-19 -0.000284574 0 
10552 1 105.5 44.1679 0 -8.6569e-19 -0.000284574 0 
10652 1 106.5 44.1679 0 -8.6569e-19 -0.000284574 0 
10752 1 107.5 44.1679 0 -8.65326e-19 -0.000284574 0 
10852 1 108.5 44.1679 0 -8.6569e-19 -0.000284574 0 
10952 1 109.5 44.1679 0 -8.6569e-19 -0.000284574 0 
11052 1 110.5 44.1679 0 -8.6569e-19 -0.000284574 0 
11152 1 111.5 44.1679 0 -8.6569e-19 -0.000284574 0 
11252 1 112.5 44.1679 0 -8.6569e-19 -0.000284574 0 
11352 1 113.5 44.1679 0 -8.6569e-19 -0.000284574 0 
11452 1 114.5 44.1679 0 -8.6569e-19 -0.000284574 0 
11552 1 115.5 44.1679 0 -8.65326e-19 -0.000284574 0 
11652 1 116.5 44.1679 0 -8.6569e-19 -0.000284574 0 
11752 1 117.5 44.1679 0 -8.6569e-19 -0.000284574 0 
11852 1 118.5 44.1679 0 -8.6569e-19 -0.000284574 0 
11952 1 119.5 44.1679 0 -8.6569e-19 -0.000284574 0 
12052 1 120.5 44.1679 0 -8.6569e-19 -0.000284574 0 
12152 1 121.5 44.1679 0 -8.6569e-19 -0.000284574 0 
12252 1 122.5 44.1679 0 -8.65326e-19 -0.000284574 0 
12352 1 123.5 44.1679 0 -8.65326e-19 -0.000284574 0 
12452 1 124.5 44.1679 0 -8.6569e-19 -0.000284574 0 
12552 1 125.5 44.1679 0 -8.65326e-19 -0.000284574 0 
12652 1 126.5 44.1679 0 -8.6569e-19 -0.000284574 0 
12752 1 127.5 44.1679 0 -8.6569e-19 -0.000284574 0 
12852 1 128.5 44.1679 0 8.94823e-11 -0.000284574 0 
12952 1 129.5 44.1679 0 4.81858e-10 -0.000284574 0 
13052 1 130.5 44.1679 0 2.39783e-09 -0.000284574 0 
13152 1 131.5 44.1679 0 1.1806e-08 -0.000284574 0 
13252 1 132.5 44.1679 0 5.57185e-08 -0.000284574 0 
13352 1 133.5 44.1679 0 2.49266e-07 -0.000284574 0 
13452 1 134.5 44.1679 0 1.06037e-06 -0.000284574 0 
13552 1 135.5 44.1679 0 4.27647e-06 -0.000284574 0 
13652 1 136.5 44.1679 0 1.63114e-05 -0.000284574 0 
13752 1 137.5 44.1679 0 5.8677e-05 -0.000284574 0 
13852 1 138.5 44.1679 0 0.000198437 -0.000284574 0 
13952 1 139.5 44.1679 0 0.000628554 -0.000284573 0 
14052 1 140.5 44.1679 0 0.00185666 -0.000284571 0 
14152 1 141.5 44.1679 0 0.00508758 -0.000284567 0 
14252 1 142.5 44.1679 0 0.0128488 -0.000284556 0 
14352 1 143.5 44.1679 0 0.0296622 -0.000284534 0 
14452 1 144.5 44.1679 0 0.0619102 -0.000284497 0 
14552 1 145.501 44.1679 0 0.115028 -0.00028445 0 
14652 1 146.501 44.1679 0 0.18577 -0.000284435 0 
14752 1 147.503 44.1679 0 0.250126 -0.000284562 0 
14852 1 148.505 44.1679 0 0.256202 -0.000285035 0 
14952 1 149.508 44.1679 0 0.142473 -0.000286106 0 
15052 1 150.512 44.1679 0 -0.102873 -0.000287881 0 
15152 1 151.516 44.1679 0 -0.370459 -0.000290023 0 
15252 1 152.518 44.1679 0 -0.44256 -0.000291624 0 
15352 1 153.519 44.1679 0 -0.174522 -0.000291663 0 
15452 1 154.52 44.1679 0 0.260124 -0.000290002 0 
15552 1 155.521 44.1679 0 0.400564 -0.00028813 0 
15652 1 156.524 44.1679 0 0.0115661 -0.000288433 0 
15752 1 157.526 44.1679 0 -0.435612 -0.000291646 0 
15852 1 158.528 44.1679 0 -0.25008 -0.000295172 0 
15952 1 159.529 44.1679 0 0.34276 -0.000295719 0 
16052 1 160.531 44.1679 0 0.32968 -0.000293698 0 
16152 1 161.534 44.1679 0 -0.325186 -0.00029324 0 
16252 1 162.536 44.1679 0 -0.355501 -0.000296331 0 
16352 1 163.537 44.1679 0 0.350988 -0.000299259 0 
16452 1 164.539 44.1679 0 0.27369 -0.000298539 0 
16552 1 165.543 44.1679 0 -0.441823 -0.000297212 0 
16652 1 166.545 44.1679 0 -0.0923244 -0.000299833 0 
16752 1 167.547 44.1679 0 0.463177 -0.000302948 0 
16852 1 168.551 44.1679 0 -0.206823 -0.000301264 0 
16952 1 169.554 44.1679 0 -0.289816 -0.000299719 0 
17052 1 170.557 44.1679 0 0.398062 -0.000302805 0 
17152 1 171.56 44.1679 0 -0.244379 -0.000304083 0 
17252 1 172.563 44.1679 0 -0.401772 -0.000304441 0 
17352 1 173.564 44.1679 0 0.525351 -0.000305371 0 
17452 1 174.567 44.1679 0 0.0190199 -0.000298595 0 
17552 1 175.571 44.1679 0 -0.219767 -0.000301635 0 
17652 1 176.573 44.1679 0 -0.190536 -0.000304599 0 
17752 1 177.575 44.1679 0 -0.716138 -0.000300551 0 
17852 1 178.577 44.1679 0 0.698252 -0.000301395 0 
17952 1 179.579 44.1679 0 0.962109 -0.000294809 0 
18052 1 180.582 44.1679 0 -0.0694223 -0.000300037 0 
18152 1 181.586 44.1679 0 -0.335553 -0.0003009 0 
18252 1 182.59 44.1679 0 -1.14374 -0.000296423 0 
18352 1 183.591 44.1679 0 0.141295 -0.000290408 0 
18452 1 184.594 44.1679 0 -0.434802 -0.000287481 0 
18552 1 185.597 44.1679 0 -0.0505245 -0.000301052 0 
18652 1 186.599 44.1679 0 0.542844 -0.000285019 0 
18752 1 187.603 44.1679 0 0.315811 -0.000272833 0 
18852 1 188.605 44.1679 0 0.886047 -0.000297068 0 
18952 1 189.611 44.1679 0 -0.827785 -0.000274529 0 
19052 1 190.613 44.1679 0 2.12697 -0.000288482 0 
19152 1 191.62 44.1679 0 -1.33952 -0.000278738 0 
19252 1 192.624 44.1679 0 0.131232 -0.00028776 0 
19352 1 193.628 44.1679 0 1.11165 -0.00029478 0 
19452 1 194.637 44.1679 0 -1.5566 -0.000326544 0 
19552 1 195.643 44.1679 0 0.584307 -0.000328651 0 
19652 1 196.653 44.1679 0 -0.698891 -0.000265943 0 
19752 1 197.664 44.1679 0 0.411698 -0.000171168 0 
19852 1 198.682 44.1679 0 -0.846929 -0.000275246 0 
19952 1 199.709 44.1679 0 -0.0123252 -0.000297932 0 
20052 3 200.762 44.1679 0 -0.0309339 -0.000287171 0 
20152 1 201.709 44.1679 0 0.153466 -0.000291994 0 
20252 1 202.681 44.1679 0 -0.578245 -0.000269511 0 
20352 1 203.663 44.1679 0 0.482637 -0.000389871 0 
20452 1 204.652 44.1679 0 -0.0459359 -0.000255419 0 
20552 1 205.641 44.1679 0 1.09788 -0.000224436 0 
20652 1 206.636 44.1679 0 -1.42071 -0.000272564 0 
20752 1 207.626 44.1679 0 2.35697 -0.000277504 0 
20852 1 208.623 44.1679 0 -0.377788 -0.000285194 0 
20952 1 209.618 44.1679 0 0.0309366 -0.000281097 0 
21052 1 210.612 44.1679 0 1.92104 -0.000289382 0 
21152 1 211.61 44.1679 0 -0.834314 -0.000288409 0 
21252 1 212.605 44.1679 0 1.07538 -0.000274492 0 
21352 1 213.603 44.1679 0 -0.228789 -0.000297452 0 
21452 1 214.599 44.1679 0 0.0745866 -0.000279778 0 
21552 1 215.598 44.1679 0 -0.678144 -0.000271463 0 
21652 1 216.595 44.1679 0 -0.738026 -0.000284271 0 
21752 1 217.591 44.1679 0 -0.118927 -0.00028156 0 
21852 1 218.589 44.1679 0 -0.920738 -0.000272252 0 
21952 1 219.585 44.1679 0 0.225938 -0.000268424 0 
22052 1 220.581 44.1679 0 0.729546 -0.000274587 0 
22152 1 221.579 44.1679 0 1.03814 -0.000277061 0 
22252 1 222.577 44.1679 0 -0.0303907 -0.000264034 0 
22352 1 223.576 44.1679 0 -1.10831 -0.000270461 0 
22452 1 224.573 44.1679 0 -0.112171 -0.000266389 0 
22552 1 225.57 44.1679 0 0.114804 -0.000270225 0 
22652 1 226.567 44.1679 0 0.155801 -0.000270717 0 
22752 1 227.564 44.1679 0 0.329557 -0.000263652 0 
22852 1 228.563 44.1679 0 -0.434457 -0.000265906 0 
22952 1 229.56 44.1679 0 -0.195852 -0.000267217 0 
23052 1 230.556 44.1679 0 0.360237 -0.00026763 0 
23152 1 231.553 44.1679 0 -0.214649 -0.000269392 0 
23252 1 232.55 44.1679 0 -0.196658 -0.000268256 0 
23352 1 233.547 44.1679 0 0.333689 -0.000267373 0 
23452 1 234.545 44.1679 0 -0.0422802 -0.000269798 0 
23552 1 235.542 44.1679 0 -0.308489 -0.000271631 0 
23652 1 236.539 44.1679 0 0.182746 -0.000270894 0 
23752 1 237.537 44.1679 0 0.223136 -0.000270944 0 
23852 1 238.535 44.1679 0 -0.26212 -0.000273505 0 
23952 1 239.533 44.1679 0 -0.196704 -0.000275658 0 
24052 1 240.53 44.1679 0 0.263838 -0.000275125 0 
24152 1 241.528 44.1679 0 0.21038 -0.00027384 0 
24252 1 242.527 44.1679 0 -0.241571 -0.000274887 0 
24352 1 243.526 44.1679 0 -0.319343 -0.00027809 0 
24452 1 244.523 44.1679 0 0.0670602 -0.000280607 0 
24552 1 245.521 44.1679 0 0.340515 -0.000280614 0 
24652 1 246.519 44.1679 0 0.169342 -0.000278926 0 
24752 1 247.519 44.1679 0 -0.207568 -0.000277633 0 
24852 1 248.517 44.1679 0 -0.40492 -0.000277959 0 
24952 1 249.515 44.1679 0 -0.30586 -0.000279615 0 
25052 1 250.511 44.1679 0 -0.0568445 -0.000281621 0 
25152 1 251.508 44.1679 0 0.15499 -0.00028322 0 
25252 1 252.505 44.1679 0 0.245511 -0.000284171 0 
25352 1 253.503 44.1679 0 0.232108 -0.00028459 0 
25452 1 254.501 44.1679 0 0.170262 -0.000284701 0 
25552 1 255.501 44.1679 0 0.104912 -0.000284687 0 
25652 1 256.5 44.1679 0 0.056385 -0.000284645 0 
25752 1 257.5 44.1679 0 0.0270232 -0.00028461 0 
25852 1 258.5 44.1679 0 0.0117198 -0.000284591 0 
25952 1 259.5 44.1679 0 0.0046485 -0.000284581 0 
26052 1 260.5 44.1679 0 0.00169981 -0.000284577 0 
26152 1 261.5 44.1679 0 0.000576693 -0.000284575 0 
26252 1 262.5 44.1679 0 0.000182473 -0.000284574 0 
26352 1 263.5 44.1679 0 5.40797e-05 -0.000284574 0 
26452 1 264.5 44.1679 0 1.50681e-05 -0.000284574 0 
26552 1 265.5 44.1679 0 3.95954e-06 -0.000284574 0 
26652 1 266.5 44.1679 0 9.84009e-07 -0.000284574 0 
26752 1 267.5 44.1679 0 2.31817e-07 -0.000284574 0 
26852 1 268.5 44.1679 0 5.18936e-08 -0.000284574 0 
26952 1 269.5 44.1679 0 1.10777e-08 -0.000284574 0 
27052 1 270.5 44.1679 0 2.25396e-09 -0.000284574 0 
27152 1 271.5 44.1679 0 4.79797e-10 -0.000284574 0 
27252 1 272.5 44.1679 0 4.51654e-11 -0.000284574 0 
27352 1 273.5 44.1679 0 -8.6569e-19 -0.000284574 0 
27452 1 274.5 44.1679 0 -8.65326e-19 -0.000284574 0 
27552 1 275.5 44.1679 0 -8.6569e-19 -0.000284574 0 
27652 1 276.5 44.1679 0 -8.6569e-19 -0.000284574 0 
27752 1 277.5 44.1679 0 -8.6569e-19 -0.000284574 0 
27852 1 278.5 44.1679 0 -8.6569e-19 -0.000284574 0 
27952 1 279.5 44.1679 0 -8.6569e-19 -0.000284574 0 
28052 1 280.5 44.1679 0 -8.6569e-19 -0.000284574 0 
28152 1 281.5 44.1679 0 -8.6569e-19 -0.000284574 0 
28252 1 282.5 44.1679 0 -8.65326e-19 -0.000284574 0 
28352 1 283.5 44.1679 0 -8.65326e-19 -0.000284574 0 
28452 1 284.5 44.1679 0 -8.6569e-19 -0.000284574 0 
28552 1 285.5 44.1679 0 -8.6569e-19 -0.000284574 0 
28652 1 286.5 44.1679 0 -8.65326e-19 -0.000284574 0 
28752 1 287.5 44.1679 0 -8.6569e-19 -0.000284574 0 
28852 1 288.5 44.1679 0 -8.65326e-19 -0.000284574 0 
28952 1 289.5 44.1679 0 -8.65326e-19 -0.000284574 0 
29052 1 290.5 44.1679 0 -8.65326e-19 -0.000284574 0 
29152 1 291.5 44.1679 0 -8.6569e-19 -0.000284574 0 
29252 1 292.5 44.1679 0 -8.65326e-19 -0.000284574 0 
29352 1 293.5 44.1679 0 -8.6569e-19 -0.000284574 0 
29452 1 294.5 44.1679 0 -8.65326e-19 -0.000284574 0 
29552 1 295.5 44.1679 0 -8.65326e-19 -0.000284574 0 
29652 1 296.5 44.1679 0 -8.6569e-19 -0.000284574 0 
29752 1 297.5 44.1679 0 -8.6569e-19 -0.000284574 0 
29852 1 298.5 44.1679 0 -8.6569e-19 -0.000284574 0 
29952 1 299.5 44.1679 0 -8.6569e-19 -0.000284574 0 
30052 1 300.5 44.1679 0 -8.6569e-19 -0.000284574 0 
30152 1 301.5 44.1679 0 -8.65326e-19 -0.000284574 0 
30252 1 302.5 44.1679 0 -8.6569e-19 -0.000284574 0 
30352 1 303.5 44.1679 0 -8.6569e-19 -0.000284574 0 
30452 1 304.5 44.1679 0 -8.6569e-19 -0.000284574 0 
30552 1 305.5 44.1679 0 -8.6569e-19 -0.000284574 0 
30652 1 306.5 44.1679 0 -8.65326e-19 -0.000284574 0 
30752 1 307.5 44.1679 0 -8.65326e-19 -0.000284574 0 
30852 1 308.5 44.1679 0 -8.6569e-19 -0.000284574 0 
30952 1 309.5 44.1679 0 -8.6569e-19 -0.000284574 0 
31052 1 310.5 44.1679 0 -8.6569e-19 -0.000284574 0 
31152 1 311.5 44.1679 0 -8.65326e-19 -0.000284574 0 
31252 1 312.5 44.1679 0 -8.65326e-19 -0.000284574 0 
31352 1 313.5 44.1679 0 -8.6569e-19 -0.000284574 0 
31452 1 314.5 44.1679 0 -8.6569e-19 -0.000284574 0 
31552 1 315.5 44.1679 0 -8.65326e-19 -0.000284574 0 
31652 1 316.5 44.1679 0 -8.6569e-19 -0.000284574 0 
31752 1 317.5 44.1679 0 -8.65326e-19 -0.000284574 0 
31852 1 318.5 44.1679 0 -8.65326e-19 -0.000284574 0 
31952 1 319.5 44.1679 0 -8.65326e-19 -0.000284574 0 
32052 1 320.5 44.1679 0 -8.6569e-19 -0.000284574 0 
32152 1 321.5 44.1679 0 -8.6569e-19 -0.000284574 0 
32252 1 322.5 44.1679 0 -8.65326e-19 -0.000284574 0 
32352 1 323.5 44.1679 0 -8.6569e-19 -0.000284574 0 
32452 1 324.5 44.1679 0 -8.65326e-19 -0.000284574 0 
32552 1 325.5 44.1679 0 -8.65326e-19 -0.000284574 0 
32652 1 326.5 44.1679 0 -8.65326e-19 -0.000284574 0 
32752 1 327.5 44.1679 0 -8.65326e-19 -0.000284574 0 
32852 1 328.5 44.1679 0 -8.6569e-19 -0.000284574 0 
32952 1 329.5 44.1679 0 -8.65326e-19 -0.000284574 0 
33052 1 330.5 44.1679 0 -8.6569e-19 -0.000284574 0 
33152 1 331.5 44.1679 0 -8.6569e-19 -0.000284574 0 
33252 1 332.5 44.1679 0 -8.65326e-19 -0.000284574 0 
33352 1 333.5 44.1679 0 -8.65326e-19 -0.000284574 0 
33452 1 334.5 44.1679 0 -8.65326e-19 -0.000284574 0 
33552 1 335.5 44.1679 0 -8.6569e-19 -0.000284574 0 
33652 1 336.5 44.1679 0 -8.6569e-19 -0.000284574 0 
33752 1 337.5 44.1679 0 -8.65326e-19 -0.000284574 0 
33852 1 338.5 44.1679 0 -8.65326e-19 -0.000284574 0 
33952 1 339.5 44.1679 0 2.11885e-10 -0.000284574 0 
34052 1 340.5 44.1679 0 5.50237e-10 -0.000284574 0 
34152 1 341.5 44.1679 0 1.32092e-09 -0.000284575 0 
34252 1 342.5 44.1679 0 3.50845e-09 -0.000284576 0 
34352 1 343.5 44.1679 0 8.482e-09 -0.000284578 0 
34452 1 344.5 44.1679 0 1.8209e-08 -0.000284584 0 
34552 1 345.5 44.1679 0 3.39741e-08 -0.000284596 0 
34652 1 346.5 44.1679 0 5.32e-08 -0.000284615 0 
34752 1 347.5 44.1679 0 6.02672e-08 -0.000284638 0 
34852 1 348.5 44.1679 0 1.46658e-08 -0.000284653 0 
34952 1 349.5 44.1679 0 -1.61392e-07 -0.000284633 0 
35052 1 350.5 44.1679 0 -5.46453e-07 -0.000284568 0 
35152 1 351.5 44.1679 0 -1.0737e-06 -0.000284503 0 
35252 1 352.5 44.1679 0 -1.27654e-06 -0.000284554 0 
35352 1 353.5 44.1679 0 -2.6434e-07 -0.000284784 0 
35452 1 354.5 44.1679 0 2.34933e-06 -0.000284992 0 
35552 1 355.5 44.1679 0 4.51647e-06 -0.000284823 0 
35652 1 356.5 44.1679 0 1.38381e-06 -0.00028468 0 
35752 1 357.5 44.1679 0 -9.50793e-06 -0.000286622 0 
35852 1 358.5 44.1679 0 -2.04994e-05 -0.000292981 0 
35952 1 359.5 44.1679 0 -1.89242e-05 -0.000302942 0 
36052 1 360.5 44.1679 0 -1.08363e-05 -0.000313321 0 
36152 1 361.5 44.1679 0 -2.78246e-05 -0.00032696 0 
36252 1 362.5 44.1679 0 -8.16733e-05 -0.000355272 0 
36352 1 363.5 44.1679 0 -0.000131976 -0.000402661 0 
36452 1 364.5 44.1679 0 -0.000158687 -0.000459117 0 
36552 1 365.5 44.1679 0 -0.000219256 -0.000525608 0 
36652 1 366.5 44.1679 0 -0.000322226 -0.00061602 0 
36752 1 367.5 44.1678 0 -0.000371061 -0.000704732 0 
36852 1 368.5 44.1678 0 -0.000387262 -0.000746047 0 
36952 1 369.5 44.1678 0 -0.000475502 -0.000767412 0 
37052 1 370.5 44.1678 0 -0.00050033 -0.000794248 0 
37152 1 371.5 44.1678 0 -0.000390004 -0.000741952 0 
37252 1 372.5 44.1678 0 -0.000382949 -0.000599793 0 
37352 1 373.5 44.1678 0 -0.000362509 -0.000470453 0 
37452 1 374.5 44.1678 0 -0.000163384 -0.000327746 0 
37552 1 375.5 44.1678 0 -0.000160241 -0.000157619 0 
37652 1 376.5 44.1678 0 -0.000148785 -6.9593e-05 0 
37752 1 377.5 44.1678 0 4.81918e-05 -4.95932e-05 0 
37852 1 378.5 44.1678 0 -0.000104863 8.03066e-06 0 
37952 1 379.5 44.1678 0 -0.000114499 -9.76625e-05 0 
38052 1 380.5 44.1678 0 -5.09274e-05 -0.000164815 0 
38152 1 381.5 44.1678 0 -0.000248394 -0.000248717 0 
38252 1 382.5 44.1677 0 -0.000229203 -0.000384245 0 
38352 1 383.5 44.1677 0 -0.000248767 -0.000424687 0 
38452 1 384.5 44.1677 0 -0.000345195 -0.000460456 0 
38552 1 385.5 44.1677 0 -0.000208895 -0.000445803 0 
38652 1 386.5 44.1677 0 -0.000225347 -0.000375808 0 
38752 1 387.5 44.1677 0 -9.52757e-05 -0.000302668 0 
38852 1 388.5 44.1677 0 -1.47141e-05 -0.000178848 0 
38952 1 389.5 44.1676 0 0.000282356 -0.000276938 0 
39052 1 390.5 44.1676 0 0.000448563 -0.000524228 0 
39152 1 391.5 44.1676 0 0.000840004 -0.000742027 0 
39252 1 392.5 44.1676 0 0.000832365 -0.000929226 0 
39352 1 393.5 44.1675 0 0.000482076 -0.000117845 0 
39452 1 394.5 44.1675 0 7.50255e-05 0.000593783 0 
39552 1 395.5 44.1674 0 -5.3974e-06 0.000583244 0 
39652 1 396.5 44.1674 0 0.000391001 -0.000144812 0 
39752 1 397.5 44.1673 0 0.00020427 -0.000143677 0 
39852 2 398.5 44.1673 0 -0.00430562 -0.000397226 0 
39952 2 399.5 44.1673 0 -2.20719e-05 -0.000198667 0 
