ITEM: TIMESTEP
1920
ITEM: NUMBER OF ATOMS
400
ITEM: BOX BOUNDS ff pp pp
0.0000000000000000e+00 4.0000000000000000e+02
0.0000000000000000e+00 8.6602540000000005e+01
0.0000000000000000e+00 1.0000000000000000e+00
ITEM: ATOMS id type x y z fx fy fz 
52 2 0.5 44.1673 0 0 -0.000397333 0 
152 2 1.5 44.1673 0 0.00488508 -0.000397183 0 
252 1 2.50002 44.1673 0 1.91938e-05 -5.00843e-07 0 
352 1 3.50004 44.1674 0 -3.70066e-05 0.000189634 0 
452 1 4.50006 44.1675 0 3.83053e-05 0.000186753 0 
552 1 5.50009 44.1675 0 -0.000142306 -0.000277085 0 
652 1 6.50011 44.1676 0 9.07946e-05 0.000248845 0 
752 1 7.50013 44.1676 0 9.11851e-05 9.40838e-05 0 
852 1 8.50015 44.1677 0 -0.000398548 -6.90859e-05 0 
952 1 9.50017 44.1678 0 -0.000186231 0.000151666 0 
1052 1 10.5002 44.1678 0 0.000100538 0.000864632 0 
1152 1 11.5002 44.1679 0 6.20574e-05 0.000597266 0 
1252 1 12.5002 44.1679 0 -0.000517614 -0.000196955 0 
1352 1 13.5002 44.168 0 -0.000830505 -0.00085686 0 
1452 1 14.5002 44.168 0 -0.000879861 -0.00108187 0 
1552 1 15.5002 44.1681 0 -0.000723768 -0.000927518 0 
1652 1 16.5002 44.1681 0 -0.000370306 -0.000540726 0 
1752 1 17.5002 44.1681 0 -0.000226816 -0.000229223 0 
1852 1 18.5002 44.1681 0 4.52981e-05 4.19108e-05 0 
1952 1 19.5002 44.1682 0 -3.5565e-05 0.0002767 0 
2052 1 20.5002 44.1682 0 8.13079e-05 0.000326193 0 
2152 1 21.5002 44.1682 0 4.56219e-05 0.000404871 0 
2252 1 22.5002 44.1682 0 4.54366e-06 0.000250274 0 
2352 1 23.5002 44.1682 0 0.000233257 0.000253797 0 
2452 1 24.5002 44.1682 0 9.90415e-05 0.00015938 0 
2552 1 25.5001 44.1682 0 0.000157917 0.000138668 0 
2652 1 26.5001 44.1683 0 0.00025066 0.000183648 0 
2752 1 27.5001 44.1683 0 1.18202e-05 0.000235288 0 
2852 1 28.5001 44.1683 0 8.5425e-05 0.000290254 0 
2952 1 29.5001 44.1683 0 0.000114221 0.000339261 0 
3052 1 30.5001 44.1683 0 -1.21217e-05 0.000284691 0 
3152 1 31.5001 44.1683 0 0.000120791 0.000205033 0 
3252 1 32.5001 44.1683 0 0.000213172 0.000183909 0 
3352 1 33.5001 44.1683 0 0.000158721 0.000123739 0 
3452 1 34.5001 44.1683 0 0.000199582 7.02565e-05 0 
3552 1 35.5001 44.1683 0 0.000193701 0.000123744 0 
3652 1 36.5 44.1683 0 7.82682e-05 0.000211771 0 
3752 1 37.5 44.1684 0 3.91864e-05 0.0002563 0 
3852 1 38.5 44.1684 0 5.95391e-05 0.000265065 0 
3952 1 39.5 44.1684 0 6.21809e-05 0.000233441 0 
4052 1 40.5 44.1684 0 0.000120521 0.000151167 0 
4152 1 41.5 44.1684 0 0.000241749 4.66683e-05 0 
4252 1 42.5 44.1684 0 0.000323927 -4.62349e-05 0 
4352 1 43.5 44.1684 0 0.000344189 -0.000111767 0 
4452 1 44.5 44.1684 0 0.000353127 -0.000138198 0 
4552 1 45.5 44.1684 0 0.00035205 -0.000120512 0 
4652 1 46.5 44.1684 0 0.000306778 -7.24492e-05 0 
4752 1 47.5 44.1684 0 0.000224198 -1.68886e-05 0 
4852 1 48.5 44.1684 0 0.000145656 3.17527e-05 0 
4952 1 49.5 44.1684 0 9.4755e-05 7.04091e-05 0 
5052 1 50.5 44.1684 0 6.48091e-05 0.000100012 0 
5152 1 51.5 44.1684 0 4.23249e-05 0.000121147 0 
5252 1 52.5 44.1684 0 2.31591e-05 0.000134602 0 
5352 1 53.5 44.1684 0 9.57717e-06 0.000142196 0 
5452 1 54.5 44.1684 0 2.72184e-06 0.000146124 0 
5552 1 55.5 44.1684 0 6.7689e-07 0.000148063 0 
5652 1 56.5 44.1684 0 6.38139e-07 0.000148965 0 
5752 1 57.5 44.1684 0 8.30348e-07 0.000149322 0 
5852 1 58.5 44.1684 0 7.34954e-07 0.000149414 0 
5952 1 59.5 44.1684 0 4.61379e-07 0.000149411 0 
6052 1 60.5 44.1684 0 2.03987e-07 0.000149397 0 
6152 1 61.5 44.1684 0 4.70034e-08 0.000149398 0 
6252 1 62.5 44.1684 0 -1.86254e-08 0.000149411 0 
6352 1 63.5 44.1684 0 -3.17901e-08 0.000149428 0 
6452 1 64.5 44.1684 0 -2.50209e-08 0.000149441 0 
6552 1 65.5 44.1684 0 -1.50864e-08 0.000149449 0 
6652 1 66.5 44.1684 0 -7.75588e-09 0.000149454 0 
6752 1 67.5 44.1684 0 -3.50004e-09 0.000149456 0 
6852 1 68.5 44.1684 0 -1.45856e-09 0.000149457 0 
6952 1 69.5 44.1684 0 -5.38419e-10 0.000149457 0 
7052 1 70.5 44.1684 0 -1.94975e-10 0.000149457 0 
7152 1 71.5 44.1684 0 -8.50379e-11 0.000149457 0 
7252 1 72.5 44.1684 0 -1.76418e-11 0.000149457 0 
7352 1 73.5 44.1684 0 -8.6475e-19 0.000149457 0 
7452 1 74.5 44.1684 0 -8.6521e-19 0.000149457 0 
7552 1 75.5 44.1684 0 -8.6475e-19 0.000149457 0 
7652 1 76.5 44.1684 0 -8.6475e-19 0.000149457 0 
7752 1 77.5 44.1684 0 -8.6521e-19 0.000149457 0 
7852 1 78.5 44.1684 0 -8.6521e-19 0.000149457 0 
7952 1 79.5 44.1684 0 -8.6521e-19 0.000149457 0 
8052 1 80.5 44.1684 0 -8.6521e-19 0.000149457 0 
8152 1 81.5 44.1684 0 -8.6475e-19 0.000149457 0 
8252 1 82.5 44.1684 0 -8.6475e-19 0.000149457 0 
8352 1 83.5 44.1684 0 -8.6521e-19 0.000149457 0 
8452 1 84.5 44.1684 0 -8.6521e-19 0.000149457 0 
8552 1 85.5 44.1684 0 -8.6475e-19 0.000149457 0 
8652 1 86.5 44.1684 0 -8.6475e-19 0.000149457 0 
8752 1 87.5 44.1684 0 -8.6521e-19 0.000149457 0 
8852 1 88.5 44.1684 0 -8.6475e-19 0.000149457 0 
8952 1 89.5 44.1684 0 -8.6475e-19 0.000149457 0 
9052 1 90.5 44.1684 0 -8.6521e-19 0.000149457 0 
9152 1 91.5 44.1684 0 -8.6521e-19 0.000149457 0 
9252 1 92.5 44.1684 0 -8.6521e-19 0.000149457 0 
9352 1 93.5 44.1684 0 -8.6475e-19 0.000149457 0 
9452 1 94.5 44.1684 0 -8.6521e-19 0.000149457 0 
9552 1 95.5 44.1684 0 -8.6475e-19 0.000149457 0 
9652 1 96.5 44.1684 0 -8.6521e-19 0.000149457 0 
9752 1 97.5 44.1684 0 -8.6475e-19 0.000149457 0 
9852 1 98.5 44.1684 0 -8.6521e-19 0.000149457 0 
9952 1 99.5 44.1684 0 -8.6521e-19 0.000149457 0 
10052 1 100.5 44.1684 0 -8.6521e-19 0.000149457 0 
10152 1 101.5 44.1684 0 -8.6475e-19 0.000149457 0 
10252 1 102.5 44.1684 0 -8.6475e-19 0.000149457 0 
10352 1 103.5 44.1684 0 -8.6475e-19 0.000149457 0 
10452 1 104.5 44.1684 0 -8.6475e-19 0.000149457 0 
10552 1 105.5 44.1684 0 -8.6521e-19 0.000149457 0 
10652 1 106.5 44.1684 0 -8.6521e-19 0.000149457 0 
10752 1 107.5 44.1684 0 -8.6475e-19 0.000149457 0 
10852 1 108.5 44.1684 0 -8.6521e-19 0.000149457 0 
10952 1 109.5 44.1684 0 -8.6521e-19 0.000149457 0 
11052 1 110.5 44.1684 0 -8.6521e-19 0.000149457 0 
11152 1 111.5 44.1684 0 -8.6521e-19 0.000149457 0 
11252 1 112.5 44.1684 0 -8.6521e-19 0.000149457 0 
11352 1 113.5 44.1684 0 -8.6521e-19 0.000149457 0 
11452 1 114.5 44.1684 0 -8.6521e-19 0.000149457 0 
11552 1 115.5 44.1684 0 -8.6475e-19 0.000149457 0 
11652 1 116.5 44.1684 0 -8.6521e-19 0.000149457 0 
11752 1 117.5 44.1684 0 1.88163e-11 0.000149457 0 
11852 1 118.5 44.1684 0 1.52319e-10 0.000149457 0 
11952 1 119.5 44.1684 0 7.0261e-10 0.000149458 0 
12052 1 120.5 44.1684 0 3.31603e-09 0.000149457 0 
12152 1 121.5 44.1684 0 1.49808e-08 0.000149457 0 
12252 1 122.5 44.1684 0 6.46328e-08 0.000149457 0 
12352 1 123.5 44.1684 0 2.66724e-07 0.000149458 0 
12452 1 124.5 44.1684 0 1.05149e-06 0.000149458 0 
12552 1 125.5 44.1684 0 3.94919e-06 0.000149458 0 
12652 1 126.5 44.1684 0 1.41044e-05 0.000149458 0 
12752 1 127.5 44.1684 0 4.77892e-05 0.000149458 0 
12852 1 128.5 44.1684 0 0.0001532 0.000149458 0 
12952 1 129.5 44.1684 0 0.000463248 0.000149458 0 
13052 1 130.5 44.1684 0 0.00131655 0.000149459 0 
13152 1 131.5 44.1684 0 0.00350173 0.000149461 0 
13252 1 132.5 44.1684 0 0.00867204 0.000149467 0 
13352 1 133.5 44.1684 0 0.019869 0.000149481 0 
13452 1 134.5 44.1684 0 0.0417706 0.00014951 0 
13552 1 135.5 44.1684 0 0.0796846 0.000149564 0 
13652 1 136.501 44.1684 0 0.13575 0.000149655 0 
13752 1 137.502 44.1684 0 0.201375 0.000149786 0 
13852 1 138.504 44.1684 0 0.248456 0.00014994 0 
13952 1 139.506 44.1684 0 0.228894 0.000150066 0 
14052 1 140.51 44.1684 0 0.0972538 0.000150086 0 
14152 1 141.513 44.1684 0 -0.138675 0.00014994 0 
14252 1 142.517 44.1684 0 -0.370803 0.000149654 0 
14352 1 143.519 44.1684 0 -0.417961 0.000149364 0 
14452 1 144.52 44.1684 0 -0.172703 0.000149224 0 
14552 1 145.52 44.1684 0 0.220802 0.000149235 0 
14652 1 146.521 44.1684 0 0.389857 0.000149239 0 
14752 1 147.524 44.1684 0 0.0992693 0.000149215 0 
14852 1 148.527 44.1684 0 -0.35193 0.000149617 0 
14952 1 149.529 44.1684 0 -0.356644 0.000150971 0 
15052 1 150.529 44.1684 0 0.152612 0.000152762 0 
15152 1 151.53 44.1684 0 0.422764 0.000153114 0 
15252 1 152.533 44.1684 0 -0.0319446 0.000150848 0 
15352 1 153.536 44.1684 0 -0.457856 0.000148299 0 
15452 1 154.537 44.1684 0 -0.0398796 0.000149316 0 
15552 1 155.538 44.1684 0 0.453133 0.000153297 0 
15652 1 156.541 44.1684 0 -0.000810308 0.000154686 0 
15752 1 157.543 44.1684 0 -0.465417 0.000151435 0 
15852 1 158.545 44.1684 0 0.107356 0.000149581 0 
15952 1 159.547 44.1684 0 0.411619 0.000152913 0 
16052 1 160.55 44.1684 0 -0.288703 0.000155359 0 
16152 1 161.553 44.1684 0 -0.249983 0.000152624 0 
16252 1 162.555 44.1684 0 0.419144 0.000152062 0 
16352 1 163.558 44.1684 0 -0.0742547 0.000157241 0 
16452 1 164.561 44.1684 0 -0.367603 0.000158894 0 
16552 1 165.564 44.1684 0 0.338032 0.000155441 0 
16652 1 166.567 44.1684 0 -0.0849241 0.000154413 0 
16752 1 167.57 44.1684 0 -0.403242 0.000152846 0 
16852 1 168.571 44.1684 0 0.40608 0.000155053 0 
16952 1 169.574 44.1684 0 -0.163158 0.000164173 0 
17052 1 170.577 44.1684 0 -0.371589 0.000153587 0 
17152 1 171.578 44.1684 0 0.651352 0.000152519 0 
17252 1 172.58 44.1684 0 0.126308 0.000166794 0 
17352 1 173.583 44.1684 0 -0.417708 0.000155787 0 
17452 1 174.586 44.1684 0 -0.769208 0.000152286 0 
17552 1 175.587 44.1684 0 -0.340291 0.000155909 0 
17652 1 176.588 44.1684 0 1.43441 0.000169021 0 
17752 1 177.592 44.1684 0 0.307714 0.000150774 0 
17852 1 178.594 44.1684 0 -0.0721637 0.000163591 0 
17952 1 179.597 44.1684 0 -0.118164 0.000157349 0 
18052 1 180.6 44.1684 0 -0.779395 0.00015569 0 
18152 1 181.602 44.1684 0 0.0366721 0.000169826 0 
18252 1 182.606 44.1684 0 -1.10915 0.000148036 0 
18352 1 183.607 44.1684 0 0.454382 0.000154178 0 
18452 1 184.609 44.1684 0 0.169557 0.000168149 0 
18552 1 185.613 44.1684 0 -0.364551 0.000137592 0 
18652 1 186.614 44.1684 0 1.22068 0.000157106 0 
18752 1 187.619 44.1684 0 0.286755 0.000171345 0 
18852 1 188.622 44.1684 0 -0.409503 0.000127247 0 
18952 1 189.625 44.1684 0 1.28951 0.000135877 0 
19052 1 190.63 44.1684 0 0.0906353 0.000170242 0 
19152 1 191.635 44.1684 0 -0.971417 0.000182567 0 
19252 1 192.639 44.1684 0 1.38628 0.000137396 0 
19352 1 193.646 44.1684 0 -1.14979 0.000166944 0 
19452 1 194.651 44.1684 0 0.730671 0.000195814 0 
19552 1 195.66 44.1684 0 -1.31282 0.000143445 0 
19652 1 196.668 44.1684 0 1.07081 0.000101265 0 
19752 1 197.681 44.1684 0 -1.24291 0.000138009 0 
19852 1 198.697 44.1684 0 0.6114 0.000111166 0 
19952 1 199.725 44.1684 0 -0.916059 0.000247484 0 
20052 3 200.777 44.1684 0 0.712852 0.000128801 0 
20152 1 201.725 44.1684 0 -0.569577 4.72021e-05 0 
20252 1 202.696 44.1684 0 0.379844 0.000217079 0 
20352 1 203.679 44.1684 0 -0.347557 0.000153019 0 
20452 1 204.667 44.1684 0 0.899486 0.000187239 0 
20552 1 205.658 44.1684 0 -0.0935575 0.000135509 0 
20652 1 206.651 44.1684 0 0.365801 8.08844e-05 0 
20752 1 207.644 44.1684 0 0.102066 0.000152182 0 
20852 1 208.638 44.1684 0 1.63385 0.000180653 0 
20952 1 209.634 44.1684 0 -0.859409 0.000110728 0 
21052 1 210.629 44.1684 0 1.1534 0.000120523 0 
21152 1 211.625 44.1684 0 0.831537 0.000173904 0 
21252 1 212.622 44.1684 0 -0.23291 0.000167573 0 
21352 1 213.618 44.1684 0 0.365516 0.000127913 0 
21452 1 214.615 44.1684 0 0.542879 0.000148045 0 
21552 1 215.614 44.1684 0 -0.884892 0.000164344 0 
21652 1 216.61 44.1684 0 -0.109314 0.000137937 0 
21752 1 217.608 44.1684 0 -0.348362 0.000140885 0 
21852 1 218.606 44.1684 0 -1.13324 0.000154673 0 
21952 1 219.601 44.1684 0 0.0498124 0.000130505 0 
22052 1 220.599 44.1684 0 -0.393253 0.000141416 0 
22152 1 221.596 44.1684 0 0.455441 0.00014747 0 
22252 1 222.593 44.1684 0 0.429344 0.000135555 0 
22352 1 223.591 44.1684 0 0.705007 0.000144929 0 
22452 1 224.588 44.1684 0 0.775281 0.000135731 0 
22552 1 225.588 44.1684 0 -1.18549 0.000147265 0 
22652 1 226.586 44.1684 0 -0.868051 0.000145596 0 
22752 1 227.582 44.1684 0 0.140614 0.000142592 0 
22852 1 228.579 44.1684 0 0.496736 0.000132119 0 
22952 1 229.578 44.1684 0 0.419945 0.000150072 0 
23052 1 230.576 44.1684 0 -0.479883 0.000143818 0 
23152 1 231.573 44.1684 0 -0.129878 0.000135495 0 
23252 1 232.571 44.1684 0 0.326356 0.000146467 0 
23352 1 233.569 44.1684 0 -0.339224 0.000146686 0 
23452 1 234.566 44.1684 0 -0.0426806 0.000143119 0 
23552 1 235.563 44.1684 0 0.275693 0.000142891 0 
23652 1 236.561 44.1684 0 -0.317018 0.000141232 0 
23752 1 237.558 44.1684 0 -0.0803978 0.000142694 0 
23852 1 238.554 44.1684 0 0.340556 0.000146395 0 
23952 1 239.552 44.1684 0 -0.162301 0.000146162 0 
24052 1 240.55 44.1684 0 -0.230202 0.000144617 0 
24152 1 241.547 44.1684 0 0.273531 0.000146517 0 
24252 1 242.545 44.1684 0 0.0763589 0.000148555 0 
24352 1 243.543 44.1684 0 -0.312759 0.000146867 0 
24452 1 244.54 44.1684 0 0.0154472 0.000144832 0 
24552 1 245.538 44.1684 0 0.300356 0.000146431 0 
24652 1 246.536 44.1684 0 -0.0683714 0.000149522 0 
24752 1 247.535 44.1684 0 -0.319405 0.0001499 0 
24852 1 248.532 44.1684 0 0.028611 0.00014767 0 
24952 1 249.53 44.1684 0 0.318918 0.000146019 0 
25052 1 250.529 44.1684 0 0.0558631 0.000146566 0 
25152 1 251.528 44.1684 0 -0.31666 0.000148212 0 
25252 1 252.526 44.1684 0 -0.246253 0.000149355 0 
25352 1 253.523 44.1684 0 0.135588 0.000149662 0 
25452 1 254.521 44.1684 0 0.329735 0.000149644 0 
25552 1 255.52 44.1684 0 0.13851 0.000149649 0 
25652 1 256.52 44.1684 0 -0.205153 0.00014963 0 
25752 1 257.518 44.1684 0 -0.387506 0.000149467 0 
25852 1 258.516 44.1684 0 -0.311486 0.000149197 0 
25952 1 259.513 44.1684 0 -0.0908033 0.000148958 0 
26052 1 260.509 44.1684 0 0.115899 0.000148854 0 
26152 1 261.506 44.1684 0 0.223509 0.000148891 0 
26252 1 262.503 44.1684 0 0.232575 0.000149015 0 
26352 1 263.502 44.1684 0 0.185404 0.000149158 0 
26452 1 264.501 44.1684 0 0.124081 0.000149278 0 
26552 1 265.5 44.1684 0 0.0726198 0.000149361 0 
26652 1 266.5 44.1684 0 0.0380368 0.00014941 0 
26752 1 267.5 44.1684 0 0.0180993 0.000149436 0 
26852 1 268.5 44.1684 0 0.00790754 0.000149449 0 
26952 1 269.5 44.1684 0 0.00319744 0.000149454 0 
27052 1 270.5 44.1684 0 0.00120408 0.000149456 0 
27152 1 271.5 44.1684 0 0.000424424 0.000149457 0 
27252 1 272.5 44.1684 0 0.000140621 0.000149457 0 
27352 1 273.5 44.1684 0 4.39492e-05 0.000149457 0 
27452 1 274.5 44.1684 0 1.29965e-05 0.000149458 0 
27552 1 275.5 44.1684 0 3.64584e-06 0.000149458 0 
27652 1 276.5 44.1684 0 9.72612e-07 0.000149457 0 
27752 1 277.5 44.1684 0 2.47262e-07 0.000149458 0 
27852 1 278.5 44.1684 0 6.00074e-08 0.000149457 0 
27952 1 279.5 44.1684 0 1.39137e-08 0.000149457 0 
28052 1 280.5 44.1684 0 3.10084e-09 0.000149458 0 
28152 1 281.5 44.1684 0 7.4758e-10 0.000149458 0 
28252 1 282.5 44.1684 0 9.03122e-11 0.000149457 0 
28352 1 283.5 44.1684 0 -8.6475e-19 0.000149457 0 
28452 1 284.5 44.1684 0 -8.6521e-19 0.000149457 0 
28552 1 285.5 44.1684 0 -8.6521e-19 0.000149457 0 
28652 1 286.5 44.1684 0 -8.6475e-19 0.000149457 0 
28752 1 287.5 44.1684 0 -8.6521e-19 0.000149457 0 
28852 1 288.5 44.1684 0 -8.6475e-19 0.000149457 0 
28952 1 289.5 44.1684 0 -8.6475e-19 0.000149457 0 
29052 1 290.5 44.1684 0 -8.6475e-19 0.000149457 0 
29152 1 291.5 44.1684 0 -8.6521e-19 0.000149457 0 
29252 1 292.5 44.1684 0 -8.6475e-19 0.000149457 0 
29352 1 293.5 44.1684 0 -8.6521e-19 0.000149457 0 
29452 1 294.5 44.1684 0 -8.6475e-19 0.000149457 0 
29552 1 295.5 44.1684 0 -8.6475e-19 0.000149457 0 
29652 1 296.5 44.1684 0 -8.6521e-19 0.000149457 0 
29752 1 297.5 44.1684 0 -8.6521e-19 0.000149457 0 
29852 1 298.5 44.1684 0 -8.6521e-19 0.000149457 0 
29952 1 299.5 44.1684 0 -8.6521e-19 0.000149457 0 
30052 1 300.5 44.1684 0 -8.6521e-19 0.000149457 0 
30152 1 301.5 44.1684 0 -8.6475e-19 0.000149457 0 
30252 1 302.5 44.1684 0 -8.6521e-19 0.000149457 0 
30352 1 303.5 44.1684 0 -8.6521e-19 0.000149457 0 
30452 1 304.5 44.1684 0 -8.6521e-19 0.000149457 0 
30552 1 305.5 44.1684 0 -8.6521e-19 0.000149457 0 
30652 1 306.5 44.1684 0 -8.6475e-19 0.000149457 0 
30752 1 307.5 44.1684 0 -8.6475e-19 0.000149457 0 
30852 1 308.5 44.1684 0 -8.6521e-19 0.000149457 0 
30952 1 309.5 44.1684 0 -8.6521e-19 0.000149457 0 
31052 1 310.5 44.1684 0 -8.6521e-19 0.000149457 0 
31152 1 311.5 44.1684 0 -8.6475e-19 0.000149457 0 
31252 1 312.5 44.1684 0 -8.6475e-19 0.000149457 0 
31352 1 313.5 44.1684 0 -8.6521e-19 0.000149457 0 
31452 1 314.5 44.1684 0 -8.6521e-19 0.000149457 0 
31552 1 315.5 44.1684 0 -8.6475e-19 0.000149457 0 
31652 1 316.5 44.1684 0 -8.6521e-19 0.000149457 0 
31752 1 317.5 44.1684 0 -8.6475e-19 0.000149457 0 
31852 1 318.5 44.1684 0 -8.6475e-19 0.000149457 0 
31952 1 319.5 44.1684 0 -8.6475e-19 0.000149457 0 
32052 1 320.5 44.1684 0 -8.6521e-19 0.000149457 0 
32152 1 321.5 44.1684 0 -8.6521e-19 0.000149457 0 
32252 1 322.5 44.1684 0 -8.6475e-19 0.000149457 0 
32352 1 323.5 44.1684 0 -8.6521e-19 0.000149457 0 
32452 1 324.5 44.1684 0 -8.6475e-19 0.000149457 0 
32552 1 325.5 44.1684 0 -8.6475e-19 0.000149457 0 
32652 1 326.5 44.1684 0 -8.6475e-19 0.000149457 0 
32752 1 327.5 44.1684 0 -8.6475e-19 0.000149457 0 
32852 1 328.5 44.1684 0 1.64654e-12 0.000149457 0 
32952 1 329.5 44.1684 0 3.20198e-10 0.000149457 0 
33052 1 330.5 44.1684 0 6.35135e-10 0.000149457 0 
33152 1 331.5 44.1684 0 1.39346e-09 0.000149457 0 
33252 1 332.5 44.1684 0 3.49267e-09 0.000149456 0 
33352 1 333.5 44.1684 0 7.68103e-09 0.000149454 0 
33452 1 334.5 44.1684 0 1.50968e-08 0.000149449 0 
33552 1 335.5 44.1684 0 2.51112e-08 0.000149441 0 
33652 1 336.5 44.1684 0 3.1784e-08 0.000149428 0 
33752 1 337.5 44.1684 0 1.84047e-08 0.000149411 0 
33852 1 338.5 44.1684 0 -4.69169e-08 0.000149398 0 
33952 1 339.5 44.1684 0 -2.03795e-07 0.000149397 0 
34052 1 340.5 44.1684 0 -4.61317e-07 0.000149411 0 
34152 1 341.5 44.1684 0 -7.34963e-07 0.000149415 0 
34252 1 342.5 44.1684 0 -8.30403e-07 0.000149322 0 
34352 1 343.5 44.1684 0 -6.38013e-07 0.000148965 0 
34452 1 344.5 44.1684 0 -6.76738e-07 0.000148063 0 
34552 1 345.5 44.1684 0 -2.72196e-06 0.000146124 0 
34652 1 346.5 44.1684 0 -9.57733e-06 0.000142196 0 
34752 1 347.5 44.1684 0 -2.31589e-05 0.000134602 0 
34852 1 348.5 44.1684 0 -4.23249e-05 0.000121146 0 
34952 1 349.5 44.1684 0 -6.4809e-05 0.000100012 0 
35052 1 350.5 44.1684 0 -9.47551e-05 7.04091e-05 0 
35152 1 351.5 44.1684 0 -0.000145656 3.17524e-05 0 
35252 1 352.5 44.1684 0 -0.000224198 -1.68884e-05 0 
35352 1 353.5 44.1684 0 -0.000306779 -7.24493e-05 0 
35452 1 354.5 44.1684 0 -0.00035205 -0.000120512 0 
35552 1 355.5 44.1684 0 -0.000353126 -0.000138198 0 
35652 1 356.5 44.1684 0 -0.000344189 -0.000111767 0 
35752 1 357.5 44.1684 0 -0.000323928 -4.6235e-05 0 
35852 1 358.5 44.1684 0 -0.000241749 4.66684e-05 0 
35952 1 359.5 44.1684 0 -0.000120521 0.000151167 0 
36052 1 360.5 44.1684 0 -6.21807e-05 0.00023344 0 
36152 1 361.5 44.1684 0 -5.9539e-05 0.000265066 0 
36252 1 362.5 44.1684 0 -3.91868e-05 0.0002563 0 
36352 1 363.5 44.1683 0 -7.82682e-05 0.000211771 0 
36452 1 364.5 44.1683 0 -0.0001937 0.000123743 0 
36552 1 365.5 44.1683 0 -0.000199583 7.02565e-05 0 
36652 1 366.5 44.1683 0 -0.00015872 0.000123739 0 
36752 1 367.5 44.1683 0 -0.000213172 0.000183909 0 
36852 1 368.5 44.1683 0 -0.000120791 0.000205033 0 
36952 1 369.5 44.1683 0 1.21217e-05 0.000284691 0 
37052 1 370.5 44.1683 0 -0.000114221 0.000339261 0 
37152 1 371.5 44.1683 0 -8.54255e-05 0.000290254 0 
37252 1 372.5 44.1683 0 -1.18197e-05 0.000235289 0 
37352 1 373.5 44.1683 0 -0.00025066 0.000183647 0 
37452 1 374.5 44.1682 0 -0.000157917 0.000138668 0 
37552 1 375.5 44.1682 0 -9.90417e-05 0.00015938 0 
37652 1 376.5 44.1682 0 -0.000233257 0.000253797 0 
37752 1 377.5 44.1682 0 -4.54357e-06 0.000250274 0 
37852 1 378.5 44.1682 0 -4.56221e-05 0.000404871 0 
37952 1 379.5 44.1682 0 -8.13082e-05 0.000326193 0 
38052 1 380.5 44.1682 0 3.55651e-05 0.0002767 0 
38152 1 381.5 44.1681 0 -4.52978e-05 4.19108e-05 0 
38252 1 382.5 44.1681 0 0.000226816 -0.000229223 0 
38352 1 383.5 44.1681 0 0.000370307 -0.000540726 0 
38452 1 384.5 44.1681 0 0.000723768 -0.000927519 0 
38552 1 385.5 44.168 0 0.000879861 -0.00108187 0 
38652 1 386.5 44.168 0 0.000830504 -0.00085686 0 
38752 1 387.5 44.1679 0 0.000517614 -0.000196955 0 
38852 1 388.5 44.1679 0 -6.20571e-05 0.000597266 0 
38952 1 389.5 44.1678 0 -0.000100539 0.000864631 0 
39052 1 390.5 44.1678 0 0.000186231 0.000151666 0 
39152 1 391.5 44.1677 0 0.000398547 -6.90862e-05 0 
39252 1 392.5 44.1676 0 -9.11848e-05 9.40837e-05 0 
39352 1 393.5 44.1676 0 -9.07952e-05 0.000248845 0 
39452 1 394.5 44.1675 0 0.000142306 -0.000277084 0 
39552 1 395.5 44.1675 0 -3.83056e-05 0.000186752 0 
39652 1 396.5 44.1674 0 3.7007e-05 0.000189635 0 
39752 1 397.5 44.1673 0 -1.9194e-05 -5.0022e-07 0 
39852 2 398.5 44.1673 0 -0.00488508 -0.000397183 0 
39952 2 399.5 44.1673 0 -2.20719e-05 -0.000198667 0 
