ITEM: TIMESTEP
1610
ITEM: NUMBER OF ATOMS
400
ITEM: BOX BOUNDS ff pp pp
0.0000000000000000e+00 4.0000000000000000e+02
0.0000000000000000e+00 8.6602540000000005e+01
0.0000000000000000e+00 1.0000000000000000e+00
ITEM: ATOMS id type x y z fx fy fz 
52 2 0.5 44.1673 0 0 -0.000397333 0 
152 2 1.5 44.1673 0 0.000445444 -0.000397333 0 
252 1 2.5 44.1673 0 0.000156583 0.000397311 0 
352 1 3.5 44.1673 0 0.000318264 0.00111511 0 
452 1 4.5 44.1673 0 0.000401981 0.00140702 0 
552 1 5.5 44.1673 0 0.000401674 0.00174784 0 
652 1 6.5 44.1673 0 0.000385425 0.00175461 0 
752 1 7.5 44.1673 0 0.000363744 0.00203736 0 
852 1 8.5 44.1673 0 0.000239086 0.00223196 0 
952 1 9.5 44.1673 0 0.00028773 0.00237382 0 
1052 1 10.5 44.1673 0 0.000198593 0.00258766 0 
1152 1 11.5 44.1673 0 0.000246287 0.00274072 0 
1252 1 12.5 44.1673 0 0.000125883 0.00284282 0 
1352 1 13.5 44.1673 0 0.000164693 0.00291766 0 
1452 1 14.5 44.1673 0 0.000165829 0.00299504 0 
1552 1 15.5 44.1673 0 -5.27879e-06 0.00308895 0 
1652 1 16.5 44.1673 0 0.000127202 0.00309097 0 
1752 1 17.5 44.1673 0 2.92994e-05 0.00321977 0 
1852 1 18.5 44.1673 0 -1.08959e-05 0.00316331 0 
1952 1 19.5 44.1673 0 9.43583e-05 0.0031973 0 
2052 1 20.5 44.1673 0 7.08585e-07 0.00327288 0 
2152 1 21.5 44.1673 0 -2.71238e-05 0.00325838 0 
2252 1 22.5 44.1673 0 4.62948e-05 0.00326212 0 
2352 1 23.5 44.1673 0 -8.23286e-06 0.00327071 0 
2452 1 24.5 44.1673 0 -3.04375e-05 0.00325367 0 
2552 1 25.5 44.1673 0 2.74826e-05 0.00326055 0 
2652 1 26.5 44.1673 0 1.6954e-05 0.00328189 0 
2752 1 27.5 44.1673 0 -2.06036e-05 0.00327803 0 
2852 1 28.5 44.1673 0 -1.84355e-06 0.00326656 0 
2952 1 29.5 44.1673 0 2.12577e-05 0.0032713 0 
3052 1 30.5 44.1673 0 5.30694e-06 0.00327975 0 
3152 1 31.5 44.1673 0 -1.4889e-05 0.00327817 0 
3252 1 32.5 44.1673 0 -1.18357e-05 0.00327233 0 
3352 1 33.5 44.1673 0 7.76556e-07 0.00327057 0 
3452 1 34.5 44.1673 0 5.92011e-06 0.00327239 0 
3552 1 35.5 44.1673 0 3.67473e-06 0.00327403 0 
3652 1 36.5 44.1673 0 6.08002e-07 0.00327421 0 
3752 1 37.5 44.1673 0 -5.04625e-07 0.00327375 0 
3852 1 38.5 44.1673 0 -3.9319e-07 0.00327344 0 
3952 1 39.5 44.1673 0 -1.26588e-07 0.00327339 0 
4052 1 40.5 44.1673 0 -2.52554e-08 0.00327346 0 
4152 1 41.5 44.1673 0 -1.79466e-08 0.00327353 0 
4252 1 42.5 44.1673 0 -2.09752e-08 0.00327356 0 
4352 1 43.5 44.1673 0 -1.54152e-08 0.00327357 0 
4452 1 44.5 44.1673 0 -7.71557e-09 0.00327357 0 
4552 1 45.5 44.1673 0 -2.80571e-09 0.00327358 0 
4652 1 46.5 44.1673 0 -6.97975e-10 0.00327358 0 
4752 1 47.5 44.1673 0 -8.40215e-11 0.00327358 0 
4852 1 48.5 44.1673 0 -2.18722e-11 0.00327358 0 
4952 1 49.5 44.1673 0 4.19715e-11 0.00327358 0 
5052 1 50.5 44.1673 0 -3.98644e-12 0.00327358 0 
5152 1 51.5 44.1673 0 8.36224e-24 0.00327358 0 
5252 1 52.5 44.1673 0 2.16772e-19 0.00327358 0 
5352 1 53.5 44.1673 0 8.36224e-24 0.00327358 0 
5452 1 54.5 44.1673 0 2.16772e-19 0.00327358 0 
5552 1 55.5 44.1673 0 2.16772e-19 0.00327358 0 
5652 1 56.5 44.1673 0 8.36224e-24 0.00327358 0 
5752 1 57.5 44.1673 0 8.36224e-24 0.00327358 0 
5852 1 58.5 44.1673 0 2.16772e-19 0.00327358 0 
5952 1 59.5 44.1673 0 8.36224e-24 0.00327358 0 
6052 1 60.5 44.1673 0 8.36224e-24 0.00327358 0 
6152 1 61.5 44.1673 0 8.36224e-24 0.00327358 0 
6252 1 62.5 44.1673 0 8.36224e-24 0.00327358 0 
6352 1 63.5 44.1673 0 8.36224e-24 0.00327358 0 
6452 1 64.5 44.1673 0 2.16772e-19 0.00327358 0 
6552 1 65.5 44.1673 0 8.36224e-24 0.00327358 0 
6652 1 66.5 44.1673 0 2.16772e-19 0.00327358 0 
6752 1 67.5 44.1673 0 2.16772e-19 0.00327358 0 
6852 1 68.5 44.1673 0 2.16772e-19 0.00327358 0 
6952 1 69.5 44.1673 0 8.36224e-24 0.00327358 0 
7052 1 70.5 44.1673 0 2.16772e-19 0.00327358 0 
7152 1 71.5 44.1673 0 2.16772e-19 0.00327358 0 
7252 1 72.5 44.1673 0 8.36224e-24 0.00327358 0 
7352 1 73.5 44.1673 0 8.36224e-24 0.00327358 0 
7452 1 74.5 44.1673 0 2.16772e-19 0.00327358 0 
7552 1 75.5 44.1673 0 8.36224e-24 0.00327358 0 
7652 1 76.5 44.1673 0 8.36224e-24 0.00327358 0 
7752 1 77.5 44.1673 0 2.16772e-19 0.00327358 0 
7852 1 78.5 44.1673 0 2.16772e-19 0.00327358 0 
7952 1 79.5 44.1673 0 2.16772e-19 0.00327358 0 
8052 1 80.5 44.1673 0 2.16772e-19 0.00327358 0 
8152 1 81.5 44.1673 0 8.36224e-24 0.00327358 0 
8252 1 82.5 44.1673 0 8.36224e-24 0.00327358 0 
8352 1 83.5 44.1673 0 2.16772e-19 0.00327358 0 
8452 1 84.5 44.1673 0 2.16772e-19 0.00327358 0 
8552 1 85.5 44.1673 0 8.36224e-24 0.00327358 0 
8652 1 86.5 44.1673 0 8.36224e-24 0.00327358 0 
8752 1 87.5 44.1673 0 2.16772e-19 0.00327358 0 
8852 1 88.5 44.1673 0 8.36224e-24 0.00327358 0 
8952 1 89.5 44.1673 0 8.36224e-24 0.00327358 0 
9052 1 90.5 44.1673 0 2.16772e-19 0.00327358 0 
9152 1 91.5 44.1673 0 2.16772e-19 0.00327358 0 
9252 1 92.5 44.1673 0 2.16772e-19 0.00327358 0 
9352 1 93.5 44.1673 0 8.36224e-24 0.00327358 0 
9452 1 94.5 44.1673 0 2.16772e-19 0.00327358 0 
9552 1 95.5 44.1673 0 8.36224e-24 0.00327358 0 
9652 1 96.5 44.1673 0 2.16772e-19 0.00327358 0 
9752 1 97.5 44.1673 0 8.36224e-24 0.00327358 0 
9852 1 98.5 44.1673 0 2.16772e-19 0.00327358 0 
9952 1 99.5 44.1673 0 2.16772e-19 0.00327358 0 
10052 1 100.5 44.1673 0 2.16772e-19 0.00327358 0 
10152 1 101.5 44.1673 0 8.36224e-24 0.00327358 0 
10252 1 102.5 44.1673 0 8.36224e-24 0.00327358 0 
10352 1 103.5 44.1673 0 8.36224e-24 0.00327358 0 
10452 1 104.5 44.1673 0 8.36224e-24 0.00327358 0 
10552 1 105.5 44.1673 0 2.16772e-19 0.00327358 0 
10652 1 106.5 44.1673 0 2.16772e-19 0.00327358 0 
10752 1 107.5 44.1673 0 8.36224e-24 0.00327358 0 
10852 1 108.5 44.1673 0 2.16772e-19 0.00327358 0 
10952 1 109.5 44.1673 0 2.16772e-19 0.00327358 0 
11052 1 110.5 44.1673 0 2.16772e-19 0.00327358 0 
11152 1 111.5 44.1673 0 2.16772e-19 0.00327358 0 
11252 1 112.5 44.1673 0 2.16772e-19 0.00327358 0 
11352 1 113.5 44.1673 0 2.16772e-19 0.00327358 0 
11452 1 114.5 44.1673 0 2.16772e-19 0.00327358 0 
11552 1 115.5 44.1673 0 8.36224e-24 0.00327358 0 
11652 1 116.5 44.1673 0 2.16772e-19 0.00327358 0 
11752 1 117.5 44.1673 0 2.16772e-19 0.00327358 0 
11852 1 118.5 44.1673 0 2.16772e-19 0.00327358 0 
11952 1 119.5 44.1673 0 2.16772e-19 0.00327358 0 
12052 1 120.5 44.1673 0 2.16772e-19 0.00327358 0 
12152 1 121.5 44.1673 0 2.16772e-19 0.00327358 0 
12252 1 122.5 44.1673 0 8.36224e-24 0.00327358 0 
12352 1 123.5 44.1673 0 8.36224e-24 0.00327358 0 
12452 1 124.5 44.1673 0 2.16772e-19 0.00327358 0 
12552 1 125.5 44.1673 0 8.36224e-24 0.00327358 0 
12652 1 126.5 44.1673 0 2.16772e-19 0.00327358 0 
12752 1 127.5 44.1673 0 2.16772e-19 0.00327358 0 
12852 1 128.5 44.1673 0 2.16772e-19 0.00327358 0 
12952 1 129.5 44.1673 0 2.16772e-19 0.00327358 0 
13052 1 130.5 44.1673 0 2.16772e-19 0.00327358 0 
13152 1 131.5 44.1673 0 8.36224e-24 0.00327358 0 
13252 1 132.5 44.1673 0 8.36224e-24 0.00327358 0 
13352 1 133.5 44.1673 0 8.36224e-24 0.00327358 0 
13452 1 134.5 44.1673 0 8.36224e-24 0.00327358 0 
13552 1 135.5 44.1673 0 2.16772e-19 0.00327358 0 
13652 1 136.5 44.1673 0 2.16772e-19 0.00327358 0 
13752 1 137.5 44.1673 0 8.36224e-24 0.00327358 0 
13852 1 138.5 44.1673 0 8.36224e-24 0.00327358 0 
13952 1 139.5 44.1673 0 2.16772e-19 0.00327358 0 
14052 1 140.5 44.1673 0 8.36224e-24 0.00327358 0 
14152 1 141.5 44.1673 0 1.86462e-10 0.00327358 0 
14252 1 142.5 44.1673 0 9.49528e-10 0.00327358 0 
14352 1 143.5 44.1673 0 5.4208e-09 0.00327358 0 
14452 1 144.5 44.1673 0 2.97191e-08 0.00327358 0 
14552 1 145.5 44.1673 0 1.53283e-07 0.00327358 0 
14652 1 146.5 44.1673 0 7.47343e-07 0.00327358 0 
14752 1 147.5 44.1673 0 3.42631e-06 0.00327358 0 
14852 1 148.5 44.1673 0 1.47362e-05 0.00327358 0 
14952 1 149.5 44.1673 0 5.92405e-05 0.00327358 0 
15052 1 150.5 44.1673 0 0.000221717 0.00327358 0 
15152 1 151.5 44.1673 0 0.000768925 0.00327357 0 
15252 1 152.5 44.1673 0 0.00245717 0.00327357 0 
15352 1 153.5 44.1673 0 0.00718567 0.00327355 0 
15452 1 154.5 44.1673 0 0.0190643 0.0032735 0 
15552 1 155.5 44.1673 0 0.045368 0.00327337 0 
15652 1 156.5 44.1673 0 0.0953224 0.00327308 0 
15752 1 157.501 44.1673 0 0.172676 0.00327252 0 
15852 1 158.502 44.1673 0 0.259021 0.00327159 0 
15952 1 159.504 44.1673 0 0.295708 0.00327038 0 
16052 1 160.507 44.1673 0 0.194589 0.0032693 0 
16152 1 161.511 44.1673 0 -0.0840196 0.00326912 0 
16252 1 162.515 44.1673 0 -0.410831 0.0032704 0 
16352 1 163.518 44.1673 0 -0.484185 0.00327264 0 
16452 1 164.519 44.1673 0 -0.11512 0.00327407 0 
16552 1 165.519 44.1673 0 0.386109 0.00327317 0 
16652 1 166.521 44.1673 0 0.366155 0.00327116 0 
16752 1 167.525 44.1673 0 -0.241022 0.00327132 0 
16852 1 168.527 44.1673 0 -0.495348 0.00327416 0 
16952 1 169.528 44.1673 0 0.127647 0.00327552 0 
17052 1 170.53 44.1673 0 0.502774 0.00327351 0 
17152 1 171.534 44.1673 0 -0.186311 0.00327312 0 
17252 1 172.537 44.1673 0 -0.476558 0.00327662 0 
17352 1 173.539 44.1673 0 0.342927 0.00327766 0 
17452 1 174.542 44.1673 0 0.294673 0.00327568 0 
17552 1 175.546 44.1673 0 -0.507219 0.0032781 0 
17652 1 176.549 44.1673 0 0.0549539 0.00328116 0 
17752 1 177.553 44.1673 0 0.275268 0.00328007 0 
17852 1 178.557 44.1673 0 -0.544648 0.00328401 0 
17952 1 179.559 44.1673 0 0.301528 0.00328926 0 
18052 1 180.561 44.1673 0 0.461437 0.00328571 0 
18152 1 181.566 44.1673 0 -0.967407 0.00328452 0 
18252 1 182.569 44.1673 0 -0.453917 0.00328998 0 
18352 1 183.57 44.1673 0 0.338458 0.00328872 0 
18452 1 184.572 44.1673 0 1.04489 0.0032914 0 
18552 1 185.577 44.1673 0 0.605678 0.00329572 0 
18652 1 186.581 44.1673 0 -0.907659 0.00329125 0 
18752 1 187.584 44.1673 0 0.274154 0.0032923 0 
18852 1 188.589 44.1673 0 -1.14096 0.00329645 0 
18952 1 189.592 44.1673 0 -0.50437 0.00329446 0 
19052 1 190.596 44.1673 0 0.29684 0.00329665 0 
19152 1 191.601 44.1673 0 -0.952489 0.00329691 0 
19252 1 192.605 44.1673 0 0.185558 0.00329527 0 
19352 1 193.61 44.1673 0 1.11558 0.00331151 0 
19452 1 194.617 44.1673 0 -0.941138 0.00329372 0 
19552 1 195.624 44.1673 0 0.936371 0.00327913 0 
19652 1 196.632 44.1673 0 0.531504 0.00330148 0 
19752 1 197.645 44.1673 0 -0.042182 0.00335067 0 
19852 1 198.661 44.1673 0 0.91035 0.00336061 0 
19952 1 199.691 44.1673 0 -0.704894 0.00334659 0 
20052 3 200.742 44.1673 0 1.64035 0.00325938 0 
20152 1 201.69 44.1673 0 -0.728811 0.00319867 0 
20252 1 202.661 44.1673 0 0.960421 0.00319542 0 
20352 1 203.645 44.1673 0 -0.249768 0.00321581 0 
20452 1 204.632 44.1673 0 0.394915 0.00326641 0 
20552 1 205.624 44.1673 0 0.35037 0.00327525 0 
20652 1 206.617 44.1673 0 -1.26181 0.00324732 0 
20752 1 207.61 44.1673 0 0.688844 0.00323654 0 
20852 1 208.605 44.1673 0 -0.573435 0.00325413 0 
20952 1 209.601 44.1673 0 -1.39198 0.00324923 0 
21052 1 210.596 44.1673 0 0.12909 0.00325077 0 
21152 1 211.592 44.1673 0 -0.882419 0.00325231 0 
21252 1 212.588 44.1673 0 -0.651317 0.003249 0 
21352 1 213.583 44.1673 0 0.555622 0.00325506 0 
21452 1 214.58 44.1673 0 -0.266517 0.00325315 0 
21552 1 215.575 44.1673 0 1.26707 0.00324981 0 
21652 1 216.572 44.1673 0 0.899466 0.003257 0 
21752 1 217.571 44.1673 0 -0.483883 0.00325794 0 
21852 1 218.569 44.1673 0 -0.916944 0.00325729 0 
21952 1 219.565 44.1673 0 -0.548541 0.00326108 0 
22052 1 220.56 44.1673 0 0.720285 0.00325934 0 
22152 1 221.558 44.1673 0 0.240005 0.00325778 0 
22252 1 222.556 44.1673 0 -0.567747 0.00326311 0 
22352 1 223.552 44.1673 0 0.178479 0.00326661 0 
22452 1 224.549 44.1673 0 0.0895441 0.00326592 0 
22552 1 225.546 44.1673 0 -0.381571 0.00326847 0 
22652 1 226.542 44.1673 0 0.18294 0.00327071 0 
22752 1 227.538 44.1673 0 0.245301 0.00326968 0 
22852 1 228.536 44.1673 0 -0.326863 0.00327069 0 
22952 1 229.533 44.1673 0 -0.111166 0.00327332 0 
23052 1 230.53 44.1673 0 0.353498 0.00327313 0 
23152 1 231.528 44.1673 0 0.041569 0.00327198 0 
23252 1 232.527 44.1673 0 -0.385193 0.00327337 0 
23352 1 233.524 44.1673 0 -0.132087 0.00327554 0 
23452 1 234.521 44.1673 0 0.323516 0.00327546 0 
23552 1 235.519 44.1673 0 0.274428 0.00327387 0 
23652 1 236.518 44.1673 0 -0.16261 0.00327343 0 
23752 1 237.517 44.1673 0 -0.440406 0.0032749 0 
23852 1 238.514 44.1673 0 -0.335307 0.00327687 0 
23952 1 239.511 44.1673 0 -0.0361152 0.00327786 0 
24052 1 240.507 44.1673 0 0.201241 0.00327755 0 
24152 1 241.504 44.1673 0 0.278865 0.0032765 0 
24252 1 242.502 44.1673 0 0.238435 0.00327538 0 
24352 1 243.501 44.1673 0 0.15764 0.00327454 0 
24452 1 244.5 44.1673 0 0.0868294 0.00327403 0 
24552 1 245.5 44.1673 0 0.0413465 0.00327376 0 
24652 1 246.5 44.1673 0 0.0174055 0.00327365 0 
24752 1 247.5 44.1673 0 0.00657636 0.0032736 0 
24852 1 248.5 44.1673 0 0.00225497 0.00327358 0 
24952 1 249.5 44.1673 0 0.000707684 0.00327358 0 
25052 1 250.5 44.1673 0 0.000204656 0.00327358 0 
25152 1 251.5 44.1673 0 5.48418e-05 0.00327358 0 
25252 1 252.5 44.1673 0 1.36812e-05 0.00327358 0 
25352 1 253.5 44.1673 0 3.18996e-06 0.00327358 0 
25452 1 254.5 44.1673 0 6.97624e-07 0.00327358 0 
25552 1 255.5 44.1673 0 1.43557e-07 0.00327358 0 
25652 1 256.5 44.1673 0 2.78838e-08 0.00327358 0 
25752 1 257.5 44.1673 0 5.01178e-09 0.00327358 0 
25852 1 258.5 44.1673 0 9.62994e-10 0.00327358 0 
25952 1 259.5 44.1673 0 1.42986e-10 0.00327358 0 
26052 1 260.5 44.1673 0 8.36224e-24 0.00327358 0 
26152 1 261.5 44.1673 0 8.36224e-24 0.00327358 0 
26252 1 262.5 44.1673 0 8.36224e-24 0.00327358 0 
26352 1 263.5 44.1673 0 2.16772e-19 0.00327358 0 
26452 1 264.5 44.1673 0 2.16772e-19 0.00327358 0 
26552 1 265.5 44.1673 0 2.16772e-19 0.00327358 0 
26652 1 266.5 44.1673 0 2.16772e-19 0.00327358 0 
26752 1 267.5 44.1673 0 2.16772e-19 0.00327358 0 
26852 1 268.5 44.1673 0 8.36224e-24 0.00327358 0 
26952 1 269.5 44.1673 0 8.36224e-24 0.00327358 0 
27052 1 270.5 44.1673 0 8.36224e-24 0.00327358 0 
27152 1 271.5 44.1673 0 8.36224e-24 0.00327358 0 
27252 1 272.5 44.1673 0 2.16772e-19 0.00327358 0 
27352 1 273.5 44.1673 0 2.16772e-19 0.00327358 0 
27452 1 274.5 44.1673 0 8.36224e-24 0.00327358 0 
27552 1 275.5 44.1673 0 2.16772e-19 0.00327358 0 
27652 1 276.5 44.1673 0 2.16772e-19 0.00327358 0 
27752 1 277.5 44.1673 0 2.16772e-19 0.00327358 0 
27852 1 278.5 44.1673 0 2.16772e-19 0.00327358 0 
27952 1 279.5 44.1673 0 2.16772e-19 0.00327358 0 
28052 1 280.5 44.1673 0 2.16772e-19 0.00327358 0 
28152 1 281.5 44.1673 0 2.16772e-19 0.00327358 0 
28252 1 282.5 44.1673 0 8.36224e-24 0.00327358 0 
28352 1 283.5 44.1673 0 8.36224e-24 0.00327358 0 
28452 1 284.5 44.1673 0 2.16772e-19 0.00327358 0 
28552 1 285.5 44.1673 0 2.16772e-19 0.00327358 0 
28652 1 286.5 44.1673 0 8.36224e-24 0.00327358 0 
28752 1 287.5 44.1673 0 2.16772e-19 0.00327358 0 
28852 1 288.5 44.1673 0 8.36224e-24 0.00327358 0 
28952 1 289.5 44.1673 0 8.36224e-24 0.00327358 0 
29052 1 290.5 44.1673 0 8.36224e-24 0.00327358 0 
29152 1 291.5 44.1673 0 2.16772e-19 0.00327358 0 
29252 1 292.5 44.1673 0 8.36224e-24 0.00327358 0 
29352 1 293.5 44.1673 0 2.16772e-19 0.00327358 0 
29452 1 294.5 44.1673 0 8.36224e-24 0.00327358 0 
29552 1 295.5 44.1673 0 8.36224e-24 0.00327358 0 
29652 1 296.5 44.1673 0 2.16772e-19 0.00327358 0 
29752 1 297.5 44.1673 0 2.16772e-19 0.00327358 0 
29852 1 298.5 44.1673 0 2.16772e-19 0.00327358 0 
29952 1 299.5 44.1673 0 2.16772e-19 0.00327358 0 
30052 1 300.5 44.1673 0 2.16772e-19 0.00327358 0 
30152 1 301.5 44.1673 0 8.36224e-24 0.00327358 0 
30252 1 302.5 44.1673 0 2.16772e-19 0.00327358 0 
30352 1 303.5 44.1673 0 2.16772e-19 0.00327358 0 
30452 1 304.5 44.1673 0 2.16772e-19 0.00327358 0 
30552 1 305.5 44.1673 0 2.16772e-19 0.00327358 0 
30652 1 306.5 44.1673 0 8.36224e-24 0.00327358 0 
30752 1 307.5 44.1673 0 8.36224e-24 0.00327358 0 
30852 1 308.5 44.1673 0 2.16772e-19 0.00327358 0 
30952 1 309.5 44.1673 0 2.16772e-19 0.00327358 0 
31052 1 310.5 44.1673 0 2.16772e-19 0.00327358 0 
31152 1 311.5 44.1673 0 8.36224e-24 0.00327358 0 
31252 1 312.5 44.1673 0 8.36224e-24 0.00327358 0 
31352 1 313.5 44.1673 0 2.16772e-19 0.00327358 0 
31452 1 314.5 44.1673 0 2.16772e-19 0.00327358 0 
31552 1 315.5 44.1673 0 8.36224e-24 0.00327358 0 
31652 1 316.5 44.1673 0 2.16772e-19 0.00327358 0 
31752 1 317.5 44.1673 0 8.36224e-24 0.00327358 0 
31852 1 318.5 44.1673 0 8.36224e-24 0.00327358 0 
31952 1 319.5 44.1673 0 8.36224e-24 0.00327358 0 
32052 1 320.5 44.1673 0 2.16772e-19 0.00327358 0 
32152 1 321.5 44.1673 0 2.16772e-19 0.00327358 0 
32252 1 322.5 44.1673 0 8.36224e-24 0.00327358 0 
32352 1 323.5 44.1673 0 2.16772e-19 0.00327358 0 
32452 1 324.5 44.1673 0 8.36224e-24 0.00327358 0 
32552 1 325.5 44.1673 0 8.36224e-24 0.00327358 0 
32652 1 326.5 44.1673 0 8.36224e-24 0.00327358 0 
32752 1 327.5 44.1673 0 8.36224e-24 0.00327358 0 
32852 1 328.5 44.1673 0 2.16772e-19 0.00327358 0 
32952 1 329.5 44.1673 0 8.36224e-24 0.00327358 0 
33052 1 330.5 44.1673 0 2.16772e-19 0.00327358 0 
33152 1 331.5 44.1673 0 2.16772e-19 0.00327358 0 
33252 1 332.5 44.1673 0 8.36224e-24 0.00327358 0 
33352 1 333.5 44.1673 0 8.36224e-24 0.00327358 0 
33452 1 334.5 44.1673 0 8.36224e-24 0.00327358 0 
33552 1 335.5 44.1673 0 2.16772e-19 0.00327358 0 
33652 1 336.5 44.1673 0 2.16772e-19 0.00327358 0 
33752 1 337.5 44.1673 0 8.36224e-24 0.00327358 0 
33852 1 338.5 44.1673 0 8.36224e-24 0.00327358 0 
33952 1 339.5 44.1673 0 2.16772e-19 0.00327358 0 
34052 1 340.5 44.1673 0 8.36224e-24 0.00327358 0 
34152 1 341.5 44.1673 0 8.36224e-24 0.00327358 0 
34252 1 342.5 44.1673 0 8.36224e-24 0.00327358 0 
34352 1 343.5 44.1673 0 2.16772e-19 0.00327358 0 
34452 1 344.5 44.1673 0 8.36224e-24 0.00327358 0 
34552 1 345.5 44.1673 0 2.16772e-19 0.00327358 0 
34652 1 346.5 44.1673 0 8.36224e-24 0.00327358 0 
34752 1 347.5 44.1673 0 2.16772e-19 0.00327358 0 
34852 1 348.5 44.1673 0 2.16772e-19 0.00327358 0 
34952 1 349.5 44.1673 0 8.36224e-24 0.00327358 0 
35052 1 350.5 44.1673 0 2.16772e-19 0.00327358 0 
35152 1 351.5 44.1673 0 -8.43185e-11 0.00327358 0 
35252 1 352.5 44.1673 0 1.80826e-10 0.00327358 0 
35352 1 353.5 44.1673 0 8.14846e-10 0.00327358 0 
35452 1 354.5 44.1673 0 2.60417e-09 0.00327358 0 
35552 1 355.5 44.1673 0 7.59874e-09 0.00327357 0 
35652 1 356.5 44.1673 0 1.5583e-08 0.00327357 0 
35752 1 357.5 44.1673 0 2.08314e-08 0.00327356 0 
35852 1 358.5 44.1673 0 1.82289e-08 0.00327353 0 
35952 1 359.5 44.1673 0 2.5081e-08 0.00327346 0 
36052 1 360.5 44.1673 0 1.2675e-07 0.00327339 0 
36152 1 361.5 44.1673 0 3.93094e-07 0.00327344 0 
36252 1 362.5 44.1673 0 5.0461e-07 0.00327375 0 
36352 1 363.5 44.1673 0 -6.07912e-07 0.00327421 0 
36452 1 364.5 44.1673 0 -3.67463e-06 0.00327403 0 
36552 1 365.5 44.1673 0 -5.92017e-06 0.00327239 0 
36652 1 366.5 44.1673 0 -7.76487e-07 0.00327057 0 
36752 1 367.5 44.1673 0 1.18361e-05 0.00327233 0 
36852 1 368.5 44.1673 0 1.48889e-05 0.00327817 0 
36952 1 369.5 44.1673 0 -5.30726e-06 0.00327975 0 
37052 1 370.5 44.1673 0 -2.12577e-05 0.0032713 0 
37152 1 371.5 44.1673 0 1.84351e-06 0.00326656 0 
37252 1 372.5 44.1673 0 2.06039e-05 0.00327803 0 
37352 1 373.5 44.1673 0 -1.69541e-05 0.00328189 0 
37452 1 374.5 44.1673 0 -2.74827e-05 0.00326055 0 
37552 1 375.5 44.1673 0 3.04376e-05 0.00325367 0 
37652 1 376.5 44.1673 0 8.23263e-06 0.00327071 0 
37752 1 377.5 44.1673 0 -4.62951e-05 0.00326212 0 
37852 1 378.5 44.1673 0 2.71241e-05 0.00325838 0 
37952 1 379.5 44.1673 0 -7.08592e-07 0.00327288 0 
38052 1 380.5 44.1673 0 -9.43582e-05 0.0031973 0 
38152 1 381.5 44.1673 0 1.08955e-05 0.00316331 0 
38252 1 382.5 44.1673 0 -2.92992e-05 0.00321977 0 
38352 1 383.5 44.1673 0 -0.000127203 0.00309097 0 
38452 1 384.5 44.1673 0 5.27825e-06 0.00308895 0 
38552 1 385.5 44.1673 0 -0.000165829 0.00299504 0 
38652 1 386.5 44.1673 0 -0.000164693 0.00291766 0 
38752 1 387.5 44.1673 0 -0.000125883 0.00284282 0 
38852 1 388.5 44.1673 0 -0.000246288 0.00274073 0 
38952 1 389.5 44.1673 0 -0.000198593 0.00258766 0 
39052 1 390.5 44.1673 0 -0.00028773 0.00237382 0 
39152 1 391.5 44.1673 0 -0.000239085 0.00223196 0 
39252 1 392.5 44.1673 0 -0.000363744 0.00203736 0 
39352 1 393.5 44.1673 0 -0.000385425 0.00175461 0 
39452 1 394.5 44.1673 0 -0.000401674 0.00174784 0 
39552 1 395.5 44.1673 0 -0.000401981 0.00140702 0 
39652 1 396.5 44.1673 0 -0.000318264 0.00111511 0 
39752 1 397.5 44.1673 0 -0.000156584 0.000397312 0 
39852 2 398.5 44.1673 0 -0.000445444 -0.000397333 0 
39952 2 399.5 44.1673 0 -2.20719e-05 -0.000198667 0 
