ITEM: TIMESTEP
1860
ITEM: NUMBER OF ATOMS
400
ITEM: BOX BOUNDS ff pp pp
0.0000000000000000e+00 4.0000000000000000e+02
0.0000000000000000e+00 8.6602540000000005e+01
0.0000000000000000e+00 1.0000000000000000e+00
ITEM: ATOMS id type x y z fx fy fz 
52 2 0.5 44.1673 0 0 -0.000397333 0 
152 2 1.5 44.1673 0 0.00459462 -0.000397203 0 
252 1 2.50002 44.1673 0 0.000116865 3.42288e-05 0 
352 1 3.50004 44.1674 0 -0.000132549 -9.45402e-05 0 
452 1 4.50006 44.1674 0 5.6415e-05 0.000465612 0 
552 1 5.50008 44.1675 0 -0.000169381 0.000420236 0 
652 1 6.5001 44.1676 0 -0.000225843 0.000323949 0 
752 1 7.50012 44.1676 0 7.85143e-06 0.000799301 0 
852 1 8.50014 44.1677 0 0.000165899 0.0011873 0 
952 1 9.50016 44.1677 0 -0.000240655 0.000670473 0 
1052 1 10.5002 44.1678 0 -0.000798308 -2.44122e-05 0 
1152 1 11.5002 44.1678 0 -0.000908 -0.000147229 0 
1252 1 12.5002 44.1678 0 -0.000779082 -0.000106863 0 
1352 1 13.5002 44.1679 0 -0.00045096 0.000239793 0 
1452 1 14.5002 44.1679 0 -0.000215688 0.000484828 0 
1552 1 15.5002 44.1679 0 7.23427e-05 0.000575442 0 
1652 1 16.5002 44.1679 0 0.000109259 0.000604334 0 
1752 1 17.5002 44.1679 0 0.000194989 0.000660187 0 
1852 1 18.5001 44.168 0 0.000109754 0.000731716 0 
1952 1 19.5001 44.168 0 0.000131756 0.000828008 0 
2052 1 20.5001 44.168 0 0.00014909 0.00091378 0 
2152 1 21.5001 44.168 0 -3.69557e-05 0.000988554 0 
2252 1 22.5001 44.168 0 0.000131961 0.000920061 0 
2352 1 23.5001 44.168 0 7.40128e-05 0.000958486 0 
2452 1 24.5001 44.168 0 6.90122e-05 0.00077621 0 
2552 1 25.5001 44.1681 0 0.000259287 0.000697168 0 
2652 1 26.5001 44.1681 0 0.00018569 0.000698754 0 
2752 1 27.5001 44.1681 0 0.000191509 0.000632591 0 
2852 1 28.5001 44.1681 0 0.000277455 0.00068218 0 
2952 1 29.5001 44.1681 0 0.000116097 0.000759803 0 
3052 1 30.5001 44.1681 0 4.76533e-05 0.000794347 0 
3152 1 31.5 44.1681 0 9.94009e-05 0.000869997 0 
3252 1 32.5 44.1681 0 4.18269e-05 0.000906126 0 
3352 1 33.5 44.1681 0 5.42878e-05 0.000823212 0 
3452 1 34.5 44.1681 0 0.000185756 0.000706368 0 
3552 1 35.5 44.1681 0 0.000260749 0.000604852 0 
3652 1 36.5 44.1681 0 0.000308811 0.000498325 0 
3752 1 37.5 44.1681 0 0.000391095 0.000410433 0 
3852 1 38.5 44.1681 0 0.00042055 0.00037587 0 
3952 1 39.5 44.1681 0 0.00037254 0.000386652 0 
4052 1 40.5 44.1681 0 0.000322508 0.000425619 0 
4152 1 41.5 44.1681 0 0.000285992 0.000486041 0 
4252 1 42.5 44.1681 0 0.000223101 0.000554104 0 
4352 1 43.5 44.1682 0 0.000139146 0.000611179 0 
4452 1 44.5 44.1682 0 7.6207e-05 0.000650805 0 
4552 1 45.5 44.1682 0 4.87101e-05 0.000678222 0 
4652 1 46.5 44.1682 0 3.7615e-05 0.000698583 0 
4752 1 47.5 44.1682 0 2.54814e-05 0.000712822 0 
4852 1 48.5 44.1682 0 1.17036e-05 0.00072108 0 
4952 1 49.5 44.1682 0 2.23048e-06 0.000724971 0 
5052 1 50.5 44.1682 0 -1.04496e-06 0.000726629 0 
5152 1 51.5 44.1682 0 -6.51672e-07 0.000727411 0 
5252 1 52.5 44.1682 0 4.31341e-07 0.000727809 0 
5352 1 53.5 44.1682 0 8.88664e-07 0.00072796 0 
5452 1 54.5 44.1682 0 7.4565e-07 0.000727963 0 
5552 1 55.5 44.1682 0 4.08306e-07 0.00072792 0 
5652 1 56.5 44.1682 0 1.40379e-07 0.000727894 0 
5752 1 57.5 44.1682 0 3.39716e-09 0.000727894 0 
5852 1 58.5 44.1682 0 -3.95538e-08 0.00072791 0 
5952 1 59.5 44.1682 0 -3.85739e-08 0.000727928 0 
6052 1 60.5 44.1682 0 -2.56228e-08 0.000727942 0 
6152 1 61.5 44.1682 0 -1.40114e-08 0.00072795 0 
6252 1 62.5 44.1682 0 -6.64854e-09 0.000727954 0 
6352 1 63.5 44.1682 0 -2.85757e-09 0.000727956 0 
6452 1 64.5 44.1682 0 -1.06613e-09 0.000727957 0 
6552 1 65.5 44.1682 0 -3.95067e-10 0.000727957 0 
6652 1 66.5 44.1682 0 -1.26881e-10 0.000727957 0 
6752 1 67.5 44.1682 0 -7.00316e-11 0.000727957 0 
6852 1 68.5 44.1682 0 1.92832e-21 0.000727957 0 
6952 1 69.5 44.1682 0 2.34445e-21 0.000727957 0 
7052 1 70.5 44.1682 0 1.92832e-21 0.000727957 0 
7152 1 71.5 44.1682 0 1.92832e-21 0.000727957 0 
7252 1 72.5 44.1682 0 2.34445e-21 0.000727957 0 
7352 1 73.5 44.1682 0 2.34445e-21 0.000727957 0 
7452 1 74.5 44.1682 0 1.92832e-21 0.000727957 0 
7552 1 75.5 44.1682 0 2.34445e-21 0.000727957 0 
7652 1 76.5 44.1682 0 2.34445e-21 0.000727957 0 
7752 1 77.5 44.1682 0 1.92832e-21 0.000727957 0 
7852 1 78.5 44.1682 0 1.92832e-21 0.000727957 0 
7952 1 79.5 44.1682 0 1.92832e-21 0.000727957 0 
8052 1 80.5 44.1682 0 1.92832e-21 0.000727957 0 
8152 1 81.5 44.1682 0 2.34445e-21 0.000727957 0 
8252 1 82.5 44.1682 0 2.34445e-21 0.000727957 0 
8352 1 83.5 44.1682 0 1.92832e-21 0.000727957 0 
8452 1 84.5 44.1682 0 1.92832e-21 0.000727957 0 
8552 1 85.5 44.1682 0 2.34445e-21 0.000727957 0 
8652 1 86.5 44.1682 0 2.34445e-21 0.000727957 0 
8752 1 87.5 44.1682 0 1.92832e-21 0.000727957 0 
8852 1 88.5 44.1682 0 2.34445e-21 0.000727957 0 
8952 1 89.5 44.1682 0 2.34445e-21 0.000727957 0 
9052 1 90.5 44.1682 0 1.92832e-21 0.000727957 0 
9152 1 91.5 44.1682 0 1.92832e-21 0.000727957 0 
9252 1 92.5 44.1682 0 1.92832e-21 0.000727957 0 
9352 1 93.5 44.1682 0 2.34445e-21 0.000727957 0 
9452 1 94.5 44.1682 0 1.92832e-21 0.000727957 0 
9552 1 95.5 44.1682 0 2.34445e-21 0.000727957 0 
9652 1 96.5 44.1682 0 1.92832e-21 0.000727957 0 
9752 1 97.5 44.1682 0 2.34445e-21 0.000727957 0 
9852 1 98.5 44.1682 0 1.92832e-21 0.000727957 0 
9952 1 99.5 44.1682 0 1.92832e-21 0.000727957 0 
10052 1 100.5 44.1682 0 1.92832e-21 0.000727957 0 
10152 1 101.5 44.1682 0 2.34445e-21 0.000727957 0 
10252 1 102.5 44.1682 0 2.34445e-21 0.000727957 0 
10352 1 103.5 44.1682 0 2.34445e-21 0.000727957 0 
10452 1 104.5 44.1682 0 2.34445e-21 0.000727957 0 
10552 1 105.5 44.1682 0 1.92832e-21 0.000727957 0 
10652 1 106.5 44.1682 0 1.92832e-21 0.000727957 0 
10752 1 107.5 44.1682 0 2.34445e-21 0.000727957 0 
10852 1 108.5 44.1682 0 1.92832e-21 0.000727957 0 
10952 1 109.5 44.1682 0 1.92832e-21 0.000727957 0 
11052 1 110.5 44.1682 0 1.92832e-21 0.000727957 0 
11152 1 111.5 44.1682 0 1.92832e-21 0.000727957 0 
11252 1 112.5 44.1682 0 1.92832e-21 0.000727957 0 
11352 1 113.5 44.1682 0 1.92832e-21 0.000727957 0 
11452 1 114.5 44.1682 0 1.92832e-21 0.000727957 0 
11552 1 115.5 44.1682 0 2.34445e-21 0.000727957 0 
11652 1 116.5 44.1682 0 1.92832e-21 0.000727957 0 
11752 1 117.5 44.1682 0 1.92832e-21 0.000727957 0 
11852 1 118.5 44.1682 0 1.92832e-21 0.000727957 0 
11952 1 119.5 44.1682 0 1.92832e-21 0.000727957 0 
12052 1 120.5 44.1682 0 1.92832e-21 0.000727957 0 
12152 1 121.5 44.1682 0 1.92832e-21 0.000727957 0 
12252 1 122.5 44.1682 0 8.46524e-11 0.000727957 0 
12352 1 123.5 44.1682 0 3.73865e-10 0.000727957 0 
12452 1 124.5 44.1682 0 1.89587e-09 0.000727957 0 
12552 1 125.5 44.1682 0 8.88332e-09 0.000727957 0 
12652 1 126.5 44.1682 0 4.02919e-08 0.000727957 0 
12752 1 127.5 44.1682 0 1.74047e-07 0.000727957 0 
12852 1 128.5 44.1682 0 7.17117e-07 0.000727957 0 
12952 1 129.5 44.1682 0 2.81123e-06 0.000727957 0 
13052 1 130.5 44.1682 0 1.04637e-05 0.000727957 0 
13152 1 131.5 44.1682 0 3.68895e-05 0.000727957 0 
13252 1 132.5 44.1682 0 0.00012284 0.000727957 0 
13352 1 133.5 44.1682 0 0.000385141 0.000727958 0 
13452 1 134.5 44.1682 0 0.00113272 0.000727958 0 
13552 1 135.5 44.1682 0 0.00311129 0.000727959 0 
13652 1 136.5 44.1682 0 0.00793887 0.000727963 0 
13752 1 137.5 44.1682 0 0.0186937 0.00072797 0 
13852 1 138.5 44.1682 0 0.0402752 0.000727985 0 
13952 1 139.5 44.1682 0 0.0784807 0.00072801 0 
14052 1 140.501 44.1682 0 0.136028 0.000728044 0 
14152 1 141.502 44.1682 0 0.204249 0.000728075 0 
14252 1 142.504 44.1682 0 0.253107 0.000728069 0 
14352 1 143.506 44.1682 0 0.230439 0.000727966 0 
14452 1 144.51 44.1682 0 0.0877796 0.000727702 0 
14552 1 145.513 44.1682 0 -0.161987 0.000727265 0 
14652 1 146.517 44.1682 0 -0.393741 0.000726754 0 
14752 1 147.519 44.1682 0 -0.410149 0.000726373 0 
14852 1 148.52 44.1682 0 -0.118063 0.000726303 0 
14952 1 149.52 44.1682 0 0.2824 0.000726577 0 
15052 1 150.521 44.1682 0 0.376628 0.000727135 0 
15152 1 151.524 44.1682 0 -0.00528934 0.000727982 0 
15252 1 152.527 44.1682 0 -0.419854 0.000729068 0 
15352 1 153.528 44.1682 0 -0.258297 0.000729788 0 
15452 1 154.529 44.1682 0 0.300181 0.000728968 0 
15552 1 155.531 44.1682 0 0.35793 0.000726469 0 
15652 1 156.534 44.1682 0 -0.240389 0.000724998 0 
15752 1 157.536 44.1682 0 -0.412931 0.000727251 0 
15852 1 158.537 44.1682 0 0.221864 0.000730477 0 
15952 1 159.539 44.1682 0 0.389357 0.000729102 0 
16052 1 160.542 44.1682 0 -0.302412 0.000725 0 
16152 1 161.544 44.1682 0 -0.312887 0.000726502 0 
16252 1 162.546 44.1682 0 0.40266 0.00073136 0 
16352 1 163.549 44.1682 0 0.107445 0.000729008 0 
16452 1 164.552 44.1682 0 -0.450938 0.000724328 0 
16552 1 165.554 44.1682 0 0.187172 0.000729467 0 
16652 1 166.557 44.1682 0 0.267502 0.000734468 0 
16752 1 167.561 44.1682 0 -0.44724 0.00072955 0 
16852 1 168.563 44.1682 0 0.057197 0.000727892 0 
16952 1 169.566 44.1682 0 0.157991 0.000728208 0 
17052 1 170.569 44.1682 0 -0.469903 0.000726356 0 
17152 1 171.57 44.1682 0 0.411119 0.000735705 0 
17252 1 172.573 44.1682 0 0.302426 0.000730738 0 
17352 1 173.576 44.1682 0 -0.627885 0.000723983 0 
17452 1 174.578 44.1682 0 -0.0291176 0.000737788 0 
17552 1 175.58 44.1682 0 -0.491665 0.000725378 0 
17652 1 176.582 44.1682 0 0.334716 0.000729277 0 
17752 1 177.583 44.1682 0 1.49613 0.000736622 0 
17852 1 178.587 44.1682 0 -0.473797 0.000734859 0 
17952 1 179.591 44.1682 0 -0.716905 0.000719501 0 
18052 1 180.593 44.1682 0 -0.430322 0.000737615 0 
18152 1 181.595 44.1682 0 -0.342364 0.000732436 0 
18252 1 182.598 44.1682 0 -0.098155 0.000728894 0 
18352 1 183.6 44.1682 0 -0.116071 0.000739496 0 
18452 1 184.602 44.1682 0 0.79222 0.000740234 0 
18552 1 185.605 44.1682 0 0.317872 0.000721164 0 
18652 1 186.608 44.1682 0 0.395774 0.00073647 0 
18752 1 187.612 44.1682 0 -0.00985045 0.000731318 0 
18852 1 188.614 44.1682 0 1.24963 0.000718837 0 
18952 1 189.621 44.1682 0 -1.59665 0.000729761 0 
19052 1 190.623 44.1682 0 0.961621 0.000710079 0 
19152 1 191.628 44.1682 0 -0.110933 0.000711505 0 
19252 1 192.634 44.1682 0 -1.54178 0.000732026 0 
19352 1 193.638 44.1682 0 1.18056 0.000762251 0 
19452 1 194.646 44.1682 0 -1.6206 0.000731141 0 
19552 1 195.652 44.1682 0 0.632855 0.000681661 0 
19652 1 196.663 44.1682 0 -1.39807 0.000767745 0 
19752 1 197.673 44.1682 0 0.793032 0.000842986 0 
19852 1 198.691 44.1682 0 -1.23679 0.000711513 0 
19952 1 199.718 44.1682 0 0.284437 0.000734205 0 
20052 3 200.772 44.1682 0 -0.758375 0.000725438 0 
20152 1 201.718 44.1682 0 0.155622 0.000728065 0 
20252 1 202.691 44.1682 0 -0.988205 0.000723712 0 
20352 1 203.672 44.1682 0 0.25493 0.000616399 0 
20452 1 204.662 44.1682 0 -0.741935 0.000736975 0 
20552 1 205.651 44.1682 0 0.376008 0.000784855 0 
20652 1 206.645 44.1682 0 -1.0005 0.000715403 0 
20752 1 207.637 44.1682 0 1.49415 0.000686382 0 
20852 1 208.633 44.1682 0 -1.61915 0.000707588 0 
20952 1 209.626 44.1682 0 1.47245 0.000758759 0 
21052 1 210.622 44.1682 0 0.443948 0.000740668 0 
21152 1 211.619 44.1682 0 -0.511677 0.000721877 0 
21252 1 212.613 44.1682 0 1.61365 0.000735354 0 
21352 1 213.612 44.1682 0 0.0158542 0.000719941 0 
21452 1 214.608 44.1682 0 0.50691 0.000727359 0 
21552 1 215.605 44.1682 0 0.153436 0.000721048 0 
21652 1 216.603 44.1682 0 0.147999 0.00071582 0 
21752 1 217.6 44.1682 0 -0.612918 0.000717614 0 
21852 1 218.598 44.1682 0 -0.543246 0.000722929 0 
21952 1 219.595 44.1682 0 -0.561743 0.000723922 0 
22052 1 220.592 44.1682 0 -0.34967 0.000716749 0 
22152 1 221.59 44.1682 0 -0.293134 0.000731855 0 
22252 1 222.586 44.1682 0 0.55324 0.000716772 0 
22352 1 223.582 44.1682 0 1.59801 0.000716815 0 
22452 1 224.583 44.1682 0 -0.412641 0.000727516 0 
22552 1 225.581 44.1682 0 -0.920124 0.000729484 0 
22652 1 226.577 44.1682 0 -0.00313186 0.000714814 0 
22752 1 227.575 44.1682 0 -0.232776 0.000730452 0 
22852 1 228.572 44.1682 0 0.407982 0.000721781 0 
22952 1 229.57 44.1682 0 0.237399 0.000719695 0 
23052 1 230.568 44.1682 0 -0.461655 0.000729449 0 
23152 1 231.566 44.1682 0 0.139548 0.000725985 0 
23252 1 232.563 44.1682 0 0.0431278 0.000724932 0 
23352 1 233.56 44.1682 0 -0.376736 0.00072454 0 
23452 1 234.557 44.1682 0 0.212416 0.000721837 0 
23552 1 235.554 44.1682 0 0.174772 0.000725953 0 
23652 1 236.551 44.1682 0 -0.343789 0.000729766 0 
23752 1 237.548 44.1682 0 0.0461105 0.000726437 0 
23852 1 238.545 44.1682 0 0.288046 0.000725079 0 
23952 1 239.544 44.1682 0 -0.207276 0.000728711 0 
24052 1 240.541 44.1682 0 -0.200863 0.000729479 0 
24152 1 241.538 44.1682 0 0.266985 0.00072648 0 
24252 1 242.537 44.1682 0 0.122374 0.000725915 0 
24352 1 243.535 44.1682 0 -0.303694 0.000728678 0 
24452 1 244.533 44.1682 0 -0.12935 0.000730183 0 
24552 1 245.53 44.1682 0 0.286509 0.000728746 0 
24652 1 246.529 44.1682 0 0.177389 0.00072673 0 
24752 1 247.528 44.1682 0 -0.250722 0.000726207 0 
24852 1 248.526 44.1682 0 -0.311461 0.00072699 0 
24952 1 249.523 44.1682 0 0.0534054 0.000728015 0 
25052 1 250.521 44.1682 0 0.327724 0.000728787 0 
25152 1 251.52 44.1682 0 0.19474 0.000729288 0 
25252 1 252.519 44.1682 0 -0.160367 0.000729497 0 
25352 1 253.518 44.1682 0 -0.384516 0.000729372 0 
25452 1 254.516 44.1682 0 -0.333426 0.000728993 0 
25552 1 255.513 44.1682 0 -0.1112 0.000728535 0 
25652 1 256.509 44.1682 0 0.1082 0.000728161 0 
25752 1 257.506 44.1682 0 0.225285 0.000727938 0 
25852 1 258.503 44.1682 0 0.236807 0.000727853 0 
25952 1 259.502 44.1682 0 0.187932 0.000727849 0 
26052 1 260.501 44.1682 0 0.12428 0.000727878 0 
26152 1 261.5 44.1682 0 0.0715086 0.00072791 0 
26252 1 262.5 44.1682 0 0.0366771 0.000727932 0 
26352 1 263.5 44.1682 0 0.0170337 0.000727946 0 
26452 1 264.5 44.1682 0 0.00724276 0.000727952 0 
26552 1 265.5 44.1682 0 0.002843 0.000727955 0 
26652 1 266.5 44.1682 0 0.00103692 0.000727957 0 
26752 1 267.5 44.1682 0 0.000353255 0.000727957 0 
26852 1 268.5 44.1682 0 0.000112899 0.000727957 0 
26952 1 269.5 44.1682 0 3.39742e-05 0.000727957 0 
27052 1 270.5 44.1682 0 9.65674e-06 0.000727957 0 
27152 1 271.5 44.1682 0 2.59973e-06 0.000727957 0 
27252 1 272.5 44.1682 0 6.6452e-07 0.000727957 0 
27352 1 273.5 44.1682 0 1.61635e-07 0.000727957 0 
27452 1 274.5 44.1682 0 3.74249e-08 0.000727957 0 
27552 1 275.5 44.1682 0 8.36441e-09 0.000727957 0 
27652 1 276.5 44.1682 0 1.74078e-09 0.000727957 0 
27752 1 277.5 44.1682 0 4.43875e-10 0.000727957 0 
27852 1 278.5 44.1682 0 1.50572e-11 0.000727957 0 
27952 1 279.5 44.1682 0 1.92832e-21 0.000727957 0 
28052 1 280.5 44.1682 0 1.92832e-21 0.000727957 0 
28152 1 281.5 44.1682 0 1.92832e-21 0.000727957 0 
28252 1 282.5 44.1682 0 2.34445e-21 0.000727957 0 
28352 1 283.5 44.1682 0 2.34445e-21 0.000727957 0 
28452 1 284.5 44.1682 0 1.92832e-21 0.000727957 0 
28552 1 285.5 44.1682 0 1.92832e-21 0.000727957 0 
28652 1 286.5 44.1682 0 2.34445e-21 0.000727957 0 
28752 1 287.5 44.1682 0 1.92832e-21 0.000727957 0 
28852 1 288.5 44.1682 0 2.34445e-21 0.000727957 0 
28952 1 289.5 44.1682 0 2.34445e-21 0.000727957 0 
29052 1 290.5 44.1682 0 2.34445e-21 0.000727957 0 
29152 1 291.5 44.1682 0 1.92832e-21 0.000727957 0 
29252 1 292.5 44.1682 0 2.34445e-21 0.000727957 0 
29352 1 293.5 44.1682 0 1.92832e-21 0.000727957 0 
29452 1 294.5 44.1682 0 2.34445e-21 0.000727957 0 
29552 1 295.5 44.1682 0 2.34445e-21 0.000727957 0 
29652 1 296.5 44.1682 0 1.92832e-21 0.000727957 0 
29752 1 297.5 44.1682 0 1.92832e-21 0.000727957 0 
29852 1 298.5 44.1682 0 1.92832e-21 0.000727957 0 
29952 1 299.5 44.1682 0 1.92832e-21 0.000727957 0 
30052 1 300.5 44.1682 0 1.92832e-21 0.000727957 0 
30152 1 301.5 44.1682 0 2.34445e-21 0.000727957 0 
30252 1 302.5 44.1682 0 1.92832e-21 0.000727957 0 
30352 1 303.5 44.1682 0 1.92832e-21 0.000727957 0 
30452 1 304.5 44.1682 0 1.92832e-21 0.000727957 0 
30552 1 305.5 44.1682 0 1.92832e-21 0.000727957 0 
30652 1 306.5 44.1682 0 2.34445e-21 0.000727957 0 
30752 1 307.5 44.1682 0 2.34445e-21 0.000727957 0 
30852 1 308.5 44.1682 0 1.92832e-21 0.000727957 0 
30952 1 309.5 44.1682 0 1.92832e-21 0.000727957 0 
31052 1 310.5 44.1682 0 1.92832e-21 0.000727957 0 
31152 1 311.5 44.1682 0 2.34445e-21 0.000727957 0 
31252 1 312.5 44.1682 0 2.34445e-21 0.000727957 0 
31352 1 313.5 44.1682 0 1.92832e-21 0.000727957 0 
31452 1 314.5 44.1682 0 1.92832e-21 0.000727957 0 
31552 1 315.5 44.1682 0 2.34445e-21 0.000727957 0 
31652 1 316.5 44.1682 0 1.92832e-21 0.000727957 0 
31752 1 317.5 44.1682 0 2.34445e-21 0.000727957 0 
31852 1 318.5 44.1682 0 2.34445e-21 0.000727957 0 
31952 1 319.5 44.1682 0 2.34445e-21 0.000727957 0 
32052 1 320.5 44.1682 0 1.92832e-21 0.000727957 0 
32152 1 321.5 44.1682 0 1.92832e-21 0.000727957 0 
32252 1 322.5 44.1682 0 2.34445e-21 0.000727957 0 
32352 1 323.5 44.1682 0 1.92832e-21 0.000727957 0 
32452 1 324.5 44.1682 0 2.34445e-21 0.000727957 0 
32552 1 325.5 44.1682 0 2.34445e-21 0.000727957 0 
32652 1 326.5 44.1682 0 2.34445e-21 0.000727957 0 
32752 1 327.5 44.1682 0 2.34445e-21 0.000727957 0 
32852 1 328.5 44.1682 0 1.92832e-21 0.000727957 0 
32952 1 329.5 44.1682 0 2.34445e-21 0.000727957 0 
33052 1 330.5 44.1682 0 1.92832e-21 0.000727957 0 
33152 1 331.5 44.1682 0 1.92832e-21 0.000727957 0 
33252 1 332.5 44.1682 0 2.34445e-21 0.000727957 0 
33352 1 333.5 44.1682 0 1.49004e-10 0.000727957 0 
33452 1 334.5 44.1682 0 5.18533e-10 0.000727957 0 
33552 1 335.5 44.1682 0 1.10094e-09 0.000727957 0 
33652 1 336.5 44.1682 0 2.7918e-09 0.000727956 0 
33752 1 337.5 44.1682 0 6.4964e-09 0.000727954 0 
33852 1 338.5 44.1682 0 1.4104e-08 0.00072795 0 
33952 1 339.5 44.1682 0 2.57865e-08 0.000727942 0 
34052 1 340.5 44.1682 0 3.84443e-08 0.000727928 0 
34152 1 341.5 44.1682 0 3.9484e-08 0.00072791 0 
34252 1 342.5 44.1682 0 -3.39072e-09 0.000727894 0 
34352 1 343.5 44.1682 0 -1.40284e-07 0.000727893 0 
34452 1 344.5 44.1682 0 -4.08049e-07 0.00072792 0 
34552 1 345.5 44.1682 0 -7.45927e-07 0.000727963 0 
34652 1 346.5 44.1682 0 -8.8887e-07 0.00072796 0 
34752 1 347.5 44.1682 0 -4.31287e-07 0.000727809 0 
34852 1 348.5 44.1682 0 6.51902e-07 0.000727411 0 
34952 1 349.5 44.1682 0 1.04494e-06 0.000726629 0 
35052 1 350.5 44.1682 0 -2.23058e-06 0.000724971 0 
35152 1 351.5 44.1682 0 -1.17035e-05 0.00072108 0 
35252 1 352.5 44.1682 0 -2.54814e-05 0.000712822 0 
35352 1 353.5 44.1682 0 -3.76149e-05 0.000698583 0 
35452 1 354.5 44.1682 0 -4.871e-05 0.000678222 0 
35552 1 355.5 44.1682 0 -7.62071e-05 0.000650806 0 
35652 1 356.5 44.1682 0 -0.000139146 0.000611179 0 
35752 1 357.5 44.1681 0 -0.000223102 0.000554104 0 
35852 1 358.5 44.1681 0 -0.000285993 0.000486041 0 
35952 1 359.5 44.1681 0 -0.000322508 0.000425619 0 
36052 1 360.5 44.1681 0 -0.000372541 0.000386652 0 
36152 1 361.5 44.1681 0 -0.00042055 0.00037587 0 
36252 1 362.5 44.1681 0 -0.000391095 0.000410434 0 
36352 1 363.5 44.1681 0 -0.000308811 0.000498325 0 
36452 1 364.5 44.1681 0 -0.000260748 0.000604852 0 
36552 1 365.5 44.1681 0 -0.000185755 0.000706368 0 
36652 1 366.5 44.1681 0 -5.42884e-05 0.000823212 0 
36752 1 367.5 44.1681 0 -4.18264e-05 0.000906127 0 
36852 1 368.5 44.1681 0 -9.94008e-05 0.000869997 0 
36952 1 369.5 44.1681 0 -4.76537e-05 0.000794347 0 
37052 1 370.5 44.1681 0 -0.000116097 0.000759803 0 
37152 1 371.5 44.1681 0 -0.000277455 0.00068218 0 
37252 1 372.5 44.1681 0 -0.00019151 0.000632591 0 
37352 1 373.5 44.1681 0 -0.000185689 0.000698754 0 
37452 1 374.5 44.1681 0 -0.000259287 0.000697168 0 
37552 1 375.5 44.168 0 -6.90121e-05 0.00077621 0 
37652 1 376.5 44.168 0 -7.40127e-05 0.000958487 0 
37752 1 377.5 44.168 0 -0.000131961 0.000920061 0 
37852 1 378.5 44.168 0 3.69557e-05 0.000988554 0 
37952 1 379.5 44.168 0 -0.00014909 0.000913779 0 
38052 1 380.5 44.168 0 -0.000131755 0.000828008 0 
38152 1 381.5 44.168 0 -0.000109755 0.000731716 0 
38252 1 382.5 44.1679 0 -0.000194989 0.000660187 0 
38352 1 383.5 44.1679 0 -0.00010926 0.000604333 0 
38452 1 384.5 44.1679 0 -7.23424e-05 0.000575442 0 
38552 1 385.5 44.1679 0 0.000215687 0.000484828 0 
38652 1 386.5 44.1679 0 0.00045096 0.000239793 0 
38752 1 387.5 44.1678 0 0.000779081 -0.000106863 0 
38852 1 388.5 44.1678 0 0.000907999 -0.000147229 0 
38952 1 389.5 44.1678 0 0.000798309 -2.44121e-05 0 
39052 1 390.5 44.1677 0 0.000240655 0.000670473 0 
39152 1 391.5 44.1677 0 -0.000165899 0.0011873 0 
39252 1 392.5 44.1676 0 -7.85164e-06 0.0007993 0 
39352 1 393.5 44.1676 0 0.000225844 0.000323949 0 
39452 1 394.5 44.1675 0 0.000169381 0.000420236 0 
39552 1 395.5 44.1674 0 -5.64146e-05 0.000465612 0 
39652 1 396.5 44.1674 0 0.000132549 -9.45405e-05 0 
39752 1 397.5 44.1673 0 -0.000116865 3.42286e-05 0 
39852 2 398.5 44.1673 0 -0.00459462 -0.000397203 0 
39952 2 399.5 44.1673 0 -2.20719e-05 -0.000198667 0 
