ITEM: TIMESTEP
1480
ITEM: NUMBER OF ATOMS
400
ITEM: BOX BOUNDS ff pp pp
0.0000000000000000e+00 4.0000000000000000e+02
0.0000000000000000e+00 8.6602540000000005e+01
0.0000000000000000e+00 1.0000000000000000e+00
ITEM: ATOMS id type x y z fx fy fz 
52 2 0.5 44.1673 0 0 -0.000397333 0 
152 2 1.5 44.1673 0 1.44396e-05 -0.000397333 0 
252 1 2.5 44.1673 0 -9.65456e-05 6.68007e-05 0 
352 1 3.5 44.1673 0 -5.69169e-05 0.00033583 0 
452 1 4.5 44.1673 0 8.86522e-06 0.000317946 0 
552 1 5.5 44.1673 0 -1.57669e-05 0.000267449 0 
652 1 6.5 44.1673 0 3.28241e-06 0.000264869 0 
752 1 7.5 44.1673 0 1.61057e-05 0.000194469 0 
852 1 8.5 44.1673 0 -4.94791e-05 0.000258846 0 
952 1 9.5 44.1673 0 7.92261e-05 0.000314039 0 
1052 1 10.5 44.1673 0 -7.96643e-05 0.000266362 0 
1152 1 11.5 44.1673 0 2.07491e-05 0.000230097 0 
1252 1 12.5 44.1673 0 5.55191e-05 0.00023847 0 
1352 1 13.5 44.1673 0 -6.16189e-05 0.000281056 0 
1452 1 14.5 44.1673 0 5.22055e-05 0.000241108 0 
1552 1 15.5 44.1673 0 -3.63017e-06 0.000325503 0 
1652 1 16.5 44.1673 0 -6.04014e-05 0.000270155 0 
1752 1 17.5 44.1673 0 3.73834e-05 0.000239906 0 
1852 1 18.5 44.1673 0 1.30876e-05 0.000269854 0 
1952 1 19.5 44.1673 0 -3.53001e-05 0.000265966 0 
2052 1 20.5 44.1673 0 1.31173e-05 0.000260384 0 
2152 1 21.5 44.1673 0 1.88115e-05 0.000272672 0 
2252 1 22.5 44.1673 0 -2.09253e-05 0.000270217 0 
2352 1 23.5 44.1673 0 -1.54849e-05 0.000257414 0 
2452 1 24.5 44.1673 0 1.32779e-05 0.000257134 0 
2552 1 25.5 44.1673 0 1.5466e-05 0.000265476 0 
2652 1 26.5 44.1673 0 9.08864e-07 0.000269081 0 
2752 1 27.5 44.1673 0 -5.77646e-06 0.000266968 0 
2852 1 28.5 44.1673 0 -3.16679e-06 0.000264554 0 
2952 1 29.5 44.1673 0 1.49791e-07 0.000264064 0 
3052 1 30.5 44.1673 0 9.0193e-07 0.000264546 0 
3152 1 31.5 44.1673 0 3.99663e-07 0.000264946 0 
3252 1 32.5 44.1673 0 -7.71514e-09 0.000265056 0 
3352 1 33.5 44.1673 0 -9.15424e-08 0.000265037 0 
3452 1 34.5 44.1673 0 -4.93053e-08 0.000265008 0 
3552 1 35.5 44.1673 0 -1.12992e-08 0.000264998 0 
3652 1 36.5 44.1673 0 1.55e-09 0.000264997 0 
3752 1 37.5 44.1673 0 2.42315e-09 0.000264999 0 
3852 1 38.5 44.1673 0 1.08961e-09 0.000265 0 
3952 1 39.5 44.1673 0 2.46273e-10 0.000265 0 
4052 1 40.5 44.1673 0 1.67502e-11 0.000265 0 
4152 1 41.5 44.1673 0 -9.98852e-12 0.000265 0 
4252 1 42.5 44.1673 0 1.15672e-12 0.000265 0 
4352 1 43.5 44.1673 0 -1.94127e-11 0.000265 0 
4452 1 44.5 44.1673 0 2.9773e-21 0.000265 0 
4552 1 45.5 44.1673 0 -5.28275e-24 0.000265 0 
4652 1 46.5 44.1673 0 2.9773e-21 0.000265 0 
4752 1 47.5 44.1673 0 -5.28275e-24 0.000265 0 
4852 1 48.5 44.1673 0 -5.28275e-24 0.000265 0 
4952 1 49.5 44.1673 0 -5.28275e-24 0.000265 0 
5052 1 50.5 44.1673 0 2.9773e-21 0.000265 0 
5152 1 51.5 44.1673 0 2.9773e-21 0.000265 0 
5252 1 52.5 44.1673 0 -5.28275e-24 0.000265 0 
5352 1 53.5 44.1673 0 2.9773e-21 0.000265 0 
5452 1 54.5 44.1673 0 -5.28275e-24 0.000265 0 
5552 1 55.5 44.1673 0 -5.28275e-24 0.000265 0 
5652 1 56.5 44.1673 0 2.9773e-21 0.000265 0 
5752 1 57.5 44.1673 0 2.9773e-21 0.000265 0 
5852 1 58.5 44.1673 0 -5.28275e-24 0.000265 0 
5952 1 59.5 44.1673 0 2.9773e-21 0.000265 0 
6052 1 60.5 44.1673 0 2.9773e-21 0.000265 0 
6152 1 61.5 44.1673 0 2.9773e-21 0.000265 0 
6252 1 62.5 44.1673 0 2.9773e-21 0.000265 0 
6352 1 63.5 44.1673 0 2.9773e-21 0.000265 0 
6452 1 64.5 44.1673 0 -5.28275e-24 0.000265 0 
6552 1 65.5 44.1673 0 2.9773e-21 0.000265 0 
6652 1 66.5 44.1673 0 -5.28275e-24 0.000265 0 
6752 1 67.5 44.1673 0 -5.28275e-24 0.000265 0 
6852 1 68.5 44.1673 0 -5.28275e-24 0.000265 0 
6952 1 69.5 44.1673 0 2.9773e-21 0.000265 0 
7052 1 70.5 44.1673 0 -5.28275e-24 0.000265 0 
7152 1 71.5 44.1673 0 -5.28275e-24 0.000265 0 
7252 1 72.5 44.1673 0 2.9773e-21 0.000265 0 
7352 1 73.5 44.1673 0 2.9773e-21 0.000265 0 
7452 1 74.5 44.1673 0 -5.28275e-24 0.000265 0 
7552 1 75.5 44.1673 0 2.9773e-21 0.000265 0 
7652 1 76.5 44.1673 0 2.9773e-21 0.000265 0 
7752 1 77.5 44.1673 0 -5.28275e-24 0.000265 0 
7852 1 78.5 44.1673 0 -5.28275e-24 0.000265 0 
7952 1 79.5 44.1673 0 -5.28275e-24 0.000265 0 
8052 1 80.5 44.1673 0 -5.28275e-24 0.000265 0 
8152 1 81.5 44.1673 0 2.9773e-21 0.000265 0 
8252 1 82.5 44.1673 0 2.9773e-21 0.000265 0 
8352 1 83.5 44.1673 0 -5.28275e-24 0.000265 0 
8452 1 84.5 44.1673 0 -5.28275e-24 0.000265 0 
8552 1 85.5 44.1673 0 2.9773e-21 0.000265 0 
8652 1 86.5 44.1673 0 2.9773e-21 0.000265 0 
8752 1 87.5 44.1673 0 -5.28275e-24 0.000265 0 
8852 1 88.5 44.1673 0 2.9773e-21 0.000265 0 
8952 1 89.5 44.1673 0 2.9773e-21 0.000265 0 
9052 1 90.5 44.1673 0 -5.28275e-24 0.000265 0 
9152 1 91.5 44.1673 0 -5.28275e-24 0.000265 0 
9252 1 92.5 44.1673 0 -5.28275e-24 0.000265 0 
9352 1 93.5 44.1673 0 2.9773e-21 0.000265 0 
9452 1 94.5 44.1673 0 -5.28275e-24 0.000265 0 
9552 1 95.5 44.1673 0 2.9773e-21 0.000265 0 
9652 1 96.5 44.1673 0 -5.28275e-24 0.000265 0 
9752 1 97.5 44.1673 0 2.9773e-21 0.000265 0 
9852 1 98.5 44.1673 0 -5.28275e-24 0.000265 0 
9952 1 99.5 44.1673 0 -5.28275e-24 0.000265 0 
10052 1 100.5 44.1673 0 -5.28275e-24 0.000265 0 
10152 1 101.5 44.1673 0 2.9773e-21 0.000265 0 
10252 1 102.5 44.1673 0 2.9773e-21 0.000265 0 
10352 1 103.5 44.1673 0 2.9773e-21 0.000265 0 
10452 1 104.5 44.1673 0 2.9773e-21 0.000265 0 
10552 1 105.5 44.1673 0 -5.28275e-24 0.000265 0 
10652 1 106.5 44.1673 0 -5.28275e-24 0.000265 0 
10752 1 107.5 44.1673 0 2.9773e-21 0.000265 0 
10852 1 108.5 44.1673 0 -5.28275e-24 0.000265 0 
10952 1 109.5 44.1673 0 -5.28275e-24 0.000265 0 
11052 1 110.5 44.1673 0 -5.28275e-24 0.000265 0 
11152 1 111.5 44.1673 0 -5.28275e-24 0.000265 0 
11252 1 112.5 44.1673 0 -5.28275e-24 0.000265 0 
11352 1 113.5 44.1673 0 -5.28275e-24 0.000265 0 
11452 1 114.5 44.1673 0 -5.28275e-24 0.000265 0 
11552 1 115.5 44.1673 0 2.9773e-21 0.000265 0 
11652 1 116.5 44.1673 0 -5.28275e-24 0.000265 0 
11752 1 117.5 44.1673 0 -5.28275e-24 0.000265 0 
11852 1 118.5 44.1673 0 -5.28275e-24 0.000265 0 
11952 1 119.5 44.1673 0 -5.28275e-24 0.000265 0 
12052 1 120.5 44.1673 0 -5.28275e-24 0.000265 0 
12152 1 121.5 44.1673 0 -5.28275e-24 0.000265 0 
12252 1 122.5 44.1673 0 2.9773e-21 0.000265 0 
12352 1 123.5 44.1673 0 2.9773e-21 0.000265 0 
12452 1 124.5 44.1673 0 -5.28275e-24 0.000265 0 
12552 1 125.5 44.1673 0 2.9773e-21 0.000265 0 
12652 1 126.5 44.1673 0 -5.28275e-24 0.000265 0 
12752 1 127.5 44.1673 0 -5.28275e-24 0.000265 0 
12852 1 128.5 44.1673 0 -5.28275e-24 0.000265 0 
12952 1 129.5 44.1673 0 -5.28275e-24 0.000265 0 
13052 1 130.5 44.1673 0 -5.28275e-24 0.000265 0 
13152 1 131.5 44.1673 0 2.9773e-21 0.000265 0 
13252 1 132.5 44.1673 0 2.9773e-21 0.000265 0 
13352 1 133.5 44.1673 0 2.9773e-21 0.000265 0 
13452 1 134.5 44.1673 0 2.9773e-21 0.000265 0 
13552 1 135.5 44.1673 0 -5.28275e-24 0.000265 0 
13652 1 136.5 44.1673 0 -5.28275e-24 0.000265 0 
13752 1 137.5 44.1673 0 2.9773e-21 0.000265 0 
13852 1 138.5 44.1673 0 2.9773e-21 0.000265 0 
13952 1 139.5 44.1673 0 -5.28275e-24 0.000265 0 
14052 1 140.5 44.1673 0 2.9773e-21 0.000265 0 
14152 1 141.5 44.1673 0 2.9773e-21 0.000265 0 
14252 1 142.5 44.1673 0 2.9773e-21 0.000265 0 
14352 1 143.5 44.1673 0 -5.28275e-24 0.000265 0 
14452 1 144.5 44.1673 0 -5.28275e-24 0.000265 0 
14552 1 145.5 44.1673 0 2.9773e-21 0.000265 0 
14652 1 146.5 44.1673 0 -5.28275e-24 0.000265 0 
14752 1 147.5 44.1673 0 2.9773e-21 0.000265 0 
14852 1 148.5 44.1673 0 2.9773e-21 0.000265 0 
14952 1 149.5 44.1673 0 2.9773e-21 0.000265 0 
15052 1 150.5 44.1673 0 7.5286e-12 0.000265 0 
15152 1 151.5 44.1673 0 2.42897e-10 0.000265 0 
15252 1 152.5 44.1673 0 1.49892e-09 0.000265 0 
15352 1 153.5 44.1673 0 9.68098e-09 0.000265 0 
15452 1 154.5 44.1673 0 5.91787e-08 0.000265 0 
15552 1 155.5 44.1673 0 3.3913e-07 0.000265 0 
15652 1 156.5 44.1673 0 1.81342e-06 0.000265 0 
15752 1 157.5 44.1673 0 9.0252e-06 0.000265 0 
15852 1 158.5 44.1673 0 4.16256e-05 0.000265 0 
15952 1 159.5 44.1673 0 0.000177071 0.000265 0 
16052 1 160.5 44.1673 0 0.000690813 0.000265 0 
16152 1 161.5 44.1673 0 0.00245501 0.000265 0 
16252 1 162.5 44.1673 0 0.00788093 0.000265001 0 
16352 1 163.5 44.1673 0 0.0226084 0.000265004 0 
16452 1 164.5 44.1673 0 0.0571324 0.000265016 0 
16552 1 165.5 44.1673 0 0.12459 0.000265051 0 
16652 1 166.501 44.1673 0 0.226986 0.000265145 0 
16752 1 167.503 44.1673 0 0.32549 0.000265364 0 
16852 1 168.506 44.1673 0 0.316937 0.000265797 0 
16952 1 169.509 44.1673 0 0.084021 0.000266508 0 
17052 1 170.514 44.1673 0 -0.331322 0.000267436 0 
17152 1 171.517 44.1673 0 -0.582251 0.000268343 0 
17252 1 172.519 44.1673 0 -0.272076 0.000268959 0 
17352 1 173.52 44.1673 0 0.380862 0.00026932 0 
17452 1 174.522 44.1673 0 0.463021 0.000269884 0 
17552 1 175.526 44.1673 0 -0.279178 0.000270971 0 
17652 1 176.529 44.1673 0 -0.545451 0.000272181 0 
17752 1 177.53 44.1673 0 0.293494 0.000273039 0 
17852 1 178.533 44.1673 0 0.469756 0.00027404 0 
17952 1 179.538 44.1673 0 -0.485494 0.000275752 0 
18052 1 180.541 44.1673 0 -0.181472 0.000277532 0 
18152 1 181.545 44.1673 0 0.617291 0.0002791 0 
18252 1 182.55 44.1673 0 -0.427362 0.000281041 0 
18352 1 183.554 44.1673 0 -0.614209 0.000282754 0 
18452 1 184.557 44.1673 0 0.302264 0.000284418 0 
18552 1 185.56 44.1673 0 0.151961 0.000284976 0 
18652 1 186.563 44.1673 0 0.898025 0.000283961 0 
18752 1 187.568 44.1673 0 -0.0377713 0.000288129 0 
18852 1 188.573 44.1673 0 -1.56179 0.000287206 0 
18952 1 189.577 44.1673 0 -0.379968 0.000287257 0 
19052 1 190.58 44.1673 0 -0.210073 0.000291884 0 
19152 1 191.584 44.1673 0 0.400221 0.000287675 0 
19252 1 192.59 44.1673 0 -0.537299 0.000291514 0 
19352 1 193.593 44.1673 0 1.93951 0.000294826 0 
19452 1 194.602 44.1673 0 -0.660708 0.000293389 0 
19552 1 195.608 44.1673 0 0.638809 0.000285151 0 
19652 1 196.617 44.1673 0 1.42337 0.000296109 0 
19752 1 197.631 44.1673 0 -1.08334 0.000341959 0 
19852 1 198.646 44.1673 0 1.86279 0.000332169 0 
19952 1 199.676 44.1673 0 -1.27132 0.000305029 0 
20052 3 200.726 44.1673 0 2.27578 0.000250214 0 
20152 1 201.675 44.1673 0 -1.13082 0.000213651 0 
20252 1 202.645 44.1673 0 2.15815 0.000197649 0 
20352 1 203.63 44.1673 0 -0.67122 0.000193415 0 
20452 1 204.616 44.1673 0 1.75156 0.000246668 0 
20552 1 205.608 44.1673 0 0.176914 0.000248447 0 
20652 1 206.601 44.1673 0 -0.196697 0.000235227 0 
20752 1 207.594 44.1673 0 1.19962 0.000235208 0 
20852 1 208.59 44.1673 0 -0.8821 0.000238928 0 
20952 1 209.584 44.1673 0 -0.219202 0.000241167 0 
21052 1 210.581 44.1673 0 -0.754172 0.000237222 0 
21152 1 211.577 44.1673 0 -0.810748 0.000242703 0 
21252 1 212.572 44.1673 0 -1.09992 0.000241781 0 
21352 1 213.567 44.1673 0 0.795339 0.000241623 0 
21452 1 214.562 44.1673 0 1.16505 0.000245349 0 
21552 1 215.559 44.1673 0 -0.128929 0.000244194 0 
21652 1 216.557 44.1673 0 -0.0887255 0.000245391 0 
21752 1 217.554 44.1673 0 -0.539006 0.000247013 0 
21852 1 218.55 44.1673 0 -0.298464 0.000248649 0 
21952 1 219.544 44.1673 0 0.50431 0.000250743 0 
22052 1 220.541 44.1673 0 -0.10104 0.000252478 0 
22152 1 221.537 44.1673 0 -0.361004 0.000254226 0 
22252 1 222.533 44.1673 0 0.317831 0.00025587 0 
22352 1 223.53 44.1673 0 0.177399 0.000256967 0 
22452 1 224.528 44.1673 0 -0.410208 0.000257932 0 
22552 1 225.525 44.1673 0 -0.158775 0.00025911 0 
22652 1 226.521 44.1673 0 0.384687 0.000260126 0 
22752 1 227.519 44.1673 0 0.250891 0.000260708 0 
22852 1 228.518 44.1673 0 -0.291874 0.00026115 0 
22952 1 229.516 44.1673 0 -0.503338 0.000261821 0 
23052 1 230.513 44.1673 0 -0.249868 0.000262722 0 
23152 1 231.509 44.1673 0 0.113363 0.000263605 0 
23252 1 232.505 44.1673 0 0.304134 0.000264266 0 
23352 1 233.503 44.1673 0 0.300409 0.000264665 0 
23452 1 234.501 44.1673 0 0.207229 0.000264866 0 
23552 1 235.5 44.1673 0 0.113499 0.000264953 0 
23652 1 236.5 44.1673 0 0.0521146 0.000264985 0 
23752 1 237.5 44.1673 0 0.0206802 0.000264996 0 
23852 1 238.5 44.1673 0 0.00723344 0.000264999 0 
23952 1 239.5 44.1673 0 0.00226156 0.000265 0 
24052 1 240.5 44.1673 0 0.000638742 0.000265 0 
24152 1 241.5 44.1673 0 0.000164324 0.000265 0 
24252 1 242.5 44.1673 0 3.87669e-05 0.000265 0 
24352 1 243.5 44.1673 0 8.43423e-06 0.000265 0 
24452 1 244.5 44.1673 0 1.70031e-06 0.000265 0 
24552 1 245.5 44.1673 0 3.18878e-07 0.000265 0 
24652 1 246.5 44.1673 0 5.59234e-08 0.000265 0 
24752 1 247.5 44.1673 0 9.1347e-09 0.000265 0 
24852 1 248.5 44.1673 0 1.40276e-09 0.000265 0 
24952 1 249.5 44.1673 0 2.39974e-10 0.000265 0 
25052 1 250.5 44.1673 0 7.5286e-12 0.000265 0 
25152 1 251.5 44.1673 0 2.9773e-21 0.000265 0 
25252 1 252.5 44.1673 0 -5.28275e-24 0.000265 0 
25352 1 253.5 44.1673 0 2.9773e-21 0.000265 0 
25452 1 254.5 44.1673 0 -5.28275e-24 0.000265 0 
25552 1 255.5 44.1673 0 -5.28275e-24 0.000265 0 
25652 1 256.5 44.1673 0 2.9773e-21 0.000265 0 
25752 1 257.5 44.1673 0 2.9773e-21 0.000265 0 
25852 1 258.5 44.1673 0 -5.28275e-24 0.000265 0 
25952 1 259.5 44.1673 0 2.9773e-21 0.000265 0 
26052 1 260.5 44.1673 0 2.9773e-21 0.000265 0 
26152 1 261.5 44.1673 0 2.9773e-21 0.000265 0 
26252 1 262.5 44.1673 0 2.9773e-21 0.000265 0 
26352 1 263.5 44.1673 0 -5.28275e-24 0.000265 0 
26452 1 264.5 44.1673 0 -5.28275e-24 0.000265 0 
26552 1 265.5 44.1673 0 -5.28275e-24 0.000265 0 
26652 1 266.5 44.1673 0 -5.28275e-24 0.000265 0 
26752 1 267.5 44.1673 0 -5.28275e-24 0.000265 0 
26852 1 268.5 44.1673 0 2.9773e-21 0.000265 0 
26952 1 269.5 44.1673 0 2.9773e-21 0.000265 0 
27052 1 270.5 44.1673 0 2.9773e-21 0.000265 0 
27152 1 271.5 44.1673 0 2.9773e-21 0.000265 0 
27252 1 272.5 44.1673 0 -5.28275e-24 0.000265 0 
27352 1 273.5 44.1673 0 -5.28275e-24 0.000265 0 
27452 1 274.5 44.1673 0 2.9773e-21 0.000265 0 
27552 1 275.5 44.1673 0 -5.28275e-24 0.000265 0 
27652 1 276.5 44.1673 0 -5.28275e-24 0.000265 0 
27752 1 277.5 44.1673 0 -5.28275e-24 0.000265 0 
27852 1 278.5 44.1673 0 -5.28275e-24 0.000265 0 
27952 1 279.5 44.1673 0 -5.28275e-24 0.000265 0 
28052 1 280.5 44.1673 0 -5.28275e-24 0.000265 0 
28152 1 281.5 44.1673 0 -5.28275e-24 0.000265 0 
28252 1 282.5 44.1673 0 2.9773e-21 0.000265 0 
28352 1 283.5 44.1673 0 2.9773e-21 0.000265 0 
28452 1 284.5 44.1673 0 -5.28275e-24 0.000265 0 
28552 1 285.5 44.1673 0 -5.28275e-24 0.000265 0 
28652 1 286.5 44.1673 0 2.9773e-21 0.000265 0 
28752 1 287.5 44.1673 0 -5.28275e-24 0.000265 0 
28852 1 288.5 44.1673 0 2.9773e-21 0.000265 0 
28952 1 289.5 44.1673 0 2.9773e-21 0.000265 0 
29052 1 290.5 44.1673 0 2.9773e-21 0.000265 0 
29152 1 291.5 44.1673 0 -5.28275e-24 0.000265 0 
29252 1 292.5 44.1673 0 2.9773e-21 0.000265 0 
29352 1 293.5 44.1673 0 -5.28275e-24 0.000265 0 
29452 1 294.5 44.1673 0 2.9773e-21 0.000265 0 
29552 1 295.5 44.1673 0 2.9773e-21 0.000265 0 
29652 1 296.5 44.1673 0 -5.28275e-24 0.000265 0 
29752 1 297.5 44.1673 0 -5.28275e-24 0.000265 0 
29852 1 298.5 44.1673 0 -5.28275e-24 0.000265 0 
29952 1 299.5 44.1673 0 -5.28275e-24 0.000265 0 
30052 1 300.5 44.1673 0 -5.28275e-24 0.000265 0 
30152 1 301.5 44.1673 0 2.9773e-21 0.000265 0 
30252 1 302.5 44.1673 0 -5.28275e-24 0.000265 0 
30352 1 303.5 44.1673 0 -5.28275e-24 0.000265 0 
30452 1 304.5 44.1673 0 -5.28275e-24 0.000265 0 
30552 1 305.5 44.1673 0 -5.28275e-24 0.000265 0 
30652 1 306.5 44.1673 0 2.9773e-21 0.000265 0 
30752 1 307.5 44.1673 0 2.9773e-21 0.000265 0 
30852 1 308.5 44.1673 0 -5.28275e-24 0.000265 0 
30952 1 309.5 44.1673 0 -5.28275e-24 0.000265 0 
31052 1 310.5 44.1673 0 -5.28275e-24 0.000265 0 
31152 1 311.5 44.1673 0 2.9773e-21 0.000265 0 
31252 1 312.5 44.1673 0 2.9773e-21 0.000265 0 
31352 1 313.5 44.1673 0 -5.28275e-24 0.000265 0 
31452 1 314.5 44.1673 0 -5.28275e-24 0.000265 0 
31552 1 315.5 44.1673 0 2.9773e-21 0.000265 0 
31652 1 316.5 44.1673 0 -5.28275e-24 0.000265 0 
31752 1 317.5 44.1673 0 2.9773e-21 0.000265 0 
31852 1 318.5 44.1673 0 2.9773e-21 0.000265 0 
31952 1 319.5 44.1673 0 2.9773e-21 0.000265 0 
32052 1 320.5 44.1673 0 -5.28275e-24 0.000265 0 
32152 1 321.5 44.1673 0 -5.28275e-24 0.000265 0 
32252 1 322.5 44.1673 0 2.9773e-21 0.000265 0 
32352 1 323.5 44.1673 0 -5.28275e-24 0.000265 0 
32452 1 324.5 44.1673 0 2.9773e-21 0.000265 0 
32552 1 325.5 44.1673 0 2.9773e-21 0.000265 0 
32652 1 326.5 44.1673 0 2.9773e-21 0.000265 0 
32752 1 327.5 44.1673 0 2.9773e-21 0.000265 0 
32852 1 328.5 44.1673 0 -5.28275e-24 0.000265 0 
32952 1 329.5 44.1673 0 2.9773e-21 0.000265 0 
33052 1 330.5 44.1673 0 -5.28275e-24 0.000265 0 
33152 1 331.5 44.1673 0 -5.28275e-24 0.000265 0 
33252 1 332.5 44.1673 0 2.9773e-21 0.000265 0 
33352 1 333.5 44.1673 0 2.9773e-21 0.000265 0 
33452 1 334.5 44.1673 0 2.9773e-21 0.000265 0 
33552 1 335.5 44.1673 0 -5.28275e-24 0.000265 0 
33652 1 336.5 44.1673 0 -5.28275e-24 0.000265 0 
33752 1 337.5 44.1673 0 2.9773e-21 0.000265 0 
33852 1 338.5 44.1673 0 2.9773e-21 0.000265 0 
33952 1 339.5 44.1673 0 -5.28275e-24 0.000265 0 
34052 1 340.5 44.1673 0 2.9773e-21 0.000265 0 
34152 1 341.5 44.1673 0 2.9773e-21 0.000265 0 
34252 1 342.5 44.1673 0 2.9773e-21 0.000265 0 
34352 1 343.5 44.1673 0 -5.28275e-24 0.000265 0 
34452 1 344.5 44.1673 0 2.9773e-21 0.000265 0 
34552 1 345.5 44.1673 0 -5.28275e-24 0.000265 0 
34652 1 346.5 44.1673 0 2.9773e-21 0.000265 0 
34752 1 347.5 44.1673 0 -5.28275e-24 0.000265 0 
34852 1 348.5 44.1673 0 -5.28275e-24 0.000265 0 
34952 1 349.5 44.1673 0 2.9773e-21 0.000265 0 
35052 1 350.5 44.1673 0 -5.28275e-24 0.000265 0 
35152 1 351.5 44.1673 0 2.9773e-21 0.000265 0 
35252 1 352.5 44.1673 0 2.9773e-21 0.000265 0 
35352 1 353.5 44.1673 0 2.9773e-21 0.000265 0 
35452 1 354.5 44.1673 0 2.9773e-21 0.000265 0 
35552 1 355.5 44.1673 0 -5.28275e-24 0.000265 0 
35652 1 356.5 44.1673 0 -5.28275e-24 0.000265 0 
35752 1 357.5 44.1673 0 2.9773e-21 0.000265 0 
35852 1 358.5 44.1673 0 1.76236e-10 0.000265 0 
35952 1 359.5 44.1673 0 -2.09824e-10 0.000265 0 
36052 1 360.5 44.1673 0 -1.91486e-10 0.000265 0 
36152 1 361.5 44.1673 0 -9.50454e-10 0.000265 0 
36252 1 362.5 44.1673 0 -2.43295e-09 0.000264999 0 
36352 1 363.5 44.1673 0 -1.61884e-09 0.000264997 0 
36452 1 364.5 44.1673 0 1.12142e-08 0.000264998 0 
36552 1 365.5 44.1673 0 4.92389e-08 0.000265008 0 
36652 1 366.5 44.1673 0 9.15917e-08 0.000265037 0 
36752 1 367.5 44.1673 0 7.80934e-09 0.000265056 0 
36852 1 368.5 44.1673 0 -3.99831e-07 0.000264946 0 
36952 1 369.5 44.1673 0 -9.01822e-07 0.000264546 0 
37052 1 370.5 44.1673 0 -1.49926e-07 0.000264064 0 
37152 1 371.5 44.1673 0 3.16683e-06 0.000264554 0 
37252 1 372.5 44.1673 0 5.77657e-06 0.000266968 0 
37352 1 373.5 44.1673 0 -9.08782e-07 0.000269081 0 
37452 1 374.5 44.1673 0 -1.5466e-05 0.000265476 0 
37552 1 375.5 44.1673 0 -1.3278e-05 0.000257134 0 
37652 1 376.5 44.1673 0 1.54849e-05 0.000257414 0 
37752 1 377.5 44.1673 0 2.09252e-05 0.000270216 0 
37852 1 378.5 44.1673 0 -1.88116e-05 0.000272672 0 
37952 1 379.5 44.1673 0 -1.31173e-05 0.000260384 0 
38052 1 380.5 44.1673 0 3.53002e-05 0.000265966 0 
38152 1 381.5 44.1673 0 -1.30875e-05 0.000269854 0 
38252 1 382.5 44.1673 0 -3.73836e-05 0.000239906 0 
38352 1 383.5 44.1673 0 6.04018e-05 0.000270155 0 
38452 1 384.5 44.1673 0 3.62979e-06 0.000325503 0 
38552 1 385.5 44.1673 0 -5.22054e-05 0.000241108 0 
38652 1 386.5 44.1673 0 6.16188e-05 0.000281056 0 
38752 1 387.5 44.1673 0 -5.5519e-05 0.00023847 0 
38852 1 388.5 44.1673 0 -2.07494e-05 0.000230097 0 
38952 1 389.5 44.1673 0 7.96647e-05 0.000266362 0 
39052 1 390.5 44.1673 0 -7.92265e-05 0.000314039 0 
39152 1 391.5 44.1673 0 4.94794e-05 0.000258846 0 
39252 1 392.5 44.1673 0 -1.6106e-05 0.000194469 0 
39352 1 393.5 44.1673 0 -3.28224e-06 0.000264869 0 
39452 1 394.5 44.1673 0 1.5767e-05 0.000267449 0 
39552 1 395.5 44.1673 0 -8.86565e-06 0.000317946 0 
39652 1 396.5 44.1673 0 5.69172e-05 0.00033583 0 
39752 1 397.5 44.1673 0 9.65454e-05 6.68006e-05 0 
39852 2 398.5 44.1673 0 -1.44396e-05 -0.000397333 0 
39952 2 399.5 44.1673 0 -2.20719e-05 -0.000198667 0 
