ITEM: TIMESTEP
1820
ITEM: NUMBER OF ATOMS
400
ITEM: BOX BOUNDS ff pp pp
0.0000000000000000e+00 4.0000000000000000e+02
0.0000000000000000e+00 8.6602540000000005e+01
0.0000000000000000e+00 1.0000000000000000e+00
ITEM: ATOMS id type x y z fx fy fz 
52 2 0.5 44.1673 0 0 -0.000397333 0 
152 2 1.5 44.1673 0 0.00444786 -0.000397216 0 
252 1 2.50002 44.1673 0 -7.25903e-05 8.65665e-05 0 
352 1 3.50004 44.1674 0 0.000159518 0.000228344 0 
452 1 4.50006 44.1674 0 -0.000205606 -0.00040787 0 
552 1 5.50008 44.1675 0 -6.157e-05 -0.000196502 0 
652 1 6.50009 44.1675 0 0.00034273 -4.08995e-05 0 
752 1 7.50011 44.1676 0 3.05182e-05 -0.000449318 0 
852 1 8.50013 44.1676 0 -0.00049925 -0.00147791 0 
952 1 9.50014 44.1677 0 -0.000779817 -0.00181909 0 
1052 1 10.5001 44.1677 0 -0.000658349 -0.00169262 0 
1152 1 11.5001 44.1677 0 -0.000378237 -0.00124237 0 
1252 1 12.5001 44.1678 0 -0.000208469 -0.000738849 0 
1352 1 13.5001 44.1678 0 4.51599e-05 -0.000401341 0 
1452 1 14.5001 44.1678 0 -3.06864e-05 -0.00019846 0 
1552 1 15.5001 44.1678 0 5.51454e-05 -9.77717e-05 0 
1652 1 16.5001 44.1678 0 -2.6675e-05 -5.5908e-05 0 
1752 1 17.5001 44.1678 0 0.000107803 -0.000188795 0 
1852 1 18.5001 44.1679 0 0.000160045 -0.000220804 0 
1952 1 19.5001 44.1679 0 0.000101864 -0.000397647 0 
2052 1 20.5001 44.1679 0 0.000328842 -0.000440551 0 
2152 1 21.5001 44.1679 0 0.000168373 -0.000514006 0 
2252 1 22.5001 44.1679 0 0.000232604 -0.000525638 0 
2352 1 23.5001 44.1679 0 0.00030055 -0.000487097 0 
2452 1 24.5001 44.1679 0 7.02373e-05 -0.000366523 0 
2552 1 25.5001 44.1679 0 0.000124977 -0.000313817 0 
2652 1 26.5 44.1679 0 0.000119593 -0.00023727 0 
2752 1 27.5 44.1679 0 -2.12529e-05 -0.000221245 0 
2852 1 28.5 44.168 0 8.60489e-05 -0.000263078 0 
2952 1 29.5 44.168 0 0.0001773 -0.000315515 0 
3052 1 30.5 44.168 0 0.000168839 -0.000457316 0 
3152 1 31.5 44.168 0 0.000293863 -0.000627918 0 
3252 1 32.5 44.168 0 0.000410744 -0.000723568 0 
3352 1 33.5 44.168 0 0.000405433 -0.000780973 0 
3452 1 34.5 44.168 0 0.000413082 -0.000826272 0 
3552 1 35.5 44.168 0 0.000426803 -0.000819785 0 
3652 1 36.5 44.168 0 0.000361958 -0.000764011 0 
3752 1 37.5 44.168 0 0.000276045 -0.000696102 0 
3852 1 38.5 44.168 0 0.000228994 -0.00062778 0 
3952 1 39.5 44.168 0 0.000181432 -0.000560109 0 
4052 1 40.5 44.168 0 0.000109043 -0.000505424 0 
4152 1 41.5 44.168 0 4.97133e-05 -0.000471096 0 
4252 1 42.5 44.168 0 2.8937e-05 -0.000450243 0 
4352 1 43.5 44.168 0 2.78518e-05 -0.000434469 0 
4452 1 44.5 44.168 0 2.23031e-05 -0.00042236 0 
4552 1 45.5 44.168 0 1.0091e-05 -0.000415257 0 
4652 1 46.5 44.168 0 3.31931e-07 -0.000412429 0 
4752 1 47.5 44.168 0 -2.69755e-06 -0.000411629 0 
4852 1 48.5 44.168 0 -1.4817e-06 -0.000411284 0 
4952 1 49.5 44.168 0 2.90357e-07 -0.000410992 0 
5052 1 50.5 44.168 0 1.0244e-06 -0.00041083 0 
5152 1 51.5 44.168 0 8.85433e-07 -0.00041082 0 
5252 1 52.5 44.168 0 4.76833e-07 -0.000410876 0 
5352 1 53.5 44.168 0 1.56482e-07 -0.000410919 0 
5452 1 54.5 44.168 0 -1.95895e-09 -0.000410926 0 
5552 1 55.5 44.168 0 -4.87554e-08 -0.000410911 0 
5652 1 56.5 44.168 0 -4.56497e-08 -0.00041089 0 
5752 1 57.5 44.168 0 -2.98125e-08 -0.000410874 0 
5852 1 58.5 44.168 0 -1.61104e-08 -0.000410865 0 
5952 1 59.5 44.168 0 -7.60764e-09 -0.00041086 0 
6052 1 60.5 44.168 0 -3.21647e-09 -0.000410857 0 
6152 1 61.5 44.168 0 -1.23183e-09 -0.000410856 0 
6252 1 62.5 44.168 0 -4.13654e-10 -0.000410856 0 
6352 1 63.5 44.168 0 -1.45293e-10 -0.000410856 0 
6452 1 64.5 44.168 0 -6.7545e-11 -0.000410856 0 
6552 1 65.5 44.168 0 -3.73444e-12 -0.000410856 0 
6652 1 66.5 44.168 0 2.1432e-21 -0.000410856 0 
6752 1 67.5 44.168 0 2.1432e-21 -0.000410856 0 
6852 1 68.5 44.168 0 2.1432e-21 -0.000410856 0 
6952 1 69.5 44.168 0 2.53264e-21 -0.000410856 0 
7052 1 70.5 44.168 0 2.1432e-21 -0.000410856 0 
7152 1 71.5 44.168 0 2.1432e-21 -0.000410856 0 
7252 1 72.5 44.168 0 2.53264e-21 -0.000410856 0 
7352 1 73.5 44.168 0 2.53264e-21 -0.000410856 0 
7452 1 74.5 44.168 0 2.1432e-21 -0.000410856 0 
7552 1 75.5 44.168 0 2.53264e-21 -0.000410856 0 
7652 1 76.5 44.168 0 2.53264e-21 -0.000410856 0 
7752 1 77.5 44.168 0 2.1432e-21 -0.000410856 0 
7852 1 78.5 44.168 0 2.1432e-21 -0.000410856 0 
7952 1 79.5 44.168 0 2.1432e-21 -0.000410856 0 
8052 1 80.5 44.168 0 2.1432e-21 -0.000410856 0 
8152 1 81.5 44.168 0 2.53264e-21 -0.000410856 0 
8252 1 82.5 44.168 0 2.53264e-21 -0.000410856 0 
8352 1 83.5 44.168 0 2.1432e-21 -0.000410856 0 
8452 1 84.5 44.168 0 2.1432e-21 -0.000410856 0 
8552 1 85.5 44.168 0 2.53264e-21 -0.000410856 0 
8652 1 86.5 44.168 0 2.53264e-21 -0.000410856 0 
8752 1 87.5 44.168 0 2.1432e-21 -0.000410856 0 
8852 1 88.5 44.168 0 2.53264e-21 -0.000410856 0 
8952 1 89.5 44.168 0 2.53264e-21 -0.000410856 0 
9052 1 90.5 44.168 0 2.1432e-21 -0.000410856 0 
9152 1 91.5 44.168 0 2.1432e-21 -0.000410856 0 
9252 1 92.5 44.168 0 2.1432e-21 -0.000410856 0 
9352 1 93.5 44.168 0 2.53264e-21 -0.000410856 0 
9452 1 94.5 44.168 0 2.1432e-21 -0.000410856 0 
9552 1 95.5 44.168 0 2.53264e-21 -0.000410856 0 
9652 1 96.5 44.168 0 2.1432e-21 -0.000410856 0 
9752 1 97.5 44.168 0 2.53264e-21 -0.000410856 0 
9852 1 98.5 44.168 0 2.1432e-21 -0.000410856 0 
9952 1 99.5 44.168 0 2.1432e-21 -0.000410856 0 
10052 1 100.5 44.168 0 2.1432e-21 -0.000410856 0 
10152 1 101.5 44.168 0 2.53264e-21 -0.000410856 0 
10252 1 102.5 44.168 0 2.53264e-21 -0.000410856 0 
10352 1 103.5 44.168 0 2.53264e-21 -0.000410856 0 
10452 1 104.5 44.168 0 2.53264e-21 -0.000410856 0 
10552 1 105.5 44.168 0 2.1432e-21 -0.000410856 0 
10652 1 106.5 44.168 0 2.1432e-21 -0.000410856 0 
10752 1 107.5 44.168 0 2.53264e-21 -0.000410856 0 
10852 1 108.5 44.168 0 2.1432e-21 -0.000410856 0 
10952 1 109.5 44.168 0 2.1432e-21 -0.000410856 0 
11052 1 110.5 44.168 0 2.1432e-21 -0.000410856 0 
11152 1 111.5 44.168 0 2.1432e-21 -0.000410856 0 
11252 1 112.5 44.168 0 2.1432e-21 -0.000410856 0 
11352 1 113.5 44.168 0 2.1432e-21 -0.000410856 0 
11452 1 114.5 44.168 0 2.1432e-21 -0.000410856 0 
11552 1 115.5 44.168 0 2.53264e-21 -0.000410856 0 
11652 1 116.5 44.168 0 2.1432e-21 -0.000410856 0 
11752 1 117.5 44.168 0 2.1432e-21 -0.000410856 0 
11852 1 118.5 44.168 0 2.1432e-21 -0.000410856 0 
11952 1 119.5 44.168 0 2.1432e-21 -0.000410856 0 
12052 1 120.5 44.168 0 2.1432e-21 -0.000410856 0 
12152 1 121.5 44.168 0 2.1432e-21 -0.000410856 0 
12252 1 122.5 44.168 0 2.53264e-21 -0.000410856 0 
12352 1 123.5 44.168 0 2.53264e-21 -0.000410856 0 
12452 1 124.5 44.168 0 2.1432e-21 -0.000410856 0 
12552 1 125.5 44.168 0 8.38291e-11 -0.000410856 0 
12652 1 126.5 44.168 0 4.40478e-10 -0.000410856 0 
12752 1 127.5 44.168 0 2.14427e-09 -0.000410856 0 
12852 1 128.5 44.168 0 1.03038e-08 -0.000410856 0 
12952 1 129.5 44.168 0 4.74126e-08 -0.000410856 0 
13052 1 130.5 44.168 0 2.08659e-07 -0.000410856 0 
13152 1 131.5 44.168 0 8.7277e-07 -0.000410856 0 
13252 1 132.5 44.168 0 3.46817e-06 -0.000410856 0 
13352 1 133.5 44.168 0 1.30609e-05 -0.000410856 0 
13452 1 134.5 44.168 0 4.64922e-05 -0.000410856 0 
13552 1 135.5 44.168 0 0.000155965 -0.000410855 0 
13652 1 136.5 44.168 0 0.00049139 -0.000410855 0 
13752 1 137.5 44.168 0 0.0014482 -0.000410852 0 
13852 1 138.5 44.168 0 0.00397329 -0.000410845 0 
13952 1 139.5 44.168 0 0.010089 -0.000410826 0 
14052 1 140.5 44.168 0 0.0235348 -0.00041078 0 
14152 1 141.5 44.168 0 0.0499518 -0.000410678 0 
14252 1 142.501 44.168 0 0.0951881 -0.000410471 0 
14352 1 143.501 44.168 0 0.159665 -0.000410094 0 
14452 1 144.502 44.168 0 0.228136 -0.00040949 0 
14552 1 145.504 44.168 0 0.260181 -0.000408663 0 
14652 1 146.507 44.168 0 0.196859 -0.000407748 0 
14752 1 147.511 44.168 0 0.00189378 -0.000407023 0 
14852 1 148.515 44.168 0 -0.26997 -0.000406785 0 
14952 1 149.518 44.168 0 -0.443044 -0.000407068 0 
15052 1 150.519 44.168 0 -0.323972 -0.00040741 0 
15152 1 151.52 44.168 0 0.0706892 -0.000407001 0 
15252 1 152.52 44.168 0 0.392872 -0.000405314 0 
15352 1 153.522 44.168 0 0.246123 -0.000402853 0 
15452 1 154.525 44.168 0 -0.25429 -0.000401129 0 
15552 1 155.527 44.168 0 -0.432563 -0.000401302 0 
15652 1 156.528 44.168 0 0.0384438 -0.000402766 0 
15752 1 157.529 44.168 0 0.447586 -0.000403465 0 
15852 1 158.532 44.168 0 0.0540692 -0.000401764 0 
15952 1 159.535 44.168 0 -0.468108 -0.000398649 0 
16052 1 160.536 44.168 0 -0.0780574 -0.000397331 0 
16152 1 161.538 44.168 0 0.468661 -0.000399021 0 
16252 1 162.541 44.168 0 -0.0216956 -0.000399792 0 
16352 1 163.544 44.168 0 -0.467594 -0.000396015 0 
16452 1 164.545 44.168 0 0.195253 -0.000392842 0 
16552 1 165.548 44.168 0 0.3475 -0.000395344 0 
16652 1 166.551 44.168 0 -0.396135 -0.000395562 0 
16752 1 167.554 44.168 0 -0.0636421 -0.000388696 0 
16852 1 168.557 44.168 0 0.387621 -0.000386338 0 
16952 1 169.561 44.168 0 -0.371612 -0.000389105 0 
17052 1 170.563 44.168 0 -0.135985 -0.000388167 0 
17152 1 171.565 44.168 0 0.386872 -0.000391451 0 
17252 1 172.568 44.168 0 -0.407263 -0.000389979 0 
17352 1 173.57 44.168 0 -0.112591 -0.00038232 0 
17452 1 174.573 44.168 0 0.185793 -0.00039402 0 
17552 1 175.575 44.168 0 0.0572017 -0.000388171 0 
17652 1 176.576 44.168 0 0.86093 -0.000380233 0 
17752 1 177.581 44.168 0 -0.798419 -0.000388313 0 
17852 1 178.584 44.168 0 -1.32949 -0.000396893 0 
17952 1 179.584 44.168 0 0.566861 -0.000379191 0 
18052 1 180.587 44.168 0 0.217117 -0.000390626 0 
18152 1 181.589 44.168 0 0.767628 -0.000381447 0 
18252 1 182.592 44.168 0 0.334504 -0.000394921 0 
18352 1 183.596 44.168 0 -0.109828 -0.000382676 0 
18452 1 184.598 44.168 0 0.288205 -0.000381661 0 
18552 1 185.602 44.168 0 -0.683492 -0.000406828 0 
18652 1 186.605 44.168 0 -0.599073 -0.00038579 0 
18752 1 187.608 44.168 0 -0.302493 -0.000379736 0 
18852 1 188.612 44.168 0 0.0887501 -0.000397937 0 
18952 1 189.616 44.168 0 -1.58573 -0.000392788 0 
19052 1 190.618 44.168 0 1.53571 -0.00037621 0 
19152 1 191.624 44.168 0 -0.879326 -0.000408327 0 
19252 1 192.628 44.168 0 -0.12483 -0.000394546 0 
19352 1 193.633 44.168 0 1.2488 -0.000410098 0 
19452 1 194.64 44.168 0 -0.619114 -0.000389367 0 
19552 1 195.647 44.168 0 0.627556 -0.000397638 0 
19652 1 196.656 44.168 0 0.135951 -0.000367179 0 
19752 1 197.668 44.168 0 0.692232 -0.000357225 0 
19852 1 198.685 44.168 0 -0.0867522 -0.000329649 0 
19952 1 199.713 44.168 0 0.130921 -0.000422102 0 
20052 3 200.766 44.168 0 0.52195 -0.000428214 0 
20152 1 201.713 44.168 0 0.241911 -0.000396222 0 
20252 1 202.685 44.168 0 -0.075488 -0.000483976 0 
20352 1 203.668 44.168 0 0.192089 -0.000463115 0 
20452 1 204.656 44.168 0 0.146875 -0.000410554 0 
20552 1 205.647 44.168 0 0.130246 -0.000410416 0 
20652 1 206.64 44.168 0 -1.13229 -0.000439328 0 
20752 1 207.633 44.168 0 1.20865 -0.000429472 0 
20852 1 208.629 44.168 0 -1.55228 -0.000424498 0 
20952 1 209.624 44.168 0 -0.338284 -0.000417227 0 
21052 1 210.619 44.168 0 0.28719 -0.000438853 0 
21152 1 211.616 44.168 0 -1.71109 -0.000433873 0 
21252 1 212.611 44.168 0 0.157302 -0.000422721 0 
21352 1 213.608 44.168 0 -0.497616 -0.000441877 0 
21452 1 214.605 44.168 0 -0.293634 -0.00043544 0 
21552 1 215.601 44.168 0 -0.0187824 -0.000415662 0 
21652 1 216.597 44.168 0 0.767471 -0.000449332 0 
21752 1 217.595 44.168 0 0.284749 -0.000437845 0 
21852 1 218.591 44.168 0 0.617023 -0.000425773 0 
21952 1 219.589 44.168 0 0.528125 -0.000443366 0 
22052 1 220.588 44.168 0 -0.200344 -0.00043128 0 
22152 1 221.585 44.168 0 -0.334645 -0.000437263 0 
22252 1 222.584 44.168 0 -1.51689 -0.000428513 0 
22352 1 223.58 44.168 0 0.014379 -0.000436733 0 
22452 1 224.575 44.168 0 1.30715 -0.000442878 0 
22552 1 225.575 44.168 0 -0.0776713 -0.000431491 0 
22652 1 226.573 44.168 0 -0.161759 -0.000428768 0 
22752 1 227.57 44.168 0 -0.192932 -0.000440242 0 
22852 1 228.567 44.168 0 -0.234918 -0.000431236 0 
22952 1 229.565 44.168 0 0.367596 -0.000430439 0 
23052 1 230.563 44.168 0 -0.151641 -0.000434875 0 
23152 1 231.56 44.168 0 -0.329536 -0.000433651 0 
23252 1 232.556 44.168 0 0.322385 -0.000434446 0 
23352 1 233.553 44.168 0 -0.0229053 -0.000431914 0 
23452 1 234.551 44.168 0 -0.323194 -0.000426608 0 
23552 1 235.547 44.168 0 0.230196 -0.00042665 0 
23652 1 236.545 44.168 0 0.15524 -0.000427959 0 
23752 1 237.543 44.168 0 -0.317611 -0.000425127 0 
23852 1 238.54 44.168 0 -0.0138355 -0.000422401 0 
23952 1 239.538 44.168 0 0.310204 -0.00042306 0 
24052 1 240.536 44.168 0 -0.0830003 -0.000423984 0 
24152 1 241.534 44.168 0 -0.316883 -0.000422393 0 
24252 1 242.532 44.168 0 0.0832799 -0.000419761 0 
24352 1 243.529 44.168 0 0.318606 -0.000418566 0 
24452 1 244.528 44.168 0 -0.0332072 -0.000419265 0 
24552 1 245.527 44.168 0 -0.354298 -0.000420335 0 
24652 1 246.525 44.168 0 -0.152444 -0.000420108 0 
24752 1 247.522 44.168 0 0.243856 -0.000418345 0 
24852 1 248.52 44.168 0 0.307852 -0.000416126 0 
24952 1 249.519 44.168 0 6.58015e-05 -0.000414681 0 
25052 1 250.519 44.168 0 -0.324749 -0.00041438 0 
25152 1 251.517 44.168 0 -0.389538 -0.00041468 0 
25252 1 252.514 44.168 0 -0.21009 -0.000414838 0 
25352 1 253.51 44.168 0 0.0347167 -0.000414499 0 
25452 1 254.507 44.168 0 0.199258 -0.000413751 0 
25552 1 255.504 44.168 0 0.245782 -0.000412875 0 
25652 1 256.502 44.168 0 0.210665 -0.000412106 0 
25752 1 257.501 44.168 0 0.146072 -0.000411551 0 
25852 1 258.5 44.168 0 0.0867671 -0.000411207 0 
25952 1 259.5 44.168 0 0.0454905 -0.000411018 0 
26052 1 260.5 44.168 0 0.0214429 -0.000410925 0 
26152 1 261.5 44.168 0 0.00920342 -0.000410883 0 
26252 1 262.5 44.168 0 0.00363053 -0.000410866 0 
26352 1 263.5 44.168 0 0.00132578 -0.000410859 0 
26452 1 264.5 44.168 0 0.000450774 -0.000410857 0 
26552 1 265.5 44.168 0 0.000143379 -0.000410856 0 
26652 1 266.5 44.168 0 4.2833e-05 -0.000410856 0 
26752 1 267.5 44.168 0 1.20592e-05 -0.000410856 0 
26852 1 268.5 44.168 0 3.20914e-06 -0.000410856 0 
26952 1 269.5 44.168 0 8.09292e-07 -0.000410856 0 
27052 1 270.5 44.168 0 1.93814e-07 -0.000410856 0 
27152 1 271.5 44.168 0 4.42204e-08 -0.000410856 0 
27252 1 272.5 44.168 0 9.58636e-09 -0.000410856 0 
27352 1 273.5 44.168 0 2.03417e-09 -0.000410856 0 
27452 1 274.5 44.168 0 4.57286e-10 -0.000410856 0 
27552 1 275.5 44.168 0 3.01123e-11 -0.000410856 0 
27652 1 276.5 44.168 0 2.1432e-21 -0.000410856 0 
27752 1 277.5 44.168 0 2.1432e-21 -0.000410856 0 
27852 1 278.5 44.168 0 2.1432e-21 -0.000410856 0 
27952 1 279.5 44.168 0 2.1432e-21 -0.000410856 0 
28052 1 280.5 44.168 0 2.1432e-21 -0.000410856 0 
28152 1 281.5 44.168 0 2.1432e-21 -0.000410856 0 
28252 1 282.5 44.168 0 2.53264e-21 -0.000410856 0 
28352 1 283.5 44.168 0 2.53264e-21 -0.000410856 0 
28452 1 284.5 44.168 0 2.1432e-21 -0.000410856 0 
28552 1 285.5 44.168 0 2.1432e-21 -0.000410856 0 
28652 1 286.5 44.168 0 2.53264e-21 -0.000410856 0 
28752 1 287.5 44.168 0 2.1432e-21 -0.000410856 0 
28852 1 288.5 44.168 0 2.53264e-21 -0.000410856 0 
28952 1 289.5 44.168 0 2.53264e-21 -0.000410856 0 
29052 1 290.5 44.168 0 2.53264e-21 -0.000410856 0 
29152 1 291.5 44.168 0 2.1432e-21 -0.000410856 0 
29252 1 292.5 44.168 0 2.53264e-21 -0.000410856 0 
29352 1 293.5 44.168 0 2.1432e-21 -0.000410856 0 
29452 1 294.5 44.168 0 2.53264e-21 -0.000410856 0 
29552 1 295.5 44.168 0 2.53264e-21 -0.000410856 0 
29652 1 296.5 44.168 0 2.1432e-21 -0.000410856 0 
29752 1 297.5 44.168 0 2.1432e-21 -0.000410856 0 
29852 1 298.5 44.168 0 2.1432e-21 -0.000410856 0 
29952 1 299.5 44.168 0 2.1432e-21 -0.000410856 0 
30052 1 300.5 44.168 0 2.1432e-21 -0.000410856 0 
30152 1 301.5 44.168 0 2.53264e-21 -0.000410856 0 
30252 1 302.5 44.168 0 2.1432e-21 -0.000410856 0 
30352 1 303.5 44.168 0 2.1432e-21 -0.000410856 0 
30452 1 304.5 44.168 0 2.1432e-21 -0.000410856 0 
30552 1 305.5 44.168 0 2.1432e-21 -0.000410856 0 
30652 1 306.5 44.168 0 2.53264e-21 -0.000410856 0 
30752 1 307.5 44.168 0 2.53264e-21 -0.000410856 0 
30852 1 308.5 44.168 0 2.1432e-21 -0.000410856 0 
30952 1 309.5 44.168 0 2.1432e-21 -0.000410856 0 
31052 1 310.5 44.168 0 2.1432e-21 -0.000410856 0 
31152 1 311.5 44.168 0 2.53264e-21 -0.000410856 0 
31252 1 312.5 44.168 0 2.53264e-21 -0.000410856 0 
31352 1 313.5 44.168 0 2.1432e-21 -0.000410856 0 
31452 1 314.5 44.168 0 2.1432e-21 -0.000410856 0 
31552 1 315.5 44.168 0 2.53264e-21 -0.000410856 0 
31652 1 316.5 44.168 0 2.1432e-21 -0.000410856 0 
31752 1 317.5 44.168 0 2.53264e-21 -0.000410856 0 
31852 1 318.5 44.168 0 2.53264e-21 -0.000410856 0 
31952 1 319.5 44.168 0 2.53264e-21 -0.000410856 0 
32052 1 320.5 44.168 0 2.1432e-21 -0.000410856 0 
32152 1 321.5 44.168 0 2.1432e-21 -0.000410856 0 
32252 1 322.5 44.168 0 2.53264e-21 -0.000410856 0 
32352 1 323.5 44.168 0 2.1432e-21 -0.000410856 0 
32452 1 324.5 44.168 0 2.53264e-21 -0.000410856 0 
32552 1 325.5 44.168 0 2.53264e-21 -0.000410856 0 
32652 1 326.5 44.168 0 2.53264e-21 -0.000410856 0 
32752 1 327.5 44.168 0 2.53264e-21 -0.000410856 0 
32852 1 328.5 44.168 0 2.1432e-21 -0.000410856 0 
32952 1 329.5 44.168 0 2.53264e-21 -0.000410856 0 
33052 1 330.5 44.168 0 2.1432e-21 -0.000410856 0 
33152 1 331.5 44.168 0 2.1432e-21 -0.000410856 0 
33252 1 332.5 44.168 0 2.53264e-21 -0.000410856 0 
33352 1 333.5 44.168 0 2.53264e-21 -0.000410856 0 
33452 1 334.5 44.168 0 2.53264e-21 -0.000410856 0 
33552 1 335.5 44.168 0 -2.98545e-14 -0.000410856 0 
33652 1 336.5 44.168 0 1.88222e-10 -0.000410856 0 
33752 1 337.5 44.168 0 5.2286e-10 -0.000410856 0 
33852 1 338.5 44.168 0 1.2357e-09 -0.000410856 0 
33952 1 339.5 44.168 0 3.13552e-09 -0.000410857 0 
34052 1 340.5 44.168 0 7.52631e-09 -0.00041086 0 
34152 1 341.5 44.168 0 1.61669e-08 -0.000410865 0 
34252 1 342.5 44.168 0 2.989e-08 -0.000410874 0 
34352 1 343.5 44.168 0 4.55558e-08 -0.00041089 0 
34452 1 344.5 44.168 0 4.87818e-08 -0.000410911 0 
34552 1 345.5 44.168 0 1.81132e-09 -0.000410926 0 
34652 1 346.5 44.168 0 -1.56285e-07 -0.000410919 0 
34752 1 347.5 44.168 0 -4.76725e-07 -0.000410876 0 
34852 1 348.5 44.168 0 -8.85531e-07 -0.00041082 0 
34952 1 349.5 44.168 0 -1.02449e-06 -0.00041083 0 
35052 1 350.5 44.168 0 -2.90538e-07 -0.000410992 0 
35152 1 351.5 44.168 0 1.48173e-06 -0.000411283 0 
35252 1 352.5 44.168 0 2.69747e-06 -0.000411629 0 
35352 1 353.5 44.168 0 -3.31856e-07 -0.000412429 0 
35452 1 354.5 44.168 0 -1.00911e-05 -0.000415257 0 
35552 1 355.5 44.168 0 -2.23036e-05 -0.00042236 0 
35652 1 356.5 44.168 0 -2.78516e-05 -0.000434469 0 
35752 1 357.5 44.168 0 -2.89369e-05 -0.000450243 0 
35852 1 358.5 44.168 0 -4.97134e-05 -0.000471096 0 
35952 1 359.5 44.168 0 -0.000109042 -0.000505425 0 
36052 1 360.5 44.168 0 -0.000181432 -0.000560108 0 
36152 1 361.5 44.168 0 -0.000228994 -0.000627781 0 
36252 1 362.5 44.168 0 -0.000276045 -0.000696102 0 
36352 1 363.5 44.168 0 -0.000361958 -0.000764011 0 
36452 1 364.5 44.168 0 -0.000426803 -0.000819785 0 
36552 1 365.5 44.168 0 -0.000413082 -0.000826271 0 
36652 1 366.5 44.168 0 -0.000405433 -0.000780973 0 
36752 1 367.5 44.168 0 -0.000410744 -0.000723568 0 
36852 1 368.5 44.168 0 -0.000293864 -0.000627918 0 
36952 1 369.5 44.168 0 -0.000168839 -0.000457316 0 
37052 1 370.5 44.168 0 -0.0001773 -0.000315516 0 
37152 1 371.5 44.168 0 -8.60489e-05 -0.000263078 0 
37252 1 372.5 44.1679 0 2.12525e-05 -0.000221245 0 
37352 1 373.5 44.1679 0 -0.000119593 -0.00023727 0 
37452 1 374.5 44.1679 0 -0.000124978 -0.000313817 0 
37552 1 375.5 44.1679 0 -7.02373e-05 -0.000366523 0 
37652 1 376.5 44.1679 0 -0.00030055 -0.000487097 0 
37752 1 377.5 44.1679 0 -0.000232604 -0.000525638 0 
37852 1 378.5 44.1679 0 -0.000168373 -0.000514006 0 
37952 1 379.5 44.1679 0 -0.000328842 -0.000440551 0 
38052 1 380.5 44.1679 0 -0.000101864 -0.000397647 0 
38152 1 381.5 44.1679 0 -0.000160045 -0.000220804 0 
38252 1 382.5 44.1678 0 -0.000107803 -0.000188796 0 
38352 1 383.5 44.1678 0 2.66748e-05 -5.59082e-05 0 
38452 1 384.5 44.1678 0 -5.51453e-05 -9.77717e-05 0 
38552 1 385.5 44.1678 0 3.06862e-05 -0.00019846 0 
38652 1 386.5 44.1678 0 -4.51595e-05 -0.000401341 0 
38752 1 387.5 44.1678 0 0.000208468 -0.000738849 0 
38852 1 388.5 44.1677 0 0.000378237 -0.00124237 0 
38952 1 389.5 44.1677 0 0.000658348 -0.00169262 0 
39052 1 390.5 44.1677 0 0.000779817 -0.00181909 0 
39152 1 391.5 44.1676 0 0.00049925 -0.00147791 0 
39252 1 392.5 44.1676 0 -3.05185e-05 -0.000449318 0 
39352 1 393.5 44.1675 0 -0.00034273 -4.08995e-05 0 
39452 1 394.5 44.1675 0 6.15698e-05 -0.000196502 0 
39552 1 395.5 44.1674 0 0.000205606 -0.00040787 0 
39652 1 396.5 44.1674 0 -0.000159519 0.000228344 0 
39752 1 397.5 44.1673 0 7.25907e-05 8.65669e-05 0 
39852 2 398.5 44.1673 0 -0.00444786 -0.000397216 0 
39952 2 399.5 44.1673 0 -2.20719e-05 -0.000198667 0 
