ITEM: TIMESTEP
1540
ITEM: NUMBER OF ATOMS
400
ITEM: BOX BOUNDS ff pp pp
0.0000000000000000e+00 4.0000000000000000e+02
0.0000000000000000e+00 8.6602540000000005e+01
0.0000000000000000e+00 1.0000000000000000e+00
ITEM: ATOMS id type x y z fx fy fz 
52 2 0.5 44.1673 0 0 -0.000397333 0 
152 2 1.5 44.1673 0 -6.95194e-06 -0.000397333 0 
252 1 2.5 44.1673 0 3.79774e-05 -8.2865e-05 0 
352 1 3.5 44.1673 0 5.46632e-05 -0.000229696 0 
452 1 4.5 44.1673 0 1.82182e-07 -0.000451298 0 
552 1 5.5 44.1673 0 1.67126e-05 -0.000413297 0 
652 1 6.5 44.1673 0 -9.5407e-07 -0.000412582 0 
752 1 7.5 44.1673 0 -1.64857e-05 -0.000284394 0 
852 1 8.5 44.1673 0 2.08597e-05 -0.000222117 0 
952 1 9.5 44.1673 0 -3.03865e-05 -0.0002899 0 
1052 1 10.5 44.1673 0 6.21592e-05 -0.000265799 0 
1152 1 11.5 44.1673 0 -7.61374e-05 -0.000236453 0 
1252 1 12.5 44.1673 0 7.57118e-05 -0.000292874 0 
1352 1 13.5 44.1673 0 1.72586e-05 -0.000210429 0 
1452 1 14.5 44.1673 0 -7.34877e-05 -0.00027567 0 
1552 1 15.5 44.1673 0 8.154e-05 -0.000218102 0 
1652 1 16.5 44.1673 0 -5.57792e-05 -0.000259615 0 
1752 1 17.5 44.1673 0 -3.76482e-05 -0.000280462 0 
1852 1 18.5 44.1673 0 6.98718e-05 -0.000259895 0 
1952 1 19.5 44.1673 0 -2.18237e-05 -0.000241988 0 
2052 1 20.5 44.1673 0 -1.6431e-05 -0.00025375 0 
2152 1 21.5 44.1673 0 3.73176e-05 -0.000246047 0 
2252 1 22.5 44.1673 0 -1.0728e-05 -0.000242096 0 
2352 1 23.5 44.1673 0 -2.44631e-05 -0.000258224 0 
2452 1 24.5 44.1673 0 1.75714e-05 -0.000257892 0 
2552 1 25.5 44.1673 0 1.36254e-05 -0.000244294 0 
2652 1 26.5 44.1673 0 -1.76913e-05 -0.000244721 0 
2752 1 27.5 44.1673 0 -1.62409e-05 -0.000254774 0 
2852 1 28.5 44.1673 0 4.53737e-06 -0.000257733 0 
2952 1 29.5 44.1673 0 1.13673e-05 -0.000253481 0 
3052 1 30.5 44.1673 0 4.59773e-06 -0.000250139 0 
3152 1 31.5 44.1673 0 -1.37421e-06 -0.000250231 0 
3252 1 32.5 44.1673 0 -2.05516e-06 -0.000251483 0 
3352 1 33.5 44.1673 0 -6.88035e-07 -0.000252114 0 
3452 1 34.5 44.1673 0 1.19051e-07 -0.000252081 0 
3552 1 35.5 44.1673 0 1.79669e-07 -0.000251884 0 
3652 1 36.5 44.1673 0 4.23942e-08 -0.000251767 0 
3752 1 37.5 44.1673 0 -2.62e-08 -0.000251735 0 
3852 1 38.5 44.1673 0 -2.71479e-08 -0.000251735 0 
3952 1 39.5 44.1673 0 -1.20302e-08 -0.000251739 0 
4052 1 40.5 44.1673 0 -2.77273e-09 -0.00025174 0 
4152 1 41.5 44.1673 0 9.57822e-11 -0.00025174 0 
4252 1 42.5 44.1673 0 4.03126e-10 -0.000251739 0 
4352 1 43.5 44.1673 0 1.91311e-10 -0.000251739 0 
4452 1 44.5 44.1673 0 2.90926e-11 -0.000251739 0 
4552 1 45.5 44.1673 0 4.29866e-12 -0.000251739 0 
4652 1 46.5 44.1673 0 1.55346e-11 -0.000251739 0 
4752 1 47.5 44.1673 0 -1.36402e-11 -0.000251739 0 
4852 1 48.5 44.1673 0 -4.88688e-24 -0.000251739 0 
4952 1 49.5 44.1673 0 -4.88688e-24 -0.000251739 0 
5052 1 50.5 44.1673 0 6.79003e-21 -0.000251739 0 
5152 1 51.5 44.1673 0 6.79003e-21 -0.000251739 0 
5252 1 52.5 44.1673 0 -4.88688e-24 -0.000251739 0 
5352 1 53.5 44.1673 0 6.79003e-21 -0.000251739 0 
5452 1 54.5 44.1673 0 -4.88688e-24 -0.000251739 0 
5552 1 55.5 44.1673 0 -4.88688e-24 -0.000251739 0 
5652 1 56.5 44.1673 0 6.79003e-21 -0.000251739 0 
5752 1 57.5 44.1673 0 6.79003e-21 -0.000251739 0 
5852 1 58.5 44.1673 0 -4.88688e-24 -0.000251739 0 
5952 1 59.5 44.1673 0 6.79003e-21 -0.000251739 0 
6052 1 60.5 44.1673 0 6.79003e-21 -0.000251739 0 
6152 1 61.5 44.1673 0 6.79003e-21 -0.000251739 0 
6252 1 62.5 44.1673 0 6.79003e-21 -0.000251739 0 
6352 1 63.5 44.1673 0 6.79003e-21 -0.000251739 0 
6452 1 64.5 44.1673 0 -4.88688e-24 -0.000251739 0 
6552 1 65.5 44.1673 0 6.79003e-21 -0.000251739 0 
6652 1 66.5 44.1673 0 -4.88688e-24 -0.000251739 0 
6752 1 67.5 44.1673 0 -4.88688e-24 -0.000251739 0 
6852 1 68.5 44.1673 0 -4.88688e-24 -0.000251739 0 
6952 1 69.5 44.1673 0 6.79003e-21 -0.000251739 0 
7052 1 70.5 44.1673 0 -4.88688e-24 -0.000251739 0 
7152 1 71.5 44.1673 0 -4.88688e-24 -0.000251739 0 
7252 1 72.5 44.1673 0 6.79003e-21 -0.000251739 0 
7352 1 73.5 44.1673 0 6.79003e-21 -0.000251739 0 
7452 1 74.5 44.1673 0 -4.88688e-24 -0.000251739 0 
7552 1 75.5 44.1673 0 6.79003e-21 -0.000251739 0 
7652 1 76.5 44.1673 0 6.79003e-21 -0.000251739 0 
7752 1 77.5 44.1673 0 -4.88688e-24 -0.000251739 0 
7852 1 78.5 44.1673 0 -4.88688e-24 -0.000251739 0 
7952 1 79.5 44.1673 0 -4.88688e-24 -0.000251739 0 
8052 1 80.5 44.1673 0 -4.88688e-24 -0.000251739 0 
8152 1 81.5 44.1673 0 6.79003e-21 -0.000251739 0 
8252 1 82.5 44.1673 0 6.79003e-21 -0.000251739 0 
8352 1 83.5 44.1673 0 -4.88688e-24 -0.000251739 0 
8452 1 84.5 44.1673 0 -4.88688e-24 -0.000251739 0 
8552 1 85.5 44.1673 0 6.79003e-21 -0.000251739 0 
8652 1 86.5 44.1673 0 6.79003e-21 -0.000251739 0 
8752 1 87.5 44.1673 0 -4.88688e-24 -0.000251739 0 
8852 1 88.5 44.1673 0 6.79003e-21 -0.000251739 0 
8952 1 89.5 44.1673 0 6.79003e-21 -0.000251739 0 
9052 1 90.5 44.1673 0 -4.88688e-24 -0.000251739 0 
9152 1 91.5 44.1673 0 -4.88688e-24 -0.000251739 0 
9252 1 92.5 44.1673 0 -4.88688e-24 -0.000251739 0 
9352 1 93.5 44.1673 0 6.79003e-21 -0.000251739 0 
9452 1 94.5 44.1673 0 -4.88688e-24 -0.000251739 0 
9552 1 95.5 44.1673 0 6.79003e-21 -0.000251739 0 
9652 1 96.5 44.1673 0 -4.88688e-24 -0.000251739 0 
9752 1 97.5 44.1673 0 6.79003e-21 -0.000251739 0 
9852 1 98.5 44.1673 0 -4.88688e-24 -0.000251739 0 
9952 1 99.5 44.1673 0 -4.88688e-24 -0.000251739 0 
10052 1 100.5 44.1673 0 -4.88688e-24 -0.000251739 0 
10152 1 101.5 44.1673 0 6.79003e-21 -0.000251739 0 
10252 1 102.5 44.1673 0 6.79003e-21 -0.000251739 0 
10352 1 103.5 44.1673 0 6.79003e-21 -0.000251739 0 
10452 1 104.5 44.1673 0 6.79003e-21 -0.000251739 0 
10552 1 105.5 44.1673 0 -4.88688e-24 -0.000251739 0 
10652 1 106.5 44.1673 0 -4.88688e-24 -0.000251739 0 
10752 1 107.5 44.1673 0 6.79003e-21 -0.000251739 0 
10852 1 108.5 44.1673 0 -4.88688e-24 -0.000251739 0 
10952 1 109.5 44.1673 0 -4.88688e-24 -0.000251739 0 
11052 1 110.5 44.1673 0 -4.88688e-24 -0.000251739 0 
11152 1 111.5 44.1673 0 -4.88688e-24 -0.000251739 0 
11252 1 112.5 44.1673 0 -4.88688e-24 -0.000251739 0 
11352 1 113.5 44.1673 0 -4.88688e-24 -0.000251739 0 
11452 1 114.5 44.1673 0 -4.88688e-24 -0.000251739 0 
11552 1 115.5 44.1673 0 6.79003e-21 -0.000251739 0 
11652 1 116.5 44.1673 0 -4.88688e-24 -0.000251739 0 
11752 1 117.5 44.1673 0 -4.88688e-24 -0.000251739 0 
11852 1 118.5 44.1673 0 -4.88688e-24 -0.000251739 0 
11952 1 119.5 44.1673 0 -4.88688e-24 -0.000251739 0 
12052 1 120.5 44.1673 0 -4.88688e-24 -0.000251739 0 
12152 1 121.5 44.1673 0 -4.88688e-24 -0.000251739 0 
12252 1 122.5 44.1673 0 6.79003e-21 -0.000251739 0 
12352 1 123.5 44.1673 0 6.79003e-21 -0.000251739 0 
12452 1 124.5 44.1673 0 -4.88688e-24 -0.000251739 0 
12552 1 125.5 44.1673 0 6.79003e-21 -0.000251739 0 
12652 1 126.5 44.1673 0 -4.88688e-24 -0.000251739 0 
12752 1 127.5 44.1673 0 -4.88688e-24 -0.000251739 0 
12852 1 128.5 44.1673 0 -4.88688e-24 -0.000251739 0 
12952 1 129.5 44.1673 0 -4.88688e-24 -0.000251739 0 
13052 1 130.5 44.1673 0 -4.88688e-24 -0.000251739 0 
13152 1 131.5 44.1673 0 6.79003e-21 -0.000251739 0 
13252 1 132.5 44.1673 0 6.79003e-21 -0.000251739 0 
13352 1 133.5 44.1673 0 6.79003e-21 -0.000251739 0 
13452 1 134.5 44.1673 0 6.79003e-21 -0.000251739 0 
13552 1 135.5 44.1673 0 -4.88688e-24 -0.000251739 0 
13652 1 136.5 44.1673 0 -4.88688e-24 -0.000251739 0 
13752 1 137.5 44.1673 0 6.79003e-21 -0.000251739 0 
13852 1 138.5 44.1673 0 6.79003e-21 -0.000251739 0 
13952 1 139.5 44.1673 0 -4.88688e-24 -0.000251739 0 
14052 1 140.5 44.1673 0 6.79003e-21 -0.000251739 0 
14152 1 141.5 44.1673 0 6.79003e-21 -0.000251739 0 
14252 1 142.5 44.1673 0 6.79003e-21 -0.000251739 0 
14352 1 143.5 44.1673 0 -4.88688e-24 -0.000251739 0 
14452 1 144.5 44.1673 0 -4.88688e-24 -0.000251739 0 
14552 1 145.5 44.1673 0 6.79003e-21 -0.000251739 0 
14652 1 146.5 44.1673 0 9.7831e-11 -0.000251739 0 
14752 1 147.5 44.1673 0 6.02786e-10 -0.000251739 0 
14852 1 148.5 44.1673 0 3.79621e-09 -0.000251739 0 
14952 1 149.5 44.1673 0 2.24531e-08 -0.000251739 0 
15052 1 150.5 44.1673 0 1.24934e-07 -0.000251739 0 
15152 1 151.5 44.1673 0 6.52932e-07 -0.000251739 0 
15252 1 152.5 44.1673 0 3.19823e-06 -0.000251739 0 
15352 1 153.5 44.1673 0 1.46263e-05 -0.000251739 0 
15452 1 154.5 44.1673 0 6.22176e-05 -0.000251739 0 
15552 1 155.5 44.1673 0 0.000245064 -0.000251739 0 
15652 1 156.5 44.1673 0 0.000889063 -0.000251739 0 
15752 1 157.5 44.1673 0 0.00295188 -0.000251739 0 
15852 1 158.5 44.1673 0 0.00889922 -0.000251738 0 
15952 1 159.5 44.1673 0 0.0241164 -0.000251736 0 
16052 1 160.5 44.1673 0 0.0579597 -0.000251732 0 
16152 1 161.501 44.1673 0 0.121183 -0.000251722 0 
16252 1 162.501 44.1673 0 0.213885 -0.000251706 0 
16352 1 163.503 44.1673 0 0.301691 -0.000251687 0 
16452 1 164.505 44.1673 0 0.298185 -0.000251678 0 
16552 1 165.509 44.1673 0 0.103736 -0.000251706 0 
16652 1 166.513 44.1673 0 -0.261882 -0.000251802 0 
16752 1 167.517 44.1673 0 -0.533914 -0.000251964 0 
16852 1 168.518 44.1673 0 -0.354643 -0.000252129 0 
16952 1 169.519 44.1673 0 0.222578 -0.000252209 0 
17052 1 170.521 44.1673 0 0.500245 -0.000252192 0 
17152 1 171.524 44.1673 0 -0.0198708 -0.000252192 0 
17252 1 172.527 44.1673 0 -0.557568 -0.000252306 0 
17352 1 173.529 44.1673 0 -0.0755936 -0.00025244 0 
17452 1 174.531 44.1673 0 0.559089 -0.000252465 0 
17552 1 175.534 44.1673 0 -0.0381521 -0.000252488 0 
17652 1 176.538 44.1673 0 -0.55036 -0.000252652 0 
17752 1 177.54 44.1673 0 0.286107 -0.000252793 0 
17852 1 178.544 44.1673 0 0.310161 -0.000252833 0 
17952 1 179.549 44.1673 0 -0.552407 -0.000253082 0 
18052 1 180.552 44.1673 0 0.173009 -0.000253647 0 
18152 1 181.556 44.1673 0 0.273181 -0.000253889 0 
18252 1 182.559 44.1673 0 -0.73295 -0.000253249 0 
18352 1 183.562 44.1673 0 -0.0168702 -0.000254337 0 
18452 1 184.565 44.1673 0 -0.204925 -0.000255911 0 
18552 1 185.568 44.1673 0 0.569203 -0.000253402 0 
18652 1 186.57 44.1673 0 1.59567 -0.00025592 0 
18752 1 187.577 44.1673 0 -1.30949 -0.000255761 0 
18852 1 188.58 44.1673 0 -0.52575 -0.000255173 0 
18952 1 189.583 44.1673 0 0.0152532 -0.000259364 0 
19052 1 190.589 44.1673 0 -1.3738 -0.000255443 0 
19152 1 191.592 44.1673 0 0.140051 -0.000258922 0 
19252 1 192.597 44.1673 0 0.546978 -0.00026247 0 
19352 1 193.603 44.1673 0 -0.93337 -0.000258537 0 
19452 1 194.608 44.1673 0 0.778859 -0.000261205 0 
19552 1 195.616 44.1673 0 1.19226 -0.000255707 0 
19652 1 196.626 44.1673 0 -1.1441 -0.000280169 0 
19752 1 197.636 44.1673 0 1.81224 -0.000323483 0 
19852 1 198.654 44.1673 0 -1.00291 -0.000289039 0 
19952 1 199.681 44.1673 0 2.24614 -0.000235062 0 
20052 3 200.736 44.1673 0 -1.78901 -0.000240268 0 
20152 1 201.68 44.1673 0 2.10791 -0.000253652 0 
20252 1 202.654 44.1673 0 -0.739147 -0.000197278 0 
20352 1 203.636 44.1673 0 1.43548 -0.000178231 0 
20452 1 204.626 44.1673 0 -1.23007 -0.000236262 0 
20552 1 205.616 44.1673 0 0.788029 -0.000251466 0 
20652 1 206.608 44.1673 0 0.119296 -0.000240804 0 
20752 1 207.604 44.1673 0 -1.29841 -0.000243529 0 
20852 1 208.597 44.1673 0 0.00897638 -0.000237997 0 
20952 1 209.592 44.1673 0 -0.496858 -0.000243219 0 
21052 1 210.589 44.1673 0 -1.52604 -0.000245736 0 
21152 1 211.583 44.1673 0 0.231439 -0.000241872 0 
21252 1 212.579 44.1673 0 -0.413065 -0.000247255 0 
21352 1 213.575 44.1673 0 -0.32276 -0.000245619 0 
21452 1 214.569 44.1673 0 2.10631 -0.000246292 0 
21552 1 215.568 44.1673 0 0.209356 -0.00024814 0 
21652 1 216.566 44.1673 0 -0.751879 -0.000245968 0 
21752 1 217.561 44.1673 0 -0.256676 -0.000248279 0 
21852 1 218.559 44.1673 0 -0.479829 -0.000248894 0 
21952 1 219.555 44.1673 0 0.38044 -0.000248401 0 
22052 1 220.552 44.1673 0 0.17736 -0.00024898 0 
22152 1 221.548 44.1673 0 -0.492214 -0.000249664 0 
22252 1 222.544 44.1673 0 0.176844 -0.000250065 0 
22352 1 223.54 44.1673 0 0.230092 -0.000250263 0 
22452 1 224.537 44.1673 0 -0.373322 -0.000250487 0 
22552 1 225.534 44.1673 0 -0.0208453 -0.000250721 0 
22652 1 226.53 44.1673 0 0.379044 -0.000250837 0 
22752 1 227.529 44.1673 0 -0.0997289 -0.000250921 0 
22852 1 228.526 44.1673 0 -0.404768 -0.000251069 0 
22952 1 229.523 44.1673 0 0.0422837 -0.000251195 0 
23052 1 230.52 44.1673 0 0.40087 -0.000251229 0 
23152 1 231.519 44.1673 0 0.118274 -0.00025125 0 
23252 1 232.518 44.1673 0 -0.353459 -0.00025135 0 
23352 1 233.516 44.1673 0 -0.457191 -0.000251517 0 
23452 1 234.512 44.1673 0 -0.191253 -0.000251673 0 
23552 1 235.508 44.1673 0 0.127626 -0.000251765 0 
23652 1 236.505 44.1673 0 0.28603 -0.000251794 0 
23752 1 237.503 44.1673 0 0.278826 -0.000251786 0 
23852 1 238.501 44.1673 0 0.195429 -0.000251769 0 
23952 1 239.5 44.1673 0 0.110398 -0.000251754 0 
24052 1 240.5 44.1673 0 0.0528296 -0.000251746 0 
24152 1 241.5 44.1673 0 0.0220283 -0.000251742 0 
24252 1 242.5 44.1673 0 0.00815173 -0.00025174 0 
24352 1 243.5 44.1673 0 0.00271249 -0.000251739 0 
24452 1 244.5 44.1673 0 0.000819649 -0.000251739 0 
24552 1 245.5 44.1673 0 0.000226677 -0.000251739 0 
24652 1 246.5 44.1673 0 5.7737e-05 -0.000251739 0 
24752 1 247.5 44.1673 0 1.36163e-05 -0.000251739 0 
24852 1 248.5 44.1673 0 2.98644e-06 -0.000251739 0 
24952 1 249.5 44.1673 0 6.11558e-07 -0.000251739 0 
25052 1 250.5 44.1673 0 1.17247e-07 -0.000251739 0 
25152 1 251.5 44.1673 0 2.1189e-08 -0.000251739 0 
25252 1 252.5 44.1673 0 3.62781e-09 -0.000251739 0 
25352 1 253.5 44.1673 0 5.71358e-10 -0.000251739 0 
25452 1 254.5 44.1673 0 9.03045e-11 -0.000251739 0 
25552 1 255.5 44.1673 0 -4.88688e-24 -0.000251739 0 
25652 1 256.5 44.1673 0 6.79003e-21 -0.000251739 0 
25752 1 257.5 44.1673 0 6.79003e-21 -0.000251739 0 
25852 1 258.5 44.1673 0 -4.88688e-24 -0.000251739 0 
25952 1 259.5 44.1673 0 6.79003e-21 -0.000251739 0 
26052 1 260.5 44.1673 0 6.79003e-21 -0.000251739 0 
26152 1 261.5 44.1673 0 6.79003e-21 -0.000251739 0 
26252 1 262.5 44.1673 0 6.79003e-21 -0.000251739 0 
26352 1 263.5 44.1673 0 -4.88688e-24 -0.000251739 0 
26452 1 264.5 44.1673 0 -4.88688e-24 -0.000251739 0 
26552 1 265.5 44.1673 0 -4.88688e-24 -0.000251739 0 
26652 1 266.5 44.1673 0 -4.88688e-24 -0.000251739 0 
26752 1 267.5 44.1673 0 -4.88688e-24 -0.000251739 0 
26852 1 268.5 44.1673 0 6.79003e-21 -0.000251739 0 
26952 1 269.5 44.1673 0 6.79003e-21 -0.000251739 0 
27052 1 270.5 44.1673 0 6.79003e-21 -0.000251739 0 
27152 1 271.5 44.1673 0 6.79003e-21 -0.000251739 0 
27252 1 272.5 44.1673 0 -4.88688e-24 -0.000251739 0 
27352 1 273.5 44.1673 0 -4.88688e-24 -0.000251739 0 
27452 1 274.5 44.1673 0 6.79003e-21 -0.000251739 0 
27552 1 275.5 44.1673 0 -4.88688e-24 -0.000251739 0 
27652 1 276.5 44.1673 0 -4.88688e-24 -0.000251739 0 
27752 1 277.5 44.1673 0 -4.88688e-24 -0.000251739 0 
27852 1 278.5 44.1673 0 -4.88688e-24 -0.000251739 0 
27952 1 279.5 44.1673 0 -4.88688e-24 -0.000251739 0 
28052 1 280.5 44.1673 0 -4.88688e-24 -0.000251739 0 
28152 1 281.5 44.1673 0 -4.88688e-24 -0.000251739 0 
28252 1 282.5 44.1673 0 6.79003e-21 -0.000251739 0 
28352 1 283.5 44.1673 0 6.79003e-21 -0.000251739 0 
28452 1 284.5 44.1673 0 -4.88688e-24 -0.000251739 0 
28552 1 285.5 44.1673 0 -4.88688e-24 -0.000251739 0 
28652 1 286.5 44.1673 0 6.79003e-21 -0.000251739 0 
28752 1 287.5 44.1673 0 -4.88688e-24 -0.000251739 0 
28852 1 288.5 44.1673 0 6.79003e-21 -0.000251739 0 
28952 1 289.5 44.1673 0 6.79003e-21 -0.000251739 0 
29052 1 290.5 44.1673 0 6.79003e-21 -0.000251739 0 
29152 1 291.5 44.1673 0 -4.88688e-24 -0.000251739 0 
29252 1 292.5 44.1673 0 6.79003e-21 -0.000251739 0 
29352 1 293.5 44.1673 0 -4.88688e-24 -0.000251739 0 
29452 1 294.5 44.1673 0 6.79003e-21 -0.000251739 0 
29552 1 295.5 44.1673 0 6.79003e-21 -0.000251739 0 
29652 1 296.5 44.1673 0 -4.88688e-24 -0.000251739 0 
29752 1 297.5 44.1673 0 -4.88688e-24 -0.000251739 0 
29852 1 298.5 44.1673 0 -4.88688e-24 -0.000251739 0 
29952 1 299.5 44.1673 0 -4.88688e-24 -0.000251739 0 
30052 1 300.5 44.1673 0 -4.88688e-24 -0.000251739 0 
30152 1 301.5 44.1673 0 6.79003e-21 -0.000251739 0 
30252 1 302.5 44.1673 0 -4.88688e-24 -0.000251739 0 
30352 1 303.5 44.1673 0 -4.88688e-24 -0.000251739 0 
30452 1 304.5 44.1673 0 -4.88688e-24 -0.000251739 0 
30552 1 305.5 44.1673 0 -4.88688e-24 -0.000251739 0 
30652 1 306.5 44.1673 0 6.79003e-21 -0.000251739 0 
30752 1 307.5 44.1673 0 6.79003e-21 -0.000251739 0 
30852 1 308.5 44.1673 0 -4.88688e-24 -0.000251739 0 
30952 1 309.5 44.1673 0 -4.88688e-24 -0.000251739 0 
31052 1 310.5 44.1673 0 -4.88688e-24 -0.000251739 0 
31152 1 311.5 44.1673 0 6.79003e-21 -0.000251739 0 
31252 1 312.5 44.1673 0 6.79003e-21 -0.000251739 0 
31352 1 313.5 44.1673 0 -4.88688e-24 -0.000251739 0 
31452 1 314.5 44.1673 0 -4.88688e-24 -0.000251739 0 
31552 1 315.5 44.1673 0 6.79003e-21 -0.000251739 0 
31652 1 316.5 44.1673 0 -4.88688e-24 -0.000251739 0 
31752 1 317.5 44.1673 0 6.79003e-21 -0.000251739 0 
31852 1 318.5 44.1673 0 6.79003e-21 -0.000251739 0 
31952 1 319.5 44.1673 0 6.79003e-21 -0.000251739 0 
32052 1 320.5 44.1673 0 -4.88688e-24 -0.000251739 0 
32152 1 321.5 44.1673 0 -4.88688e-24 -0.000251739 0 
32252 1 322.5 44.1673 0 6.79003e-21 -0.000251739 0 
32352 1 323.5 44.1673 0 -4.88688e-24 -0.000251739 0 
32452 1 324.5 44.1673 0 6.79003e-21 -0.000251739 0 
32552 1 325.5 44.1673 0 6.79003e-21 -0.000251739 0 
32652 1 326.5 44.1673 0 6.79003e-21 -0.000251739 0 
32752 1 327.5 44.1673 0 6.79003e-21 -0.000251739 0 
32852 1 328.5 44.1673 0 -4.88688e-24 -0.000251739 0 
32952 1 329.5 44.1673 0 6.79003e-21 -0.000251739 0 
33052 1 330.5 44.1673 0 -4.88688e-24 -0.000251739 0 
33152 1 331.5 44.1673 0 -4.88688e-24 -0.000251739 0 
33252 1 332.5 44.1673 0 6.79003e-21 -0.000251739 0 
33352 1 333.5 44.1673 0 6.79003e-21 -0.000251739 0 
33452 1 334.5 44.1673 0 6.79003e-21 -0.000251739 0 
33552 1 335.5 44.1673 0 -4.88688e-24 -0.000251739 0 
33652 1 336.5 44.1673 0 -4.88688e-24 -0.000251739 0 
33752 1 337.5 44.1673 0 6.79003e-21 -0.000251739 0 
33852 1 338.5 44.1673 0 6.79003e-21 -0.000251739 0 
33952 1 339.5 44.1673 0 -4.88688e-24 -0.000251739 0 
34052 1 340.5 44.1673 0 6.79003e-21 -0.000251739 0 
34152 1 341.5 44.1673 0 6.79003e-21 -0.000251739 0 
34252 1 342.5 44.1673 0 6.79003e-21 -0.000251739 0 
34352 1 343.5 44.1673 0 -4.88688e-24 -0.000251739 0 
34452 1 344.5 44.1673 0 6.79003e-21 -0.000251739 0 
34552 1 345.5 44.1673 0 -4.88688e-24 -0.000251739 0 
34652 1 346.5 44.1673 0 6.79003e-21 -0.000251739 0 
34752 1 347.5 44.1673 0 -4.88688e-24 -0.000251739 0 
34852 1 348.5 44.1673 0 -4.88688e-24 -0.000251739 0 
34952 1 349.5 44.1673 0 6.79003e-21 -0.000251739 0 
35052 1 350.5 44.1673 0 -4.88688e-24 -0.000251739 0 
35152 1 351.5 44.1673 0 6.79003e-21 -0.000251739 0 
35252 1 352.5 44.1673 0 6.79003e-21 -0.000251739 0 
35352 1 353.5 44.1673 0 6.79003e-21 -0.000251739 0 
35452 1 354.5 44.1673 0 6.79003e-21 -0.000251739 0 
35552 1 355.5 44.1673 0 8.03369e-12 -0.000251739 0 
35652 1 356.5 44.1673 0 -3.76774e-10 -0.000251739 0 
35752 1 357.5 44.1673 0 -1.54133e-10 -0.000251739 0 
35852 1 358.5 44.1673 0 -2.61836e-10 -0.00025174 0 
35952 1 359.5 44.1673 0 2.71473e-09 -0.00025174 0 
36052 1 360.5 44.1673 0 1.20788e-08 -0.000251739 0 
36152 1 361.5 44.1673 0 2.71018e-08 -0.000251735 0 
36252 1 362.5 44.1673 0 2.64187e-08 -0.000251735 0 
36352 1 363.5 44.1673 0 -4.24684e-08 -0.000251767 0 
36452 1 364.5 44.1673 0 -1.79653e-07 -0.000251883 0 
36552 1 365.5 44.1673 0 -1.19064e-07 -0.000252081 0 
36652 1 366.5 44.1673 0 6.88203e-07 -0.000252114 0 
36752 1 367.5 44.1673 0 2.05513e-06 -0.000251483 0 
36852 1 368.5 44.1673 0 1.37422e-06 -0.000250231 0 
36952 1 369.5 44.1673 0 -4.59755e-06 -0.000250139 0 
37052 1 370.5 44.1673 0 -1.13676e-05 -0.000253481 0 
37152 1 371.5 44.1673 0 -4.5373e-06 -0.000257733 0 
37252 1 372.5 44.1673 0 1.62408e-05 -0.000254774 0 
37352 1 373.5 44.1673 0 1.76915e-05 -0.000244721 0 
37452 1 374.5 44.1673 0 -1.36257e-05 -0.000244294 0 
37552 1 375.5 44.1673 0 -1.75712e-05 -0.000257892 0 
37652 1 376.5 44.1673 0 2.44629e-05 -0.000258224 0 
37752 1 377.5 44.1673 0 1.07283e-05 -0.000242096 0 
37852 1 378.5 44.1673 0 -3.7318e-05 -0.000246047 0 
37952 1 379.5 44.1673 0 1.64311e-05 -0.00025375 0 
38052 1 380.5 44.1673 0 2.18235e-05 -0.000241988 0 
38152 1 381.5 44.1673 0 -6.98716e-05 -0.000259895 0 
38252 1 382.5 44.1673 0 3.7648e-05 -0.000280462 0 
38352 1 383.5 44.1673 0 5.57791e-05 -0.000259615 0 
38452 1 384.5 44.1673 0 -8.154e-05 -0.000218102 0 
38552 1 385.5 44.1673 0 7.34876e-05 -0.00027567 0 
38652 1 386.5 44.1673 0 -1.72584e-05 -0.000210429 0 
38752 1 387.5 44.1673 0 -7.5712e-05 -0.000292875 0 
38852 1 388.5 44.1673 0 7.61377e-05 -0.000236453 0 
38952 1 389.5 44.1673 0 -6.21594e-05 -0.000265799 0 
39052 1 390.5 44.1673 0 3.03868e-05 -0.0002899 0 
39152 1 391.5 44.1673 0 -2.08602e-05 -0.000222118 0 
39252 1 392.5 44.1673 0 1.64859e-05 -0.000284394 0 
39352 1 393.5 44.1673 0 9.54257e-07 -0.000412582 0 
39452 1 394.5 44.1673 0 -1.67128e-05 -0.000413297 0 
39552 1 395.5 44.1673 0 -1.82345e-07 -0.000451298 0 
39652 1 396.5 44.1673 0 -5.46631e-05 -0.000229696 0 
39752 1 397.5 44.1673 0 -3.79775e-05 -8.28653e-05 0 
39852 2 398.5 44.1673 0 6.95197e-06 -0.000397333 0 
39952 2 399.5 44.1673 0 -2.20719e-05 -0.000198667 0 
