ITEM: TIMESTEP
1250
ITEM: NUMBER OF ATOMS
400
ITEM: BOX BOUNDS ff pp pp
0.0000000000000000e+00 4.0000000000000000e+02
0.0000000000000000e+00 8.6602540000000005e+01
0.0000000000000000e+00 1.0000000000000000e+00
ITEM: ATOMS id type x y z fx fy fz 
52 2 0.5 44.1673 0 0 -0.000397333 0 
152 2 1.5 44.1673 0 -1.5035e-05 -0.000397333 0 
252 1 2.5 44.1673 0 4.83316e-05 -4.01009e-05 0 
352 1 3.5 44.1673 0 -7.30923e-05 -3.11929e-05 0 
452 1 4.5 44.1673 0 4.1722e-05 -0.000122926 0 
552 1 5.5 44.1673 0 -7.92605e-05 -1.47658e-06 0 
652 1 6.5 44.1673 0 2.29546e-05 -6.62575e-05 0 
752 1 7.5 44.1673 0 4.19259e-05 -5.72618e-05 0 
852 1 8.5 44.1673 0 -3.59261e-05 -5.47039e-05 0 
952 1 9.5 44.1673 0 1.52213e-05 -6.04678e-05 0 
1052 1 10.5 44.1673 0 1.78725e-05 -1.36699e-05 0 
1152 1 11.5 44.1673 0 -3.81601e-05 -3.79164e-05 0 
1252 1 12.5 44.1673 0 -3.09679e-06 -5.59394e-05 0 
1352 1 13.5 44.1673 0 2.59481e-05 -4.49871e-05 0 
1452 1 14.5 44.1673 0 7.24445e-06 -3.45627e-05 0 
1552 1 15.5 44.1673 0 -8.03006e-06 -3.61217e-05 0 
1652 1 16.5 44.1673 0 -5.54737e-06 -4.02338e-05 0 
1752 1 17.5 44.1673 0 -3.20554e-07 -4.15254e-05 0 
1852 1 18.5 44.1673 0 1.0844e-06 -4.11527e-05 0 
1952 1 19.5 44.1673 0 5.92752e-07 -4.07201e-05 0 
2052 1 20.5 44.1673 0 1.21731e-07 -4.05705e-05 0 
2152 1 21.5 44.1673 0 -2.18982e-08 -4.05589e-05 0 
2252 1 22.5 44.1673 0 -2.6719e-08 -4.05723e-05 0 
2352 1 23.5 44.1673 0 -1.16641e-08 -4.05805e-05 0 
2452 1 24.5 44.1673 0 -3.54088e-09 -4.05834e-05 0 
2552 1 25.5 44.1673 0 -8.46408e-10 -4.05842e-05 0 
2652 1 26.5 44.1673 0 -1.72653e-10 -4.05843e-05 0 
2752 1 27.5 44.1673 0 -3.33918e-11 -4.05844e-05 0 
2852 1 28.5 44.1673 0 -3.76353e-12 -4.05844e-05 0 
2952 1 29.5 44.1673 0 1.27008e-21 -4.05844e-05 0 
3052 1 30.5 44.1673 0 1.27008e-21 -4.05844e-05 0 
3152 1 31.5 44.1673 0 1.69609e-21 -4.05844e-05 0 
3252 1 32.5 44.1673 0 1.27008e-21 -4.05844e-05 0 
3352 1 33.5 44.1673 0 1.27008e-21 -4.05844e-05 0 
3452 1 34.5 44.1673 0 1.27008e-21 -4.05844e-05 0 
3552 1 35.5 44.1673 0 1.69609e-21 -4.05844e-05 0 
3652 1 36.5 44.1673 0 1.27008e-21 -4.05844e-05 0 
3752 1 37.5 44.1673 0 1.69609e-21 -4.05844e-05 0 
3852 1 38.5 44.1673 0 1.69609e-21 -4.05844e-05 0 
3952 1 39.5 44.1673 0 1.69609e-21 -4.05844e-05 0 
4052 1 40.5 44.1673 0 1.27008e-21 -4.05844e-05 0 
4152 1 41.5 44.1673 0 1.27008e-21 -4.05844e-05 0 
4252 1 42.5 44.1673 0 1.27008e-21 -4.05844e-05 0 
4352 1 43.5 44.1673 0 1.69609e-21 -4.05844e-05 0 
4452 1 44.5 44.1673 0 1.69609e-21 -4.05844e-05 0 
4552 1 45.5 44.1673 0 1.27008e-21 -4.05844e-05 0 
4652 1 46.5 44.1673 0 1.69609e-21 -4.05844e-05 0 
4752 1 47.5 44.1673 0 1.27008e-21 -4.05844e-05 0 
4852 1 48.5 44.1673 0 1.27008e-21 -4.05844e-05 0 
4952 1 49.5 44.1673 0 1.27008e-21 -4.05844e-05 0 
5052 1 50.5 44.1673 0 1.69609e-21 -4.05844e-05 0 
5152 1 51.5 44.1673 0 1.69609e-21 -4.05844e-05 0 
5252 1 52.5 44.1673 0 1.27008e-21 -4.05844e-05 0 
5352 1 53.5 44.1673 0 1.69609e-21 -4.05844e-05 0 
5452 1 54.5 44.1673 0 1.27008e-21 -4.05844e-05 0 
5552 1 55.5 44.1673 0 1.27008e-21 -4.05844e-05 0 
5652 1 56.5 44.1673 0 1.69609e-21 -4.05844e-05 0 
5752 1 57.5 44.1673 0 1.69609e-21 -4.05844e-05 0 
5852 1 58.5 44.1673 0 1.27008e-21 -4.05844e-05 0 
5952 1 59.5 44.1673 0 1.69609e-21 -4.05844e-05 0 
6052 1 60.5 44.1673 0 1.69609e-21 -4.05844e-05 0 
6152 1 61.5 44.1673 0 1.69609e-21 -4.05844e-05 0 
6252 1 62.5 44.1673 0 1.69609e-21 -4.05844e-05 0 
6352 1 63.5 44.1673 0 1.69609e-21 -4.05844e-05 0 
6452 1 64.5 44.1673 0 1.27008e-21 -4.05844e-05 0 
6552 1 65.5 44.1673 0 1.69609e-21 -4.05844e-05 0 
6652 1 66.5 44.1673 0 1.27008e-21 -4.05844e-05 0 
6752 1 67.5 44.1673 0 1.27008e-21 -4.05844e-05 0 
6852 1 68.5 44.1673 0 1.27008e-21 -4.05844e-05 0 
6952 1 69.5 44.1673 0 1.69609e-21 -4.05844e-05 0 
7052 1 70.5 44.1673 0 1.27008e-21 -4.05844e-05 0 
7152 1 71.5 44.1673 0 1.27008e-21 -4.05844e-05 0 
7252 1 72.5 44.1673 0 1.69609e-21 -4.05844e-05 0 
7352 1 73.5 44.1673 0 1.69609e-21 -4.05844e-05 0 
7452 1 74.5 44.1673 0 1.27008e-21 -4.05844e-05 0 
7552 1 75.5 44.1673 0 1.69609e-21 -4.05844e-05 0 
7652 1 76.5 44.1673 0 1.69609e-21 -4.05844e-05 0 
7752 1 77.5 44.1673 0 1.27008e-21 -4.05844e-05 0 
7852 1 78.5 44.1673 0 1.27008e-21 -4.05844e-05 0 
7952 1 79.5 44.1673 0 1.27008e-21 -4.05844e-05 0 
8052 1 80.5 44.1673 0 1.27008e-21 -4.05844e-05 0 
8152 1 81.5 44.1673 0 1.69609e-21 -4.05844e-05 0 
8252 1 82.5 44.1673 0 1.69609e-21 -4.05844e-05 0 
8352 1 83.5 44.1673 0 1.27008e-21 -4.05844e-05 0 
8452 1 84.5 44.1673 0 1.27008e-21 -4.05844e-05 0 
8552 1 85.5 44.1673 0 1.69609e-21 -4.05844e-05 0 
8652 1 86.5 44.1673 0 1.69609e-21 -4.05844e-05 0 
8752 1 87.5 44.1673 0 1.27008e-21 -4.05844e-05 0 
8852 1 88.5 44.1673 0 1.69609e-21 -4.05844e-05 0 
8952 1 89.5 44.1673 0 1.69609e-21 -4.05844e-05 0 
9052 1 90.5 44.1673 0 1.27008e-21 -4.05844e-05 0 
9152 1 91.5 44.1673 0 1.27008e-21 -4.05844e-05 0 
9252 1 92.5 44.1673 0 1.27008e-21 -4.05844e-05 0 
9352 1 93.5 44.1673 0 1.69609e-21 -4.05844e-05 0 
9452 1 94.5 44.1673 0 1.27008e-21 -4.05844e-05 0 
9552 1 95.5 44.1673 0 1.69609e-21 -4.05844e-05 0 
9652 1 96.5 44.1673 0 1.27008e-21 -4.05844e-05 0 
9752 1 97.5 44.1673 0 1.69609e-21 -4.05844e-05 0 
9852 1 98.5 44.1673 0 1.27008e-21 -4.05844e-05 0 
9952 1 99.5 44.1673 0 1.27008e-21 -4.05844e-05 0 
10052 1 100.5 44.1673 0 1.27008e-21 -4.05844e-05 0 
10152 1 101.5 44.1673 0 1.69609e-21 -4.05844e-05 0 
10252 1 102.5 44.1673 0 1.69609e-21 -4.05844e-05 0 
10352 1 103.5 44.1673 0 1.69609e-21 -4.05844e-05 0 
10452 1 104.5 44.1673 0 1.69609e-21 -4.05844e-05 0 
10552 1 105.5 44.1673 0 1.27008e-21 -4.05844e-05 0 
10652 1 106.5 44.1673 0 1.27008e-21 -4.05844e-05 0 
10752 1 107.5 44.1673 0 1.69609e-21 -4.05844e-05 0 
10852 1 108.5 44.1673 0 1.27008e-21 -4.05844e-05 0 
10952 1 109.5 44.1673 0 1.27008e-21 -4.05844e-05 0 
11052 1 110.5 44.1673 0 1.27008e-21 -4.05844e-05 0 
11152 1 111.5 44.1673 0 1.27008e-21 -4.05844e-05 0 
11252 1 112.5 44.1673 0 1.27008e-21 -4.05844e-05 0 
11352 1 113.5 44.1673 0 1.27008e-21 -4.05844e-05 0 
11452 1 114.5 44.1673 0 1.27008e-21 -4.05844e-05 0 
11552 1 115.5 44.1673 0 1.69609e-21 -4.05844e-05 0 
11652 1 116.5 44.1673 0 1.27008e-21 -4.05844e-05 0 
11752 1 117.5 44.1673 0 1.27008e-21 -4.05844e-05 0 
11852 1 118.5 44.1673 0 1.27008e-21 -4.05844e-05 0 
11952 1 119.5 44.1673 0 1.27008e-21 -4.05844e-05 0 
12052 1 120.5 44.1673 0 1.27008e-21 -4.05844e-05 0 
12152 1 121.5 44.1673 0 1.27008e-21 -4.05844e-05 0 
12252 1 122.5 44.1673 0 1.69609e-21 -4.05844e-05 0 
12352 1 123.5 44.1673 0 1.69609e-21 -4.05844e-05 0 
12452 1 124.5 44.1673 0 1.27008e-21 -4.05844e-05 0 
12552 1 125.5 44.1673 0 1.69609e-21 -4.05844e-05 0 
12652 1 126.5 44.1673 0 1.27008e-21 -4.05844e-05 0 
12752 1 127.5 44.1673 0 1.27008e-21 -4.05844e-05 0 
12852 1 128.5 44.1673 0 1.27008e-21 -4.05844e-05 0 
12952 1 129.5 44.1673 0 1.27008e-21 -4.05844e-05 0 
13052 1 130.5 44.1673 0 1.27008e-21 -4.05844e-05 0 
13152 1 131.5 44.1673 0 1.69609e-21 -4.05844e-05 0 
13252 1 132.5 44.1673 0 1.69609e-21 -4.05844e-05 0 
13352 1 133.5 44.1673 0 1.69609e-21 -4.05844e-05 0 
13452 1 134.5 44.1673 0 1.69609e-21 -4.05844e-05 0 
13552 1 135.5 44.1673 0 1.27008e-21 -4.05844e-05 0 
13652 1 136.5 44.1673 0 1.27008e-21 -4.05844e-05 0 
13752 1 137.5 44.1673 0 1.69609e-21 -4.05844e-05 0 
13852 1 138.5 44.1673 0 1.69609e-21 -4.05844e-05 0 
13952 1 139.5 44.1673 0 1.27008e-21 -4.05844e-05 0 
14052 1 140.5 44.1673 0 1.69609e-21 -4.05844e-05 0 
14152 1 141.5 44.1673 0 1.69609e-21 -4.05844e-05 0 
14252 1 142.5 44.1673 0 1.69609e-21 -4.05844e-05 0 
14352 1 143.5 44.1673 0 1.27008e-21 -4.05844e-05 0 
14452 1 144.5 44.1673 0 1.27008e-21 -4.05844e-05 0 
14552 1 145.5 44.1673 0 1.69609e-21 -4.05844e-05 0 
14652 1 146.5 44.1673 0 1.27008e-21 -4.05844e-05 0 
14752 1 147.5 44.1673 0 1.69609e-21 -4.05844e-05 0 
14852 1 148.5 44.1673 0 1.69609e-21 -4.05844e-05 0 
14952 1 149.5 44.1673 0 1.69609e-21 -4.05844e-05 0 
15052 1 150.5 44.1673 0 1.69609e-21 -4.05844e-05 0 
15152 1 151.5 44.1673 0 1.69609e-21 -4.05844e-05 0 
15252 1 152.5 44.1673 0 1.27008e-21 -4.05844e-05 0 
15352 1 153.5 44.1673 0 1.69609e-21 -4.05844e-05 0 
15452 1 154.5 44.1673 0 1.69609e-21 -4.05844e-05 0 
15552 1 155.5 44.1673 0 1.69609e-21 -4.05844e-05 0 
15652 1 156.5 44.1673 0 1.69609e-21 -4.05844e-05 0 
15752 1 157.5 44.1673 0 1.27008e-21 -4.05844e-05 0 
15852 1 158.5 44.1673 0 1.69609e-21 -4.05844e-05 0 
15952 1 159.5 44.1673 0 1.69609e-21 -4.05844e-05 0 
16052 1 160.5 44.1673 0 1.69609e-21 -4.05844e-05 0 
16152 1 161.5 44.1673 0 1.27008e-21 -4.05844e-05 0 
16252 1 162.5 44.1673 0 1.27008e-21 -4.05844e-05 0 
16352 1 163.5 44.1673 0 1.69609e-21 -4.05844e-05 0 
16452 1 164.5 44.1673 0 1.27008e-21 -4.05844e-05 0 
16552 1 165.5 44.1673 0 1.27008e-21 -4.05844e-05 0 
16652 1 166.5 44.1673 0 1.69609e-21 -4.05844e-05 0 
16752 1 167.5 44.1673 0 1.69609e-21 -4.05844e-05 0 
16852 1 168.5 44.1673 0 7.5286e-12 -4.05844e-05 0 
16952 1 169.5 44.1673 0 2.42107e-10 -4.05844e-05 0 
17052 1 170.5 44.1673 0 2.42019e-09 -4.05844e-05 0 
17152 1 171.5 44.1673 0 2.30878e-08 -4.05844e-05 0 
17252 1 172.5 44.1673 0 2.03229e-07 -4.05844e-05 0 
17352 1 173.5 44.1673 0 1.62279e-06 -4.05844e-05 0 
17452 1 174.5 44.1673 0 1.16967e-05 -4.05843e-05 0 
17552 1 175.5 44.1673 0 7.55415e-05 -4.05844e-05 0 
17652 1 176.5 44.1673 0 0.000433281 -4.05844e-05 0 
17752 1 177.5 44.1673 0 0.00218311 -4.05846e-05 0 
17852 1 178.5 44.1673 0 0.00953002 -4.05855e-05 0 
17952 1 179.5 44.1673 0 0.0353884 -4.05899e-05 0 
18052 1 180.5 44.1673 0 0.10893 -4.06081e-05 0 
18152 1 181.501 44.1673 0 0.267008 -4.06724e-05 0 
18252 1 182.502 44.1673 0 0.484546 -4.08596e-05 0 
18352 1 183.506 44.1673 0 0.543119 -4.12985e-05 0 
18452 1 184.511 44.1673 0 0.0889181 -4.20954e-05 0 
18552 1 185.517 44.1673 0 -0.730049 -4.31674e-05 0 
18652 1 186.521 44.1673 0 -0.760849 -4.42264e-05 0 
18752 1 187.524 44.1673 0 0.472089 -4.52217e-05 0 
18852 1 188.528 44.1673 0 0.702855 -4.66862e-05 0 
18952 1 189.536 44.1673 0 -0.919154 -4.89356e-05 0 
19052 1 190.541 44.1673 0 -0.261077 -5.16379e-05 0 
19152 1 191.547 44.1673 0 1.46516 -5.524e-05 0 
19252 1 192.556 44.1673 0 -0.631069 -5.79483e-05 0 
19352 1 193.561 44.1673 0 -0.68083 -5.75714e-05 0 
19452 1 194.569 44.1673 0 -0.817806 -6.35749e-05 0 
19552 1 195.579 44.1673 0 -1.91459 -6.35684e-05 0 
19652 1 196.585 44.1673 0 0.557673 -6.65088e-05 0 
19752 1 197.597 44.1673 0 1.26813 -7.64094e-05 0 
19852 1 198.615 44.1673 0 -1.22484 -8.45147e-05 0 
19952 1 199.643 44.1673 0 0.441793 -0.000102345 0 
20052 3 200.695 44.1673 0 1.06531 -3.25776e-05 0 
20152 1 201.643 44.1673 0 0.183183 2.60087e-05 0 
20252 1 202.615 44.1673 0 -1.41727 -1.54199e-06 0 
20352 1 203.598 44.1673 0 0.839264 -8.24131e-06 0 
20452 1 204.586 44.1673 0 -0.789038 -1.71466e-05 0 
20552 1 205.579 44.1673 0 -2.22218 -1.93046e-05 0 
20652 1 206.569 44.1673 0 -1.0968 -1.88093e-05 0 
20752 1 207.56 44.1673 0 -0.14097 -2.41201e-05 0 
20852 1 208.554 44.1673 0 0.231529 -2.36016e-05 0 
20952 1 209.546 44.1673 0 1.19204 -2.65657e-05 0 
21052 1 210.541 44.1673 0 -0.377925 -2.99315e-05 0 
21152 1 211.535 44.1673 0 -0.766065 -3.24464e-05 0 
21252 1 212.528 44.1673 0 0.530365 -3.45921e-05 0 
21352 1 213.523 44.1673 0 0.307207 -3.60591e-05 0 
21452 1 214.521 44.1673 0 -0.662911 -3.71007e-05 0 
21552 1 215.516 44.1673 0 -0.571602 -3.81574e-05 0 
21652 1 216.51 44.1673 0 0.135876 -3.91805e-05 0 
21752 1 217.505 44.1673 0 0.508486 -3.99247e-05 0 
21852 1 218.502 44.1673 0 0.442495 -4.03305e-05 0 
21952 1 219.501 44.1673 0 0.243646 -4.05032e-05 0 
22052 1 220.5 44.1673 0 0.0999135 -4.05624e-05 0 
22152 1 221.5 44.1673 0 0.0326782 -4.05793e-05 0 
22252 1 222.5 44.1673 0 0.00886068 -4.05834e-05 0 
22352 1 223.5 44.1673 0 0.00204301 -4.05842e-05 0 
22452 1 224.5 44.1673 0 0.000407912 -4.05843e-05 0 
22552 1 225.5 44.1673 0 7.1507e-05 -4.05844e-05 0 
22652 1 226.5 44.1673 0 1.11266e-05 -4.05844e-05 0 
22752 1 227.5 44.1673 0 1.55053e-06 -4.05844e-05 0 
22852 1 228.5 44.1673 0 1.95005e-07 -4.05844e-05 0 
22952 1 229.5 44.1673 0 2.22145e-08 -4.05844e-05 0 
23052 1 230.5 44.1673 0 2.32507e-09 -4.05844e-05 0 
23152 1 231.5 44.1673 0 2.57981e-10 -4.05844e-05 0 
23252 1 232.5 44.1673 0 1.27008e-21 -4.05844e-05 0 
23352 1 233.5 44.1673 0 1.27008e-21 -4.05844e-05 0 
23452 1 234.5 44.1673 0 1.69609e-21 -4.05844e-05 0 
23552 1 235.5 44.1673 0 1.69609e-21 -4.05844e-05 0 
23652 1 236.5 44.1673 0 1.69609e-21 -4.05844e-05 0 
23752 1 237.5 44.1673 0 1.27008e-21 -4.05844e-05 0 
23852 1 238.5 44.1673 0 1.27008e-21 -4.05844e-05 0 
23952 1 239.5 44.1673 0 1.69609e-21 -4.05844e-05 0 
24052 1 240.5 44.1673 0 1.69609e-21 -4.05844e-05 0 
24152 1 241.5 44.1673 0 1.27008e-21 -4.05844e-05 0 
24252 1 242.5 44.1673 0 1.27008e-21 -4.05844e-05 0 
24352 1 243.5 44.1673 0 1.27008e-21 -4.05844e-05 0 
24452 1 244.5 44.1673 0 1.27008e-21 -4.05844e-05 0 
24552 1 245.5 44.1673 0 1.27008e-21 -4.05844e-05 0 
24652 1 246.5 44.1673 0 1.27008e-21 -4.05844e-05 0 
24752 1 247.5 44.1673 0 1.69609e-21 -4.05844e-05 0 
24852 1 248.5 44.1673 0 1.69609e-21 -4.05844e-05 0 
24952 1 249.5 44.1673 0 1.27008e-21 -4.05844e-05 0 
25052 1 250.5 44.1673 0 1.69609e-21 -4.05844e-05 0 
25152 1 251.5 44.1673 0 1.69609e-21 -4.05844e-05 0 
25252 1 252.5 44.1673 0 1.27008e-21 -4.05844e-05 0 
25352 1 253.5 44.1673 0 1.69609e-21 -4.05844e-05 0 
25452 1 254.5 44.1673 0 1.27008e-21 -4.05844e-05 0 
25552 1 255.5 44.1673 0 1.27008e-21 -4.05844e-05 0 
25652 1 256.5 44.1673 0 1.69609e-21 -4.05844e-05 0 
25752 1 257.5 44.1673 0 1.69609e-21 -4.05844e-05 0 
25852 1 258.5 44.1673 0 1.27008e-21 -4.05844e-05 0 
25952 1 259.5 44.1673 0 1.69609e-21 -4.05844e-05 0 
26052 1 260.5 44.1673 0 1.69609e-21 -4.05844e-05 0 
26152 1 261.5 44.1673 0 1.69609e-21 -4.05844e-05 0 
26252 1 262.5 44.1673 0 1.69609e-21 -4.05844e-05 0 
26352 1 263.5 44.1673 0 1.27008e-21 -4.05844e-05 0 
26452 1 264.5 44.1673 0 1.27008e-21 -4.05844e-05 0 
26552 1 265.5 44.1673 0 1.27008e-21 -4.05844e-05 0 
26652 1 266.5 44.1673 0 1.27008e-21 -4.05844e-05 0 
26752 1 267.5 44.1673 0 1.27008e-21 -4.05844e-05 0 
26852 1 268.5 44.1673 0 1.69609e-21 -4.05844e-05 0 
26952 1 269.5 44.1673 0 1.69609e-21 -4.05844e-05 0 
27052 1 270.5 44.1673 0 1.69609e-21 -4.05844e-05 0 
27152 1 271.5 44.1673 0 1.69609e-21 -4.05844e-05 0 
27252 1 272.5 44.1673 0 1.27008e-21 -4.05844e-05 0 
27352 1 273.5 44.1673 0 1.27008e-21 -4.05844e-05 0 
27452 1 274.5 44.1673 0 1.69609e-21 -4.05844e-05 0 
27552 1 275.5 44.1673 0 1.27008e-21 -4.05844e-05 0 
27652 1 276.5 44.1673 0 1.27008e-21 -4.05844e-05 0 
27752 1 277.5 44.1673 0 1.27008e-21 -4.05844e-05 0 
27852 1 278.5 44.1673 0 1.27008e-21 -4.05844e-05 0 
27952 1 279.5 44.1673 0 1.27008e-21 -4.05844e-05 0 
28052 1 280.5 44.1673 0 1.27008e-21 -4.05844e-05 0 
28152 1 281.5 44.1673 0 1.27008e-21 -4.05844e-05 0 
28252 1 282.5 44.1673 0 1.69609e-21 -4.05844e-05 0 
28352 1 283.5 44.1673 0 1.69609e-21 -4.05844e-05 0 
28452 1 284.5 44.1673 0 1.27008e-21 -4.05844e-05 0 
28552 1 285.5 44.1673 0 1.27008e-21 -4.05844e-05 0 
28652 1 286.5 44.1673 0 1.69609e-21 -4.05844e-05 0 
28752 1 287.5 44.1673 0 1.27008e-21 -4.05844e-05 0 
28852 1 288.5 44.1673 0 1.69609e-21 -4.05844e-05 0 
28952 1 289.5 44.1673 0 1.69609e-21 -4.05844e-05 0 
29052 1 290.5 44.1673 0 1.69609e-21 -4.05844e-05 0 
29152 1 291.5 44.1673 0 1.27008e-21 -4.05844e-05 0 
29252 1 292.5 44.1673 0 1.69609e-21 -4.05844e-05 0 
29352 1 293.5 44.1673 0 1.27008e-21 -4.05844e-05 0 
29452 1 294.5 44.1673 0 1.69609e-21 -4.05844e-05 0 
29552 1 295.5 44.1673 0 1.69609e-21 -4.05844e-05 0 
29652 1 296.5 44.1673 0 1.27008e-21 -4.05844e-05 0 
29752 1 297.5 44.1673 0 1.27008e-21 -4.05844e-05 0 
29852 1 298.5 44.1673 0 1.27008e-21 -4.05844e-05 0 
29952 1 299.5 44.1673 0 1.27008e-21 -4.05844e-05 0 
30052 1 300.5 44.1673 0 1.27008e-21 -4.05844e-05 0 
30152 1 301.5 44.1673 0 1.69609e-21 -4.05844e-05 0 
30252 1 302.5 44.1673 0 1.27008e-21 -4.05844e-05 0 
30352 1 303.5 44.1673 0 1.27008e-21 -4.05844e-05 0 
30452 1 304.5 44.1673 0 1.27008e-21 -4.05844e-05 0 
30552 1 305.5 44.1673 0 1.27008e-21 -4.05844e-05 0 
30652 1 306.5 44.1673 0 1.69609e-21 -4.05844e-05 0 
30752 1 307.5 44.1673 0 1.69609e-21 -4.05844e-05 0 
30852 1 308.5 44.1673 0 1.27008e-21 -4.05844e-05 0 
30952 1 309.5 44.1673 0 1.27008e-21 -4.05844e-05 0 
31052 1 310.5 44.1673 0 1.27008e-21 -4.05844e-05 0 
31152 1 311.5 44.1673 0 1.69609e-21 -4.05844e-05 0 
31252 1 312.5 44.1673 0 1.69609e-21 -4.05844e-05 0 
31352 1 313.5 44.1673 0 1.27008e-21 -4.05844e-05 0 
31452 1 314.5 44.1673 0 1.27008e-21 -4.05844e-05 0 
31552 1 315.5 44.1673 0 1.69609e-21 -4.05844e-05 0 
31652 1 316.5 44.1673 0 1.27008e-21 -4.05844e-05 0 
31752 1 317.5 44.1673 0 1.69609e-21 -4.05844e-05 0 
31852 1 318.5 44.1673 0 1.69609e-21 -4.05844e-05 0 
31952 1 319.5 44.1673 0 1.69609e-21 -4.05844e-05 0 
32052 1 320.5 44.1673 0 1.27008e-21 -4.05844e-05 0 
32152 1 321.5 44.1673 0 1.27008e-21 -4.05844e-05 0 
32252 1 322.5 44.1673 0 1.69609e-21 -4.05844e-05 0 
32352 1 323.5 44.1673 0 1.27008e-21 -4.05844e-05 0 
32452 1 324.5 44.1673 0 1.69609e-21 -4.05844e-05 0 
32552 1 325.5 44.1673 0 1.69609e-21 -4.05844e-05 0 
32652 1 326.5 44.1673 0 1.69609e-21 -4.05844e-05 0 
32752 1 327.5 44.1673 0 1.69609e-21 -4.05844e-05 0 
32852 1 328.5 44.1673 0 1.27008e-21 -4.05844e-05 0 
32952 1 329.5 44.1673 0 1.69609e-21 -4.05844e-05 0 
33052 1 330.5 44.1673 0 1.27008e-21 -4.05844e-05 0 
33152 1 331.5 44.1673 0 1.27008e-21 -4.05844e-05 0 
33252 1 332.5 44.1673 0 1.69609e-21 -4.05844e-05 0 
33352 1 333.5 44.1673 0 1.69609e-21 -4.05844e-05 0 
33452 1 334.5 44.1673 0 1.69609e-21 -4.05844e-05 0 
33552 1 335.5 44.1673 0 1.27008e-21 -4.05844e-05 0 
33652 1 336.5 44.1673 0 1.27008e-21 -4.05844e-05 0 
33752 1 337.5 44.1673 0 1.69609e-21 -4.05844e-05 0 
33852 1 338.5 44.1673 0 1.69609e-21 -4.05844e-05 0 
33952 1 339.5 44.1673 0 1.27008e-21 -4.05844e-05 0 
34052 1 340.5 44.1673 0 1.69609e-21 -4.05844e-05 0 
34152 1 341.5 44.1673 0 1.69609e-21 -4.05844e-05 0 
34252 1 342.5 44.1673 0 1.69609e-21 -4.05844e-05 0 
34352 1 343.5 44.1673 0 1.27008e-21 -4.05844e-05 0 
34452 1 344.5 44.1673 0 1.69609e-21 -4.05844e-05 0 
34552 1 345.5 44.1673 0 1.27008e-21 -4.05844e-05 0 
34652 1 346.5 44.1673 0 1.69609e-21 -4.05844e-05 0 
34752 1 347.5 44.1673 0 1.27008e-21 -4.05844e-05 0 
34852 1 348.5 44.1673 0 1.27008e-21 -4.05844e-05 0 
34952 1 349.5 44.1673 0 1.69609e-21 -4.05844e-05 0 
35052 1 350.5 44.1673 0 1.27008e-21 -4.05844e-05 0 
35152 1 351.5 44.1673 0 1.69609e-21 -4.05844e-05 0 
35252 1 352.5 44.1673 0 1.69609e-21 -4.05844e-05 0 
35352 1 353.5 44.1673 0 1.69609e-21 -4.05844e-05 0 
35452 1 354.5 44.1673 0 1.69609e-21 -4.05844e-05 0 
35552 1 355.5 44.1673 0 1.27008e-21 -4.05844e-05 0 
35652 1 356.5 44.1673 0 1.27008e-21 -4.05844e-05 0 
35752 1 357.5 44.1673 0 1.69609e-21 -4.05844e-05 0 
35852 1 358.5 44.1673 0 1.69609e-21 -4.05844e-05 0 
35952 1 359.5 44.1673 0 1.69609e-21 -4.05844e-05 0 
36052 1 360.5 44.1673 0 1.27008e-21 -4.05844e-05 0 
36152 1 361.5 44.1673 0 1.27008e-21 -4.05844e-05 0 
36252 1 362.5 44.1673 0 1.69609e-21 -4.05844e-05 0 
36352 1 363.5 44.1673 0 1.69609e-21 -4.05844e-05 0 
36452 1 364.5 44.1673 0 1.27008e-21 -4.05844e-05 0 
36552 1 365.5 44.1673 0 1.69609e-21 -4.05844e-05 0 
36652 1 366.5 44.1673 0 1.69609e-21 -4.05844e-05 0 
36752 1 367.5 44.1673 0 1.69609e-21 -4.05844e-05 0 
36852 1 368.5 44.1673 0 1.27008e-21 -4.05844e-05 0 
36952 1 369.5 44.1673 0 1.27008e-21 -4.05844e-05 0 
37052 1 370.5 44.1673 0 1.27008e-21 -4.05844e-05 0 
37152 1 371.5 44.1673 0 1.27008e-21 -4.05844e-05 0 
37252 1 372.5 44.1673 0 1.27008e-21 -4.05844e-05 0 
37352 1 373.5 44.1673 0 2.58464e-10 -4.05843e-05 0 
37452 1 374.5 44.1673 0 8.49607e-10 -4.05842e-05 0 
37552 1 375.5 44.1673 0 3.48718e-09 -4.05833e-05 0 
37652 1 376.5 44.1673 0 1.16362e-08 -4.05805e-05 0 
37752 1 377.5 44.1673 0 2.66599e-08 -4.05723e-05 0 
37852 1 378.5 44.1673 0 2.19789e-08 -4.0559e-05 0 
37952 1 379.5 44.1673 0 -1.21682e-07 -4.05703e-05 0 
38052 1 380.5 44.1673 0 -5.92664e-07 -4.07201e-05 0 
38152 1 381.5 44.1673 0 -1.08444e-06 -4.11527e-05 0 
38252 1 382.5 44.1673 0 3.20299e-07 -4.15254e-05 0 
38352 1 383.5 44.1673 0 5.54743e-06 -4.02339e-05 0 
38452 1 384.5 44.1673 0 8.03002e-06 -3.61216e-05 0 
38552 1 385.5 44.1673 0 -7.24459e-06 -3.45627e-05 0 
38652 1 386.5 44.1673 0 -2.59479e-05 -4.49872e-05 0 
38752 1 387.5 44.1673 0 3.09645e-06 -5.59394e-05 0 
38852 1 388.5 44.1673 0 3.81603e-05 -3.79165e-05 0 
38952 1 389.5 44.1673 0 -1.78725e-05 -1.36699e-05 0 
39052 1 390.5 44.1673 0 -1.52215e-05 -6.04677e-05 0 
39152 1 391.5 44.1673 0 3.59263e-05 -5.4704e-05 0 
39252 1 392.5 44.1673 0 -4.1926e-05 -5.72618e-05 0 
39352 1 393.5 44.1673 0 -2.29546e-05 -6.62577e-05 0 
39452 1 394.5 44.1673 0 7.92605e-05 -1.47656e-06 0 
39552 1 395.5 44.1673 0 -4.17219e-05 -0.000122926 0 
39652 1 396.5 44.1673 0 7.30921e-05 -3.1193e-05 0 
39752 1 397.5 44.1673 0 -4.83315e-05 -4.01009e-05 0 
39852 2 398.5 44.1673 0 1.5035e-05 -0.000397333 0 
39952 2 399.5 44.1673 0 -2.20719e-05 -0.000198667 0 
