ITEM: TIMESTEP
1700
ITEM: NUMBER OF ATOMS
400
ITEM: BOX BOUNDS ff pp pp
0.0000000000000000e+00 4.0000000000000000e+02
0.0000000000000000e+00 8.6602540000000005e+01
0.0000000000000000e+00 1.0000000000000000e+00
ITEM: ATOMS id type x y z fx fy fz 
52 2 0.5 44.1673 0 0 -0.000397333 0 
152 2 1.5 44.1673 0 0.00366567 -0.000397259 0 
252 1 2.50001 44.1673 0 -0.000267465 -0.000225521 0 
352 1 3.50003 44.1674 0 -0.00079894 -0.000938452 0 
452 1 4.50004 44.1674 0 -0.000839808 -0.00115812 0 
552 1 5.50005 44.1674 0 -0.00059152 -0.00107144 0 
652 1 6.50005 44.1674 0 -0.000304296 -0.000801771 0 
752 1 7.50005 44.1674 0 -5.84637e-05 -0.000885398 0 
852 1 8.50004 44.1675 0 -2.54812e-05 -0.000761724 0 
952 1 9.50004 44.1675 0 0.000169576 -0.00100779 0 
1052 1 10.5 44.1675 0 0.000129254 -0.00121192 0 
1152 1 11.5 44.1675 0 0.000273574 -0.00146124 0 
1252 1 12.5 44.1675 0 0.000285107 -0.00169605 0 
1352 1 13.5 44.1675 0 0.000414695 -0.00193475 0 
1452 1 14.5 44.1675 0 0.000421003 -0.002064 0 
1552 1 15.5 44.1675 0 0.000416801 -0.00233935 0 
1652 1 16.5 44.1675 0 0.00063105 -0.00245997 0 
1752 1 17.5 44.1676 0 0.000491627 -0.00261975 0 
1852 1 18.5 44.1676 0 0.000592743 -0.00267963 0 
1952 1 19.5 44.1676 0 0.000626031 -0.00269352 0 
2052 1 20.5 44.1676 0 0.000439924 -0.0026276 0 
2152 1 21.5 44.1676 0 0.000544528 -0.00261104 0 
2252 1 22.5 44.1676 0 0.000475814 -0.00248662 0 
2352 1 23.5 44.1676 0 0.000307466 -0.00236594 0 
2452 1 24.5 44.1676 0 0.000333777 -0.00226362 0 
2552 1 25.5 44.1676 0 0.000261373 -0.00214766 0 
2652 1 26.5 44.1676 0 0.000135151 -0.00207934 0 
2752 1 27.5 44.1676 0 0.000145519 -0.00201246 0 
2852 1 28.5 44.1676 0 0.000124498 -0.0019246 0 
2952 1 29.5 44.1676 0 3.83534e-05 -0.00187806 0 
3052 1 30.5 44.1676 0 2.31139e-05 -0.00186869 0 
3152 1 31.5 44.1676 0 4.04972e-05 -0.00185047 0 
3252 1 32.5 44.1676 0 1.33176e-05 -0.00182895 0 
3352 1 33.5 44.1676 0 -1.25114e-05 -0.00182396 0 
3452 1 34.5 44.1676 0 1.7062e-06 -0.00182551 0 
3552 1 35.5 44.1676 0 1.94196e-05 -0.0018207 0 
3652 1 36.5 44.1676 0 1.21742e-05 -0.00181396 0 
3752 1 37.5 44.1676 0 -3.97438e-06 -0.00181238 0 
3852 1 38.5 44.1676 0 -9.17165e-06 -0.0018146 0 
3952 1 39.5 44.1676 0 -4.40527e-06 -0.00181628 0 
4052 1 40.5 44.1676 0 8.37293e-07 -0.0018162 0 
4152 1 41.5 44.1676 0 2.41042e-06 -0.00181554 0 
4252 1 42.5 44.1676 0 1.64615e-06 -0.00181523 0 
4352 1 43.5 44.1676 0 6.12198e-07 -0.0018153 0 
4452 1 44.5 44.1676 0 6.9423e-08 -0.00181545 0 
4552 1 45.5 44.1676 0 -8.59768e-08 -0.00181552 0 
4652 1 46.5 44.1676 0 -8.99707e-08 -0.00181551 0 
4752 1 47.5 44.1676 0 -6.28709e-08 -0.00181548 0 
4852 1 48.5 44.1676 0 -3.83097e-08 -0.00181545 0 
4952 1 49.5 44.1676 0 -2.09315e-08 -0.00181543 0 
5052 1 50.5 44.1676 0 -1.02055e-08 -0.00181542 0 
5152 1 51.5 44.1676 0 -4.30882e-09 -0.00181542 0 
5252 1 52.5 44.1676 0 -1.59293e-09 -0.00181542 0 
5352 1 53.5 44.1676 0 -5.17701e-10 -0.00181542 0 
5452 1 54.5 44.1676 0 -1.30597e-10 -0.00181542 0 
5552 1 55.5 44.1676 0 -4.83317e-11 -0.00181542 0 
5652 1 56.5 44.1676 0 -8.67422e-12 -0.00181542 0 
5752 1 57.5 44.1676 0 -8.66507e-19 -0.00181542 0 
5852 1 58.5 44.1676 0 -8.66828e-19 -0.00181542 0 
5952 1 59.5 44.1676 0 -8.66507e-19 -0.00181542 0 
6052 1 60.5 44.1676 0 -8.66507e-19 -0.00181542 0 
6152 1 61.5 44.1676 0 -8.66507e-19 -0.00181542 0 
6252 1 62.5 44.1676 0 -8.66507e-19 -0.00181542 0 
6352 1 63.5 44.1676 0 -8.66507e-19 -0.00181542 0 
6452 1 64.5 44.1676 0 -8.66828e-19 -0.00181542 0 
6552 1 65.5 44.1676 0 -8.66507e-19 -0.00181542 0 
6652 1 66.5 44.1676 0 -8.66828e-19 -0.00181542 0 
6752 1 67.5 44.1676 0 -8.66828e-19 -0.00181542 0 
6852 1 68.5 44.1676 0 -8.66828e-19 -0.00181542 0 
6952 1 69.5 44.1676 0 -8.66507e-19 -0.00181542 0 
7052 1 70.5 44.1676 0 -8.66828e-19 -0.00181542 0 
7152 1 71.5 44.1676 0 -8.66828e-19 -0.00181542 0 
7252 1 72.5 44.1676 0 -8.66507e-19 -0.00181542 0 
7352 1 73.5 44.1676 0 -8.66507e-19 -0.00181542 0 
7452 1 74.5 44.1676 0 -8.66828e-19 -0.00181542 0 
7552 1 75.5 44.1676 0 -8.66507e-19 -0.00181542 0 
7652 1 76.5 44.1676 0 -8.66507e-19 -0.00181542 0 
7752 1 77.5 44.1676 0 -8.66828e-19 -0.00181542 0 
7852 1 78.5 44.1676 0 -8.66828e-19 -0.00181542 0 
7952 1 79.5 44.1676 0 -8.66828e-19 -0.00181542 0 
8052 1 80.5 44.1676 0 -8.66828e-19 -0.00181542 0 
8152 1 81.5 44.1676 0 -8.66507e-19 -0.00181542 0 
8252 1 82.5 44.1676 0 -8.66507e-19 -0.00181542 0 
8352 1 83.5 44.1676 0 -8.66828e-19 -0.00181542 0 
8452 1 84.5 44.1676 0 -8.66828e-19 -0.00181542 0 
8552 1 85.5 44.1676 0 -8.66507e-19 -0.00181542 0 
8652 1 86.5 44.1676 0 -8.66507e-19 -0.00181542 0 
8752 1 87.5 44.1676 0 -8.66828e-19 -0.00181542 0 
8852 1 88.5 44.1676 0 -8.66507e-19 -0.00181542 0 
8952 1 89.5 44.1676 0 -8.66507e-19 -0.00181542 0 
9052 1 90.5 44.1676 0 -8.66828e-19 -0.00181542 0 
9152 1 91.5 44.1676 0 -8.66828e-19 -0.00181542 0 
9252 1 92.5 44.1676 0 -8.66828e-19 -0.00181542 0 
9352 1 93.5 44.1676 0 -8.66507e-19 -0.00181542 0 
9452 1 94.5 44.1676 0 -8.66828e-19 -0.00181542 0 
9552 1 95.5 44.1676 0 -8.66507e-19 -0.00181542 0 
9652 1 96.5 44.1676 0 -8.66828e-19 -0.00181542 0 
9752 1 97.5 44.1676 0 -8.66507e-19 -0.00181542 0 
9852 1 98.5 44.1676 0 -8.66828e-19 -0.00181542 0 
9952 1 99.5 44.1676 0 -8.66828e-19 -0.00181542 0 
10052 1 100.5 44.1676 0 -8.66828e-19 -0.00181542 0 
10152 1 101.5 44.1676 0 -8.66507e-19 -0.00181542 0 
10252 1 102.5 44.1676 0 -8.66507e-19 -0.00181542 0 
10352 1 103.5 44.1676 0 -8.66507e-19 -0.00181542 0 
10452 1 104.5 44.1676 0 -8.66507e-19 -0.00181542 0 
10552 1 105.5 44.1676 0 -8.66828e-19 -0.00181542 0 
10652 1 106.5 44.1676 0 -8.66828e-19 -0.00181542 0 
10752 1 107.5 44.1676 0 -8.66507e-19 -0.00181542 0 
10852 1 108.5 44.1676 0 -8.66828e-19 -0.00181542 0 
10952 1 109.5 44.1676 0 -8.66828e-19 -0.00181542 0 
11052 1 110.5 44.1676 0 -8.66828e-19 -0.00181542 0 
11152 1 111.5 44.1676 0 -8.66828e-19 -0.00181542 0 
11252 1 112.5 44.1676 0 -8.66828e-19 -0.00181542 0 
11352 1 113.5 44.1676 0 -8.66828e-19 -0.00181542 0 
11452 1 114.5 44.1676 0 -8.66828e-19 -0.00181542 0 
11552 1 115.5 44.1676 0 -8.66507e-19 -0.00181542 0 
11652 1 116.5 44.1676 0 -8.66828e-19 -0.00181542 0 
11752 1 117.5 44.1676 0 -8.66828e-19 -0.00181542 0 
11852 1 118.5 44.1676 0 -8.66828e-19 -0.00181542 0 
11952 1 119.5 44.1676 0 -8.66828e-19 -0.00181542 0 
12052 1 120.5 44.1676 0 -8.66828e-19 -0.00181542 0 
12152 1 121.5 44.1676 0 -8.66828e-19 -0.00181542 0 
12252 1 122.5 44.1676 0 -8.66507e-19 -0.00181542 0 
12352 1 123.5 44.1676 0 -8.66507e-19 -0.00181542 0 
12452 1 124.5 44.1676 0 -8.66828e-19 -0.00181542 0 
12552 1 125.5 44.1676 0 -8.66507e-19 -0.00181542 0 
12652 1 126.5 44.1676 0 -8.66828e-19 -0.00181542 0 
12752 1 127.5 44.1676 0 -8.66828e-19 -0.00181542 0 
12852 1 128.5 44.1676 0 -8.66828e-19 -0.00181542 0 
12952 1 129.5 44.1676 0 -8.66828e-19 -0.00181542 0 
13052 1 130.5 44.1676 0 -8.66828e-19 -0.00181542 0 
13152 1 131.5 44.1676 0 -8.66507e-19 -0.00181542 0 
13252 1 132.5 44.1676 0 -8.66507e-19 -0.00181542 0 
13352 1 133.5 44.1676 0 -8.66507e-19 -0.00181542 0 
13452 1 134.5 44.1676 0 1.09114e-10 -0.00181542 0 
13552 1 135.5 44.1676 0 5.51176e-10 -0.00181542 0 
13652 1 136.5 44.1676 0 2.96569e-09 -0.00181542 0 
13752 1 137.5 44.1676 0 1.53076e-08 -0.00181542 0 
13852 1 138.5 44.1676 0 7.53137e-08 -0.00181542 0 
13952 1 139.5 44.1676 0 3.51851e-07 -0.00181542 0 
14052 1 140.5 44.1676 0 1.55488e-06 -0.00181542 0 
14152 1 141.5 44.1676 0 6.48644e-06 -0.00181542 0 
14252 1 142.5 44.1676 0 2.54743e-05 -0.00181542 0 
14352 1 143.5 44.1676 0 9.3882e-05 -0.00181542 0 
14452 1 144.5 44.1676 0 0.000323461 -0.00181542 0 
14552 1 145.5 44.1676 0 0.00103734 -0.00181541 0 
14652 1 146.5 44.1676 0 0.00308047 -0.00181541 0 
14752 1 147.5 44.1676 0 0.00841655 -0.00181539 0 
14852 1 148.5 44.1676 0 0.0209884 -0.00181534 0 
14952 1 149.5 44.1676 0 0.0472688 -0.00181523 0 
15052 1 150.5 44.1676 0 0.0947492 -0.00181502 0 
15152 1 151.501 44.1676 0 0.165386 -0.00181468 0 
15252 1 152.502 44.1676 0 0.242337 -0.00181427 0 
15352 1 153.504 44.1676 0 0.276601 -0.00181397 0 
15452 1 154.507 44.1676 0 0.19556 -0.00181413 0 
15552 1 155.511 44.1676 0 -0.0394658 -0.00181499 0 
15652 1 156.515 44.1676 0 -0.340844 -0.0018163 0 
15752 1 157.518 44.1676 0 -0.472713 -0.00181704 0 
15852 1 158.519 44.1676 0 -0.231882 -0.00181615 0 
15952 1 159.519 44.1676 0 0.240448 -0.00181405 0 
16052 1 160.52 44.1676 0 0.427231 -0.00181333 0 
16152 1 161.523 44.1676 0 0.0189502 -0.00181604 0 
16252 1 162.526 44.1676 0 -0.46234 -0.00181947 0 
16352 1 163.528 44.1676 0 -0.22649 -0.00181847 0 
16452 1 164.529 44.1676 0 0.403144 -0.00181413 0 
16552 1 165.531 44.1676 0 0.272034 -0.0018144 0 
16652 1 166.534 44.1676 0 -0.426313 -0.00182006 0 
16752 1 167.536 44.1676 0 -0.237215 -0.00182027 0 
16852 1 168.538 44.1676 0 0.471452 -0.00181448 0 
16952 1 169.541 44.1676 0 0.056986 -0.00181647 0 
17052 1 170.545 44.1676 0 -0.489732 -0.0018232 0 
17152 1 171.547 44.1676 0 0.227627 -0.00181942 0 
17252 1 172.55 44.1676 0 0.290684 -0.00181609 0 
17352 1 173.554 44.1676 0 -0.506322 -0.00182134 0 
17452 1 174.557 44.1676 0 0.0336955 -0.00181615 0 
17552 1 175.56 44.1676 0 0.220628 -0.00181245 0 
17652 1 176.563 44.1676 0 -0.310241 -0.00182137 0 
17752 1 177.564 44.1676 0 0.449095 -0.00181209 0 
17852 1 178.569 44.1676 0 -0.377951 -0.00180928 0 
17952 1 179.572 44.1676 0 -1.07116 -0.00181804 0 
18052 1 180.572 44.1676 0 0.97558 -0.00180913 0 
18152 1 181.575 44.1676 0 0.745888 -0.00180288 0 
18252 1 182.579 44.1676 0 0.188282 -0.00180607 0 
18352 1 183.582 44.1676 0 -0.343676 -0.00180807 0 
18452 1 184.586 44.1676 0 -1.03985 -0.00181575 0 
18552 1 185.588 44.1676 0 -0.0633045 -0.00179538 0 
18652 1 186.591 44.1676 0 -0.654293 -0.00180803 0 
18752 1 187.594 44.1676 0 0.467904 -0.00180264 0 
18852 1 188.598 44.1676 0 -0.340121 -0.00179903 0 
18952 1 189.601 44.1676 0 0.563673 -0.00180237 0 
19052 1 190.605 44.1676 0 1.25091 -0.00180015 0 
19152 1 191.61 44.1676 0 -1.00451 -0.00180139 0 
19252 1 192.614 44.1676 0 1.38007 -0.00179196 0 
19352 1 193.62 44.1676 0 0.524868 -0.00178626 0 
19452 1 194.627 44.1676 0 -0.94769 -0.00179139 0 
19552 1 195.633 44.1676 0 1.37389 -0.00184141 0 
19652 1 196.644 44.1676 0 -0.936571 -0.0018208 0 
19752 1 197.655 44.1676 0 0.973518 -0.00185961 0 
19852 1 198.673 44.1676 0 -0.880523 -0.00179286 0 
19952 1 199.7 44.1676 0 0.787131 -0.00174968 0 
20052 3 200.753 44.1676 0 -0.283385 -0.00181379 0 
20152 1 201.699 44.1676 0 0.798397 -0.00190143 0 
20252 1 202.672 44.1676 0 -0.340268 -0.00180462 0 
20352 1 203.654 44.1676 0 1.2961 -0.00174808 0 
20452 1 204.643 44.1676 0 -0.407107 -0.00178585 0 
20552 1 205.632 44.1676 0 1.87932 -0.0017966 0 
20652 1 206.627 44.1676 0 -0.946908 -0.00184912 0 
20752 1 207.618 44.1676 0 1.33704 -0.00184394 0 
20852 1 208.614 44.1676 0 1.07551 -0.00182987 0 
20952 1 209.61 44.1676 0 -1.03667 -0.00182935 0 
21052 1 210.604 44.1676 0 1.34872 -0.0018323 0 
21152 1 211.601 44.1676 0 -0.373951 -0.00182325 0 
21252 1 212.598 44.1676 0 -0.54544 -0.00183479 0 
21352 1 213.595 44.1676 0 -0.180203 -0.00182393 0 
21452 1 214.592 44.1676 0 -1.00576 -0.00182347 0 
21552 1 215.588 44.1676 0 -0.210049 -0.00183329 0 
21652 1 216.585 44.1676 0 -0.75554 -0.00181229 0 
21752 1 217.58 44.1676 0 0.326296 -0.001826 0 
21852 1 218.577 44.1676 0 0.870175 -0.00182986 0 
21952 1 219.574 44.1676 0 0.762689 -0.00182418 0 
22052 1 220.572 44.1676 0 0.149166 -0.00181761 0 
22152 1 221.572 44.1676 0 -1.35046 -0.00181365 0 
22252 1 222.568 44.1676 0 -0.105714 -0.00182259 0 
22352 1 223.564 44.1676 0 0.586372 -0.00181748 0 
22452 1 224.562 44.1676 0 -0.244582 -0.00180969 0 
22552 1 225.559 44.1676 0 0.131696 -0.00181822 0 
22652 1 226.557 44.1676 0 -0.000642686 -0.00181475 0 
22752 1 227.554 44.1676 0 -0.427757 -0.00180953 0 
22852 1 228.55 44.1676 0 0.210788 -0.00181364 0 
22952 1 229.546 44.1676 0 0.205347 -0.00181157 0 
23052 1 230.544 44.1676 0 -0.347948 -0.0018089 0 
23152 1 231.541 44.1676 0 0.0188182 -0.00181388 0 
23252 1 232.538 44.1676 0 0.31727 -0.00181532 0 
23352 1 233.536 44.1676 0 -0.173681 -0.00181126 0 
23452 1 234.534 44.1676 0 -0.27687 -0.00181181 0 
23552 1 235.531 44.1676 0 0.219007 -0.00181594 0 
23652 1 236.529 44.1676 0 0.257546 -0.00181578 0 
23752 1 237.527 44.1676 0 -0.220858 -0.00181245 0 
23852 1 238.526 44.1676 0 -0.33639 -0.00181216 0 
23952 1 239.523 44.1676 0 0.073004 -0.00181515 0 
24052 1 240.52 44.1676 0 0.355431 -0.00181716 0 
24152 1 241.519 44.1676 0 0.146349 -0.00181636 0 
24252 1 242.518 44.1676 0 -0.254712 -0.00181457 0 
24352 1 243.517 44.1676 0 -0.42279 -0.00181395 0 
24452 1 244.514 44.1676 0 -0.273113 -0.00181477 0 
24552 1 245.51 44.1676 0 0.000524952 -0.00181598 0 
24652 1 246.507 44.1676 0 0.199969 -0.0018167 0 
24752 1 247.504 44.1676 0 0.261071 -0.00181678 0 
24852 1 248.502 44.1676 0 0.22341 -0.00181648 0 
24952 1 249.501 44.1676 0 0.151127 -0.00181609 0 
25052 1 250.5 44.1676 0 0.0863253 -0.00181578 0 
25152 1 251.5 44.1676 0 0.0430569 -0.00181559 0 
25252 1 252.5 44.1676 0 0.01914 -0.00181549 0 
25352 1 253.5 44.1676 0 0.00768945 -0.00181545 0 
25452 1 254.5 44.1676 0 0.00282058 -0.00181543 0 
25552 1 255.5 44.1676 0 0.000952119 -0.00181542 0 
25652 1 256.5 44.1676 0 0.000297633 -0.00181542 0 
25752 1 257.5 44.1676 0 8.66063e-05 -0.00181542 0 
25852 1 258.5 44.1676 0 2.35601e-05 -0.00181542 0 
25952 1 259.5 44.1676 0 6.01409e-06 -0.00181542 0 
26052 1 260.5 44.1676 0 1.44511e-06 -0.00181542 0 
26152 1 261.5 44.1676 0 3.27991e-07 -0.00181542 0 
26252 1 262.5 44.1676 0 7.03286e-08 -0.00181542 0 
26352 1 263.5 44.1676 0 1.43235e-08 -0.00181542 0 
26452 1 264.5 44.1676 0 2.78326e-09 -0.00181542 0 
26552 1 265.5 44.1676 0 5.55034e-10 -0.00181542 0 
26652 1 266.5 44.1676 0 5.9393e-11 -0.00181542 0 
26752 1 267.5 44.1676 0 -8.66828e-19 -0.00181542 0 
26852 1 268.5 44.1676 0 -8.66507e-19 -0.00181542 0 
26952 1 269.5 44.1676 0 -8.66507e-19 -0.00181542 0 
27052 1 270.5 44.1676 0 -8.66507e-19 -0.00181542 0 
27152 1 271.5 44.1676 0 -8.66507e-19 -0.00181542 0 
27252 1 272.5 44.1676 0 -8.66828e-19 -0.00181542 0 
27352 1 273.5 44.1676 0 -8.66828e-19 -0.00181542 0 
27452 1 274.5 44.1676 0 -8.66507e-19 -0.00181542 0 
27552 1 275.5 44.1676 0 -8.66828e-19 -0.00181542 0 
27652 1 276.5 44.1676 0 -8.66828e-19 -0.00181542 0 
27752 1 277.5 44.1676 0 -8.66828e-19 -0.00181542 0 
27852 1 278.5 44.1676 0 -8.66828e-19 -0.00181542 0 
27952 1 279.5 44.1676 0 -8.66828e-19 -0.00181542 0 
28052 1 280.5 44.1676 0 -8.66828e-19 -0.00181542 0 
28152 1 281.5 44.1676 0 -8.66828e-19 -0.00181542 0 
28252 1 282.5 44.1676 0 -8.66507e-19 -0.00181542 0 
28352 1 283.5 44.1676 0 -8.66507e-19 -0.00181542 0 
28452 1 284.5 44.1676 0 -8.66828e-19 -0.00181542 0 
28552 1 285.5 44.1676 0 -8.66828e-19 -0.00181542 0 
28652 1 286.5 44.1676 0 -8.66507e-19 -0.00181542 0 
28752 1 287.5 44.1676 0 -8.66828e-19 -0.00181542 0 
28852 1 288.5 44.1676 0 -8.66507e-19 -0.00181542 0 
28952 1 289.5 44.1676 0 -8.66507e-19 -0.00181542 0 
29052 1 290.5 44.1676 0 -8.66507e-19 -0.00181542 0 
29152 1 291.5 44.1676 0 -8.66828e-19 -0.00181542 0 
29252 1 292.5 44.1676 0 -8.66507e-19 -0.00181542 0 
29352 1 293.5 44.1676 0 -8.66828e-19 -0.00181542 0 
29452 1 294.5 44.1676 0 -8.66507e-19 -0.00181542 0 
29552 1 295.5 44.1676 0 -8.66507e-19 -0.00181542 0 
29652 1 296.5 44.1676 0 -8.66828e-19 -0.00181542 0 
29752 1 297.5 44.1676 0 -8.66828e-19 -0.00181542 0 
29852 1 298.5 44.1676 0 -8.66828e-19 -0.00181542 0 
29952 1 299.5 44.1676 0 -8.66828e-19 -0.00181542 0 
30052 1 300.5 44.1676 0 -8.66828e-19 -0.00181542 0 
30152 1 301.5 44.1676 0 -8.66507e-19 -0.00181542 0 
30252 1 302.5 44.1676 0 -8.66828e-19 -0.00181542 0 
30352 1 303.5 44.1676 0 -8.66828e-19 -0.00181542 0 
30452 1 304.5 44.1676 0 -8.66828e-19 -0.00181542 0 
30552 1 305.5 44.1676 0 -8.66828e-19 -0.00181542 0 
30652 1 306.5 44.1676 0 -8.66507e-19 -0.00181542 0 
30752 1 307.5 44.1676 0 -8.66507e-19 -0.00181542 0 
30852 1 308.5 44.1676 0 -8.66828e-19 -0.00181542 0 
30952 1 309.5 44.1676 0 -8.66828e-19 -0.00181542 0 
31052 1 310.5 44.1676 0 -8.66828e-19 -0.00181542 0 
31152 1 311.5 44.1676 0 -8.66507e-19 -0.00181542 0 
31252 1 312.5 44.1676 0 -8.66507e-19 -0.00181542 0 
31352 1 313.5 44.1676 0 -8.66828e-19 -0.00181542 0 
31452 1 314.5 44.1676 0 -8.66828e-19 -0.00181542 0 
31552 1 315.5 44.1676 0 -8.66507e-19 -0.00181542 0 
31652 1 316.5 44.1676 0 -8.66828e-19 -0.00181542 0 
31752 1 317.5 44.1676 0 -8.66507e-19 -0.00181542 0 
31852 1 318.5 44.1676 0 -8.66507e-19 -0.00181542 0 
31952 1 319.5 44.1676 0 -8.66507e-19 -0.00181542 0 
32052 1 320.5 44.1676 0 -8.66828e-19 -0.00181542 0 
32152 1 321.5 44.1676 0 -8.66828e-19 -0.00181542 0 
32252 1 322.5 44.1676 0 -8.66507e-19 -0.00181542 0 
32352 1 323.5 44.1676 0 -8.66828e-19 -0.00181542 0 
32452 1 324.5 44.1676 0 -8.66507e-19 -0.00181542 0 
32552 1 325.5 44.1676 0 -8.66507e-19 -0.00181542 0 
32652 1 326.5 44.1676 0 -8.66507e-19 -0.00181542 0 
32752 1 327.5 44.1676 0 -8.66507e-19 -0.00181542 0 
32852 1 328.5 44.1676 0 -8.66828e-19 -0.00181542 0 
32952 1 329.5 44.1676 0 -8.66507e-19 -0.00181542 0 
33052 1 330.5 44.1676 0 -8.66828e-19 -0.00181542 0 
33152 1 331.5 44.1676 0 -8.66828e-19 -0.00181542 0 
33252 1 332.5 44.1676 0 -8.66507e-19 -0.00181542 0 
33352 1 333.5 44.1676 0 -8.66507e-19 -0.00181542 0 
33452 1 334.5 44.1676 0 -8.66507e-19 -0.00181542 0 
33552 1 335.5 44.1676 0 -8.66828e-19 -0.00181542 0 
33652 1 336.5 44.1676 0 -8.66828e-19 -0.00181542 0 
33752 1 337.5 44.1676 0 -8.66507e-19 -0.00181542 0 
33852 1 338.5 44.1676 0 -8.66507e-19 -0.00181542 0 
33952 1 339.5 44.1676 0 -8.66828e-19 -0.00181542 0 
34052 1 340.5 44.1676 0 -8.66507e-19 -0.00181542 0 
34152 1 341.5 44.1676 0 -8.66507e-19 -0.00181542 0 
34252 1 342.5 44.1676 0 -8.66507e-19 -0.00181542 0 
34352 1 343.5 44.1676 0 -8.66828e-19 -0.00181542 0 
34452 1 344.5 44.1676 0 1.61703e-12 -0.00181542 0 
34552 1 345.5 44.1676 0 2.09613e-10 -0.00181542 0 
34652 1 346.5 44.1676 0 5.51051e-10 -0.00181542 0 
34752 1 347.5 44.1676 0 1.55175e-09 -0.00181542 0 
34852 1 348.5 44.1676 0 4.32342e-09 -0.00181542 0 
34952 1 349.5 44.1676 0 1.00087e-08 -0.00181542 0 
35052 1 350.5 44.1676 0 2.11646e-08 -0.00181543 0 
35152 1 351.5 44.1676 0 3.8351e-08 -0.00181545 0 
35252 1 352.5 44.1676 0 6.27738e-08 -0.00181548 0 
35352 1 353.5 44.1676 0 8.9934e-08 -0.00181551 0 
35452 1 354.5 44.1676 0 8.57967e-08 -0.00181552 0 
35552 1 355.5 44.1676 0 -6.93985e-08 -0.00181545 0 
35652 1 356.5 44.1676 0 -6.12048e-07 -0.0018153 0 
35752 1 357.5 44.1676 0 -1.64601e-06 -0.00181523 0 
35852 1 358.5 44.1676 0 -2.41011e-06 -0.00181554 0 
35952 1 359.5 44.1676 0 -8.37757e-07 -0.0018162 0 
36052 1 360.5 44.1676 0 4.40546e-06 -0.00181628 0 
36152 1 361.5 44.1676 0 9.17171e-06 -0.0018146 0 
36252 1 362.5 44.1676 0 3.97438e-06 -0.00181238 0 
36352 1 363.5 44.1676 0 -1.21742e-05 -0.00181396 0 
36452 1 364.5 44.1676 0 -1.94197e-05 -0.0018207 0 
36552 1 365.5 44.1676 0 -1.70636e-06 -0.00182551 0 
36652 1 366.5 44.1676 0 1.25115e-05 -0.00182396 0 
36752 1 367.5 44.1676 0 -1.33177e-05 -0.00182895 0 
36852 1 368.5 44.1676 0 -4.04972e-05 -0.00185047 0 
36952 1 369.5 44.1676 0 -2.31134e-05 -0.00186869 0 
37052 1 370.5 44.1676 0 -3.83534e-05 -0.00187806 0 
37152 1 371.5 44.1676 0 -0.000124498 -0.0019246 0 
37252 1 372.5 44.1676 0 -0.000145519 -0.00201246 0 
37352 1 373.5 44.1676 0 -0.000135151 -0.00207934 0 
37452 1 374.5 44.1676 0 -0.000261374 -0.00214766 0 
37552 1 375.5 44.1676 0 -0.000333776 -0.00226362 0 
37652 1 376.5 44.1676 0 -0.000307466 -0.00236594 0 
37752 1 377.5 44.1676 0 -0.000475813 -0.00248662 0 
37852 1 378.5 44.1676 0 -0.000544528 -0.00261104 0 
37952 1 379.5 44.1676 0 -0.000439924 -0.0026276 0 
38052 1 380.5 44.1676 0 -0.000626031 -0.00269352 0 
38152 1 381.5 44.1676 0 -0.000592743 -0.00267963 0 
38252 1 382.5 44.1676 0 -0.000491627 -0.00261975 0 
38352 1 383.5 44.1675 0 -0.00063105 -0.00245997 0 
38452 1 384.5 44.1675 0 -0.000416802 -0.00233935 0 
38552 1 385.5 44.1675 0 -0.000421003 -0.002064 0 
38652 1 386.5 44.1675 0 -0.000414695 -0.00193475 0 
38752 1 387.5 44.1675 0 -0.000285107 -0.00169605 0 
38852 1 388.5 44.1675 0 -0.000273574 -0.00146124 0 
38952 1 389.5 44.1675 0 -0.000129254 -0.00121192 0 
39052 1 390.5 44.1675 0 -0.000169576 -0.00100779 0 
39152 1 391.5 44.1675 0 2.54811e-05 -0.000761725 0 
39252 1 392.5 44.1674 0 5.84635e-05 -0.000885398 0 
39352 1 393.5 44.1674 0 0.000304296 -0.00080177 0 
39452 1 394.5 44.1674 0 0.00059152 -0.00107144 0 
39552 1 395.5 44.1674 0 0.000839808 -0.00115812 0 
39652 1 396.5 44.1674 0 0.00079894 -0.000938452 0 
39752 1 397.5 44.1673 0 0.000267465 -0.000225521 0 
39852 2 398.5 44.1673 0 -0.00366567 -0.000397259 0 
39952 2 399.5 44.1673 0 -2.20719e-05 -0.000198667 0 
