ITEM: TIMESTEP
1770
ITEM: NUMBER OF ATOMS
400
ITEM: BOX BOUNDS ff pp pp
0.0000000000000000e+00 4.0000000000000000e+02
0.0000000000000000e+00 8.6602540000000005e+01
0.0000000000000000e+00 1.0000000000000000e+00
ITEM: ATOMS id type x y z fx fy fz 
52 2 0.5 44.1673 0 0 -0.000397333 0 
152 2 1.5 44.1673 0 0.00432993 -0.000397226 0 
252 1 2.50002 44.1673 0 -0.000380705 -0.000364618 0 
352 1 3.50003 44.1674 0 -0.000249207 -0.000428897 0 
452 1 4.50005 44.1674 0 2.70742e-05 -4.04736e-05 0 
552 1 5.50007 44.1675 0 -0.000279254 -0.000474699 0 
652 1 6.50009 44.1675 0 -0.000597295 -0.00129498 0 
752 1 7.5001 44.1675 0 -0.000854137 -0.00183269 0 
852 1 8.5001 44.1676 0 -0.00053704 -0.00161278 0 
952 1 9.5001 44.1676 0 -0.000329485 -0.00158506 0 
1052 1 10.5001 44.1676 0 -3.38675e-05 -0.00138725 0 
1152 1 11.5001 44.1676 0 0.000133511 -0.00137167 0 
1252 1 12.5001 44.1677 0 0.000229256 -0.00147006 0 
1352 1 13.5001 44.1677 0 0.000286467 -0.00140858 0 
1452 1 14.5001 44.1677 0 0.000249806 -0.00138936 0 
1552 1 15.5001 44.1677 0 0.000327504 -0.0013032 0 
1652 1 16.5001 44.1677 0 0.000135706 -0.00119883 0 
1752 1 17.5001 44.1677 0 0.000235161 -0.00112577 0 
1852 1 18.5001 44.1677 0 7.22436e-05 -0.000945357 0 
1952 1 19.5001 44.1677 0 1.88373e-05 -0.000967081 0 
2052 1 20.5 44.1677 0 0.000136973 -0.000859783 0 
2152 1 21.5 44.1678 0 -3.298e-06 -0.000918402 0 
2252 1 22.5 44.1678 0 9.10538e-05 -0.00102567 0 
2352 1 23.5 44.1678 0 0.000251044 -0.0010894 0 
2452 1 24.5 44.1678 0 0.000194778 -0.00126896 0 
2552 1 25.5 44.1678 0 0.000351162 -0.00144572 0 
2652 1 26.5 44.1678 0 0.000452312 -0.00155877 0 
2752 1 27.5 44.1678 0 0.000403354 -0.0016789 0 
2852 1 28.5 44.1678 0 0.000480849 -0.00174386 0 
2952 1 29.5 44.1678 0 0.000505413 -0.00170713 0 
3052 1 30.5 44.1678 0 0.000396311 -0.00166155 0 
3152 1 31.5 44.1678 0 0.000348716 -0.00162218 0 
3252 1 32.5 44.1678 0 0.000325222 -0.00153877 0 
3352 1 33.5 44.1678 0 0.000230902 -0.00143954 0 
3452 1 34.5 44.1678 0 0.000150091 -0.00136813 0 
3552 1 35.5 44.1678 0 0.000124368 -0.00131475 0 
3652 1 36.5 44.1678 0 8.91977e-05 -0.00126721 0 
3752 1 37.5 44.1678 0 3.43539e-05 -0.00123532 0 
3852 1 38.5 44.1678 0 7.16941e-06 -0.0012208 0 
3952 1 39.5 44.1678 0 1.38363e-05 -0.00121191 0 
4052 1 40.5 44.1678 0 2.09994e-05 -0.00120236 0 
4152 1 41.5 44.1678 0 1.28868e-05 -0.00119499 0 
4252 1 42.5 44.1678 0 4.04237e-07 -0.00119224 0 
4352 1 43.5 44.1678 0 -4.95311e-06 -0.00119236 0 
4452 1 44.5 44.1678 0 -3.39526e-06 -0.0011928 0 
4552 1 45.5 44.1678 0 -2.88229e-07 -0.0011927 0 
4652 1 46.5 44.1678 0 1.25851e-06 -0.00119242 0 
4752 1 47.5 44.1678 0 1.25228e-06 -0.0011923 0 
4852 1 48.5 44.1678 0 6.98687e-07 -0.00119235 0 
4952 1 49.5 44.1678 0 2.37127e-07 -0.00119243 0 
5052 1 50.5 44.1678 0 8.57033e-09 -0.00119246 0 
5152 1 51.5 44.1678 0 -6.02834e-08 -0.00119246 0 
5252 1 52.5 44.1678 0 -5.9264e-08 -0.00119243 0 
5352 1 53.5 44.1678 0 -3.97446e-08 -0.00119241 0 
5452 1 54.5 44.1678 0 -2.20779e-08 -0.0011924 0 
5552 1 55.5 44.1678 0 -1.06906e-08 -0.00119239 0 
5652 1 56.5 44.1678 0 -4.61342e-09 -0.00119239 0 
5752 1 57.5 44.1678 0 -1.78485e-09 -0.00119239 0 
5852 1 58.5 44.1678 0 -6.22002e-10 -0.00119239 0 
5952 1 59.5 44.1678 0 -1.97036e-10 -0.00119238 0 
6052 1 60.5 44.1678 0 -7.09092e-11 -0.00119238 0 
6152 1 61.5 44.1678 0 -2.11345e-11 -0.00119238 0 
6252 1 62.5 44.1678 0 8.696e-19 -0.00119238 0 
6352 1 63.5 44.1678 0 8.696e-19 -0.00119238 0 
6452 1 64.5 44.1678 0 8.69241e-19 -0.00119238 0 
6552 1 65.5 44.1678 0 8.696e-19 -0.00119238 0 
6652 1 66.5 44.1678 0 8.69241e-19 -0.00119238 0 
6752 1 67.5 44.1678 0 8.69241e-19 -0.00119238 0 
6852 1 68.5 44.1678 0 8.69241e-19 -0.00119238 0 
6952 1 69.5 44.1678 0 8.696e-19 -0.00119238 0 
7052 1 70.5 44.1678 0 8.69241e-19 -0.00119238 0 
7152 1 71.5 44.1678 0 8.69241e-19 -0.00119238 0 
7252 1 72.5 44.1678 0 8.696e-19 -0.00119238 0 
7352 1 73.5 44.1678 0 8.696e-19 -0.00119238 0 
7452 1 74.5 44.1678 0 8.69241e-19 -0.00119238 0 
7552 1 75.5 44.1678 0 8.696e-19 -0.00119238 0 
7652 1 76.5 44.1678 0 8.696e-19 -0.00119238 0 
7752 1 77.5 44.1678 0 8.69241e-19 -0.00119238 0 
7852 1 78.5 44.1678 0 8.69241e-19 -0.00119238 0 
7952 1 79.5 44.1678 0 8.69241e-19 -0.00119238 0 
8052 1 80.5 44.1678 0 8.69241e-19 -0.00119238 0 
8152 1 81.5 44.1678 0 8.696e-19 -0.00119238 0 
8252 1 82.5 44.1678 0 8.696e-19 -0.00119238 0 
8352 1 83.5 44.1678 0 8.69241e-19 -0.00119238 0 
8452 1 84.5 44.1678 0 8.69241e-19 -0.00119238 0 
8552 1 85.5 44.1678 0 8.696e-19 -0.00119238 0 
8652 1 86.5 44.1678 0 8.696e-19 -0.00119238 0 
8752 1 87.5 44.1678 0 8.69241e-19 -0.00119238 0 
8852 1 88.5 44.1678 0 8.696e-19 -0.00119238 0 
8952 1 89.5 44.1678 0 8.696e-19 -0.00119238 0 
9052 1 90.5 44.1678 0 8.69241e-19 -0.00119238 0 
9152 1 91.5 44.1678 0 8.69241e-19 -0.00119238 0 
9252 1 92.5 44.1678 0 8.69241e-19 -0.00119238 0 
9352 1 93.5 44.1678 0 8.696e-19 -0.00119238 0 
9452 1 94.5 44.1678 0 8.69241e-19 -0.00119238 0 
9552 1 95.5 44.1678 0 8.696e-19 -0.00119238 0 
9652 1 96.5 44.1678 0 8.69241e-19 -0.00119238 0 
9752 1 97.5 44.1678 0 8.696e-19 -0.00119238 0 
9852 1 98.5 44.1678 0 8.69241e-19 -0.00119238 0 
9952 1 99.5 44.1678 0 8.69241e-19 -0.00119238 0 
10052 1 100.5 44.1678 0 8.69241e-19 -0.00119238 0 
10152 1 101.5 44.1678 0 8.696e-19 -0.00119238 0 
10252 1 102.5 44.1678 0 8.696e-19 -0.00119238 0 
10352 1 103.5 44.1678 0 8.696e-19 -0.00119238 0 
10452 1 104.5 44.1678 0 8.696e-19 -0.00119238 0 
10552 1 105.5 44.1678 0 8.69241e-19 -0.00119238 0 
10652 1 106.5 44.1678 0 8.69241e-19 -0.00119238 0 
10752 1 107.5 44.1678 0 8.696e-19 -0.00119238 0 
10852 1 108.5 44.1678 0 8.69241e-19 -0.00119238 0 
10952 1 109.5 44.1678 0 8.69241e-19 -0.00119238 0 
11052 1 110.5 44.1678 0 8.69241e-19 -0.00119238 0 
11152 1 111.5 44.1678 0 8.69241e-19 -0.00119238 0 
11252 1 112.5 44.1678 0 8.69241e-19 -0.00119238 0 
11352 1 113.5 44.1678 0 8.69241e-19 -0.00119238 0 
11452 1 114.5 44.1678 0 8.69241e-19 -0.00119238 0 
11552 1 115.5 44.1678 0 8.696e-19 -0.00119238 0 
11652 1 116.5 44.1678 0 8.69241e-19 -0.00119238 0 
11752 1 117.5 44.1678 0 8.69241e-19 -0.00119238 0 
11852 1 118.5 44.1678 0 8.69241e-19 -0.00119238 0 
11952 1 119.5 44.1678 0 8.69241e-19 -0.00119238 0 
12052 1 120.5 44.1678 0 8.69241e-19 -0.00119238 0 
12152 1 121.5 44.1678 0 8.69241e-19 -0.00119238 0 
12252 1 122.5 44.1678 0 8.696e-19 -0.00119238 0 
12352 1 123.5 44.1678 0 8.696e-19 -0.00119238 0 
12452 1 124.5 44.1678 0 8.69241e-19 -0.00119238 0 
12552 1 125.5 44.1678 0 8.696e-19 -0.00119238 0 
12652 1 126.5 44.1678 0 8.69241e-19 -0.00119238 0 
12752 1 127.5 44.1678 0 8.69241e-19 -0.00119238 0 
12852 1 128.5 44.1678 0 8.69241e-19 -0.00119238 0 
12952 1 129.5 44.1678 0 1.69305e-10 -0.00119238 0 
13052 1 130.5 44.1678 0 7.14967e-10 -0.00119238 0 
13152 1 131.5 44.1678 0 3.73128e-09 -0.00119238 0 
13252 1 132.5 44.1678 0 1.80964e-08 -0.00119238 0 
13352 1 133.5 44.1678 0 8.47005e-08 -0.00119238 0 
13452 1 134.5 44.1678 0 3.76378e-07 -0.00119238 0 
13552 1 135.5 44.1678 0 1.58687e-06 -0.00119238 0 
13652 1 136.5 44.1678 0 6.33633e-06 -0.00119238 0 
13752 1 137.5 44.1678 0 2.39006e-05 -0.00119238 0 
13852 1 138.5 44.1678 0 8.49103e-05 -0.00119238 0 
13952 1 139.5 44.1678 0 0.000283152 -0.00119238 0 
14052 1 140.5 44.1678 0 0.000882837 -0.00119238 0 
14152 1 141.5 44.1678 0 0.00256163 -0.00119238 0 
14252 1 142.5 44.1678 0 0.00687812 -0.00119237 0 
14352 1 143.5 44.1678 0 0.01697 -0.00119234 0 
14452 1 144.5 44.1678 0 0.0381245 -0.00119228 0 
14552 1 145.5 44.1678 0 0.0770345 -0.00119218 0 
14652 1 146.501 44.1678 0 0.137523 -0.00119201 0 
14752 1 147.502 44.1678 0 0.210821 -0.00119182 0 
14852 1 148.504 44.1678 0 0.26319 -0.00119173 0 
14952 1 149.506 44.1678 0 0.234558 -0.00119204 0 
15052 1 150.51 44.1678 0 0.0707982 -0.00119308 0 
15152 1 151.513 44.1678 0 -0.204323 -0.00119499 0 
15252 1 152.517 44.1678 0 -0.431928 -0.00119728 0 
15352 1 153.519 44.1678 0 -0.387271 -0.00119876 0 
15452 1 154.519 44.1678 0 -0.0154729 -0.00119828 0 
15552 1 155.52 44.1678 0 0.372149 -0.00119612 0 
15652 1 156.522 44.1678 0 0.311211 -0.00119465 0 
15752 1 157.525 44.1678 0 -0.194421 -0.00119656 0 
15852 1 158.527 44.1678 0 -0.459069 -0.00120112 0 
15952 1 159.528 44.1678 0 -0.0184682 -0.00120384 0 
16052 1 160.529 44.1678 0 0.454994 -0.00120213 0 
16152 1 161.532 44.1678 0 0.0907135 -0.00119975 0 
16252 1 162.535 44.1678 0 -0.475186 -0.0012021 0 
16352 1 163.536 44.1678 0 -0.0850214 -0.0012069 0 
16452 1 164.538 44.1678 0 0.480161 -0.00120743 0 
16552 1 165.541 44.1678 0 -0.0514214 -0.00120506 0 
16652 1 166.544 44.1678 0 -0.461071 -0.00120733 0 
16752 1 167.546 44.1678 0 0.258746 -0.00121229 0 
16852 1 168.549 44.1678 0 0.280468 -0.00121192 0 
16952 1 169.553 44.1678 0 -0.441933 -0.00121003 0 
17052 1 170.555 44.1678 0 0.0730199 -0.00121363 0 
17152 1 171.558 44.1678 0 0.273312 -0.00121676 0 
17252 1 172.562 44.1678 0 -0.569706 -0.00121856 0 
17352 1 173.564 44.1678 0 0.0461502 -0.00122313 0 
17452 1 174.565 44.1678 0 0.473146 -0.00121849 0 
17552 1 175.569 44.1678 0 -0.208127 -0.00121712 0 
17652 1 176.572 44.1678 0 0.0858182 -0.00122624 0 
17752 1 177.574 44.1678 0 -0.551243 -0.00122073 0 
17852 1 178.577 44.1678 0 -0.672917 -0.00122757 0 
17952 1 179.578 44.1678 0 0.927363 -0.00122004 0 
18052 1 180.58 44.1678 0 0.70415 -0.00122071 0 
18152 1 181.583 44.1678 0 0.348257 -0.00122039 0 
18252 1 182.588 44.1678 0 -0.69269 -0.0012313 0 
18352 1 183.59 44.1678 0 -0.565157 -0.00121727 0 
18452 1 184.593 44.1678 0 -0.0992 -0.00121128 0 
18552 1 185.597 44.1678 0 -0.903313 -0.00122735 0 
18652 1 186.598 44.1678 0 0.401008 -0.00121984 0 
18752 1 187.603 44.1678 0 -0.571643 -0.00120358 0 
18852 1 188.604 44.1678 0 1.35713 -0.00123136 0 
18952 1 189.609 44.1678 0 -0.493914 -0.00120721 0 
19052 1 190.613 44.1678 0 0.327081 -0.00120663 0 
19152 1 191.616 44.1678 0 1.86356 -0.00122237 0 
19252 1 192.624 44.1678 0 -1.70918 -0.00121394 0 
19352 1 193.627 44.1678 0 1.79547 -0.00123236 0 
19452 1 194.635 44.1678 0 -0.391203 -0.00127066 0 
19552 1 195.642 44.1678 0 0.0326332 -0.0012321 0 
19652 1 196.651 44.1678 0 0.423973 -0.00115243 0 
19752 1 197.663 44.1678 0 -0.496089 -0.00110871 0 
19852 1 198.679 44.1678 0 0.837413 -0.00124674 0 
19952 1 199.708 44.1678 0 -0.930312 -0.0013095 0 
20052 3 200.76 44.1678 0 1.24433 -0.00118099 0 
20152 1 201.708 44.1678 0 -0.588732 -0.00107826 0 
20252 1 202.678 44.1678 0 1.23825 -0.00115798 0 
20352 1 203.662 44.1678 0 -0.3579 -0.00129873 0 
20452 1 204.649 44.1678 0 1.32594 -0.00120558 0 
20552 1 205.641 44.1678 0 -0.119849 -0.00113938 0 
20652 1 206.633 44.1678 0 0.617369 -0.00110364 0 
20752 1 207.626 44.1678 0 1.52815 -0.00116313 0 
20852 1 208.623 44.1678 0 -1.47992 -0.0011809 0 
20952 1 209.615 44.1678 0 2.37492 -0.00115633 0 
21052 1 210.614 44.1678 0 -0.756839 -0.00118405 0 
21152 1 211.609 44.1678 0 -0.169032 -0.00117041 0 
21252 1 212.605 44.1678 0 0.578673 -0.00116165 0 
21352 1 213.603 44.1678 0 -1.1099 -0.00117777 0 
21452 1 214.599 44.1678 0 -0.0794527 -0.0011646 0 
21552 1 215.597 44.1678 0 -1.15829 -0.00116498 0 
21652 1 216.592 44.1678 0 -0.0306754 -0.00117438 0 
21752 1 217.59 44.1678 0 -0.277193 -0.00116746 0 
21852 1 218.587 44.1678 0 -0.0778068 -0.0011545 0 
21952 1 219.582 44.1678 0 0.996006 -0.00116794 0 
22052 1 220.58 44.1678 0 0.84912 -0.00116811 0 
22152 1 221.579 44.1678 0 0.125477 -0.00116144 0 
22252 1 222.577 44.1678 0 -1.18754 -0.00115646 0 
22352 1 223.574 44.1678 0 -0.416327 -0.00116637 0 
22452 1 224.571 44.1678 0 0.402957 -0.00116065 0 
22552 1 225.568 44.1678 0 0.0249074 -0.00116869 0 
22652 1 226.565 44.1678 0 0.321604 -0.00116528 0 
22752 1 227.564 44.1678 0 -0.110099 -0.00116168 0 
22852 1 228.562 44.1678 0 -0.491728 -0.00116757 0 
22952 1 229.558 44.1678 0 0.263617 -0.00116955 0 
23052 1 230.555 44.1678 0 0.0893043 -0.00117135 0 
23152 1 231.552 44.1678 0 -0.368037 -0.00117394 0 
23252 1 232.548 44.1678 0 0.1792 -0.00117308 0 
23352 1 233.545 44.1678 0 0.209611 -0.00117333 0 
23452 1 234.543 44.1678 0 -0.314854 -0.00117714 0 
23552 1 235.541 44.1678 0 -0.0429823 -0.00117895 0 
23652 1 236.538 44.1678 0 0.319443 -0.00117781 0 
23752 1 237.536 44.1678 0 -0.0808515 -0.00117893 0 
23852 1 238.534 44.1678 0 -0.319091 -0.00118271 0 
23952 1 239.531 44.1678 0 0.104269 -0.00118421 0 
24052 1 240.529 44.1678 0 0.315966 -0.00118243 0 
24152 1 241.528 44.1678 0 -0.0747844 -0.00118169 0 
24252 1 242.526 44.1678 0 -0.363506 -0.00118452 0 
24352 1 243.524 44.1678 0 -0.0995669 -0.00118831 0 
24452 1 244.521 44.1678 0 0.288289 -0.00118964 0 
24552 1 245.52 44.1678 0 0.278802 -0.00118825 0 
24652 1 246.519 44.1678 0 -0.0754308 -0.0011865 0 
24752 1 247.518 44.1678 0 -0.371299 -0.00118638 0 
24852 1 248.516 44.1678 0 -0.370135 -0.00118797 0 
24952 1 249.513 44.1678 0 -0.148048 -0.00119014 0 
25052 1 250.509 44.1678 0 0.0946171 -0.00119184 0 
25152 1 251.506 44.1678 0 0.229796 -0.00119274 0 
25252 1 252.503 44.1678 0 0.24601 -0.00119299 0 
25352 1 253.502 44.1678 0 0.193772 -0.0011929 0 
25452 1 254.501 44.1678 0 0.125558 -0.00119273 0 
25552 1 255.5 44.1678 0 0.0701736 -0.00119257 0 
25652 1 256.5 44.1678 0 0.0347258 -0.00119248 0 
25752 1 257.5 44.1678 0 0.0154729 -0.00119242 0 
25852 1 258.5 44.1678 0 0.00628151 -0.0011924 0 
25952 1 259.5 44.1678 0 0.00234402 -0.00119239 0 
26052 1 260.5 44.1678 0 0.000809579 -0.00119239 0 
26152 1 261.5 44.1678 0 0.000260242 -0.00119239 0 
26252 1 262.5 44.1678 0 7.82205e-05 -0.00119239 0 
26352 1 263.5 44.1678 0 2.20689e-05 -0.00119238 0 
26452 1 264.5 44.1678 0 5.86432e-06 -0.00119238 0 
26552 1 265.5 44.1678 0 1.47197e-06 -0.00119238 0 
26652 1 266.5 44.1678 0 3.50011e-07 -0.00119238 0 
26752 1 267.5 44.1678 0 7.88708e-08 -0.00119238 0 
26852 1 268.5 44.1678 0 1.69265e-08 -0.00119238 0 
26952 1 269.5 44.1678 0 3.52182e-09 -0.00119238 0 
27052 1 270.5 44.1678 0 7.24688e-10 -0.00119238 0 
27152 1 271.5 44.1678 0 9.03123e-11 -0.00119238 0 
27252 1 272.5 44.1678 0 8.69241e-19 -0.00119238 0 
27352 1 273.5 44.1678 0 8.69241e-19 -0.00119238 0 
27452 1 274.5 44.1678 0 8.696e-19 -0.00119238 0 
27552 1 275.5 44.1678 0 8.69241e-19 -0.00119238 0 
27652 1 276.5 44.1678 0 8.69241e-19 -0.00119238 0 
27752 1 277.5 44.1678 0 8.69241e-19 -0.00119238 0 
27852 1 278.5 44.1678 0 8.69241e-19 -0.00119238 0 
27952 1 279.5 44.1678 0 8.69241e-19 -0.00119238 0 
28052 1 280.5 44.1678 0 8.69241e-19 -0.00119238 0 
28152 1 281.5 44.1678 0 8.69241e-19 -0.00119238 0 
28252 1 282.5 44.1678 0 8.696e-19 -0.00119238 0 
28352 1 283.5 44.1678 0 8.696e-19 -0.00119238 0 
28452 1 284.5 44.1678 0 8.69241e-19 -0.00119238 0 
28552 1 285.5 44.1678 0 8.69241e-19 -0.00119238 0 
28652 1 286.5 44.1678 0 8.696e-19 -0.00119238 0 
28752 1 287.5 44.1678 0 8.69241e-19 -0.00119238 0 
28852 1 288.5 44.1678 0 8.696e-19 -0.00119238 0 
28952 1 289.5 44.1678 0 8.696e-19 -0.00119238 0 
29052 1 290.5 44.1678 0 8.696e-19 -0.00119238 0 
29152 1 291.5 44.1678 0 8.69241e-19 -0.00119238 0 
29252 1 292.5 44.1678 0 8.696e-19 -0.00119238 0 
29352 1 293.5 44.1678 0 8.69241e-19 -0.00119238 0 
29452 1 294.5 44.1678 0 8.696e-19 -0.00119238 0 
29552 1 295.5 44.1678 0 8.696e-19 -0.00119238 0 
29652 1 296.5 44.1678 0 8.69241e-19 -0.00119238 0 
29752 1 297.5 44.1678 0 8.69241e-19 -0.00119238 0 
29852 1 298.5 44.1678 0 8.69241e-19 -0.00119238 0 
29952 1 299.5 44.1678 0 8.69241e-19 -0.00119238 0 
30052 1 300.5 44.1678 0 8.69241e-19 -0.00119238 0 
30152 1 301.5 44.1678 0 8.696e-19 -0.00119238 0 
30252 1 302.5 44.1678 0 8.69241e-19 -0.00119238 0 
30352 1 303.5 44.1678 0 8.69241e-19 -0.00119238 0 
30452 1 304.5 44.1678 0 8.69241e-19 -0.00119238 0 
30552 1 305.5 44.1678 0 8.69241e-19 -0.00119238 0 
30652 1 306.5 44.1678 0 8.696e-19 -0.00119238 0 
30752 1 307.5 44.1678 0 8.696e-19 -0.00119238 0 
30852 1 308.5 44.1678 0 8.69241e-19 -0.00119238 0 
30952 1 309.5 44.1678 0 8.69241e-19 -0.00119238 0 
31052 1 310.5 44.1678 0 8.69241e-19 -0.00119238 0 
31152 1 311.5 44.1678 0 8.696e-19 -0.00119238 0 
31252 1 312.5 44.1678 0 8.696e-19 -0.00119238 0 
31352 1 313.5 44.1678 0 8.69241e-19 -0.00119238 0 
31452 1 314.5 44.1678 0 8.69241e-19 -0.00119238 0 
31552 1 315.5 44.1678 0 8.696e-19 -0.00119238 0 
31652 1 316.5 44.1678 0 8.69241e-19 -0.00119238 0 
31752 1 317.5 44.1678 0 8.696e-19 -0.00119238 0 
31852 1 318.5 44.1678 0 8.696e-19 -0.00119238 0 
31952 1 319.5 44.1678 0 8.696e-19 -0.00119238 0 
32052 1 320.5 44.1678 0 8.69241e-19 -0.00119238 0 
32152 1 321.5 44.1678 0 8.69241e-19 -0.00119238 0 
32252 1 322.5 44.1678 0 8.696e-19 -0.00119238 0 
32352 1 323.5 44.1678 0 8.69241e-19 -0.00119238 0 
32452 1 324.5 44.1678 0 8.696e-19 -0.00119238 0 
32552 1 325.5 44.1678 0 8.696e-19 -0.00119238 0 
32652 1 326.5 44.1678 0 8.696e-19 -0.00119238 0 
32752 1 327.5 44.1678 0 8.696e-19 -0.00119238 0 
32852 1 328.5 44.1678 0 8.69241e-19 -0.00119238 0 
32952 1 329.5 44.1678 0 8.696e-19 -0.00119238 0 
33052 1 330.5 44.1678 0 8.69241e-19 -0.00119238 0 
33152 1 331.5 44.1678 0 8.69241e-19 -0.00119238 0 
33252 1 332.5 44.1678 0 8.696e-19 -0.00119238 0 
33352 1 333.5 44.1678 0 8.696e-19 -0.00119238 0 
33452 1 334.5 44.1678 0 8.696e-19 -0.00119238 0 
33552 1 335.5 44.1678 0 8.69241e-19 -0.00119238 0 
33652 1 336.5 44.1678 0 8.69241e-19 -0.00119238 0 
33752 1 337.5 44.1678 0 8.696e-19 -0.00119238 0 
33852 1 338.5 44.1678 0 8.696e-19 -0.00119238 0 
33952 1 339.5 44.1678 0 4.87935e-12 -0.00119238 0 
34052 1 340.5 44.1678 0 3.52211e-10 -0.00119239 0 
34152 1 341.5 44.1678 0 6.54176e-10 -0.00119239 0 
34252 1 342.5 44.1678 0 1.69803e-09 -0.00119239 0 
34352 1 343.5 44.1678 0 4.56037e-09 -0.00119239 0 
34452 1 344.5 44.1678 0 1.07465e-08 -0.00119239 0 
34552 1 345.5 44.1678 0 2.20194e-08 -0.0011924 0 
34652 1 346.5 44.1678 0 3.98686e-08 -0.00119241 0 
34752 1 347.5 44.1678 0 5.93297e-08 -0.00119243 0 
34852 1 348.5 44.1678 0 6.00382e-08 -0.00119246 0 
34952 1 349.5 44.1678 0 -8.45193e-09 -0.00119246 0 
35052 1 350.5 44.1678 0 -2.37035e-07 -0.00119243 0 
35152 1 351.5 44.1678 0 -6.98572e-07 -0.00119235 0 
35252 1 352.5 44.1678 0 -1.2523e-06 -0.0011923 0 
35352 1 353.5 44.1678 0 -1.2585e-06 -0.00119242 0 
35452 1 354.5 44.1678 0 2.88126e-07 -0.0011927 0 
35552 1 355.5 44.1678 0 3.39514e-06 -0.0011928 0 
35652 1 356.5 44.1678 0 4.95348e-06 -0.00119236 0 
35752 1 357.5 44.1678 0 -4.03951e-07 -0.00119224 0 
35852 1 358.5 44.1678 0 -1.28872e-05 -0.00119499 0 
35952 1 359.5 44.1678 0 -2.0999e-05 -0.00120236 0 
36052 1 360.5 44.1678 0 -1.38365e-05 -0.00121191 0 
36152 1 361.5 44.1678 0 -7.16948e-06 -0.0012208 0 
36252 1 362.5 44.1678 0 -3.43536e-05 -0.00123532 0 
36352 1 363.5 44.1678 0 -8.91978e-05 -0.00126721 0 
36452 1 364.5 44.1678 0 -0.000124368 -0.00131475 0 
36552 1 365.5 44.1678 0 -0.000150091 -0.00136813 0 
36652 1 366.5 44.1678 0 -0.000230903 -0.00143954 0 
36752 1 367.5 44.1678 0 -0.000325221 -0.00153877 0 
36852 1 368.5 44.1678 0 -0.000348716 -0.00162218 0 
36952 1 369.5 44.1678 0 -0.000396311 -0.00166155 0 
37052 1 370.5 44.1678 0 -0.000505413 -0.00170713 0 
37152 1 371.5 44.1678 0 -0.000480848 -0.00174386 0 
37252 1 372.5 44.1678 0 -0.000403354 -0.0016789 0 
37352 1 373.5 44.1678 0 -0.000452312 -0.00155877 0 
37452 1 374.5 44.1678 0 -0.000351162 -0.00144572 0 
37552 1 375.5 44.1678 0 -0.000194778 -0.00126896 0 
37652 1 376.5 44.1678 0 -0.000251044 -0.0010894 0 
37752 1 377.5 44.1678 0 -9.10543e-05 -0.00102567 0 
37852 1 378.5 44.1678 0 3.29802e-06 -0.000918402 0 
37952 1 379.5 44.1677 0 -0.000136973 -0.000859783 0 
38052 1 380.5 44.1677 0 -1.88375e-05 -0.000967081 0 
38152 1 381.5 44.1677 0 -7.22436e-05 -0.000945357 0 
38252 1 382.5 44.1677 0 -0.00023516 -0.00112577 0 
38352 1 383.5 44.1677 0 -0.000135706 -0.00119883 0 
38452 1 384.5 44.1677 0 -0.000327504 -0.0013032 0 
38552 1 385.5 44.1677 0 -0.000249807 -0.00138936 0 
38652 1 386.5 44.1677 0 -0.000286467 -0.00140858 0 
38752 1 387.5 44.1677 0 -0.000229256 -0.00147006 0 
38852 1 388.5 44.1676 0 -0.000133512 -0.00137167 0 
38952 1 389.5 44.1676 0 3.38675e-05 -0.00138725 0 
39052 1 390.5 44.1676 0 0.000329484 -0.00158506 0 
39152 1 391.5 44.1676 0 0.000537041 -0.00161278 0 
39252 1 392.5 44.1675 0 0.000854136 -0.00183269 0 
39352 1 393.5 44.1675 0 0.000597295 -0.00129498 0 
39452 1 394.5 44.1675 0 0.000279254 -0.000474699 0 
39552 1 395.5 44.1674 0 -2.70739e-05 -4.04732e-05 0 
39652 1 396.5 44.1674 0 0.000249207 -0.000428897 0 
39752 1 397.5 44.1673 0 0.000380705 -0.000364618 0 
39852 2 398.5 44.1673 0 -0.00432993 -0.000397226 0 
39952 2 399.5 44.1673 0 -2.20719e-05 -0.000198667 0 
