ITEM: TIMESTEP
1720
ITEM: NUMBER OF ATOMS
400
ITEM: BOX BOUNDS ff pp pp
0.0000000000000000e+00 4.0000000000000000e+02
0.0000000000000000e+00 8.6602540000000005e+01
0.0000000000000000e+00 1.0000000000000000e+00
ITEM: ATOMS id type x y z fx fy fz 
52 2 0.5 44.1673 0 0 -0.000397333 0 
152 2 1.5 44.1673 0 0.00349725 -0.000397263 0 
252 1 2.50001 44.1673 0 0.00033813 0.0002038 0 
352 1 3.50003 44.1674 0 -8.84048e-05 -0.000303764 0 
452 1 4.50005 44.1674 0 -0.000668275 -0.000863834 0 
552 1 5.50006 44.1674 0 -0.000776257 -0.000728295 0 
652 1 6.50006 44.1675 0 -0.000526185 2.53365e-05 0 
752 1 7.50006 44.1675 0 -0.000253247 0.000564422 0 
852 1 8.50006 44.1675 0 -2.5421e-05 0.000990966 0 
952 1 9.50006 44.1675 0 -3.83087e-05 0.00123314 0 
1052 1 10.5001 44.1675 0 7.4677e-05 0.00127817 0 
1152 1 11.5001 44.1675 0 -2.29283e-05 0.00133701 0 
1252 1 12.5 44.1675 0 8.63083e-05 0.00121256 0 
1352 1 13.5 44.1676 0 7.46891e-05 0.0011122 0 
1452 1 14.5 44.1676 0 0.000161587 0.000927896 0 
1552 1 15.5 44.1676 0 0.000226945 0.000836307 0 
1652 1 16.5 44.1676 0 0.000167539 0.000600686 0 
1752 1 17.5 44.1676 0 0.000446217 0.000400667 0 
1852 1 18.5 44.1676 0 0.000355118 0.000223428 0 
1952 1 19.5 44.1676 0 0.000475607 1.48482e-05 0 
2052 1 20.5 44.1676 0 0.000590857 -8.62652e-05 0 
2152 1 21.5 44.1676 0 0.000460885 -0.0001133 0 
2252 1 22.5 44.1676 0 0.000547598 -0.00021012 0 
2352 1 23.5 44.1676 0 0.000559112 -0.000154032 0 
2452 1 24.5 44.1676 0 0.000404038 -7.60101e-05 0 
2552 1 25.5 44.1676 0 0.000412268 3.49716e-06 0 
2652 1 26.5 44.1676 0 0.000372891 0.000126249 0 
2752 1 27.5 44.1676 0 0.000225101 0.000211079 0 
2852 1 28.5 44.1676 0 0.00019482 0.000277346 0 
2952 1 29.5 44.1676 0 0.000184702 0.000375286 0 
3052 1 30.5 44.1676 0 9.51496e-05 0.000453147 0 
3152 1 31.5 44.1676 0 4.66368e-05 0.000483985 0 
3252 1 32.5 44.1676 0 5.46377e-05 0.000507168 0 
3352 1 33.5 44.1676 0 3.33681e-05 0.000534643 0 
3452 1 34.5 44.1676 0 -3.63472e-06 0.000548212 0 
3552 1 35.5 44.1676 0 -4.07043e-06 0.000549716 0 
3652 1 36.5 44.1676 0 1.56128e-05 0.000553548 0 
3752 1 37.5 44.1676 0 1.75715e-05 0.000560934 0 
3852 1 38.5 44.1676 0 3.05071e-06 0.000564991 0 
3952 1 39.5 44.1676 0 -7.16795e-06 0.000564334 0 
4052 1 40.5 44.1676 0 -6.33523e-06 0.000562582 0 
4152 1 41.5 44.1676 0 -1.30791e-06 0.000562096 0 
4252 1 42.5 44.1676 0 1.66741e-06 0.000562537 0 
4352 1 43.5 44.1676 0 1.87065e-06 0.000562932 0 
4452 1 44.5 44.1676 0 1.01766e-06 0.000562976 0 
4552 1 45.5 44.1676 0 3.13091e-07 0.000562855 0 
4652 1 46.5 44.1676 0 -2.3946e-09 0.000562764 0 
4752 1 47.5 44.1676 0 -8.12585e-08 0.000562748 0 
4852 1 48.5 44.1676 0 -7.40367e-08 0.000562773 0 
4952 1 49.5 44.1676 0 -4.95477e-08 0.000562803 0 
5052 1 50.5 44.1676 0 -2.83602e-08 0.000562823 0 
5152 1 51.5 44.1676 0 -1.44025e-08 0.000562834 0 
5252 1 52.5 44.1676 0 -6.45059e-09 0.000562839 0 
5352 1 53.5 44.1676 0 -2.55037e-09 0.000562841 0 
5452 1 54.5 44.1676 0 -9.07062e-10 0.000562842 0 
5552 1 55.5 44.1676 0 -2.63191e-10 0.000562842 0 
5652 1 56.5 44.1676 0 -8.04691e-11 0.000562842 0 
5752 1 57.5 44.1676 0 -3.18025e-11 0.000562842 0 
5852 1 58.5 44.1676 0 1.27221e-21 0.000562842 0 
5952 1 59.5 44.1676 0 1.60325e-21 0.000562842 0 
6052 1 60.5 44.1676 0 1.60325e-21 0.000562842 0 
6152 1 61.5 44.1676 0 1.60325e-21 0.000562842 0 
6252 1 62.5 44.1676 0 1.60325e-21 0.000562842 0 
6352 1 63.5 44.1676 0 1.60325e-21 0.000562842 0 
6452 1 64.5 44.1676 0 1.27221e-21 0.000562842 0 
6552 1 65.5 44.1676 0 1.60325e-21 0.000562842 0 
6652 1 66.5 44.1676 0 1.27221e-21 0.000562842 0 
6752 1 67.5 44.1676 0 1.27221e-21 0.000562842 0 
6852 1 68.5 44.1676 0 1.27221e-21 0.000562842 0 
6952 1 69.5 44.1676 0 1.60325e-21 0.000562842 0 
7052 1 70.5 44.1676 0 1.27221e-21 0.000562842 0 
7152 1 71.5 44.1676 0 1.27221e-21 0.000562842 0 
7252 1 72.5 44.1676 0 1.60325e-21 0.000562842 0 
7352 1 73.5 44.1676 0 1.60325e-21 0.000562842 0 
7452 1 74.5 44.1676 0 1.27221e-21 0.000562842 0 
7552 1 75.5 44.1676 0 1.60325e-21 0.000562842 0 
7652 1 76.5 44.1676 0 1.60325e-21 0.000562842 0 
7752 1 77.5 44.1676 0 1.27221e-21 0.000562842 0 
7852 1 78.5 44.1676 0 1.27221e-21 0.000562842 0 
7952 1 79.5 44.1676 0 1.27221e-21 0.000562842 0 
8052 1 80.5 44.1676 0 1.27221e-21 0.000562842 0 
8152 1 81.5 44.1676 0 1.60325e-21 0.000562842 0 
8252 1 82.5 44.1676 0 1.60325e-21 0.000562842 0 
8352 1 83.5 44.1676 0 1.27221e-21 0.000562842 0 
8452 1 84.5 44.1676 0 1.27221e-21 0.000562842 0 
8552 1 85.5 44.1676 0 1.60325e-21 0.000562842 0 
8652 1 86.5 44.1676 0 1.60325e-21 0.000562842 0 
8752 1 87.5 44.1676 0 1.27221e-21 0.000562842 0 
8852 1 88.5 44.1676 0 1.60325e-21 0.000562842 0 
8952 1 89.5 44.1676 0 1.60325e-21 0.000562842 0 
9052 1 90.5 44.1676 0 1.27221e-21 0.000562842 0 
9152 1 91.5 44.1676 0 1.27221e-21 0.000562842 0 
9252 1 92.5 44.1676 0 1.27221e-21 0.000562842 0 
9352 1 93.5 44.1676 0 1.60325e-21 0.000562842 0 
9452 1 94.5 44.1676 0 1.27221e-21 0.000562842 0 
9552 1 95.5 44.1676 0 1.60325e-21 0.000562842 0 
9652 1 96.5 44.1676 0 1.27221e-21 0.000562842 0 
9752 1 97.5 44.1676 0 1.60325e-21 0.000562842 0 
9852 1 98.5 44.1676 0 1.27221e-21 0.000562842 0 
9952 1 99.5 44.1676 0 1.27221e-21 0.000562842 0 
10052 1 100.5 44.1676 0 1.27221e-21 0.000562842 0 
10152 1 101.5 44.1676 0 1.60325e-21 0.000562842 0 
10252 1 102.5 44.1676 0 1.60325e-21 0.000562842 0 
10352 1 103.5 44.1676 0 1.60325e-21 0.000562842 0 
10452 1 104.5 44.1676 0 1.60325e-21 0.000562842 0 
10552 1 105.5 44.1676 0 1.27221e-21 0.000562842 0 
10652 1 106.5 44.1676 0 1.27221e-21 0.000562842 0 
10752 1 107.5 44.1676 0 1.60325e-21 0.000562842 0 
10852 1 108.5 44.1676 0 1.27221e-21 0.000562842 0 
10952 1 109.5 44.1676 0 1.27221e-21 0.000562842 0 
11052 1 110.5 44.1676 0 1.27221e-21 0.000562842 0 
11152 1 111.5 44.1676 0 1.27221e-21 0.000562842 0 
11252 1 112.5 44.1676 0 1.27221e-21 0.000562842 0 
11352 1 113.5 44.1676 0 1.27221e-21 0.000562842 0 
11452 1 114.5 44.1676 0 1.27221e-21 0.000562842 0 
11552 1 115.5 44.1676 0 1.60325e-21 0.000562842 0 
11652 1 116.5 44.1676 0 1.27221e-21 0.000562842 0 
11752 1 117.5 44.1676 0 1.27221e-21 0.000562842 0 
11852 1 118.5 44.1676 0 1.27221e-21 0.000562842 0 
11952 1 119.5 44.1676 0 1.27221e-21 0.000562842 0 
12052 1 120.5 44.1676 0 1.27221e-21 0.000562842 0 
12152 1 121.5 44.1676 0 1.27221e-21 0.000562842 0 
12252 1 122.5 44.1676 0 1.60325e-21 0.000562842 0 
12352 1 123.5 44.1676 0 1.60325e-21 0.000562842 0 
12452 1 124.5 44.1676 0 1.27221e-21 0.000562842 0 
12552 1 125.5 44.1676 0 1.60325e-21 0.000562842 0 
12652 1 126.5 44.1676 0 1.27221e-21 0.000562842 0 
12752 1 127.5 44.1676 0 1.27221e-21 0.000562842 0 
12852 1 128.5 44.1676 0 1.27221e-21 0.000562842 0 
12952 1 129.5 44.1676 0 1.27221e-21 0.000562842 0 
13052 1 130.5 44.1676 0 1.27221e-21 0.000562842 0 
13152 1 131.5 44.1676 0 1.60325e-21 0.000562842 0 
13252 1 132.5 44.1676 0 2.25827e-11 0.000562842 0 
13352 1 133.5 44.1676 0 2.48245e-10 0.000562842 0 
13452 1 134.5 44.1676 0 1.21777e-09 0.000562842 0 
13552 1 135.5 44.1676 0 6.42781e-09 0.000562842 0 
13652 1 136.5 44.1676 0 3.19205e-08 0.000562842 0 
13752 1 137.5 44.1676 0 1.51474e-07 0.000562842 0 
13852 1 138.5 44.1676 0 6.81021e-07 0.000562842 0 
13952 1 139.5 44.1676 0 2.89658e-06 0.000562842 0 
14052 1 140.5 44.1676 0 1.16301e-05 0.000562842 0 
14152 1 141.5 44.1676 0 4.39484e-05 0.000562842 0 
14252 1 142.5 44.1676 0 0.000155782 0.000562842 0 
14352 1 143.5 44.1676 0 0.000515969 0.000562842 0 
14452 1 144.5 44.1676 0 0.00158958 0.000562842 0 
14552 1 145.5 44.1676 0 0.00453015 0.000562842 0 
14652 1 146.5 44.1676 0 0.0118625 0.00056284 0 
14752 1 147.5 44.1676 0 0.028296 0.000562828 0 
14852 1 148.5 44.1676 0 0.0607816 0.000562782 0 
14952 1 149.501 44.1676 0 0.115679 0.000562642 0 
15052 1 150.501 44.1676 0 0.190226 0.000562273 0 
15152 1 151.503 44.1676 0 0.258572 0.000561443 0 
15252 1 152.505 44.1676 0 0.263125 0.000559856 0 
15352 1 153.508 44.1676 0 0.135905 0.000557341 0 
15452 1 154.512 44.1676 0 -0.131159 0.000554211 0 
15552 1 155.516 44.1676 0 -0.404898 0.000551523 0 
15652 1 156.518 44.1676 0 -0.439338 0.000550682 0 
15752 1 157.519 44.1676 0 -0.106029 0.000552112 0 
15852 1 158.519 44.1676 0 0.33701 0.000553953 0 
15952 1 159.521 44.1676 0 0.36894 0.000552797 0 
16052 1 160.524 44.1676 0 -0.129188 0.00054761 0 
16152 1 161.527 44.1676 0 -0.478752 0.000542873 0 
16252 1 162.528 44.1676 0 -0.0737819 0.000543648 0 
16352 1 163.529 44.1676 0 0.461351 0.000546983 0 
16452 1 164.532 44.1676 0 0.121797 0.000544404 0 
16552 1 165.535 44.1676 0 -0.485713 0.000536643 0 
16652 1 166.537 44.1676 0 -0.0810646 0.000534842 0 
16752 1 167.538 44.1676 0 0.493368 0.000538491 0 
16852 1 168.542 44.1676 0 -0.0982223 0.000534105 0 
16952 1 169.545 44.1676 0 -0.440132 0.000524905 0 
17052 1 170.547 44.1676 0 0.336194 0.000525649 0 
17152 1 171.55 44.1676 0 0.170182 0.000526831 0 
17252 1 172.554 44.1676 0 -0.496677 0.000519478 0 
17352 1 173.557 44.1676 0 0.189332 0.000520556 0 
17452 1 174.56 44.1676 0 0.15013 0.000522312 0 
17552 1 175.563 44.1676 0 -0.438 0.000512522 0 
17652 1 176.564 44.1676 0 0.296198 0.000518406 0 
17752 1 177.568 44.1676 0 -0.340946 0.000519207 0 
17852 1 178.571 44.1676 0 -0.483639 0.000508646 0 
17952 1 179.571 44.1676 0 1.3746 0.000523381 0 
18052 1 180.575 44.1676 0 0.227551 0.000521069 0 
18152 1 181.58 44.1676 0 -0.901832 0.000513733 0 
18252 1 182.582 44.1676 0 -0.694995 0.000511866 0 
18352 1 183.584 44.1676 0 -0.431365 0.00051264 0 
18452 1 184.587 44.1676 0 0.380398 0.0005255 0 
18552 1 185.589 44.1676 0 0.100469 0.000511136 0 
18652 1 186.592 44.1676 0 0.878033 0.000517587 0 
18752 1 187.596 44.1676 0 -0.1697 0.000523187 0 
18852 1 188.599 44.1676 0 1.01312 0.000507673 0 
18952 1 189.604 44.1676 0 0.127227 0.000528327 0 
19052 1 190.608 44.1676 0 -1.19731 0.000517463 0 
19152 1 191.612 44.1676 0 1.56048 0.000520598 0 
19252 1 192.619 44.1676 0 -1.46927 0.000520281 0 
19352 1 193.623 44.1676 0 -0.538104 0.000525148 0 
19452 1 194.629 44.1676 0 0.52732 0.000502366 0 
19552 1 195.637 44.1676 0 -1.1676 0.000565081 0 
19652 1 196.647 44.1676 0 0.0579555 0.000494686 0 
19752 1 197.658 44.1676 0 -0.878546 0.000477489 0 
19852 1 198.675 44.1676 0 0.21331 0.000465698 0 
19952 1 199.703 44.1676 0 -0.600287 0.000559664 0 
20052 3 200.757 44.1676 0 -0.353918 0.000571322 0 
20152 1 201.703 44.1676 0 -0.643254 0.000589814 0 
20252 1 202.675 44.1676 0 0.0314515 0.000628403 0 
20352 1 203.658 44.1676 0 -0.859457 0.000626827 0 
20452 1 204.646 44.1676 0 0.135971 0.000597308 0 
20552 1 205.637 44.1676 0 -1.16701 0.000569124 0 
20652 1 206.628 44.1676 0 1.24838 0.000634915 0 
20752 1 207.623 44.1676 0 -0.843862 0.000605697 0 
20852 1 208.617 44.1676 0 -0.365824 0.000592601 0 
20952 1 209.61 44.1676 0 1.90594 0.000612516 0 
21052 1 210.607 44.1676 0 -0.954618 0.000602055 0 
21152 1 211.602 44.1676 0 1.08703 0.000598795 0 
21252 1 212.598 44.1676 0 0.86145 0.000617402 0 
21352 1 213.596 44.1676 0 0.00550655 0.000598644 0 
21452 1 214.592 44.1676 0 0.593853 0.000612728 0 
21552 1 215.59 44.1676 0 -0.406699 0.000610347 0 
21652 1 216.587 44.1676 0 -0.227909 0.000600803 0 
21752 1 217.585 44.1676 0 -0.864802 0.000617224 0 
21852 1 218.582 44.1676 0 -0.744042 0.000611977 0 
21952 1 219.578 44.1676 0 -0.172429 0.000605469 0 
22052 1 220.574 44.1676 0 1.00178 0.000603327 0 
22152 1 221.571 44.1676 0 1.03846 0.000605111 0 
22252 1 222.571 44.1676 0 -0.905321 0.000617412 0 
22352 1 223.568 44.1676 0 -0.390202 0.000605085 0 
22452 1 224.564 44.1676 0 0.322501 0.000607117 0 
22552 1 225.562 44.1676 0 -0.295368 0.000612037 0 
22652 1 226.559 44.1676 0 0.143436 0.000602661 0 
22752 1 227.556 44.1676 0 0.14212 0.00060412 0 
22852 1 228.554 44.1676 0 -0.426343 0.000605579 0 
22952 1 229.55 44.1676 0 0.101545 0.000599407 0 
23052 1 230.546 44.1676 0 0.27867 0.000599149 0 
23152 1 231.544 44.1676 0 -0.301559 0.000598823 0 
23252 1 232.541 44.1676 0 -0.0858596 0.000591527 0 
23352 1 233.538 44.1676 0 0.330631 0.000587833 0 
23452 1 234.536 44.1676 0 -0.0703168 0.000589697 0 
23552 1 235.534 44.1676 0 -0.325238 0.00058738 0 
23652 1 236.531 44.1676 0 0.120284 0.000581298 0 
23752 1 237.529 44.1676 0 0.313685 0.000579503 0 
23852 1 238.528 44.1676 0 -0.113394 0.000581837 0 
23952 1 239.526 44.1676 0 -0.367419 0.000581579 0 
24052 1 240.523 44.1676 0 -0.0445177 0.000577128 0 
24152 1 241.521 44.1676 0 0.325113 0.00057289 0 
24252 1 242.519 44.1676 0 0.238525 0.000572123 0 
24352 1 243.519 44.1676 0 -0.152381 0.000573713 0 
24452 1 244.517 44.1676 0 -0.406794 0.000574668 0 
24552 1 245.515 44.1676 0 -0.337476 0.000573497 0 
24652 1 246.511 44.1676 0 -0.080835 0.000570789 0 
24752 1 247.508 44.1676 0 0.150325 0.000567848 0 
24852 1 248.505 44.1676 0 0.252198 0.000565548 0 
24952 1 249.503 44.1676 0 0.239746 0.00056411 0 
25052 1 250.501 44.1676 0 0.174223 0.000563359 0 
25152 1 251.501 44.1676 0 0.105467 0.000563024 0 
25252 1 252.5 44.1676 0 0.0553575 0.000562897 0 
25352 1 253.5 44.1676 0 0.0257878 0.000562855 0 
25452 1 254.5 44.1676 0 0.0108275 0.000562844 0 
25552 1 255.5 44.1676 0 0.00414322 0.000562842 0 
25652 1 256.5 44.1676 0 0.0014571 0.000562842 0 
25752 1 257.5 44.1676 0 0.000474103 0.000562842 0 
25852 1 258.5 44.1676 0 0.000143495 0.000562842 0 
25952 1 259.5 44.1676 0 4.05828e-05 0.000562842 0 
26052 1 260.5 44.1676 0 1.0766e-05 0.000562842 0 
26152 1 261.5 44.1676 0 2.68774e-06 0.000562842 0 
26252 1 262.5 44.1676 0 6.33506e-07 0.000562842 0 
26352 1 263.5 44.1676 0 1.41238e-07 0.000562842 0 
26452 1 264.5 44.1676 0 2.9791e-08 0.000562842 0 
26552 1 265.5 44.1676 0 6.04842e-09 0.000562842 0 
26652 1 266.5 44.1676 0 1.17771e-09 0.000562842 0 
26752 1 267.5 44.1676 0 2.3328e-10 0.000562842 0 
26852 1 268.5 44.1676 0 1.60325e-21 0.000562842 0 
26952 1 269.5 44.1676 0 1.60325e-21 0.000562842 0 
27052 1 270.5 44.1676 0 1.60325e-21 0.000562842 0 
27152 1 271.5 44.1676 0 1.60325e-21 0.000562842 0 
27252 1 272.5 44.1676 0 1.27221e-21 0.000562842 0 
27352 1 273.5 44.1676 0 1.27221e-21 0.000562842 0 
27452 1 274.5 44.1676 0 1.60325e-21 0.000562842 0 
27552 1 275.5 44.1676 0 1.27221e-21 0.000562842 0 
27652 1 276.5 44.1676 0 1.27221e-21 0.000562842 0 
27752 1 277.5 44.1676 0 1.27221e-21 0.000562842 0 
27852 1 278.5 44.1676 0 1.27221e-21 0.000562842 0 
27952 1 279.5 44.1676 0 1.27221e-21 0.000562842 0 
28052 1 280.5 44.1676 0 1.27221e-21 0.000562842 0 
28152 1 281.5 44.1676 0 1.27221e-21 0.000562842 0 
28252 1 282.5 44.1676 0 1.60325e-21 0.000562842 0 
28352 1 283.5 44.1676 0 1.60325e-21 0.000562842 0 
28452 1 284.5 44.1676 0 1.27221e-21 0.000562842 0 
28552 1 285.5 44.1676 0 1.27221e-21 0.000562842 0 
28652 1 286.5 44.1676 0 1.60325e-21 0.000562842 0 
28752 1 287.5 44.1676 0 1.27221e-21 0.000562842 0 
28852 1 288.5 44.1676 0 1.60325e-21 0.000562842 0 
28952 1 289.5 44.1676 0 1.60325e-21 0.000562842 0 
29052 1 290.5 44.1676 0 1.60325e-21 0.000562842 0 
29152 1 291.5 44.1676 0 1.27221e-21 0.000562842 0 
29252 1 292.5 44.1676 0 1.60325e-21 0.000562842 0 
29352 1 293.5 44.1676 0 1.27221e-21 0.000562842 0 
29452 1 294.5 44.1676 0 1.60325e-21 0.000562842 0 
29552 1 295.5 44.1676 0 1.60325e-21 0.000562842 0 
29652 1 296.5 44.1676 0 1.27221e-21 0.000562842 0 
29752 1 297.5 44.1676 0 1.27221e-21 0.000562842 0 
29852 1 298.5 44.1676 0 1.27221e-21 0.000562842 0 
29952 1 299.5 44.1676 0 1.27221e-21 0.000562842 0 
30052 1 300.5 44.1676 0 1.27221e-21 0.000562842 0 
30152 1 301.5 44.1676 0 1.60325e-21 0.000562842 0 
30252 1 302.5 44.1676 0 1.27221e-21 0.000562842 0 
30352 1 303.5 44.1676 0 1.27221e-21 0.000562842 0 
30452 1 304.5 44.1676 0 1.27221e-21 0.000562842 0 
30552 1 305.5 44.1676 0 1.27221e-21 0.000562842 0 
30652 1 306.5 44.1676 0 1.60325e-21 0.000562842 0 
30752 1 307.5 44.1676 0 1.60325e-21 0.000562842 0 
30852 1 308.5 44.1676 0 1.27221e-21 0.000562842 0 
30952 1 309.5 44.1676 0 1.27221e-21 0.000562842 0 
31052 1 310.5 44.1676 0 1.27221e-21 0.000562842 0 
31152 1 311.5 44.1676 0 1.60325e-21 0.000562842 0 
31252 1 312.5 44.1676 0 1.60325e-21 0.000562842 0 
31352 1 313.5 44.1676 0 1.27221e-21 0.000562842 0 
31452 1 314.5 44.1676 0 1.27221e-21 0.000562842 0 
31552 1 315.5 44.1676 0 1.60325e-21 0.000562842 0 
31652 1 316.5 44.1676 0 1.27221e-21 0.000562842 0 
31752 1 317.5 44.1676 0 1.60325e-21 0.000562842 0 
31852 1 318.5 44.1676 0 1.60325e-21 0.000562842 0 
31952 1 319.5 44.1676 0 1.60325e-21 0.000562842 0 
32052 1 320.5 44.1676 0 1.27221e-21 0.000562842 0 
32152 1 321.5 44.1676 0 1.27221e-21 0.000562842 0 
32252 1 322.5 44.1676 0 1.60325e-21 0.000562842 0 
32352 1 323.5 44.1676 0 1.27221e-21 0.000562842 0 
32452 1 324.5 44.1676 0 1.60325e-21 0.000562842 0 
32552 1 325.5 44.1676 0 1.60325e-21 0.000562842 0 
32652 1 326.5 44.1676 0 1.60325e-21 0.000562842 0 
32752 1 327.5 44.1676 0 1.60325e-21 0.000562842 0 
32852 1 328.5 44.1676 0 1.27221e-21 0.000562842 0 
32952 1 329.5 44.1676 0 1.60325e-21 0.000562842 0 
33052 1 330.5 44.1676 0 1.27221e-21 0.000562842 0 
33152 1 331.5 44.1676 0 1.27221e-21 0.000562842 0 
33252 1 332.5 44.1676 0 1.60325e-21 0.000562842 0 
33352 1 333.5 44.1676 0 1.60325e-21 0.000562842 0 
33452 1 334.5 44.1676 0 1.60325e-21 0.000562842 0 
33552 1 335.5 44.1676 0 1.27221e-21 0.000562842 0 
33652 1 336.5 44.1676 0 1.27221e-21 0.000562842 0 
33752 1 337.5 44.1676 0 1.60325e-21 0.000562842 0 
33852 1 338.5 44.1676 0 1.60325e-21 0.000562842 0 
33952 1 339.5 44.1676 0 1.27221e-21 0.000562842 0 
34052 1 340.5 44.1676 0 1.60325e-21 0.000562842 0 
34152 1 341.5 44.1676 0 1.60325e-21 0.000562842 0 
34252 1 342.5 44.1676 0 1.60325e-21 0.000562842 0 
34352 1 343.5 44.1676 0 7.83261e-11 0.000562842 0 
34452 1 344.5 44.1676 0 3.40381e-10 0.000562842 0 
34552 1 345.5 44.1676 0 8.93696e-10 0.000562842 0 
34652 1 346.5 44.1676 0 2.56144e-09 0.000562841 0 
34752 1 347.5 44.1676 0 6.40428e-09 0.000562839 0 
34852 1 348.5 44.1676 0 1.43306e-08 0.000562834 0 
34952 1 349.5 44.1676 0 2.85717e-08 0.000562823 0 
35052 1 350.5 44.1676 0 4.94489e-08 0.000562803 0 
35152 1 351.5 44.1676 0 7.40283e-08 0.000562773 0 
35252 1 352.5 44.1676 0 8.12823e-08 0.000562748 0 
35352 1 353.5 44.1676 0 2.27688e-09 0.000562764 0 
35452 1 354.5 44.1676 0 -3.13057e-07 0.000562855 0 
35552 1 355.5 44.1676 0 -1.01766e-06 0.000562976 0 
35652 1 356.5 44.1676 0 -1.87056e-06 0.000562932 0 
35752 1 357.5 44.1676 0 -1.66749e-06 0.000562537 0 
35852 1 358.5 44.1676 0 1.30737e-06 0.000562096 0 
35952 1 359.5 44.1676 0 6.3356e-06 0.000562582 0 
36052 1 360.5 44.1676 0 7.16783e-06 0.000564334 0 
36152 1 361.5 44.1676 0 -3.05088e-06 0.000564991 0 
36252 1 362.5 44.1676 0 -1.75714e-05 0.000560934 0 
36352 1 363.5 44.1676 0 -1.56129e-05 0.000553548 0 
36452 1 364.5 44.1676 0 4.07038e-06 0.000549716 0 
36552 1 365.5 44.1676 0 3.63484e-06 0.000548212 0 
36652 1 366.5 44.1676 0 -3.33682e-05 0.000534643 0 
36752 1 367.5 44.1676 0 -5.46376e-05 0.000507168 0 
36852 1 368.5 44.1676 0 -4.66366e-05 0.000483985 0 
36952 1 369.5 44.1676 0 -9.51499e-05 0.000453146 0 
37052 1 370.5 44.1676 0 -0.000184702 0.000375286 0 
37152 1 371.5 44.1676 0 -0.00019482 0.000277346 0 
37252 1 372.5 44.1676 0 -0.000225102 0.000211079 0 
37352 1 373.5 44.1676 0 -0.000372892 0.000126249 0 
37452 1 374.5 44.1676 0 -0.000412268 3.49711e-06 0 
37552 1 375.5 44.1676 0 -0.000404038 -7.60101e-05 0 
37652 1 376.5 44.1676 0 -0.000559112 -0.000154032 0 
37752 1 377.5 44.1676 0 -0.000547598 -0.00021012 0 
37852 1 378.5 44.1676 0 -0.000460885 -0.0001133 0 
37952 1 379.5 44.1676 0 -0.000590857 -8.62651e-05 0 
38052 1 380.5 44.1676 0 -0.000475607 1.48481e-05 0 
38152 1 381.5 44.1676 0 -0.000355118 0.000223428 0 
38252 1 382.5 44.1676 0 -0.000446217 0.000400667 0 
38352 1 383.5 44.1676 0 -0.00016754 0.000600686 0 
38452 1 384.5 44.1676 0 -0.000226945 0.000836307 0 
38552 1 385.5 44.1676 0 -0.000161587 0.000927895 0 
38652 1 386.5 44.1676 0 -7.46889e-05 0.0011122 0 
38752 1 387.5 44.1675 0 -8.63081e-05 0.00121256 0 
38852 1 388.5 44.1675 0 2.29281e-05 0.00133701 0 
38952 1 389.5 44.1675 0 -7.46768e-05 0.00127817 0 
39052 1 390.5 44.1675 0 3.83086e-05 0.00123314 0 
39152 1 391.5 44.1675 0 2.54209e-05 0.000990966 0 
39252 1 392.5 44.1675 0 0.000253247 0.000564422 0 
39352 1 393.5 44.1675 0 0.000526184 2.5336e-05 0 
39452 1 394.5 44.1674 0 0.000776257 -0.000728294 0 
39552 1 395.5 44.1674 0 0.000668275 -0.000863834 0 
39652 1 396.5 44.1674 0 8.8405e-05 -0.000303765 0 
39752 1 397.5 44.1673 0 -0.00033813 0.0002038 0 
39852 2 398.5 44.1673 0 -0.00349725 -0.000397263 0 
39952 2 399.5 44.1673 0 -2.20719e-05 -0.000198667 0 
