ITEM: TIMESTEP
1300
ITEM: NUMBER OF ATOMS
400
ITEM: BOX BOUNDS ff pp pp
0.0000000000000000e+00 4.0000000000000000e+02
0.0000000000000000e+00 8.6602540000000005e+01
0.0000000000000000e+00 1.0000000000000000e+00
ITEM: ATOMS id type x y z fx fy fz 
52 2 0.5 44.1673 0 0 -0.000397333 0 
152 2 1.5 44.1673 0 5.90723e-06 -0.000397333 0 
252 1 2.5 44.1673 0 -3.9292e-05 0.000159255 0 
352 1 3.5 44.1673 0 -4.67804e-05 0.000217486 0 
452 1 4.5 44.1673 0 4.64165e-05 0.000351137 0 
552 1 5.5 44.1673 0 -2.65534e-05 0.000440807 0 
652 1 6.5 44.1673 0 -4.54705e-06 0.000340622 0 
752 1 7.5 44.1673 0 8.33765e-05 0.000427242 0 
852 1 8.5 44.1673 0 -6.83783e-05 0.000417168 0 
952 1 9.5 44.1673 0 2.15351e-05 0.000460461 0 
1052 1 10.5 44.1673 0 3.90147e-05 0.000429521 0 
1152 1 11.5 44.1673 0 -5.79398e-05 0.000410961 0 
1252 1 12.5 44.1673 0 1.4702e-05 0.00040466 0 
1352 1 13.5 44.1673 0 2.74248e-05 0.000425642 0 
1452 1 14.5 44.1673 0 -2.52249e-05 0.000425738 0 
1552 1 15.5 44.1673 0 -1.76447e-05 0.000409961 0 
1652 1 16.5 44.1673 0 1.20318e-05 0.000409166 0 
1752 1 17.5 44.1673 0 1.22117e-05 0.000416916 0 
1852 1 18.5 44.1673 0 3.33685e-07 0.000419943 0 
1952 1 19.5 44.1673 0 -3.64426e-06 0.000418605 0 
2052 1 20.5 44.1673 0 -1.79069e-06 0.000417159 0 
2152 1 21.5 44.1673 0 -5.23852e-08 0.00041679 0 
2252 1 22.5 44.1673 0 3.23473e-07 0.000416904 0 
2352 1 23.5 44.1673 0 1.74081e-07 0.000417028 0 
2452 1 24.5 44.1673 0 4.09708e-08 0.000417072 0 
2552 1 25.5 44.1673 0 -2.24513e-09 0.000417078 0 
2652 1 26.5 44.1673 0 -6.2296e-09 0.000417076 0 
2752 1 27.5 44.1673 0 -3.07834e-09 0.000417074 0 
2852 1 28.5 44.1673 0 -1.02806e-09 0.000417073 0 
2952 1 29.5 44.1673 0 -2.64062e-10 0.000417072 0 
3052 1 30.5 44.1673 0 -6.54854e-11 0.000417072 0 
3152 1 31.5 44.1673 0 -1.76347e-11 0.000417072 0 
3252 1 32.5 44.1673 0 -3.30234e-24 0.000417072 0 
3352 1 33.5 44.1673 0 -3.30234e-24 0.000417072 0 
3452 1 34.5 44.1673 0 -3.30234e-24 0.000417072 0 
3552 1 35.5 44.1673 0 1.50485e-24 0.000417072 0 
3652 1 36.5 44.1673 0 -3.30234e-24 0.000417072 0 
3752 1 37.5 44.1673 0 1.50485e-24 0.000417072 0 
3852 1 38.5 44.1673 0 1.50485e-24 0.000417072 0 
3952 1 39.5 44.1673 0 1.50485e-24 0.000417072 0 
4052 1 40.5 44.1673 0 -3.30234e-24 0.000417072 0 
4152 1 41.5 44.1673 0 -3.30234e-24 0.000417072 0 
4252 1 42.5 44.1673 0 -3.30234e-24 0.000417072 0 
4352 1 43.5 44.1673 0 1.50485e-24 0.000417072 0 
4452 1 44.5 44.1673 0 1.50485e-24 0.000417072 0 
4552 1 45.5 44.1673 0 -3.30234e-24 0.000417072 0 
4652 1 46.5 44.1673 0 1.50485e-24 0.000417072 0 
4752 1 47.5 44.1673 0 -3.30234e-24 0.000417072 0 
4852 1 48.5 44.1673 0 -3.30234e-24 0.000417072 0 
4952 1 49.5 44.1673 0 -3.30234e-24 0.000417072 0 
5052 1 50.5 44.1673 0 1.50485e-24 0.000417072 0 
5152 1 51.5 44.1673 0 1.50485e-24 0.000417072 0 
5252 1 52.5 44.1673 0 -3.30234e-24 0.000417072 0 
5352 1 53.5 44.1673 0 1.50485e-24 0.000417072 0 
5452 1 54.5 44.1673 0 -3.30234e-24 0.000417072 0 
5552 1 55.5 44.1673 0 -3.30234e-24 0.000417072 0 
5652 1 56.5 44.1673 0 1.50485e-24 0.000417072 0 
5752 1 57.5 44.1673 0 1.50485e-24 0.000417072 0 
5852 1 58.5 44.1673 0 -3.30234e-24 0.000417072 0 
5952 1 59.5 44.1673 0 1.50485e-24 0.000417072 0 
6052 1 60.5 44.1673 0 1.50485e-24 0.000417072 0 
6152 1 61.5 44.1673 0 1.50485e-24 0.000417072 0 
6252 1 62.5 44.1673 0 1.50485e-24 0.000417072 0 
6352 1 63.5 44.1673 0 1.50485e-24 0.000417072 0 
6452 1 64.5 44.1673 0 -3.30234e-24 0.000417072 0 
6552 1 65.5 44.1673 0 1.50485e-24 0.000417072 0 
6652 1 66.5 44.1673 0 -3.30234e-24 0.000417072 0 
6752 1 67.5 44.1673 0 -3.30234e-24 0.000417072 0 
6852 1 68.5 44.1673 0 -3.30234e-24 0.000417072 0 
6952 1 69.5 44.1673 0 1.50485e-24 0.000417072 0 
7052 1 70.5 44.1673 0 -3.30234e-24 0.000417072 0 
7152 1 71.5 44.1673 0 -3.30234e-24 0.000417072 0 
7252 1 72.5 44.1673 0 1.50485e-24 0.000417072 0 
7352 1 73.5 44.1673 0 1.50485e-24 0.000417072 0 
7452 1 74.5 44.1673 0 -3.30234e-24 0.000417072 0 
7552 1 75.5 44.1673 0 1.50485e-24 0.000417072 0 
7652 1 76.5 44.1673 0 1.50485e-24 0.000417072 0 
7752 1 77.5 44.1673 0 -3.30234e-24 0.000417072 0 
7852 1 78.5 44.1673 0 -3.30234e-24 0.000417072 0 
7952 1 79.5 44.1673 0 -3.30234e-24 0.000417072 0 
8052 1 80.5 44.1673 0 -3.30234e-24 0.000417072 0 
8152 1 81.5 44.1673 0 1.50485e-24 0.000417072 0 
8252 1 82.5 44.1673 0 1.50485e-24 0.000417072 0 
8352 1 83.5 44.1673 0 -3.30234e-24 0.000417072 0 
8452 1 84.5 44.1673 0 -3.30234e-24 0.000417072 0 
8552 1 85.5 44.1673 0 1.50485e-24 0.000417072 0 
8652 1 86.5 44.1673 0 1.50485e-24 0.000417072 0 
8752 1 87.5 44.1673 0 -3.30234e-24 0.000417072 0 
8852 1 88.5 44.1673 0 1.50485e-24 0.000417072 0 
8952 1 89.5 44.1673 0 1.50485e-24 0.000417072 0 
9052 1 90.5 44.1673 0 -3.30234e-24 0.000417072 0 
9152 1 91.5 44.1673 0 -3.30234e-24 0.000417072 0 
9252 1 92.5 44.1673 0 -3.30234e-24 0.000417072 0 
9352 1 93.5 44.1673 0 1.50485e-24 0.000417072 0 
9452 1 94.5 44.1673 0 -3.30234e-24 0.000417072 0 
9552 1 95.5 44.1673 0 1.50485e-24 0.000417072 0 
9652 1 96.5 44.1673 0 -3.30234e-24 0.000417072 0 
9752 1 97.5 44.1673 0 1.50485e-24 0.000417072 0 
9852 1 98.5 44.1673 0 -3.30234e-24 0.000417072 0 
9952 1 99.5 44.1673 0 -3.30234e-24 0.000417072 0 
10052 1 100.5 44.1673 0 -3.30234e-24 0.000417072 0 
10152 1 101.5 44.1673 0 1.50485e-24 0.000417072 0 
10252 1 102.5 44.1673 0 1.50485e-24 0.000417072 0 
10352 1 103.5 44.1673 0 1.50485e-24 0.000417072 0 
10452 1 104.5 44.1673 0 1.50485e-24 0.000417072 0 
10552 1 105.5 44.1673 0 -3.30234e-24 0.000417072 0 
10652 1 106.5 44.1673 0 -3.30234e-24 0.000417072 0 
10752 1 107.5 44.1673 0 1.50485e-24 0.000417072 0 
10852 1 108.5 44.1673 0 -3.30234e-24 0.000417072 0 
10952 1 109.5 44.1673 0 -3.30234e-24 0.000417072 0 
11052 1 110.5 44.1673 0 -3.30234e-24 0.000417072 0 
11152 1 111.5 44.1673 0 -3.30234e-24 0.000417072 0 
11252 1 112.5 44.1673 0 -3.30234e-24 0.000417072 0 
11352 1 113.5 44.1673 0 -3.30234e-24 0.000417072 0 
11452 1 114.5 44.1673 0 -3.30234e-24 0.000417072 0 
11552 1 115.5 44.1673 0 1.50485e-24 0.000417072 0 
11652 1 116.5 44.1673 0 -3.30234e-24 0.000417072 0 
11752 1 117.5 44.1673 0 -3.30234e-24 0.000417072 0 
11852 1 118.5 44.1673 0 -3.30234e-24 0.000417072 0 
11952 1 119.5 44.1673 0 -3.30234e-24 0.000417072 0 
12052 1 120.5 44.1673 0 -3.30234e-24 0.000417072 0 
12152 1 121.5 44.1673 0 -3.30234e-24 0.000417072 0 
12252 1 122.5 44.1673 0 1.50485e-24 0.000417072 0 
12352 1 123.5 44.1673 0 1.50485e-24 0.000417072 0 
12452 1 124.5 44.1673 0 -3.30234e-24 0.000417072 0 
12552 1 125.5 44.1673 0 1.50485e-24 0.000417072 0 
12652 1 126.5 44.1673 0 -3.30234e-24 0.000417072 0 
12752 1 127.5 44.1673 0 -3.30234e-24 0.000417072 0 
12852 1 128.5 44.1673 0 -3.30234e-24 0.000417072 0 
12952 1 129.5 44.1673 0 -3.30234e-24 0.000417072 0 
13052 1 130.5 44.1673 0 -3.30234e-24 0.000417072 0 
13152 1 131.5 44.1673 0 1.50485e-24 0.000417072 0 
13252 1 132.5 44.1673 0 1.50485e-24 0.000417072 0 
13352 1 133.5 44.1673 0 1.50485e-24 0.000417072 0 
13452 1 134.5 44.1673 0 1.50485e-24 0.000417072 0 
13552 1 135.5 44.1673 0 -3.30234e-24 0.000417072 0 
13652 1 136.5 44.1673 0 -3.30234e-24 0.000417072 0 
13752 1 137.5 44.1673 0 1.50485e-24 0.000417072 0 
13852 1 138.5 44.1673 0 1.50485e-24 0.000417072 0 
13952 1 139.5 44.1673 0 -3.30234e-24 0.000417072 0 
14052 1 140.5 44.1673 0 1.50485e-24 0.000417072 0 
14152 1 141.5 44.1673 0 1.50485e-24 0.000417072 0 
14252 1 142.5 44.1673 0 1.50485e-24 0.000417072 0 
14352 1 143.5 44.1673 0 -3.30234e-24 0.000417072 0 
14452 1 144.5 44.1673 0 -3.30234e-24 0.000417072 0 
14552 1 145.5 44.1673 0 1.50485e-24 0.000417072 0 
14652 1 146.5 44.1673 0 -3.30234e-24 0.000417072 0 
14752 1 147.5 44.1673 0 1.50485e-24 0.000417072 0 
14852 1 148.5 44.1673 0 1.50485e-24 0.000417072 0 
14952 1 149.5 44.1673 0 1.50485e-24 0.000417072 0 
15052 1 150.5 44.1673 0 1.50485e-24 0.000417072 0 
15152 1 151.5 44.1673 0 1.50485e-24 0.000417072 0 
15252 1 152.5 44.1673 0 -3.30234e-24 0.000417072 0 
15352 1 153.5 44.1673 0 1.50485e-24 0.000417072 0 
15452 1 154.5 44.1673 0 1.50485e-24 0.000417072 0 
15552 1 155.5 44.1673 0 1.50485e-24 0.000417072 0 
15652 1 156.5 44.1673 0 1.50485e-24 0.000417072 0 
15752 1 157.5 44.1673 0 -3.30234e-24 0.000417072 0 
15852 1 158.5 44.1673 0 1.50485e-24 0.000417072 0 
15952 1 159.5 44.1673 0 1.50485e-24 0.000417072 0 
16052 1 160.5 44.1673 0 1.50485e-24 0.000417072 0 
16152 1 161.5 44.1673 0 -3.30234e-24 0.000417072 0 
16252 1 162.5 44.1673 0 -3.30234e-24 0.000417072 0 
16352 1 163.5 44.1673 0 1.50485e-24 0.000417072 0 
16452 1 164.5 44.1673 0 7.5286e-12 0.000417072 0 
16552 1 165.5 44.1673 0 2.56912e-10 0.000417072 0 
16652 1 166.5 44.1673 0 2.16431e-09 0.000417072 0 
16752 1 167.5 44.1673 0 1.83199e-08 0.000417072 0 
16852 1 168.5 44.1673 0 1.45015e-07 0.000417072 0 
16952 1 169.5 44.1673 0 1.05061e-06 0.000417072 0 
17052 1 170.5 44.1673 0 6.94525e-06 0.000417072 0 
17152 1 171.5 44.1673 0 4.16333e-05 0.000417072 0 
17252 1 172.5 44.1673 0 0.000224716 0.000417072 0 
17352 1 173.5 44.1673 0 0.00108268 0.000417072 0 
17452 1 174.5 44.1673 0 0.00460658 0.000417071 0 
17552 1 175.5 44.1673 0 0.0170725 0.000417066 0 
17652 1 176.5 44.1673 0 0.0541009 0.000417048 0 
17752 1 177.5 44.1673 0 0.142719 0.000416993 0 
17852 1 178.501 44.1673 0 0.300224 0.000416856 0 
17952 1 179.503 44.1673 0 0.463486 0.00041658 0 
18052 1 180.507 44.1673 0 0.415055 0.000416157 0 
18152 1 181.512 44.1673 0 -0.070235 0.000415718 0 
18252 1 182.517 44.1673 0 -0.714434 0.000415482 0 
18352 1 183.52 44.1673 0 -0.602023 0.000415441 0 
18452 1 184.522 44.1673 0 0.429073 0.000415154 0 
18552 1 185.525 44.1673 0 0.650345 0.000414361 0 
18652 1 186.531 44.1673 0 -0.542631 0.000413609 0 
18752 1 187.536 44.1673 0 -0.345454 0.000413171 0 
18852 1 188.541 44.1673 0 0.764982 0.000412192 0 
18952 1 189.549 44.1673 0 -0.92177 0.000410556 0 
19052 1 190.555 44.1673 0 -1.06878 0.000410182 0 
19152 1 191.556 44.1673 0 1.62918 0.000411887 0 
19252 1 192.562 44.1673 0 0.608833 0.000407917 0 
19352 1 193.57 44.1673 0 0.394789 0.000408753 0 
19452 1 194.577 44.1673 0 -0.188477 0.000412521 0 
19552 1 195.587 44.1673 0 -2.10931 0.000406039 0 
19652 1 196.595 44.1673 0 0.40069 0.000414399 0 
19752 1 197.607 44.1673 0 -0.475234 0.000421701 0 
19852 1 198.626 44.1673 0 -2.39867 0.000396458 0 
19952 1 199.651 44.1673 0 1.29382 0.000374779 0 
20052 3 200.707 44.1673 0 -2.57413 0.000413335 0 
20152 1 201.651 44.1673 0 0.868642 0.000452586 0 
20252 1 202.626 44.1673 0 -2.74416 0.000421786 0 
20352 1 203.606 44.1673 0 -0.159968 0.000402166 0 
20452 1 204.594 44.1673 0 -0.0594819 0.000417465 0 
20552 1 205.585 44.1673 0 -1.44232 0.000424916 0 
20652 1 206.575 44.1673 0 0.625852 0.000419342 0 
20752 1 207.568 44.1673 0 0.955983 0.000424166 0 
20852 1 208.561 44.1673 0 1.16383 0.000424221 0 
20952 1 209.556 44.1673 0 0.916526 0.000421228 0 
21052 1 210.555 44.1673 0 -1.47394 0.000423114 0 
21152 1 211.548 44.1673 0 -0.855529 0.000422532 0 
21252 1 212.54 44.1673 0 0.71341 0.000421351 0 
21352 1 213.536 44.1673 0 -0.166122 0.000420639 0 
21452 1 214.531 44.1673 0 -0.385472 0.000420237 0 
21552 1 215.525 44.1673 0 0.483227 0.000419581 0 
21652 1 216.522 44.1673 0 0.26161 0.000418915 0 
21752 1 217.52 44.1673 0 -0.546637 0.000418658 0 
21852 1 218.516 44.1673 0 -0.573482 0.000418582 0 
21952 1 219.511 44.1673 0 -0.00443223 0.00041833 0 
22052 1 220.506 44.1673 0 0.399213 0.000417913 0 
22152 1 221.503 44.1673 0 0.42553 0.000417523 0 
22252 1 222.501 44.1673 0 0.273638 0.00041727 0 
22352 1 223.5 44.1673 0 0.130339 0.000417145 0 
22452 1 224.5 44.1673 0 0.0496506 0.000417095 0 
22552 1 225.5 44.1673 0 0.0157581 0.000417079 0 
22652 1 226.5 44.1673 0 0.00427665 0.000417074 0 
22752 1 227.5 44.1673 0 0.00101074 0.000417073 0 
22852 1 228.5 44.1673 0 0.000210883 0.000417072 0 
22952 1 229.5 44.1673 0 3.926e-05 0.000417072 0 
23052 1 230.5 44.1673 0 6.57848e-06 0.000417072 0 
23152 1 231.5 44.1673 0 9.993e-07 0.000417072 0 
23252 1 232.5 44.1673 0 1.38457e-07 0.000417072 0 
23352 1 233.5 44.1673 0 1.75918e-08 0.000417072 0 
23452 1 234.5 44.1673 0 2.04877e-09 0.000417072 0 
23552 1 235.5 44.1673 0 2.4584e-10 0.000417072 0 
23652 1 236.5 44.1673 0 7.5286e-12 0.000417072 0 
23752 1 237.5 44.1673 0 -3.30234e-24 0.000417072 0 
23852 1 238.5 44.1673 0 -3.30234e-24 0.000417072 0 
23952 1 239.5 44.1673 0 1.50485e-24 0.000417072 0 
24052 1 240.5 44.1673 0 1.50485e-24 0.000417072 0 
24152 1 241.5 44.1673 0 -3.30234e-24 0.000417072 0 
24252 1 242.5 44.1673 0 -3.30234e-24 0.000417072 0 
24352 1 243.5 44.1673 0 -3.30234e-24 0.000417072 0 
24452 1 244.5 44.1673 0 -3.30234e-24 0.000417072 0 
24552 1 245.5 44.1673 0 -3.30234e-24 0.000417072 0 
24652 1 246.5 44.1673 0 -3.30234e-24 0.000417072 0 
24752 1 247.5 44.1673 0 1.50485e-24 0.000417072 0 
24852 1 248.5 44.1673 0 1.50485e-24 0.000417072 0 
24952 1 249.5 44.1673 0 -3.30234e-24 0.000417072 0 
25052 1 250.5 44.1673 0 1.50485e-24 0.000417072 0 
25152 1 251.5 44.1673 0 1.50485e-24 0.000417072 0 
25252 1 252.5 44.1673 0 -3.30234e-24 0.000417072 0 
25352 1 253.5 44.1673 0 1.50485e-24 0.000417072 0 
25452 1 254.5 44.1673 0 -3.30234e-24 0.000417072 0 
25552 1 255.5 44.1673 0 -3.30234e-24 0.000417072 0 
25652 1 256.5 44.1673 0 1.50485e-24 0.000417072 0 
25752 1 257.5 44.1673 0 1.50485e-24 0.000417072 0 
25852 1 258.5 44.1673 0 -3.30234e-24 0.000417072 0 
25952 1 259.5 44.1673 0 1.50485e-24 0.000417072 0 
26052 1 260.5 44.1673 0 1.50485e-24 0.000417072 0 
26152 1 261.5 44.1673 0 1.50485e-24 0.000417072 0 
26252 1 262.5 44.1673 0 1.50485e-24 0.000417072 0 
26352 1 263.5 44.1673 0 -3.30234e-24 0.000417072 0 
26452 1 264.5 44.1673 0 -3.30234e-24 0.000417072 0 
26552 1 265.5 44.1673 0 -3.30234e-24 0.000417072 0 
26652 1 266.5 44.1673 0 -3.30234e-24 0.000417072 0 
26752 1 267.5 44.1673 0 -3.30234e-24 0.000417072 0 
26852 1 268.5 44.1673 0 1.50485e-24 0.000417072 0 
26952 1 269.5 44.1673 0 1.50485e-24 0.000417072 0 
27052 1 270.5 44.1673 0 1.50485e-24 0.000417072 0 
27152 1 271.5 44.1673 0 1.50485e-24 0.000417072 0 
27252 1 272.5 44.1673 0 -3.30234e-24 0.000417072 0 
27352 1 273.5 44.1673 0 -3.30234e-24 0.000417072 0 
27452 1 274.5 44.1673 0 1.50485e-24 0.000417072 0 
27552 1 275.5 44.1673 0 -3.30234e-24 0.000417072 0 
27652 1 276.5 44.1673 0 -3.30234e-24 0.000417072 0 
27752 1 277.5 44.1673 0 -3.30234e-24 0.000417072 0 
27852 1 278.5 44.1673 0 -3.30234e-24 0.000417072 0 
27952 1 279.5 44.1673 0 -3.30234e-24 0.000417072 0 
28052 1 280.5 44.1673 0 -3.30234e-24 0.000417072 0 
28152 1 281.5 44.1673 0 -3.30234e-24 0.000417072 0 
28252 1 282.5 44.1673 0 1.50485e-24 0.000417072 0 
28352 1 283.5 44.1673 0 1.50485e-24 0.000417072 0 
28452 1 284.5 44.1673 0 -3.30234e-24 0.000417072 0 
28552 1 285.5 44.1673 0 -3.30234e-24 0.000417072 0 
28652 1 286.5 44.1673 0 1.50485e-24 0.000417072 0 
28752 1 287.5 44.1673 0 -3.30234e-24 0.000417072 0 
28852 1 288.5 44.1673 0 1.50485e-24 0.000417072 0 
28952 1 289.5 44.1673 0 1.50485e-24 0.000417072 0 
29052 1 290.5 44.1673 0 1.50485e-24 0.000417072 0 
29152 1 291.5 44.1673 0 -3.30234e-24 0.000417072 0 
29252 1 292.5 44.1673 0 1.50485e-24 0.000417072 0 
29352 1 293.5 44.1673 0 -3.30234e-24 0.000417072 0 
29452 1 294.5 44.1673 0 1.50485e-24 0.000417072 0 
29552 1 295.5 44.1673 0 1.50485e-24 0.000417072 0 
29652 1 296.5 44.1673 0 -3.30234e-24 0.000417072 0 
29752 1 297.5 44.1673 0 -3.30234e-24 0.000417072 0 
29852 1 298.5 44.1673 0 -3.30234e-24 0.000417072 0 
29952 1 299.5 44.1673 0 -3.30234e-24 0.000417072 0 
30052 1 300.5 44.1673 0 -3.30234e-24 0.000417072 0 
30152 1 301.5 44.1673 0 1.50485e-24 0.000417072 0 
30252 1 302.5 44.1673 0 -3.30234e-24 0.000417072 0 
30352 1 303.5 44.1673 0 -3.30234e-24 0.000417072 0 
30452 1 304.5 44.1673 0 -3.30234e-24 0.000417072 0 
30552 1 305.5 44.1673 0 -3.30234e-24 0.000417072 0 
30652 1 306.5 44.1673 0 1.50485e-24 0.000417072 0 
30752 1 307.5 44.1673 0 1.50485e-24 0.000417072 0 
30852 1 308.5 44.1673 0 -3.30234e-24 0.000417072 0 
30952 1 309.5 44.1673 0 -3.30234e-24 0.000417072 0 
31052 1 310.5 44.1673 0 -3.30234e-24 0.000417072 0 
31152 1 311.5 44.1673 0 1.50485e-24 0.000417072 0 
31252 1 312.5 44.1673 0 1.50485e-24 0.000417072 0 
31352 1 313.5 44.1673 0 -3.30234e-24 0.000417072 0 
31452 1 314.5 44.1673 0 -3.30234e-24 0.000417072 0 
31552 1 315.5 44.1673 0 1.50485e-24 0.000417072 0 
31652 1 316.5 44.1673 0 -3.30234e-24 0.000417072 0 
31752 1 317.5 44.1673 0 1.50485e-24 0.000417072 0 
31852 1 318.5 44.1673 0 1.50485e-24 0.000417072 0 
31952 1 319.5 44.1673 0 1.50485e-24 0.000417072 0 
32052 1 320.5 44.1673 0 -3.30234e-24 0.000417072 0 
32152 1 321.5 44.1673 0 -3.30234e-24 0.000417072 0 
32252 1 322.5 44.1673 0 1.50485e-24 0.000417072 0 
32352 1 323.5 44.1673 0 -3.30234e-24 0.000417072 0 
32452 1 324.5 44.1673 0 1.50485e-24 0.000417072 0 
32552 1 325.5 44.1673 0 1.50485e-24 0.000417072 0 
32652 1 326.5 44.1673 0 1.50485e-24 0.000417072 0 
32752 1 327.5 44.1673 0 1.50485e-24 0.000417072 0 
32852 1 328.5 44.1673 0 -3.30234e-24 0.000417072 0 
32952 1 329.5 44.1673 0 1.50485e-24 0.000417072 0 
33052 1 330.5 44.1673 0 -3.30234e-24 0.000417072 0 
33152 1 331.5 44.1673 0 -3.30234e-24 0.000417072 0 
33252 1 332.5 44.1673 0 1.50485e-24 0.000417072 0 
33352 1 333.5 44.1673 0 1.50485e-24 0.000417072 0 
33452 1 334.5 44.1673 0 1.50485e-24 0.000417072 0 
33552 1 335.5 44.1673 0 -3.30234e-24 0.000417072 0 
33652 1 336.5 44.1673 0 -3.30234e-24 0.000417072 0 
33752 1 337.5 44.1673 0 1.50485e-24 0.000417072 0 
33852 1 338.5 44.1673 0 1.50485e-24 0.000417072 0 
33952 1 339.5 44.1673 0 -3.30234e-24 0.000417072 0 
34052 1 340.5 44.1673 0 1.50485e-24 0.000417072 0 
34152 1 341.5 44.1673 0 1.50485e-24 0.000417072 0 
34252 1 342.5 44.1673 0 1.50485e-24 0.000417072 0 
34352 1 343.5 44.1673 0 -3.30234e-24 0.000417072 0 
34452 1 344.5 44.1673 0 1.50485e-24 0.000417072 0 
34552 1 345.5 44.1673 0 -3.30234e-24 0.000417072 0 
34652 1 346.5 44.1673 0 1.50485e-24 0.000417072 0 
34752 1 347.5 44.1673 0 -3.30234e-24 0.000417072 0 
34852 1 348.5 44.1673 0 -3.30234e-24 0.000417072 0 
34952 1 349.5 44.1673 0 1.50485e-24 0.000417072 0 
35052 1 350.5 44.1673 0 -3.30234e-24 0.000417072 0 
35152 1 351.5 44.1673 0 1.50485e-24 0.000417072 0 
35252 1 352.5 44.1673 0 1.50485e-24 0.000417072 0 
35352 1 353.5 44.1673 0 1.50485e-24 0.000417072 0 
35452 1 354.5 44.1673 0 1.50485e-24 0.000417072 0 
35552 1 355.5 44.1673 0 -3.30234e-24 0.000417072 0 
35652 1 356.5 44.1673 0 -3.30234e-24 0.000417072 0 
35752 1 357.5 44.1673 0 1.50485e-24 0.000417072 0 
35852 1 358.5 44.1673 0 1.50485e-24 0.000417072 0 
35952 1 359.5 44.1673 0 1.50485e-24 0.000417072 0 
36052 1 360.5 44.1673 0 -3.30234e-24 0.000417072 0 
36152 1 361.5 44.1673 0 -3.30234e-24 0.000417072 0 
36252 1 362.5 44.1673 0 1.50485e-24 0.000417072 0 
36352 1 363.5 44.1673 0 1.50485e-24 0.000417072 0 
36452 1 364.5 44.1673 0 -3.30234e-24 0.000417072 0 
36552 1 365.5 44.1673 0 1.50485e-24 0.000417072 0 
36652 1 366.5 44.1673 0 1.50485e-24 0.000417072 0 
36752 1 367.5 44.1673 0 1.50485e-24 0.000417072 0 
36852 1 368.5 44.1673 0 -3.30234e-24 0.000417072 0 
36952 1 369.5 44.1673 0 6.02164e-11 0.000417072 0 
37052 1 370.5 44.1673 0 3.47277e-10 0.000417073 0 
37152 1 371.5 44.1673 0 9.95874e-10 0.000417073 0 
37252 1 372.5 44.1673 0 3.07307e-09 0.000417074 0 
37352 1 373.5 44.1673 0 6.19245e-09 0.000417075 0 
37452 1 374.5 44.1673 0 2.29107e-09 0.000417078 0 
37552 1 375.5 44.1673 0 -4.08721e-08 0.000417073 0 
37652 1 376.5 44.1673 0 -1.74065e-07 0.000417028 0 
37752 1 377.5 44.1673 0 -3.23655e-07 0.000416904 0 
37852 1 378.5 44.1673 0 5.2519e-08 0.00041679 0 
37952 1 379.5 44.1673 0 1.7906e-06 0.000417159 0 
38052 1 380.5 44.1673 0 3.64447e-06 0.000418605 0 
38152 1 381.5 44.1673 0 -3.33849e-07 0.000419943 0 
38252 1 382.5 44.1673 0 -1.22118e-05 0.000416916 0 
38352 1 383.5 44.1673 0 -1.20316e-05 0.000409166 0 
38452 1 384.5 44.1673 0 1.76446e-05 0.000409961 0 
38552 1 385.5 44.1673 0 2.52249e-05 0.000425738 0 
38652 1 386.5 44.1673 0 -2.74247e-05 0.000425642 0 
38752 1 387.5 44.1673 0 -1.47021e-05 0.00040466 0 
38852 1 388.5 44.1673 0 5.79397e-05 0.000410961 0 
38952 1 389.5 44.1673 0 -3.90145e-05 0.000429521 0 
39052 1 390.5 44.1673 0 -2.15355e-05 0.000460461 0 
39152 1 391.5 44.1673 0 6.83787e-05 0.000417168 0 
39252 1 392.5 44.1673 0 -8.33765e-05 0.000427242 0 
39352 1 393.5 44.1673 0 4.54696e-06 0.000340622 0 
39452 1 394.5 44.1673 0 2.65535e-05 0.000440807 0 
39552 1 395.5 44.1673 0 -4.64167e-05 0.000351137 0 
39652 1 396.5 44.1673 0 4.67804e-05 0.000217486 0 
39752 1 397.5 44.1673 0 3.92922e-05 0.000159255 0 
39852 2 398.5 44.1673 0 -5.90727e-06 -0.000397333 0 
39952 2 399.5 44.1673 0 -2.20719e-05 -0.000198667 0 
