ITEM: TIMESTEP
1460
ITEM: NUMBER OF ATOMS
400
ITEM: BOX BOUNDS ff pp pp
0.0000000000000000e+00 4.0000000000000000e+02
0.0000000000000000e+00 8.6602540000000005e+01
0.0000000000000000e+00 1.0000000000000000e+00
ITEM: ATOMS id type x y z fx fy fz 
52 2 0.5 44.1673 0 0 -0.000397333 0 
152 2 1.5 44.1673 0 -1.39436e-05 -0.000397333 0 
252 1 2.5 44.1673 0 5.59231e-05 -6.536e-05 0 
352 1 3.5 44.1673 0 2.32771e-05 -0.000185602 0 
452 1 4.5 44.1673 0 -2.3268e-05 -0.000289387 0 
552 1 5.5 44.1673 0 -1.46271e-05 -5.31439e-05 0 
652 1 6.5 44.1673 0 3.61673e-05 -0.000122496 0 
752 1 7.5 44.1673 0 -3.47403e-05 -2.86811e-05 0 
852 1 8.5 44.1673 0 7.28525e-05 -4.46699e-05 0 
952 1 9.5 44.1673 0 -7.10203e-05 -9.99829e-05 0 
1052 1 10.5 44.1673 0 3.71213e-05 -0.000125923 0 
1152 1 11.5 44.1673 0 5.03196e-05 -7.6611e-05 0 
1252 1 12.5 44.1673 0 -8.43707e-05 -3.94115e-05 0 
1352 1 13.5 44.1673 0 6.789e-05 -7.88213e-05 0 
1452 1 14.5 44.1673 0 -4.19975e-05 -3.95387e-05 0 
1552 1 15.5 44.1673 0 -4.56237e-05 -8.92867e-05 0 
1652 1 16.5 44.1673 0 5.93225e-05 -0.000102831 0 
1752 1 17.5 44.1673 0 -4.32869e-06 -6.54667e-05 0 
1852 1 18.5 44.1673 0 -3.25037e-05 -7.61831e-05 0 
1952 1 19.5 44.1673 0 2.40828e-05 -7.99637e-05 0 
2052 1 20.5 44.1673 0 7.83908e-06 -6.96774e-05 0 
2152 1 21.5 44.1673 0 -2.62851e-05 -7.79047e-05 0 
2252 1 22.5 44.1673 0 -3.74038e-06 -8.78676e-05 0 
2352 1 23.5 44.1673 0 2.03284e-05 -8.20974e-05 0 
2452 1 24.5 44.1673 0 1.04861e-05 -7.34753e-05 0 
2552 1 25.5 44.1673 0 -5.10919e-06 -7.30468e-05 0 
2652 1 26.5 44.1673 0 -6.64726e-06 -7.67094e-05 0 
2752 1 27.5 44.1673 0 -1.48215e-06 -7.86238e-05 0 
2852 1 28.5 44.1673 0 1.25037e-06 -7.83515e-05 0 
2952 1 29.5 44.1673 0 1.00457e-06 -7.76385e-05 0 
3052 1 30.5 44.1673 0 1.96341e-07 -7.73233e-05 0 
3152 1 31.5 44.1673 0 -1.25567e-07 -7.73126e-05 0 
3252 1 32.5 44.1673 0 -1.07989e-07 -7.73674e-05 0 
3352 1 33.5 44.1673 0 -3.53561e-08 -7.73965e-05 0 
3452 1 34.5 44.1673 0 -1.09877e-09 -7.74019e-05 0 
3552 1 35.5 44.1673 0 4.76582e-09 -7.73999e-05 0 
3652 1 36.5 44.1673 0 2.69281e-09 -7.7398e-05 0 
3752 1 37.5 44.1673 0 8.1475e-10 -7.73973e-05 0 
3852 1 38.5 44.1673 0 8.37989e-11 -7.73972e-05 0 
3952 1 39.5 44.1673 0 -2.76512e-11 -7.73972e-05 0 
4052 1 40.5 44.1673 0 -2.00923e-11 -7.73971e-05 0 
4152 1 41.5 44.1673 0 -1.47173e-11 -7.73972e-05 0 
4252 1 42.5 44.1673 0 -9.40817e-12 -7.73972e-05 0 
4352 1 43.5 44.1673 0 3.40022e-21 -7.73972e-05 0 
4452 1 44.5 44.1673 0 3.40022e-21 -7.73972e-05 0 
4552 1 45.5 44.1673 0 -5.47649e-24 -7.73972e-05 0 
4652 1 46.5 44.1673 0 3.40022e-21 -7.73972e-05 0 
4752 1 47.5 44.1673 0 -5.47649e-24 -7.73972e-05 0 
4852 1 48.5 44.1673 0 -5.47649e-24 -7.73972e-05 0 
4952 1 49.5 44.1673 0 -5.47649e-24 -7.73972e-05 0 
5052 1 50.5 44.1673 0 3.40022e-21 -7.73972e-05 0 
5152 1 51.5 44.1673 0 3.40022e-21 -7.73972e-05 0 
5252 1 52.5 44.1673 0 -5.47649e-24 -7.73972e-05 0 
5352 1 53.5 44.1673 0 3.40022e-21 -7.73972e-05 0 
5452 1 54.5 44.1673 0 -5.47649e-24 -7.73972e-05 0 
5552 1 55.5 44.1673 0 -5.47649e-24 -7.73972e-05 0 
5652 1 56.5 44.1673 0 3.40022e-21 -7.73972e-05 0 
5752 1 57.5 44.1673 0 3.40022e-21 -7.73972e-05 0 
5852 1 58.5 44.1673 0 -5.47649e-24 -7.73972e-05 0 
5952 1 59.5 44.1673 0 3.40022e-21 -7.73972e-05 0 
6052 1 60.5 44.1673 0 3.40022e-21 -7.73972e-05 0 
6152 1 61.5 44.1673 0 3.40022e-21 -7.73972e-05 0 
6252 1 62.5 44.1673 0 3.40022e-21 -7.73972e-05 0 
6352 1 63.5 44.1673 0 3.40022e-21 -7.73972e-05 0 
6452 1 64.5 44.1673 0 -5.47649e-24 -7.73972e-05 0 
6552 1 65.5 44.1673 0 3.40022e-21 -7.73972e-05 0 
6652 1 66.5 44.1673 0 -5.47649e-24 -7.73972e-05 0 
6752 1 67.5 44.1673 0 -5.47649e-24 -7.73972e-05 0 
6852 1 68.5 44.1673 0 -5.47649e-24 -7.73972e-05 0 
6952 1 69.5 44.1673 0 3.40022e-21 -7.73972e-05 0 
7052 1 70.5 44.1673 0 -5.47649e-24 -7.73972e-05 0 
7152 1 71.5 44.1673 0 -5.47649e-24 -7.73972e-05 0 
7252 1 72.5 44.1673 0 3.40022e-21 -7.73972e-05 0 
7352 1 73.5 44.1673 0 3.40022e-21 -7.73972e-05 0 
7452 1 74.5 44.1673 0 -5.47649e-24 -7.73972e-05 0 
7552 1 75.5 44.1673 0 3.40022e-21 -7.73972e-05 0 
7652 1 76.5 44.1673 0 3.40022e-21 -7.73972e-05 0 
7752 1 77.5 44.1673 0 -5.47649e-24 -7.73972e-05 0 
7852 1 78.5 44.1673 0 -5.47649e-24 -7.73972e-05 0 
7952 1 79.5 44.1673 0 -5.47649e-24 -7.73972e-05 0 
8052 1 80.5 44.1673 0 -5.47649e-24 -7.73972e-05 0 
8152 1 81.5 44.1673 0 3.40022e-21 -7.73972e-05 0 
8252 1 82.5 44.1673 0 3.40022e-21 -7.73972e-05 0 
8352 1 83.5 44.1673 0 -5.47649e-24 -7.73972e-05 0 
8452 1 84.5 44.1673 0 -5.47649e-24 -7.73972e-05 0 
8552 1 85.5 44.1673 0 3.40022e-21 -7.73972e-05 0 
8652 1 86.5 44.1673 0 3.40022e-21 -7.73972e-05 0 
8752 1 87.5 44.1673 0 -5.47649e-24 -7.73972e-05 0 
8852 1 88.5 44.1673 0 3.40022e-21 -7.73972e-05 0 
8952 1 89.5 44.1673 0 3.40022e-21 -7.73972e-05 0 
9052 1 90.5 44.1673 0 -5.47649e-24 -7.73972e-05 0 
9152 1 91.5 44.1673 0 -5.47649e-24 -7.73972e-05 0 
9252 1 92.5 44.1673 0 -5.47649e-24 -7.73972e-05 0 
9352 1 93.5 44.1673 0 3.40022e-21 -7.73972e-05 0 
9452 1 94.5 44.1673 0 -5.47649e-24 -7.73972e-05 0 
9552 1 95.5 44.1673 0 3.40022e-21 -7.73972e-05 0 
9652 1 96.5 44.1673 0 -5.47649e-24 -7.73972e-05 0 
9752 1 97.5 44.1673 0 3.40022e-21 -7.73972e-05 0 
9852 1 98.5 44.1673 0 -5.47649e-24 -7.73972e-05 0 
9952 1 99.5 44.1673 0 -5.47649e-24 -7.73972e-05 0 
10052 1 100.5 44.1673 0 -5.47649e-24 -7.73972e-05 0 
10152 1 101.5 44.1673 0 3.40022e-21 -7.73972e-05 0 
10252 1 102.5 44.1673 0 3.40022e-21 -7.73972e-05 0 
10352 1 103.5 44.1673 0 3.40022e-21 -7.73972e-05 0 
10452 1 104.5 44.1673 0 3.40022e-21 -7.73972e-05 0 
10552 1 105.5 44.1673 0 -5.47649e-24 -7.73972e-05 0 
10652 1 106.5 44.1673 0 -5.47649e-24 -7.73972e-05 0 
10752 1 107.5 44.1673 0 3.40022e-21 -7.73972e-05 0 
10852 1 108.5 44.1673 0 -5.47649e-24 -7.73972e-05 0 
10952 1 109.5 44.1673 0 -5.47649e-24 -7.73972e-05 0 
11052 1 110.5 44.1673 0 -5.47649e-24 -7.73972e-05 0 
11152 1 111.5 44.1673 0 -5.47649e-24 -7.73972e-05 0 
11252 1 112.5 44.1673 0 -5.47649e-24 -7.73972e-05 0 
11352 1 113.5 44.1673 0 -5.47649e-24 -7.73972e-05 0 
11452 1 114.5 44.1673 0 -5.47649e-24 -7.73972e-05 0 
11552 1 115.5 44.1673 0 3.40022e-21 -7.73972e-05 0 
11652 1 116.5 44.1673 0 -5.47649e-24 -7.73972e-05 0 
11752 1 117.5 44.1673 0 -5.47649e-24 -7.73972e-05 0 
11852 1 118.5 44.1673 0 -5.47649e-24 -7.73972e-05 0 
11952 1 119.5 44.1673 0 -5.47649e-24 -7.73972e-05 0 
12052 1 120.5 44.1673 0 -5.47649e-24 -7.73972e-05 0 
12152 1 121.5 44.1673 0 -5.47649e-24 -7.73972e-05 0 
12252 1 122.5 44.1673 0 3.40022e-21 -7.73972e-05 0 
12352 1 123.5 44.1673 0 3.40022e-21 -7.73972e-05 0 
12452 1 124.5 44.1673 0 -5.47649e-24 -7.73972e-05 0 
12552 1 125.5 44.1673 0 3.40022e-21 -7.73972e-05 0 
12652 1 126.5 44.1673 0 -5.47649e-24 -7.73972e-05 0 
12752 1 127.5 44.1673 0 -5.47649e-24 -7.73972e-05 0 
12852 1 128.5 44.1673 0 -5.47649e-24 -7.73972e-05 0 
12952 1 129.5 44.1673 0 -5.47649e-24 -7.73972e-05 0 
13052 1 130.5 44.1673 0 -5.47649e-24 -7.73972e-05 0 
13152 1 131.5 44.1673 0 3.40022e-21 -7.73972e-05 0 
13252 1 132.5 44.1673 0 3.40022e-21 -7.73972e-05 0 
13352 1 133.5 44.1673 0 3.40022e-21 -7.73972e-05 0 
13452 1 134.5 44.1673 0 3.40022e-21 -7.73972e-05 0 
13552 1 135.5 44.1673 0 -5.47649e-24 -7.73972e-05 0 
13652 1 136.5 44.1673 0 -5.47649e-24 -7.73972e-05 0 
13752 1 137.5 44.1673 0 3.40022e-21 -7.73972e-05 0 
13852 1 138.5 44.1673 0 3.40022e-21 -7.73972e-05 0 
13952 1 139.5 44.1673 0 -5.47649e-24 -7.73972e-05 0 
14052 1 140.5 44.1673 0 3.40022e-21 -7.73972e-05 0 
14152 1 141.5 44.1673 0 3.40022e-21 -7.73972e-05 0 
14252 1 142.5 44.1673 0 3.40022e-21 -7.73972e-05 0 
14352 1 143.5 44.1673 0 -5.47649e-24 -7.73972e-05 0 
14452 1 144.5 44.1673 0 -5.47649e-24 -7.73972e-05 0 
14552 1 145.5 44.1673 0 3.40022e-21 -7.73972e-05 0 
14652 1 146.5 44.1673 0 -5.47649e-24 -7.73972e-05 0 
14752 1 147.5 44.1673 0 3.40022e-21 -7.73972e-05 0 
14852 1 148.5 44.1673 0 3.40022e-21 -7.73972e-05 0 
14952 1 149.5 44.1673 0 3.40022e-21 -7.73972e-05 0 
15052 1 150.5 44.1673 0 3.40022e-21 -7.73972e-05 0 
15152 1 151.5 44.1673 0 3.40022e-21 -7.73972e-05 0 
15252 1 152.5 44.1673 0 6.39714e-11 -7.73972e-05 0 
15352 1 153.5 44.1673 0 5.81075e-10 -7.73972e-05 0 
15452 1 154.5 44.1673 0 3.78324e-09 -7.73972e-05 0 
15552 1 155.5 44.1673 0 2.43512e-08 -7.73972e-05 0 
15652 1 156.5 44.1673 0 1.47959e-07 -7.73972e-05 0 
15752 1 157.5 44.1673 0 8.37169e-07 -7.73972e-05 0 
15852 1 158.5 44.1673 0 4.40774e-06 -7.73972e-05 0 
15952 1 159.5 44.1673 0 2.15099e-05 -7.73972e-05 0 
16052 1 160.5 44.1673 0 9.68404e-05 -7.73972e-05 0 
16152 1 161.5 44.1673 0 0.000400036 -7.73973e-05 0 
16252 1 162.5 44.1673 0 0.0015064 -7.73975e-05 0 
16352 1 163.5 44.1673 0 0.00513002 -7.73987e-05 0 
16452 1 164.5 44.1673 0 0.0156407 -7.74026e-05 0 
16552 1 165.5 44.1673 0 0.0421297 -7.74155e-05 0 
16652 1 166.5 44.1673 0 0.0984164 -7.74534e-05 0 
16752 1 167.501 44.1673 0 0.193846 -7.75516e-05 0 
16852 1 168.502 44.1673 0 0.306553 -7.77741e-05 0 
16952 1 169.505 44.1673 0 0.349477 -7.82059e-05 0 
17052 1 170.508 44.1673 0 0.188039 -7.89059e-05 0 
17152 1 171.513 44.1673 0 -0.210781 -7.98193e-05 0 
17252 1 172.516 44.1673 0 -0.572258 -8.07299e-05 0 
17352 1 173.519 44.1673 0 -0.424844 -8.13931e-05 0 
17452 1 174.519 44.1673 0 0.238622 -8.18366e-05 0 
17552 1 175.521 44.1673 0 0.552948 -8.2454e-05 0 
17652 1 176.525 44.1673 0 -0.0958584 -8.35356e-05 0 
17752 1 177.529 44.1673 0 -0.616446 -8.47815e-05 0 
17852 1 178.531 44.1673 0 0.113774 -8.58086e-05 0 
17952 1 179.533 44.1673 0 0.580246 -8.69831e-05 0 
18052 1 180.538 44.1673 0 -0.371472 -8.8738e-05 0 
18152 1 181.542 44.1673 0 -0.370878 -9.0631e-05 0 
18252 1 182.545 44.1673 0 0.637912 -9.25523e-05 0 
18352 1 183.551 44.1673 0 -0.184459 -9.50982e-05 0 
18452 1 184.555 44.1673 0 -0.651011 -9.68233e-05 0 
18552 1 185.557 44.1673 0 0.0644353 -9.61141e-05 0 
18652 1 186.561 44.1673 0 -0.449038 -9.83214e-05 0 
18752 1 187.564 44.1673 0 0.749804 -0.000101294 0 
18852 1 188.567 44.1673 0 1.35441 -9.90944e-05 0 
18952 1 189.573 44.1673 0 -0.646926 -0.000102383 0 
19052 1 190.579 44.1673 0 -0.805004 -0.000103176 0 
19152 1 191.583 44.1673 0 -0.57653 -0.000102971 0 
19252 1 192.588 44.1673 0 0.0526854 -0.000105534 0 
19352 1 193.595 44.1673 0 -1.91663 -0.000106214 0 
19452 1 194.598 44.1673 0 1.46139 -0.000111117 0 
19552 1 195.608 44.1673 0 -0.97725 -9.54579e-05 0 
19652 1 196.616 44.1673 0 -0.078499 -0.000106887 0 
19752 1 197.627 44.1673 0 1.05794 -0.000147906 0 
19852 1 198.645 44.1673 0 -0.856352 -0.000145402 0 
19952 1 199.672 44.1673 0 1.04442 -0.000127979 0 
20052 3 200.727 44.1673 0 -0.928486 -6.20435e-05 0 
20152 1 201.672 44.1673 0 1.12044 -1.84328e-05 0 
20252 1 202.646 44.1673 0 -1.279 -1.45906e-05 0 
20352 1 203.628 44.1673 0 0.657787 -1.45366e-05 0 
20452 1 204.617 44.1673 0 -0.983823 -6.0013e-05 0 
20552 1 205.608 44.1673 0 -0.908885 -6.25524e-05 0 
20652 1 206.599 44.1673 0 0.345145 -4.25118e-05 0 
20752 1 207.595 44.1673 0 -1.9288 -4.91488e-05 0 
20852 1 208.587 44.1673 0 -0.145274 -4.96396e-05 0 
20952 1 209.582 44.1673 0 -0.51554 -5.2327e-05 0 
21052 1 210.577 44.1673 0 -0.353796 -5.12581e-05 0 
21152 1 211.571 44.1673 0 0.348115 -5.24704e-05 0 
21252 1 212.567 44.1673 0 1.73298 -5.50924e-05 0 
21352 1 213.564 44.1673 0 0.273139 -5.32076e-05 0 
21452 1 214.561 44.1673 0 -0.935654 -5.68214e-05 0 
21552 1 215.557 44.1673 0 -0.104805 -5.82808e-05 0 
21652 1 216.554 44.1673 0 -0.370925 -5.77394e-05 0 
21752 1 217.55 44.1673 0 -0.0793265 -5.97818e-05 0 
21852 1 218.545 44.1673 0 0.491712 -6.23362e-05 0 
21952 1 219.541 44.1673 0 -0.266548 -6.42729e-05 0 
22052 1 220.537 44.1673 0 -0.288864 -6.61166e-05 0 
22152 1 221.533 44.1673 0 0.396857 -6.78293e-05 0 
22252 1 222.53 44.1673 0 0.051574 -6.90685e-05 0 
22352 1 223.528 44.1673 0 -0.447966 -7.01551e-05 0 
22452 1 224.524 44.1673 0 -0.0181076 -7.136e-05 0 
22552 1 225.521 44.1673 0 0.436157 -7.23843e-05 0 
22652 1 226.519 44.1673 0 0.124411 -7.30193e-05 0 
22752 1 227.518 44.1673 0 -0.40904 -7.35308e-05 0 
22852 1 228.516 44.1673 0 -0.479501 -7.42375e-05 0 
22952 1 229.512 44.1673 0 -0.140392 -7.51362e-05 0 
23052 1 230.507 44.1673 0 0.201457 -7.60031e-05 0 
23152 1 231.504 44.1673 0 0.3289 -7.66544e-05 0 
23252 1 232.502 44.1673 0 0.281333 -7.70518e-05 0 
23352 1 233.501 44.1673 0 0.176711 -7.72557e-05 0 
23452 1 234.5 44.1673 0 0.0896857 -7.73457e-05 0 
23552 1 235.5 44.1673 0 0.0384776 -7.73803e-05 0 
23652 1 236.5 44.1673 0 0.014332 -7.73922e-05 0 
23752 1 237.5 44.1673 0 0.00471832 -7.73959e-05 0 
23852 1 238.5 44.1673 0 0.00139087 -7.73968e-05 0 
23952 1 239.5 44.1673 0 0.000370777 -7.73971e-05 0 
24052 1 240.5 44.1673 0 9.00944e-05 -7.73972e-05 0 
24152 1 241.5 44.1673 0 2.00841e-05 -7.73972e-05 0 
24252 1 242.5 44.1673 0 4.12981e-06 -7.73972e-05 0 
24352 1 243.5 44.1673 0 7.86968e-07 -7.73972e-05 0 
24452 1 244.5 44.1673 0 1.39507e-07 -7.73972e-05 0 
24552 1 245.5 44.1673 0 2.31136e-08 -7.73972e-05 0 
24652 1 246.5 44.1673 0 3.56596e-09 -7.73972e-05 0 
24752 1 247.5 44.1673 0 5.36718e-10 -7.73972e-05 0 
24852 1 248.5 44.1673 0 6.02071e-11 -7.73972e-05 0 
24952 1 249.5 44.1673 0 -5.47649e-24 -7.73972e-05 0 
25052 1 250.5 44.1673 0 3.40022e-21 -7.73972e-05 0 
25152 1 251.5 44.1673 0 3.40022e-21 -7.73972e-05 0 
25252 1 252.5 44.1673 0 -5.47649e-24 -7.73972e-05 0 
25352 1 253.5 44.1673 0 3.40022e-21 -7.73972e-05 0 
25452 1 254.5 44.1673 0 -5.47649e-24 -7.73972e-05 0 
25552 1 255.5 44.1673 0 -5.47649e-24 -7.73972e-05 0 
25652 1 256.5 44.1673 0 3.40022e-21 -7.73972e-05 0 
25752 1 257.5 44.1673 0 3.40022e-21 -7.73972e-05 0 
25852 1 258.5 44.1673 0 -5.47649e-24 -7.73972e-05 0 
25952 1 259.5 44.1673 0 3.40022e-21 -7.73972e-05 0 
26052 1 260.5 44.1673 0 3.40022e-21 -7.73972e-05 0 
26152 1 261.5 44.1673 0 3.40022e-21 -7.73972e-05 0 
26252 1 262.5 44.1673 0 3.40022e-21 -7.73972e-05 0 
26352 1 263.5 44.1673 0 -5.47649e-24 -7.73972e-05 0 
26452 1 264.5 44.1673 0 -5.47649e-24 -7.73972e-05 0 
26552 1 265.5 44.1673 0 -5.47649e-24 -7.73972e-05 0 
26652 1 266.5 44.1673 0 -5.47649e-24 -7.73972e-05 0 
26752 1 267.5 44.1673 0 -5.47649e-24 -7.73972e-05 0 
26852 1 268.5 44.1673 0 3.40022e-21 -7.73972e-05 0 
26952 1 269.5 44.1673 0 3.40022e-21 -7.73972e-05 0 
27052 1 270.5 44.1673 0 3.40022e-21 -7.73972e-05 0 
27152 1 271.5 44.1673 0 3.40022e-21 -7.73972e-05 0 
27252 1 272.5 44.1673 0 -5.47649e-24 -7.73972e-05 0 
27352 1 273.5 44.1673 0 -5.47649e-24 -7.73972e-05 0 
27452 1 274.5 44.1673 0 3.40022e-21 -7.73972e-05 0 
27552 1 275.5 44.1673 0 -5.47649e-24 -7.73972e-05 0 
27652 1 276.5 44.1673 0 -5.47649e-24 -7.73972e-05 0 
27752 1 277.5 44.1673 0 -5.47649e-24 -7.73972e-05 0 
27852 1 278.5 44.1673 0 -5.47649e-24 -7.73972e-05 0 
27952 1 279.5 44.1673 0 -5.47649e-24 -7.73972e-05 0 
28052 1 280.5 44.1673 0 -5.47649e-24 -7.73972e-05 0 
28152 1 281.5 44.1673 0 -5.47649e-24 -7.73972e-05 0 
28252 1 282.5 44.1673 0 3.40022e-21 -7.73972e-05 0 
28352 1 283.5 44.1673 0 3.40022e-21 -7.73972e-05 0 
28452 1 284.5 44.1673 0 -5.47649e-24 -7.73972e-05 0 
28552 1 285.5 44.1673 0 -5.47649e-24 -7.73972e-05 0 
28652 1 286.5 44.1673 0 3.40022e-21 -7.73972e-05 0 
28752 1 287.5 44.1673 0 -5.47649e-24 -7.73972e-05 0 
28852 1 288.5 44.1673 0 3.40022e-21 -7.73972e-05 0 
28952 1 289.5 44.1673 0 3.40022e-21 -7.73972e-05 0 
29052 1 290.5 44.1673 0 3.40022e-21 -7.73972e-05 0 
29152 1 291.5 44.1673 0 -5.47649e-24 -7.73972e-05 0 
29252 1 292.5 44.1673 0 3.40022e-21 -7.73972e-05 0 
29352 1 293.5 44.1673 0 -5.47649e-24 -7.73972e-05 0 
29452 1 294.5 44.1673 0 3.40022e-21 -7.73972e-05 0 
29552 1 295.5 44.1673 0 3.40022e-21 -7.73972e-05 0 
29652 1 296.5 44.1673 0 -5.47649e-24 -7.73972e-05 0 
29752 1 297.5 44.1673 0 -5.47649e-24 -7.73972e-05 0 
29852 1 298.5 44.1673 0 -5.47649e-24 -7.73972e-05 0 
29952 1 299.5 44.1673 0 -5.47649e-24 -7.73972e-05 0 
30052 1 300.5 44.1673 0 -5.47649e-24 -7.73972e-05 0 
30152 1 301.5 44.1673 0 3.40022e-21 -7.73972e-05 0 
30252 1 302.5 44.1673 0 -5.47649e-24 -7.73972e-05 0 
30352 1 303.5 44.1673 0 -5.47649e-24 -7.73972e-05 0 
30452 1 304.5 44.1673 0 -5.47649e-24 -7.73972e-05 0 
30552 1 305.5 44.1673 0 -5.47649e-24 -7.73972e-05 0 
30652 1 306.5 44.1673 0 3.40022e-21 -7.73972e-05 0 
30752 1 307.5 44.1673 0 3.40022e-21 -7.73972e-05 0 
30852 1 308.5 44.1673 0 -5.47649e-24 -7.73972e-05 0 
30952 1 309.5 44.1673 0 -5.47649e-24 -7.73972e-05 0 
31052 1 310.5 44.1673 0 -5.47649e-24 -7.73972e-05 0 
31152 1 311.5 44.1673 0 3.40022e-21 -7.73972e-05 0 
31252 1 312.5 44.1673 0 3.40022e-21 -7.73972e-05 0 
31352 1 313.5 44.1673 0 -5.47649e-24 -7.73972e-05 0 
31452 1 314.5 44.1673 0 -5.47649e-24 -7.73972e-05 0 
31552 1 315.5 44.1673 0 3.40022e-21 -7.73972e-05 0 
31652 1 316.5 44.1673 0 -5.47649e-24 -7.73972e-05 0 
31752 1 317.5 44.1673 0 3.40022e-21 -7.73972e-05 0 
31852 1 318.5 44.1673 0 3.40022e-21 -7.73972e-05 0 
31952 1 319.5 44.1673 0 3.40022e-21 -7.73972e-05 0 
32052 1 320.5 44.1673 0 -5.47649e-24 -7.73972e-05 0 
32152 1 321.5 44.1673 0 -5.47649e-24 -7.73972e-05 0 
32252 1 322.5 44.1673 0 3.40022e-21 -7.73972e-05 0 
32352 1 323.5 44.1673 0 -5.47649e-24 -7.73972e-05 0 
32452 1 324.5 44.1673 0 3.40022e-21 -7.73972e-05 0 
32552 1 325.5 44.1673 0 3.40022e-21 -7.73972e-05 0 
32652 1 326.5 44.1673 0 3.40022e-21 -7.73972e-05 0 
32752 1 327.5 44.1673 0 3.40022e-21 -7.73972e-05 0 
32852 1 328.5 44.1673 0 -5.47649e-24 -7.73972e-05 0 
32952 1 329.5 44.1673 0 3.40022e-21 -7.73972e-05 0 
33052 1 330.5 44.1673 0 -5.47649e-24 -7.73972e-05 0 
33152 1 331.5 44.1673 0 -5.47649e-24 -7.73972e-05 0 
33252 1 332.5 44.1673 0 3.40022e-21 -7.73972e-05 0 
33352 1 333.5 44.1673 0 3.40022e-21 -7.73972e-05 0 
33452 1 334.5 44.1673 0 3.40022e-21 -7.73972e-05 0 
33552 1 335.5 44.1673 0 -5.47649e-24 -7.73972e-05 0 
33652 1 336.5 44.1673 0 -5.47649e-24 -7.73972e-05 0 
33752 1 337.5 44.1673 0 3.40022e-21 -7.73972e-05 0 
33852 1 338.5 44.1673 0 3.40022e-21 -7.73972e-05 0 
33952 1 339.5 44.1673 0 -5.47649e-24 -7.73972e-05 0 
34052 1 340.5 44.1673 0 3.40022e-21 -7.73972e-05 0 
34152 1 341.5 44.1673 0 3.40022e-21 -7.73972e-05 0 
34252 1 342.5 44.1673 0 3.40022e-21 -7.73972e-05 0 
34352 1 343.5 44.1673 0 -5.47649e-24 -7.73972e-05 0 
34452 1 344.5 44.1673 0 3.40022e-21 -7.73972e-05 0 
34552 1 345.5 44.1673 0 -5.47649e-24 -7.73972e-05 0 
34652 1 346.5 44.1673 0 3.40022e-21 -7.73972e-05 0 
34752 1 347.5 44.1673 0 -5.47649e-24 -7.73972e-05 0 
34852 1 348.5 44.1673 0 -5.47649e-24 -7.73972e-05 0 
34952 1 349.5 44.1673 0 3.40022e-21 -7.73972e-05 0 
35052 1 350.5 44.1673 0 -5.47649e-24 -7.73972e-05 0 
35152 1 351.5 44.1673 0 3.40022e-21 -7.73972e-05 0 
35252 1 352.5 44.1673 0 3.40022e-21 -7.73972e-05 0 
35352 1 353.5 44.1673 0 3.40022e-21 -7.73972e-05 0 
35452 1 354.5 44.1673 0 3.40022e-21 -7.73972e-05 0 
35552 1 355.5 44.1673 0 -5.47649e-24 -7.73972e-05 0 
35652 1 356.5 44.1673 0 -5.47649e-24 -7.73972e-05 0 
35752 1 357.5 44.1673 0 3.40022e-21 -7.73972e-05 0 
35852 1 358.5 44.1673 0 3.40022e-21 -7.73972e-05 0 
35952 1 359.5 44.1673 0 2.01985e-10 -7.73971e-05 0 
36052 1 360.5 44.1673 0 -2.32614e-10 -7.73972e-05 0 
36152 1 361.5 44.1673 0 -2.7406e-11 -7.73972e-05 0 
36252 1 362.5 44.1673 0 -7.46059e-10 -7.73974e-05 0 
36352 1 363.5 44.1673 0 -2.48543e-09 -7.7398e-05 0 
36452 1 364.5 44.1673 0 -4.77085e-09 -7.73998e-05 0 
36552 1 365.5 44.1673 0 1.20095e-09 -7.74019e-05 0 
36652 1 366.5 44.1673 0 3.51764e-08 -7.73965e-05 0 
36752 1 367.5 44.1673 0 1.07974e-07 -7.73674e-05 0 
36852 1 368.5 44.1673 0 1.25777e-07 -7.73126e-05 0 
36952 1 369.5 44.1673 0 -1.96406e-07 -7.73232e-05 0 
37052 1 370.5 44.1673 0 -1.00443e-06 -7.76385e-05 0 
37152 1 371.5 44.1673 0 -1.25061e-06 -7.83514e-05 0 
37252 1 372.5 44.1673 0 1.48204e-06 -7.86238e-05 0 
37352 1 373.5 44.1673 0 6.64715e-06 -7.67095e-05 0 
37452 1 374.5 44.1673 0 5.10936e-06 -7.30467e-05 0 
37552 1 375.5 44.1673 0 -1.0486e-05 -7.34754e-05 0 
37652 1 376.5 44.1673 0 -2.03285e-05 -8.20974e-05 0 
37752 1 377.5 44.1673 0 3.74038e-06 -8.78676e-05 0 
37852 1 378.5 44.1673 0 2.6285e-05 -7.79048e-05 0 
37952 1 379.5 44.1673 0 -7.8391e-06 -6.96774e-05 0 
38052 1 380.5 44.1673 0 -2.40827e-05 -7.99637e-05 0 
38152 1 381.5 44.1673 0 3.25035e-05 -7.61829e-05 0 
38252 1 382.5 44.1673 0 4.32884e-06 -6.54667e-05 0 
38352 1 383.5 44.1673 0 -5.93228e-05 -0.000102831 0 
38452 1 384.5 44.1673 0 4.56239e-05 -8.92867e-05 0 
38552 1 385.5 44.1673 0 4.19971e-05 -3.95385e-05 0 
38652 1 386.5 44.1673 0 -6.78899e-05 -7.88215e-05 0 
38752 1 387.5 44.1673 0 8.43708e-05 -3.94116e-05 0 
38852 1 388.5 44.1673 0 -5.03194e-05 -7.66111e-05 0 
38952 1 389.5 44.1673 0 -3.71215e-05 -0.000125923 0 
39052 1 390.5 44.1673 0 7.10206e-05 -9.9983e-05 0 
39152 1 391.5 44.1673 0 -7.28529e-05 -4.46701e-05 0 
39252 1 392.5 44.1673 0 3.47405e-05 -2.86808e-05 0 
39352 1 393.5 44.1673 0 -3.61674e-05 -0.000122497 0 
39452 1 394.5 44.1673 0 1.4627e-05 -5.31437e-05 0 
39552 1 395.5 44.1673 0 2.32683e-05 -0.000289387 0 
39652 1 396.5 44.1673 0 -2.32775e-05 -0.000185602 0 
39752 1 397.5 44.1673 0 -5.59228e-05 -6.53601e-05 0 
39852 2 398.5 44.1673 0 1.39435e-05 -0.000397333 0 
39952 2 399.5 44.1673 0 -2.20719e-05 -0.000198667 0 
