ITEM: TIMESTEP
1580
ITEM: NUMBER OF ATOMS
400
ITEM: BOX BOUNDS ff pp pp
0.0000000000000000e+00 4.0000000000000000e+02
0.0000000000000000e+00 8.6602540000000005e+01
0.0000000000000000e+00 1.0000000000000000e+00
ITEM: ATOMS id type x y z fx fy fz 
52 2 0.5 44.1673 0 0 -0.000397333 0 
152 2 1.5 44.1673 0 5.4593e-05 -0.000397333 0 
252 1 2.5 44.1673 0 9.75586e-05 7.25963e-05 0 
352 1 3.5 44.1673 0 0.000126011 6.07417e-06 0 
452 1 4.5 44.1673 0 0.000119019 3.44499e-05 0 
552 1 5.5 44.1673 0 0.000152601 -9.98595e-05 0 
652 1 6.5 44.1673 0 -2.08886e-07 8.57398e-05 0 
752 1 7.5 44.1673 0 9.48119e-05 0.000145771 0 
852 1 8.5 44.1673 0 8.14946e-05 0.000145393 0 
952 1 9.5 44.1673 0 7.36773e-05 0.000249818 0 
1052 1 10.5 44.1673 0 5.27923e-05 0.000277964 0 
1152 1 11.5 44.1673 0 9.38099e-06 0.000237126 0 
1252 1 12.5 44.1673 0 0.000103952 0.000315199 0 
1352 1 13.5 44.1673 0 -6.48333e-05 0.000329641 0 
1452 1 14.5 44.1673 0 3.58012e-05 0.000362965 0 
1552 1 15.5 44.1673 0 6.23976e-05 0.000368303 0 
1652 1 16.5 44.1673 0 -6.67518e-05 0.000401579 0 
1752 1 17.5 44.1673 0 8.48378e-05 0.000365874 0 
1852 1 18.5 44.1673 0 4.77335e-06 0.00042965 0 
1952 1 19.5 44.1673 0 -6.7637e-05 0.00042248 0 
2052 1 20.5 44.1673 0 3.89608e-05 0.000392567 0 
2152 1 21.5 44.1673 0 9.38034e-06 0.000406879 0 
2252 1 22.5 44.1673 0 -3.53222e-05 0.00040016 0 
2352 1 23.5 44.1673 0 2.51861e-05 0.000404347 0 
2452 1 24.5 44.1673 0 2.19621e-05 0.000423805 0 
2552 1 25.5 44.1673 0 -2.35654e-05 0.000417599 0 
2652 1 26.5 44.1673 0 -5.05488e-06 0.000403842 0 
2752 1 27.5 44.1673 0 2.19285e-05 0.000409906 0 
2852 1 28.5 44.1673 0 3.4088e-06 0.000419545 0 
2952 1 29.5 44.1673 0 -1.8081e-05 0.000416456 0 
3052 1 30.5 44.1673 0 -1.12552e-05 0.000409263 0 
3152 1 31.5 44.1673 0 3.9436e-06 0.000408043 0 
3252 1 32.5 44.1673 0 7.7805e-06 0.00041094 0 
3352 1 33.5 44.1673 0 3.39283e-06 0.000412884 0 
3452 1 34.5 44.1673 0 -3.2682e-07 0.000412793 0 
3552 1 35.5 44.1673 0 -1.01629e-06 0.000412079 0 
3652 1 36.5 44.1673 0 -4.50449e-07 0.000411717 0 
3752 1 37.5 44.1673 0 -3.94918e-08 0.000411723 0 
3852 1 38.5 44.1673 0 3.57467e-08 0.000411833 0 
3952 1 39.5 44.1673 0 -5.37307e-11 0.000411908 0 
4052 1 40.5 44.1673 0 -2.04455e-08 0.000411937 0 
4152 1 41.5 44.1673 0 -1.67963e-08 0.000411943 0 
4252 1 42.5 44.1673 0 -7.80777e-09 0.000411944 0 
4352 1 43.5 44.1673 0 -2.32295e-09 0.000411944 0 
4452 1 44.5 44.1673 0 -3.54089e-10 0.000411945 0 
4552 1 45.5 44.1673 0 7.27604e-11 0.000411945 0 
4652 1 46.5 44.1673 0 6.16936e-11 0.000411945 0 
4752 1 47.5 44.1673 0 2.83488e-11 0.000411945 0 
4852 1 48.5 44.1673 0 1.94032e-11 0.000411945 0 
4952 1 49.5 44.1673 0 -1.41051e-11 0.000411945 0 
5052 1 50.5 44.1673 0 5.93319e-25 0.000411945 0 
5152 1 51.5 44.1673 0 5.93319e-25 0.000411945 0 
5252 1 52.5 44.1673 0 -1.57134e-23 0.000411945 0 
5352 1 53.5 44.1673 0 5.93319e-25 0.000411945 0 
5452 1 54.5 44.1673 0 -1.57134e-23 0.000411945 0 
5552 1 55.5 44.1673 0 -1.57134e-23 0.000411945 0 
5652 1 56.5 44.1673 0 5.93319e-25 0.000411945 0 
5752 1 57.5 44.1673 0 5.93319e-25 0.000411945 0 
5852 1 58.5 44.1673 0 -1.57134e-23 0.000411945 0 
5952 1 59.5 44.1673 0 5.93319e-25 0.000411945 0 
6052 1 60.5 44.1673 0 5.93319e-25 0.000411945 0 
6152 1 61.5 44.1673 0 5.93319e-25 0.000411945 0 
6252 1 62.5 44.1673 0 5.93319e-25 0.000411945 0 
6352 1 63.5 44.1673 0 5.93319e-25 0.000411945 0 
6452 1 64.5 44.1673 0 -1.57134e-23 0.000411945 0 
6552 1 65.5 44.1673 0 5.93319e-25 0.000411945 0 
6652 1 66.5 44.1673 0 -1.57134e-23 0.000411945 0 
6752 1 67.5 44.1673 0 -1.57134e-23 0.000411945 0 
6852 1 68.5 44.1673 0 -1.57134e-23 0.000411945 0 
6952 1 69.5 44.1673 0 5.93319e-25 0.000411945 0 
7052 1 70.5 44.1673 0 -1.57134e-23 0.000411945 0 
7152 1 71.5 44.1673 0 -1.57134e-23 0.000411945 0 
7252 1 72.5 44.1673 0 5.93319e-25 0.000411945 0 
7352 1 73.5 44.1673 0 5.93319e-25 0.000411945 0 
7452 1 74.5 44.1673 0 -1.57134e-23 0.000411945 0 
7552 1 75.5 44.1673 0 5.93319e-25 0.000411945 0 
7652 1 76.5 44.1673 0 5.93319e-25 0.000411945 0 
7752 1 77.5 44.1673 0 -1.57134e-23 0.000411945 0 
7852 1 78.5 44.1673 0 -1.57134e-23 0.000411945 0 
7952 1 79.5 44.1673 0 -1.57134e-23 0.000411945 0 
8052 1 80.5 44.1673 0 -1.57134e-23 0.000411945 0 
8152 1 81.5 44.1673 0 5.93319e-25 0.000411945 0 
8252 1 82.5 44.1673 0 5.93319e-25 0.000411945 0 
8352 1 83.5 44.1673 0 -1.57134e-23 0.000411945 0 
8452 1 84.5 44.1673 0 -1.57134e-23 0.000411945 0 
8552 1 85.5 44.1673 0 5.93319e-25 0.000411945 0 
8652 1 86.5 44.1673 0 5.93319e-25 0.000411945 0 
8752 1 87.5 44.1673 0 -1.57134e-23 0.000411945 0 
8852 1 88.5 44.1673 0 5.93319e-25 0.000411945 0 
8952 1 89.5 44.1673 0 5.93319e-25 0.000411945 0 
9052 1 90.5 44.1673 0 -1.57134e-23 0.000411945 0 
9152 1 91.5 44.1673 0 -1.57134e-23 0.000411945 0 
9252 1 92.5 44.1673 0 -1.57134e-23 0.000411945 0 
9352 1 93.5 44.1673 0 5.93319e-25 0.000411945 0 
9452 1 94.5 44.1673 0 -1.57134e-23 0.000411945 0 
9552 1 95.5 44.1673 0 5.93319e-25 0.000411945 0 
9652 1 96.5 44.1673 0 -1.57134e-23 0.000411945 0 
9752 1 97.5 44.1673 0 5.93319e-25 0.000411945 0 
9852 1 98.5 44.1673 0 -1.57134e-23 0.000411945 0 
9952 1 99.5 44.1673 0 -1.57134e-23 0.000411945 0 
10052 1 100.5 44.1673 0 -1.57134e-23 0.000411945 0 
10152 1 101.5 44.1673 0 5.93319e-25 0.000411945 0 
10252 1 102.5 44.1673 0 5.93319e-25 0.000411945 0 
10352 1 103.5 44.1673 0 5.93319e-25 0.000411945 0 
10452 1 104.5 44.1673 0 5.93319e-25 0.000411945 0 
10552 1 105.5 44.1673 0 -1.57134e-23 0.000411945 0 
10652 1 106.5 44.1673 0 -1.57134e-23 0.000411945 0 
10752 1 107.5 44.1673 0 5.93319e-25 0.000411945 0 
10852 1 108.5 44.1673 0 -1.57134e-23 0.000411945 0 
10952 1 109.5 44.1673 0 -1.57134e-23 0.000411945 0 
11052 1 110.5 44.1673 0 -1.57134e-23 0.000411945 0 
11152 1 111.5 44.1673 0 -1.57134e-23 0.000411945 0 
11252 1 112.5 44.1673 0 -1.57134e-23 0.000411945 0 
11352 1 113.5 44.1673 0 -1.57134e-23 0.000411945 0 
11452 1 114.5 44.1673 0 -1.57134e-23 0.000411945 0 
11552 1 115.5 44.1673 0 5.93319e-25 0.000411945 0 
11652 1 116.5 44.1673 0 -1.57134e-23 0.000411945 0 
11752 1 117.5 44.1673 0 -1.57134e-23 0.000411945 0 
11852 1 118.5 44.1673 0 -1.57134e-23 0.000411945 0 
11952 1 119.5 44.1673 0 -1.57134e-23 0.000411945 0 
12052 1 120.5 44.1673 0 -1.57134e-23 0.000411945 0 
12152 1 121.5 44.1673 0 -1.57134e-23 0.000411945 0 
12252 1 122.5 44.1673 0 5.93319e-25 0.000411945 0 
12352 1 123.5 44.1673 0 5.93319e-25 0.000411945 0 
12452 1 124.5 44.1673 0 -1.57134e-23 0.000411945 0 
12552 1 125.5 44.1673 0 5.93319e-25 0.000411945 0 
12652 1 126.5 44.1673 0 -1.57134e-23 0.000411945 0 
12752 1 127.5 44.1673 0 -1.57134e-23 0.000411945 0 
12852 1 128.5 44.1673 0 -1.57134e-23 0.000411945 0 
12952 1 129.5 44.1673 0 -1.57134e-23 0.000411945 0 
13052 1 130.5 44.1673 0 -1.57134e-23 0.000411945 0 
13152 1 131.5 44.1673 0 5.93319e-25 0.000411945 0 
13252 1 132.5 44.1673 0 5.93319e-25 0.000411945 0 
13352 1 133.5 44.1673 0 5.93319e-25 0.000411945 0 
13452 1 134.5 44.1673 0 5.93319e-25 0.000411945 0 
13552 1 135.5 44.1673 0 -1.57134e-23 0.000411945 0 
13652 1 136.5 44.1673 0 -1.57134e-23 0.000411945 0 
13752 1 137.5 44.1673 0 5.93319e-25 0.000411945 0 
13852 1 138.5 44.1673 0 5.93319e-25 0.000411945 0 
13952 1 139.5 44.1673 0 -1.57134e-23 0.000411945 0 
14052 1 140.5 44.1673 0 5.93319e-25 0.000411945 0 
14152 1 141.5 44.1673 0 5.93319e-25 0.000411945 0 
14252 1 142.5 44.1673 0 5.93319e-25 0.000411945 0 
14352 1 143.5 44.1673 0 1.06674e-10 0.000411945 0 
14452 1 144.5 44.1673 0 6.07655e-10 0.000411945 0 
14552 1 145.5 44.1673 0 3.69116e-09 0.000411945 0 
14652 1 146.5 44.1673 0 2.08406e-08 0.000411945 0 
14752 1 147.5 44.1673 0 1.11994e-07 0.000411945 0 
14852 1 148.5 44.1673 0 5.66221e-07 0.000411945 0 
14952 1 149.5 44.1673 0 2.69137e-06 0.000411945 0 
15052 1 150.5 44.1673 0 1.19818e-05 0.000411945 0 
15152 1 151.5 44.1673 0 4.97881e-05 0.000411945 0 
15252 1 152.5 44.1673 0 0.000192306 0.000411945 0 
15352 1 153.5 44.1673 0 0.000687107 0.000411944 0 
15452 1 154.5 44.1673 0 0.00225797 0.000411943 0 
15552 1 155.5 44.1673 0 0.00677654 0.000411939 0 
15652 1 156.5 44.1673 0 0.018409 0.000411926 0 
15752 1 157.5 44.1673 0 0.0447404 0.000411892 0 
15852 1 158.5 44.1673 0 0.0957102 0.000411809 0 
15952 1 159.501 44.1673 0 0.175857 0.000411635 0 
16052 1 160.502 44.1673 0 0.266168 0.000411316 0 
16152 1 161.504 44.1673 0 0.30385 0.000410825 0 
16252 1 162.508 44.1673 0 0.194045 0.000410223 0 
16352 1 163.512 44.1673 0 -0.10283 0.000409694 0 
16452 1 164.515 44.1673 0 -0.43825 0.000409457 0 
16552 1 165.518 44.1673 0 -0.483269 0.00040954 0 
16652 1 166.519 44.1673 0 -0.0629056 0.000409623 0 
16752 1 167.519 44.1673 0 0.434008 0.000409294 0 
16852 1 168.522 44.1673 0 0.3173 0.000408659 0 
16952 1 169.525 44.1673 0 -0.338357 0.000408374 0 
17052 1 170.528 44.1673 0 -0.454939 0.000408623 0 
17152 1 171.529 44.1673 0 0.271037 0.000408601 0 
17252 1 172.531 44.1673 0 0.447197 0.000407932 0 
17352 1 173.535 44.1673 0 -0.3619 0.000407635 0 
17452 1 174.538 44.1673 0 -0.346893 0.000408016 0 
17552 1 175.54 44.1673 0 0.494956 0.000407804 0 
17652 1 176.544 44.1673 0 0.047107 0.000407242 0 
17752 1 177.548 44.1673 0 -0.485317 0.000407599 0 
17852 1 178.551 44.1673 0 0.305702 0.000407674 0 
17952 1 179.555 44.1673 0 -0.153277 0.000407444 0 
18052 1 180.559 44.1673 0 -0.635464 0.000409265 0 
18152 1 181.56 44.1673 0 0.82781 0.000410233 0 
18252 1 182.563 44.1673 0 0.394695 0.000407876 0 
18352 1 183.568 44.1673 0 -0.539525 0.000410286 0 
18452 1 184.571 44.1673 0 -0.466205 0.00041097 0 
18552 1 185.575 44.1673 0 -1.14892 0.000408074 0 
18652 1 186.576 44.1673 0 0.810486 0.000412266 0 
18752 1 187.579 44.1673 0 0.679799 0.000410879 0 
18852 1 188.583 44.1673 0 0.0712334 0.000409897 0 
18952 1 189.587 44.1673 0 1.07914 0.000411524 0 
19052 1 190.592 44.1673 0 -0.346794 0.000410823 0 
19152 1 191.597 44.1673 0 -0.241327 0.000410002 0 
19252 1 192.601 44.1673 0 0.583671 0.000405384 0 
19352 1 193.608 44.1673 0 -1.26512 0.000410261 0 
19452 1 194.615 44.1673 0 -0.687555 0.000414986 0 
19552 1 195.62 44.1673 0 1.24098 0.000404774 0 
19652 1 196.633 44.1673 0 -2.85281 0.000380524 0 
19752 1 197.641 44.1673 0 1.73221 0.000355203 0 
19852 1 198.662 44.1673 0 -2.44628 0.000397609 0 
19952 1 199.685 44.1673 0 2.1241 0.000455469 0 
20052 3 200.743 44.1673 0 -3.13683 0.000420137 0 
20152 1 201.686 44.1673 0 1.53871 0.000383233 0 
20252 1 202.661 44.1673 0 -2.14859 0.000453552 0 
20352 1 203.641 44.1673 0 1.2822 0.000477766 0 
20452 1 204.632 44.1673 0 -2.50637 0.000433695 0 
20552 1 205.62 44.1673 0 1.29927 0.00041484 0 
20652 1 206.614 44.1673 0 -0.460427 0.000408949 0 
20752 1 207.607 44.1673 0 -0.720031 0.000416819 0 
20852 1 208.6 44.1673 0 1.1539 0.000422201 0 
20952 1 209.596 44.1673 0 0.140682 0.000415804 0 
21052 1 210.59 44.1673 0 0.362402 0.000414829 0 
21152 1 211.586 44.1673 0 1.24076 0.000414606 0 
21252 1 212.583 44.1673 0 -0.0362347 0.000417056 0 
21352 1 213.579 44.1673 0 0.517403 0.000414404 0 
21452 1 214.577 44.1673 0 -0.0849182 0.000414495 0 
21552 1 215.575 44.1673 0 -1.66917 0.000418065 0 
21652 1 216.57 44.1673 0 -0.319268 0.000414056 0 
21752 1 217.567 44.1673 0 0.170277 0.000415735 0 
21852 1 218.562 44.1673 0 0.700637 0.000417121 0 
21952 1 219.56 44.1673 0 0.47919 0.000414946 0 
22052 1 220.558 44.1673 0 -0.776756 0.000416286 0 
22152 1 221.555 44.1673 0 -0.14899 0.000417619 0 
22252 1 222.551 44.1673 0 0.329731 0.00041713 0 
22352 1 223.548 44.1673 0 -0.347726 0.000416999 0 
22452 1 224.544 44.1673 0 -0.0124885 0.00041711 0 
22552 1 225.54 44.1673 0 0.351013 0.00041654 0 
22652 1 226.537 44.1673 0 -0.232959 0.000416254 0 
22752 1 227.534 44.1673 0 -0.240554 0.000416395 0 
22852 1 228.531 44.1673 0 0.318664 0.000416043 0 
22952 1 229.529 44.1673 0 0.150963 0.000415484 0 
23052 1 230.527 44.1673 0 -0.36211 0.000415428 0 
23152 1 231.525 44.1673 0 -0.210644 0.000415516 0 
23252 1 232.521 44.1673 0 0.290276 0.000415166 0 
23352 1 233.519 44.1673 0 0.317461 0.000414602 0 
23452 1 234.518 44.1673 0 -0.120799 0.000414331 0 
23552 1 235.517 44.1673 0 -0.442737 0.00041438 0 
23652 1 236.514 44.1673 0 -0.359703 0.00041438 0 
23752 1 237.511 44.1673 0 -0.051572 0.000414082 0 
23852 1 238.507 44.1673 0 0.201666 0.000413544 0 
23952 1 239.504 44.1673 0 0.286445 0.000412971 0 
24052 1 240.502 44.1673 0 0.244879 0.000412518 0 
24152 1 241.501 44.1673 0 0.160493 0.000412227 0 
24252 1 242.5 44.1673 0 0.0871813 0.000412068 0 
24352 1 243.5 44.1673 0 0.0407854 0.000411993 0 
24452 1 244.5 44.1673 0 0.0168159 0.000411962 0 
24552 1 245.5 44.1673 0 0.00620654 0.000411951 0 
24652 1 246.5 44.1673 0 0.00207412 0.000411947 0 
24752 1 247.5 44.1673 0 0.000633089 0.000411945 0 
24852 1 248.5 44.1673 0 0.000177733 0.000411945 0 
24952 1 249.5 44.1673 0 4.61559e-05 0.000411945 0 
25052 1 250.5 44.1673 0 1.11409e-05 0.000411945 0 
25152 1 251.5 44.1673 0 2.50973e-06 0.000411945 0 
25252 1 252.5 44.1673 0 5.29511e-07 0.000411945 0 
25352 1 253.5 44.1673 0 1.04965e-07 0.000411945 0 
25452 1 254.5 44.1673 0 1.96383e-08 0.000411945 0 
25552 1 255.5 44.1673 0 3.4612e-09 0.000411945 0 
25652 1 256.5 44.1673 0 6.13547e-10 0.000411945 0 
25752 1 257.5 44.1673 0 7.52654e-11 0.000411945 0 
25852 1 258.5 44.1673 0 -1.57134e-23 0.000411945 0 
25952 1 259.5 44.1673 0 5.93319e-25 0.000411945 0 
26052 1 260.5 44.1673 0 5.93319e-25 0.000411945 0 
26152 1 261.5 44.1673 0 5.93319e-25 0.000411945 0 
26252 1 262.5 44.1673 0 5.93319e-25 0.000411945 0 
26352 1 263.5 44.1673 0 -1.57134e-23 0.000411945 0 
26452 1 264.5 44.1673 0 -1.57134e-23 0.000411945 0 
26552 1 265.5 44.1673 0 -1.57134e-23 0.000411945 0 
26652 1 266.5 44.1673 0 -1.57134e-23 0.000411945 0 
26752 1 267.5 44.1673 0 -1.57134e-23 0.000411945 0 
26852 1 268.5 44.1673 0 5.93319e-25 0.000411945 0 
26952 1 269.5 44.1673 0 5.93319e-25 0.000411945 0 
27052 1 270.5 44.1673 0 5.93319e-25 0.000411945 0 
27152 1 271.5 44.1673 0 5.93319e-25 0.000411945 0 
27252 1 272.5 44.1673 0 -1.57134e-23 0.000411945 0 
27352 1 273.5 44.1673 0 -1.57134e-23 0.000411945 0 
27452 1 274.5 44.1673 0 5.93319e-25 0.000411945 0 
27552 1 275.5 44.1673 0 -1.57134e-23 0.000411945 0 
27652 1 276.5 44.1673 0 -1.57134e-23 0.000411945 0 
27752 1 277.5 44.1673 0 -1.57134e-23 0.000411945 0 
27852 1 278.5 44.1673 0 -1.57134e-23 0.000411945 0 
27952 1 279.5 44.1673 0 -1.57134e-23 0.000411945 0 
28052 1 280.5 44.1673 0 -1.57134e-23 0.000411945 0 
28152 1 281.5 44.1673 0 -1.57134e-23 0.000411945 0 
28252 1 282.5 44.1673 0 5.93319e-25 0.000411945 0 
28352 1 283.5 44.1673 0 5.93319e-25 0.000411945 0 
28452 1 284.5 44.1673 0 -1.57134e-23 0.000411945 0 
28552 1 285.5 44.1673 0 -1.57134e-23 0.000411945 0 
28652 1 286.5 44.1673 0 5.93319e-25 0.000411945 0 
28752 1 287.5 44.1673 0 -1.57134e-23 0.000411945 0 
28852 1 288.5 44.1673 0 5.93319e-25 0.000411945 0 
28952 1 289.5 44.1673 0 5.93319e-25 0.000411945 0 
29052 1 290.5 44.1673 0 5.93319e-25 0.000411945 0 
29152 1 291.5 44.1673 0 -1.57134e-23 0.000411945 0 
29252 1 292.5 44.1673 0 5.93319e-25 0.000411945 0 
29352 1 293.5 44.1673 0 -1.57134e-23 0.000411945 0 
29452 1 294.5 44.1673 0 5.93319e-25 0.000411945 0 
29552 1 295.5 44.1673 0 5.93319e-25 0.000411945 0 
29652 1 296.5 44.1673 0 -1.57134e-23 0.000411945 0 
29752 1 297.5 44.1673 0 -1.57134e-23 0.000411945 0 
29852 1 298.5 44.1673 0 -1.57134e-23 0.000411945 0 
29952 1 299.5 44.1673 0 -1.57134e-23 0.000411945 0 
30052 1 300.5 44.1673 0 -1.57134e-23 0.000411945 0 
30152 1 301.5 44.1673 0 5.93319e-25 0.000411945 0 
30252 1 302.5 44.1673 0 -1.57134e-23 0.000411945 0 
30352 1 303.5 44.1673 0 -1.57134e-23 0.000411945 0 
30452 1 304.5 44.1673 0 -1.57134e-23 0.000411945 0 
30552 1 305.5 44.1673 0 -1.57134e-23 0.000411945 0 
30652 1 306.5 44.1673 0 5.93319e-25 0.000411945 0 
30752 1 307.5 44.1673 0 5.93319e-25 0.000411945 0 
30852 1 308.5 44.1673 0 -1.57134e-23 0.000411945 0 
30952 1 309.5 44.1673 0 -1.57134e-23 0.000411945 0 
31052 1 310.5 44.1673 0 -1.57134e-23 0.000411945 0 
31152 1 311.5 44.1673 0 5.93319e-25 0.000411945 0 
31252 1 312.5 44.1673 0 5.93319e-25 0.000411945 0 
31352 1 313.5 44.1673 0 -1.57134e-23 0.000411945 0 
31452 1 314.5 44.1673 0 -1.57134e-23 0.000411945 0 
31552 1 315.5 44.1673 0 5.93319e-25 0.000411945 0 
31652 1 316.5 44.1673 0 -1.57134e-23 0.000411945 0 
31752 1 317.5 44.1673 0 5.93319e-25 0.000411945 0 
31852 1 318.5 44.1673 0 5.93319e-25 0.000411945 0 
31952 1 319.5 44.1673 0 5.93319e-25 0.000411945 0 
32052 1 320.5 44.1673 0 -1.57134e-23 0.000411945 0 
32152 1 321.5 44.1673 0 -1.57134e-23 0.000411945 0 
32252 1 322.5 44.1673 0 5.93319e-25 0.000411945 0 
32352 1 323.5 44.1673 0 -1.57134e-23 0.000411945 0 
32452 1 324.5 44.1673 0 5.93319e-25 0.000411945 0 
32552 1 325.5 44.1673 0 5.93319e-25 0.000411945 0 
32652 1 326.5 44.1673 0 5.93319e-25 0.000411945 0 
32752 1 327.5 44.1673 0 5.93319e-25 0.000411945 0 
32852 1 328.5 44.1673 0 -1.57134e-23 0.000411945 0 
32952 1 329.5 44.1673 0 5.93319e-25 0.000411945 0 
33052 1 330.5 44.1673 0 -1.57134e-23 0.000411945 0 
33152 1 331.5 44.1673 0 -1.57134e-23 0.000411945 0 
33252 1 332.5 44.1673 0 5.93319e-25 0.000411945 0 
33352 1 333.5 44.1673 0 5.93319e-25 0.000411945 0 
33452 1 334.5 44.1673 0 5.93319e-25 0.000411945 0 
33552 1 335.5 44.1673 0 -1.57134e-23 0.000411945 0 
33652 1 336.5 44.1673 0 -1.57134e-23 0.000411945 0 
33752 1 337.5 44.1673 0 5.93319e-25 0.000411945 0 
33852 1 338.5 44.1673 0 5.93319e-25 0.000411945 0 
33952 1 339.5 44.1673 0 -1.57134e-23 0.000411945 0 
34052 1 340.5 44.1673 0 5.93319e-25 0.000411945 0 
34152 1 341.5 44.1673 0 5.93319e-25 0.000411945 0 
34252 1 342.5 44.1673 0 5.93319e-25 0.000411945 0 
34352 1 343.5 44.1673 0 -1.57134e-23 0.000411945 0 
34452 1 344.5 44.1673 0 5.93319e-25 0.000411945 0 
34552 1 345.5 44.1673 0 -1.57134e-23 0.000411945 0 
34652 1 346.5 44.1673 0 5.93319e-25 0.000411945 0 
34752 1 347.5 44.1673 0 -1.57134e-23 0.000411945 0 
34852 1 348.5 44.1673 0 -1.57134e-23 0.000411945 0 
34952 1 349.5 44.1673 0 5.93319e-25 0.000411945 0 
35052 1 350.5 44.1673 0 -1.57134e-23 0.000411945 0 
35152 1 351.5 44.1673 0 5.93319e-25 0.000411945 0 
35252 1 352.5 44.1673 0 5.93319e-25 0.000411945 0 
35352 1 353.5 44.1673 0 -1.29252e-10 0.000411945 0 
35452 1 354.5 44.1673 0 -2.1694e-11 0.000411945 0 
35552 1 355.5 44.1673 0 5.22635e-10 0.000411945 0 
35652 1 356.5 44.1673 0 2.11606e-09 0.000411944 0 
35752 1 357.5 44.1673 0 7.84443e-09 0.000411944 0 
35852 1 358.5 44.1673 0 1.66204e-08 0.000411943 0 
35952 1 359.5 44.1673 0 2.05326e-08 0.000411937 0 
36052 1 360.5 44.1673 0 1.95206e-10 0.000411908 0 
36152 1 361.5 44.1673 0 -3.60137e-08 0.000411833 0 
36252 1 362.5 44.1673 0 3.97228e-08 0.000411723 0 
36352 1 363.5 44.1673 0 4.50242e-07 0.000411716 0 
36452 1 364.5 44.1673 0 1.0164e-06 0.000412079 0 
36552 1 365.5 44.1673 0 3.26729e-07 0.000412793 0 
36652 1 366.5 44.1673 0 -3.39276e-06 0.000412884 0 
36752 1 367.5 44.1673 0 -7.78074e-06 0.00041094 0 
36852 1 368.5 44.1673 0 -3.94369e-06 0.000408043 0 
36952 1 369.5 44.1673 0 1.12557e-05 0.000409263 0 
37052 1 370.5 44.1673 0 1.80807e-05 0.000416456 0 
37152 1 371.5 44.1673 0 -3.4085e-06 0.000419545 0 
37252 1 372.5 44.1673 0 -2.19291e-05 0.000409906 0 
37352 1 373.5 44.1673 0 5.05513e-06 0.000403842 0 
37452 1 374.5 44.1673 0 2.35655e-05 0.000417599 0 
37552 1 375.5 44.1673 0 -2.1962e-05 0.000423805 0 
37652 1 376.5 44.1673 0 -2.51861e-05 0.000404348 0 
37752 1 377.5 44.1673 0 3.53226e-05 0.00040016 0 
37852 1 378.5 44.1673 0 -9.38076e-06 0.000406879 0 
37952 1 379.5 44.1673 0 -3.89606e-05 0.000392567 0 
38052 1 380.5 44.1673 0 6.7637e-05 0.00042248 0 
38152 1 381.5 44.1673 0 -4.77312e-06 0.00042965 0 
38252 1 382.5 44.1673 0 -8.4838e-05 0.000365874 0 
38352 1 383.5 44.1673 0 6.67523e-05 0.000401579 0 
38452 1 384.5 44.1673 0 -6.23978e-05 0.000368303 0 
38552 1 385.5 44.1673 0 -3.58014e-05 0.000362965 0 
38652 1 386.5 44.1673 0 6.48335e-05 0.000329641 0 
38752 1 387.5 44.1673 0 -0.000103952 0.000315199 0 
38852 1 388.5 44.1673 0 -9.38068e-06 0.000237126 0 
38952 1 389.5 44.1673 0 -5.27925e-05 0.000277964 0 
39052 1 390.5 44.1673 0 -7.36771e-05 0.000249818 0 
39152 1 391.5 44.1673 0 -8.14948e-05 0.000145393 0 
39252 1 392.5 44.1673 0 -9.48117e-05 0.000145771 0 
39352 1 393.5 44.1673 0 2.08868e-07 8.57396e-05 0 
39452 1 394.5 44.1673 0 -0.000152601 -9.98595e-05 0 
39552 1 395.5 44.1673 0 -0.000119019 3.44499e-05 0 
39652 1 396.5 44.1673 0 -0.00012601 6.07424e-06 0 
39752 1 397.5 44.1673 0 -9.75587e-05 7.25958e-05 0 
39852 2 398.5 44.1673 0 -5.4593e-05 -0.000397333 0 
39952 2 399.5 44.1673 0 -2.20719e-05 -0.000198667 0 
