ITEM: TIMESTEP
1960
ITEM: NUMBER OF ATOMS
400
ITEM: BOX BOUNDS ff pp pp
0.0000000000000000e+00 4.0000000000000000e+02
0.0000000000000000e+00 8.6602540000000005e+01
0.0000000000000000e+00 1.0000000000000000e+00
ITEM: ATOMS id type x y z fx fy fz 
52 2 0.5 44.1673 0 0 -0.000397333 0 
152 2 1.5 44.1673 0 0.00500411 -0.000397173 0 
252 1 2.50002 44.1673 0 -5.5279e-05 8.8431e-05 0 
352 1 3.50004 44.1674 0 6.14128e-06 7.52995e-05 0 
452 1 4.50007 44.1675 0 -1.79507e-05 -7.53619e-05 0 
552 1 5.50009 44.1675 0 0.000165265 0.00010205 0 
652 1 6.50011 44.1676 0 -0.000198422 -0.000479432 0 
752 1 7.50014 44.1677 0 -7.70015e-05 -0.000367545 0 
852 1 8.50016 44.1677 0 2.29892e-05 -0.000185146 0 
952 1 9.50018 44.1678 0 -0.000134841 -0.000552298 0 
1052 1 10.5002 44.1679 0 -0.000350554 -0.00111889 0 
1152 1 11.5002 44.1679 0 8.66781e-06 -0.000700746 0 
1252 1 12.5002 44.168 0 0.000251274 -0.000289347 0 
1352 1 13.5003 44.168 0 2.43316e-05 -0.000778658 0 
1452 1 14.5003 44.1681 0 -0.000612484 -0.00145123 0 
1552 1 15.5003 44.1682 0 -0.000948718 -0.00194636 0 
1652 1 16.5003 44.1682 0 -0.0009357 -0.00188242 0 
1752 1 17.5003 44.1682 0 -0.000776746 -0.00150635 0 
1852 1 18.5003 44.1683 0 -0.000436686 -0.00108002 0 
1952 1 19.5003 44.1683 0 -0.000241578 -0.000839691 0 
2052 1 20.5003 44.1683 0 3.86883e-06 -0.000744411 0 
2152 1 21.5002 44.1683 0 1.57079e-05 -0.000709801 0 
2252 1 22.5002 44.1683 0 0.000124598 -0.000676441 0 
2352 1 23.5002 44.1684 0 0.000193725 -0.000588747 0 
2452 1 24.5002 44.1684 0 -1.80289e-05 -0.000508708 0 
2552 1 25.5002 44.1684 0 0.000146867 -0.000498229 0 
2652 1 26.5002 44.1684 0 2.00245e-05 -0.000428598 0 
2752 1 27.5002 44.1684 0 2.05142e-05 -0.000517745 0 
2852 1 28.5002 44.1684 0 0.00022589 -0.000623872 0 
2952 1 29.5001 44.1684 0 0.000101898 -0.00062064 0 
3052 1 30.5001 44.1684 0 0.00010566 -0.000657252 0 
3152 1 31.5001 44.1685 0 0.00021429 -0.000594969 0 
3252 1 32.5001 44.1685 0 5.80172e-05 -0.000526188 0 
3352 1 33.5001 44.1685 0 1.04177e-05 -0.000544158 0 
3452 1 34.5001 44.1685 0 9.79585e-05 -0.000531811 0 
3552 1 35.5001 44.1685 0 7.65998e-05 -0.000533857 0 
3652 1 36.5001 44.1685 0 0.000116978 -0.000623588 0 
3752 1 37.5001 44.1685 0 0.000215891 -0.000700079 0 
3852 1 38.5001 44.1685 0 0.000188977 -0.000699861 0 
3952 1 39.5001 44.1685 0 0.000124365 -0.00066125 0 
4052 1 40.5 44.1685 0 0.000104335 -0.00060838 0 
4152 1 41.5 44.1685 0 5.50627e-05 -0.000559596 0 
4252 1 42.5 44.1685 0 1.17586e-05 -0.000551055 0 
4352 1 43.5 44.1685 0 6.58617e-05 -0.000594635 0 
4452 1 44.5 44.1685 0 0.000171279 -0.000673292 0 
4552 1 45.5 44.1685 0 0.000244355 -0.000766869 0 
4652 1 46.5 44.1686 0 0.000291957 -0.000852092 0 
4752 1 47.5 44.1686 0 0.000339258 -0.000902193 0 
4852 1 48.5 44.1686 0 0.000358762 -0.000905638 0 
4952 1 49.5 44.1686 0 0.000321173 -0.000874167 0 
5052 1 50.5 44.1686 0 0.000245086 -0.000828342 0 
5152 1 51.5 44.1686 0 0.000170285 -0.000782454 0 
5252 1 52.5 44.1686 0 0.000116093 -0.000742566 0 
5352 1 53.5 44.1686 0 7.8528e-05 -0.000710871 0 
5452 1 54.5 44.1686 0 4.95148e-05 -0.000688025 0 
5552 1 55.5 44.1686 0 2.7017e-05 -0.000673231 0 
5652 1 56.5 44.1686 0 1.21663e-05 -0.00066455 0 
5752 1 57.5 44.1686 0 4.57669e-06 -0.00065984 0 
5852 1 58.5 44.1686 0 1.79046e-06 -0.000657452 0 
5952 1 59.5 44.1686 0 1.11728e-06 -0.000656346 0 
6052 1 60.5 44.1686 0 9.31368e-07 -0.000655906 0 
6152 1 61.5 44.1686 0 6.93628e-07 -0.000655775 0 
6252 1 62.5 44.1686 0 4.06669e-07 -0.000655753 0 
6352 1 63.5 44.1686 0 1.75021e-07 -0.000655752 0 
6452 1 64.5 44.1686 0 4.02352e-08 -0.000655743 0 
6552 1 65.5 44.1686 0 -1.51033e-08 -0.000655728 0 
6652 1 66.5 44.1686 0 -2.63433e-08 -0.000655713 0 
6752 1 67.5 44.1686 0 -2.08811e-08 -0.000655702 0 
6852 1 68.5 44.1686 0 -1.26425e-08 -0.000655695 0 
6952 1 69.5 44.1686 0 -6.52795e-09 -0.000655691 0 
7052 1 70.5 44.1686 0 -3.01274e-09 -0.000655689 0 
7152 1 71.5 44.1686 0 -1.20661e-09 -0.000655689 0 
7252 1 72.5 44.1686 0 -4.74409e-10 -0.000655688 0 
7352 1 73.5 44.1686 0 -1.84383e-10 -0.000655688 0 
7452 1 74.5 44.1686 0 -7.7371e-11 -0.000655688 0 
7552 1 75.5 44.1686 0 -1.12914e-11 -0.000655688 0 
7652 1 76.5 44.1686 0 2.90575e-21 -0.000655688 0 
7752 1 77.5 44.1686 0 2.41307e-21 -0.000655688 0 
7852 1 78.5 44.1686 0 2.41307e-21 -0.000655688 0 
7952 1 79.5 44.1686 0 2.41307e-21 -0.000655688 0 
8052 1 80.5 44.1686 0 2.41307e-21 -0.000655688 0 
8152 1 81.5 44.1686 0 2.90575e-21 -0.000655688 0 
8252 1 82.5 44.1686 0 2.90575e-21 -0.000655688 0 
8352 1 83.5 44.1686 0 2.41307e-21 -0.000655688 0 
8452 1 84.5 44.1686 0 2.41307e-21 -0.000655688 0 
8552 1 85.5 44.1686 0 2.90575e-21 -0.000655688 0 
8652 1 86.5 44.1686 0 2.90575e-21 -0.000655688 0 
8752 1 87.5 44.1686 0 2.41307e-21 -0.000655688 0 
8852 1 88.5 44.1686 0 2.90575e-21 -0.000655688 0 
8952 1 89.5 44.1686 0 2.90575e-21 -0.000655688 0 
9052 1 90.5 44.1686 0 2.41307e-21 -0.000655688 0 
9152 1 91.5 44.1686 0 2.41307e-21 -0.000655688 0 
9252 1 92.5 44.1686 0 2.41307e-21 -0.000655688 0 
9352 1 93.5 44.1686 0 2.90575e-21 -0.000655688 0 
9452 1 94.5 44.1686 0 2.41307e-21 -0.000655688 0 
9552 1 95.5 44.1686 0 2.90575e-21 -0.000655688 0 
9652 1 96.5 44.1686 0 2.41307e-21 -0.000655688 0 
9752 1 97.5 44.1686 0 2.90575e-21 -0.000655688 0 
9852 1 98.5 44.1686 0 2.41307e-21 -0.000655688 0 
9952 1 99.5 44.1686 0 2.41307e-21 -0.000655688 0 
10052 1 100.5 44.1686 0 2.41307e-21 -0.000655688 0 
10152 1 101.5 44.1686 0 2.90575e-21 -0.000655688 0 
10252 1 102.5 44.1686 0 2.90575e-21 -0.000655688 0 
10352 1 103.5 44.1686 0 2.90575e-21 -0.000655688 0 
10452 1 104.5 44.1686 0 2.90575e-21 -0.000655688 0 
10552 1 105.5 44.1686 0 2.41307e-21 -0.000655688 0 
10652 1 106.5 44.1686 0 2.41307e-21 -0.000655688 0 
10752 1 107.5 44.1686 0 2.90575e-21 -0.000655688 0 
10852 1 108.5 44.1686 0 2.41307e-21 -0.000655688 0 
10952 1 109.5 44.1686 0 2.41307e-21 -0.000655688 0 
11052 1 110.5 44.1686 0 2.41307e-21 -0.000655688 0 
11152 1 111.5 44.1686 0 2.41307e-21 -0.000655688 0 
11252 1 112.5 44.1686 0 2.41307e-21 -0.000655688 0 
11352 1 113.5 44.1686 0 2.41307e-21 -0.000655688 0 
11452 1 114.5 44.1686 0 1.50541e-11 -0.000655688 0 
11552 1 115.5 44.1686 0 1.39389e-10 -0.000655688 0 
11652 1 116.5 44.1686 0 6.12581e-10 -0.000655688 0 
11752 1 117.5 44.1686 0 2.87043e-09 -0.000655688 0 
11852 1 118.5 44.1686 0 1.26889e-08 -0.000655688 0 
11952 1 119.5 44.1686 0 5.39536e-08 -0.000655688 0 
12052 1 120.5 44.1686 0 2.1989e-07 -0.000655688 0 
12152 1 121.5 44.1686 0 8.56409e-07 -0.000655688 0 
12252 1 122.5 44.1686 0 3.18321e-06 -0.000655688 0 
12352 1 123.5 44.1686 0 1.12696e-05 -0.000655688 0 
12452 1 124.5 44.1686 0 3.79186e-05 -0.000655688 0 
12552 1 125.5 44.1686 0 0.00012095 -0.000655688 0 
12652 1 126.5 44.1686 0 0.000364693 -0.000655687 0 
12752 1 127.5 44.1686 0 0.00103603 -0.000655686 0 
12852 1 128.5 44.1686 0 0.0027621 -0.000655683 0 
12952 1 129.5 44.1686 0 0.00687846 -0.000655676 0 
13052 1 130.5 44.1686 0 0.0159079 -0.00065566 0 
13152 1 131.5 44.1686 0 0.0339162 -0.000655625 0 
13252 1 132.5 44.1686 0 0.0660142 -0.000655557 0 
13352 1 133.501 44.1686 0 0.115705 -0.000655441 0 
13452 1 134.502 44.1686 0 0.178861 -0.000655268 0 
13552 1 135.503 44.1686 0 0.235314 -0.000655056 0 
13652 1 136.505 44.1686 0 0.244529 -0.000654874 0 
13752 1 137.509 44.1686 0 0.158045 -0.000654846 0 
13852 1 138.512 44.1686 0 -0.0414434 -0.000655103 0 
13952 1 139.516 44.1686 0 -0.288975 -0.000655681 0 
14052 1 140.519 44.1686 0 -0.428411 -0.000656414 0 
14152 1 141.52 44.1686 0 -0.306656 -0.000656978 0 
14252 1 142.521 44.1686 0 0.0522639 -0.000657141 0 
14352 1 143.521 44.1686 0 0.362281 -0.000657078 0 
14452 1 144.523 44.1686 0 0.282842 -0.000657292 0 
14552 1 145.526 44.1686 0 -0.155544 -0.000657954 0 
14652 1 146.528 44.1686 0 -0.432287 -0.000658307 0 
14752 1 147.529 44.1686 0 -0.132723 -0.000657297 0 
14852 1 148.53 44.1686 0 0.362912 -0.000655219 0 
14952 1 149.532 44.1686 0 0.278131 -0.00065426 0 
15052 1 150.535 44.1686 0 -0.300094 -0.00065615 0 
15152 1 151.537 44.1686 0 -0.36798 -0.000659086 0 
15252 1 152.537 44.1686 0 0.246805 -0.000659352 0 
15352 1 153.539 44.1686 0 0.371471 -0.00065645 0 
15452 1 154.542 44.1686 0 -0.283151 -0.000654399 0 
15552 1 155.544 44.1686 0 -0.341454 -0.000656288 0 
15652 1 156.546 44.1686 0 0.352172 -0.000659439 0 
15752 1 157.548 44.1686 0 0.213554 -0.000659135 0 
15852 1 158.551 44.1686 0 -0.437411 -0.000655778 0 
15952 1 159.553 44.1686 0 0.00442892 -0.000655293 0 
16052 1 160.555 44.1686 0 0.403516 -0.000658524 0 
16152 1 161.559 44.1686 0 -0.288686 -0.000657827 0 
16252 1 162.562 44.1686 0 -0.175059 -0.000652664 0 
16352 1 163.564 44.1686 0 0.396894 -0.000653308 0 
16452 1 164.568 44.1686 0 -0.29481 -0.000658989 0 
16552 1 165.57 44.1686 0 -0.288881 -0.000661162 0 
16652 1 166.572 44.1686 0 0.400921 -0.000660316 0 
16752 1 167.574 44.1686 0 -0.167485 -0.000652045 0 
16852 1 168.577 44.1686 0 0.00763299 -0.000651471 0 
16952 1 169.579 44.1686 0 0.214892 -0.000665754 0 
17052 1 170.582 44.1686 0 -0.698232 -0.000653285 0 
17152 1 171.583 44.1686 0 0.00972114 -0.000651667 0 
17252 1 172.585 44.1686 0 0.446441 -0.000658978 0 
17352 1 173.587 44.1686 0 0.465517 -0.000654332 0 
17452 1 174.589 44.1686 0 0.520507 -0.000645737 0 
17552 1 175.594 44.1686 0 -1.49858 -0.000662435 0 
17652 1 176.595 44.1686 0 -0.649313 -0.000653662 0 
17752 1 177.596 44.1686 0 0.648756 -0.000649124 0 
17852 1 178.599 44.1686 0 -0.286372 -0.000651707 0 
17952 1 179.6 44.1686 0 0.730244 -0.000661359 0 
18052 1 180.603 44.1686 0 0.399461 -0.000646283 0 
18152 1 181.606 44.1686 0 0.455217 -0.000642856 0 
18252 1 182.609 44.1686 0 -0.188585 -0.000665939 0 
18352 1 183.612 44.1686 0 -0.161297 -0.000641879 0 
18452 1 184.615 44.1686 0 -0.0031384 -0.000654427 0 
18552 1 185.618 44.1686 0 -1.13115 -0.000676078 0 
18652 1 186.621 44.1686 0 0.00244718 -0.000654532 0 
18752 1 187.624 44.1686 0 -0.0909588 -0.000659108 0 
18852 1 188.628 44.1686 0 -1.12568 -0.000670535 0 
18952 1 189.631 44.1686 0 0.424817 -0.000638735 0 
19052 1 190.634 44.1686 0 0.566671 -0.000611386 0 
19152 1 191.641 44.1686 0 -1.55455 -0.000687111 0 
19252 1 192.642 44.1686 0 1.93962 -0.000677158 0 
19352 1 193.65 44.1686 0 -1.14348 -0.000579421 0 
19452 1 194.654 44.1686 0 1.61241 -0.000632902 0 
19552 1 195.664 44.1686 0 -1.50478 -0.000704768 0 
19652 1 196.671 44.1686 0 2.07973 -0.000675048 0 
19752 1 197.685 44.1686 0 -1.04159 -0.000681631 0 
19852 1 198.7 44.1686 0 1.22513 -0.000613575 0 
19952 1 199.73 44.1686 0 -1.00597 -0.000635525 0 
20052 3 200.781 44.1686 0 1.43229 -0.000687523 0 
20152 1 201.729 44.1686 0 -0.657901 -0.000676827 0 
20252 1 202.7 44.1686 0 0.582874 -0.000666122 0 
20352 1 203.685 44.1686 0 -0.681267 -0.000624077 0 
20452 1 204.671 44.1686 0 1.08177 -0.000638886 0 
20552 1 205.664 44.1686 0 -1.01079 -0.000619929 0 
20652 1 206.655 44.1686 0 0.156132 -0.000720922 0 
20752 1 207.65 44.1686 0 -0.66461 -0.000720512 0 
20852 1 208.644 44.1686 0 0.71493 -0.00059488 0 
20952 1 209.641 44.1686 0 -1.96285 -0.000640112 0 
21052 1 210.635 44.1686 0 0.477806 -0.000700828 0 
21152 1 211.632 44.1686 0 -0.566175 -0.000674282 0 
21252 1 212.628 44.1686 0 -1.09139 -0.000628354 0 
21352 1 213.624 44.1686 0 -0.0441681 -0.000654747 0 
21452 1 214.621 44.1686 0 -0.256022 -0.000652658 0 
21552 1 215.617 44.1686 0 -0.540518 -0.000624627 0 
21652 1 216.614 44.1686 0 0.534992 -0.000664627 0 
21752 1 217.611 44.1686 0 0.169532 -0.000661928 0 
21852 1 218.608 44.1686 0 0.510184 -0.000649716 0 
21952 1 219.605 44.1686 0 0.640886 -0.000668624 0 
22052 1 220.603 44.1686 0 0.449141 -0.000658081 0 
22152 1 221.601 44.1686 0 0.206886 -0.000649655 0 
22252 1 222.6 44.1686 0 -0.701174 -0.000657775 0 
22352 1 223.596 44.1686 0 0.0986514 -0.000659 0 
22452 1 224.596 44.1686 0 -1.13934 -0.000654242 0 
22552 1 225.593 44.1686 0 -0.822451 -0.000649789 0 
22652 1 226.588 44.1686 0 1.35792 -0.000663868 0 
22752 1 227.587 44.1686 0 0.603815 -0.000657427 0 
22852 1 228.585 44.1686 0 -0.049541 -0.000647764 0 
22952 1 229.583 44.1686 0 -0.395245 -0.000659865 0 
23052 1 230.581 44.1686 0 -0.578139 -0.000655028 0 
23152 1 231.579 44.1686 0 0.360722 -0.00064532 0 
23252 1 232.576 44.1686 0 0.0925732 -0.000661307 0 
23352 1 233.574 44.1686 0 -0.139647 -0.000656458 0 
23452 1 234.572 44.1686 0 0.253027 -0.000647887 0 
23552 1 235.57 44.1686 0 -0.286929 -0.000650621 0 
23652 1 236.567 44.1686 0 -0.21234 -0.000654018 0 
23752 1 237.564 44.1686 0 0.346605 -0.000657247 0 
23852 1 238.561 44.1686 0 -0.147313 -0.000656803 0 
23952 1 239.558 44.1686 0 -0.256229 -0.000653146 0 
24052 1 240.555 44.1686 0 0.306423 -0.000653134 0 
24152 1 241.553 44.1686 0 0.0341797 -0.000655265 0 
24252 1 242.551 44.1686 0 -0.319344 -0.00065439 0 
24352 1 243.548 44.1686 0 0.129632 -0.00065214 0 
24452 1 244.545 44.1686 0 0.237314 -0.000652559 0 
24552 1 245.544 44.1686 0 -0.234274 -0.000655131 0 
24652 1 246.542 44.1686 0 -0.175272 -0.000656109 0 
24752 1 247.539 44.1686 0 0.263442 -0.000654243 0 
24852 1 248.537 44.1686 0 0.133482 -0.000652244 0 
24952 1 249.536 44.1686 0 -0.285706 -0.000652925 0 
25052 1 250.534 44.1686 0 -0.17514 -0.000655395 0 
25152 1 251.531 44.1686 0 0.244447 -0.000656667 0 
25252 1 252.53 44.1686 0 0.239074 -0.000655637 0 
25352 1 253.529 44.1686 0 -0.165204 -0.000653861 0 
25452 1 254.528 44.1686 0 -0.344938 -0.000653127 0 
25552 1 255.525 44.1686 0 -0.0714237 -0.000653528 0 
25652 1 256.523 44.1686 0 0.271064 -0.000654099 0 
25752 1 257.521 44.1686 0 0.282822 -0.000654281 0 
25852 1 258.52 44.1686 0 -0.0135001 -0.000654283 0 
25952 1 259.52 44.1686 0 -0.31143 -0.000654524 0 
26052 1 260.518 44.1686 0 -0.381954 -0.000655101 0 
26152 1 261.515 44.1686 0 -0.231039 -0.00065578 0 
26252 1 262.511 44.1686 0 -0.00427173 -0.000656281 0 
26352 1 263.508 44.1686 0 0.16667 -0.000656486 0 
26452 1 264.505 44.1686 0 0.234186 -0.00065644 0 
26552 1 265.503 44.1686 0 0.218788 -0.000656266 0 
26652 1 266.501 44.1686 0 0.164223 -0.000656071 0 
26752 1 267.501 44.1686 0 0.105644 -0.000655913 0 
26852 1 268.5 44.1686 0 0.0601401 -0.000655807 0 
26952 1 269.5 44.1686 0 0.0308834 -0.000655746 0 
27052 1 270.5 44.1686 0 0.0144922 -0.000655714 0 
27152 1 271.5 44.1686 0 0.00627268 -0.000655699 0 
27252 1 272.5 44.1686 0 0.00252224 -0.000655692 0 
27352 1 273.5 44.1686 0 0.000947529 -0.00065569 0 
27452 1 274.5 44.1686 0 0.000334104 -0.000655689 0 
27552 1 275.5 44.1686 0 0.000111002 -0.000655688 0 
27652 1 276.5 44.1686 0 3.48634e-05 -0.000655688 0 
27752 1 277.5 44.1686 0 1.03808e-05 -0.000655688 0 
27852 1 278.5 44.1686 0 2.93757e-06 -0.000655688 0 
27952 1 279.5 44.1686 0 7.91769e-07 -0.000655688 0 
28052 1 280.5 44.1686 0 2.03748e-07 -0.000655688 0 
28152 1 281.5 44.1686 0 5.0068e-08 -0.000655688 0 
28252 1 282.5 44.1686 0 1.17915e-08 -0.000655688 0 
28352 1 283.5 44.1686 0 2.73518e-09 -0.000655688 0 
28452 1 284.5 44.1686 0 6.30197e-10 -0.000655688 0 
28552 1 285.5 44.1686 0 7.52654e-11 -0.000655688 0 
28652 1 286.5 44.1686 0 2.90575e-21 -0.000655688 0 
28752 1 287.5 44.1686 0 2.41307e-21 -0.000655688 0 
28852 1 288.5 44.1686 0 2.90575e-21 -0.000655688 0 
28952 1 289.5 44.1686 0 2.90575e-21 -0.000655688 0 
29052 1 290.5 44.1686 0 2.90575e-21 -0.000655688 0 
29152 1 291.5 44.1686 0 2.41307e-21 -0.000655688 0 
29252 1 292.5 44.1686 0 2.90575e-21 -0.000655688 0 
29352 1 293.5 44.1686 0 2.41307e-21 -0.000655688 0 
29452 1 294.5 44.1686 0 2.90575e-21 -0.000655688 0 
29552 1 295.5 44.1686 0 2.90575e-21 -0.000655688 0 
29652 1 296.5 44.1686 0 2.41307e-21 -0.000655688 0 
29752 1 297.5 44.1686 0 2.41307e-21 -0.000655688 0 
29852 1 298.5 44.1686 0 2.41307e-21 -0.000655688 0 
29952 1 299.5 44.1686 0 2.41307e-21 -0.000655688 0 
30052 1 300.5 44.1686 0 2.41307e-21 -0.000655688 0 
30152 1 301.5 44.1686 0 2.90575e-21 -0.000655688 0 
30252 1 302.5 44.1686 0 2.41307e-21 -0.000655688 0 
30352 1 303.5 44.1686 0 2.41307e-21 -0.000655688 0 
30452 1 304.5 44.1686 0 2.41307e-21 -0.000655688 0 
30552 1 305.5 44.1686 0 2.41307e-21 -0.000655688 0 
30652 1 306.5 44.1686 0 2.90575e-21 -0.000655688 0 
30752 1 307.5 44.1686 0 2.90575e-21 -0.000655688 0 
30852 1 308.5 44.1686 0 2.41307e-21 -0.000655688 0 
30952 1 309.5 44.1686 0 2.41307e-21 -0.000655688 0 
31052 1 310.5 44.1686 0 2.41307e-21 -0.000655688 0 
31152 1 311.5 44.1686 0 2.90575e-21 -0.000655688 0 
31252 1 312.5 44.1686 0 2.90575e-21 -0.000655688 0 
31352 1 313.5 44.1686 0 2.41307e-21 -0.000655688 0 
31452 1 314.5 44.1686 0 2.41307e-21 -0.000655688 0 
31552 1 315.5 44.1686 0 2.90575e-21 -0.000655688 0 
31652 1 316.5 44.1686 0 2.41307e-21 -0.000655688 0 
31752 1 317.5 44.1686 0 2.90575e-21 -0.000655688 0 
31852 1 318.5 44.1686 0 2.90575e-21 -0.000655688 0 
31952 1 319.5 44.1686 0 2.90575e-21 -0.000655688 0 
32052 1 320.5 44.1686 0 2.41307e-21 -0.000655688 0 
32152 1 321.5 44.1686 0 2.41307e-21 -0.000655688 0 
32252 1 322.5 44.1686 0 2.90575e-21 -0.000655688 0 
32352 1 323.5 44.1686 0 2.41307e-21 -0.000655688 0 
32452 1 324.5 44.1686 0 2.90575e-21 -0.000655688 0 
32552 1 325.5 44.1686 0 2.90575e-21 -0.000655688 0 
32652 1 326.5 44.1686 0 2.56747e-10 -0.000655688 0 
32752 1 327.5 44.1686 0 5.8017e-10 -0.000655688 0 
32852 1 328.5 44.1686 0 1.24895e-09 -0.000655689 0 
32952 1 329.5 44.1686 0 2.89739e-09 -0.000655689 0 
33052 1 330.5 44.1686 0 6.49976e-09 -0.000655691 0 
33152 1 331.5 44.1686 0 1.258e-08 -0.000655695 0 
33252 1 332.5 44.1686 0 2.09798e-08 -0.000655702 0 
33352 1 333.5 44.1686 0 2.64083e-08 -0.000655713 0 
33452 1 334.5 44.1686 0 1.50239e-08 -0.000655728 0 
33552 1 335.5 44.1686 0 -4.03955e-08 -0.000655743 0 
33652 1 336.5 44.1686 0 -1.74635e-07 -0.000655752 0 
33752 1 337.5 44.1686 0 -4.06788e-07 -0.000655753 0 
33852 1 338.5 44.1686 0 -6.93566e-07 -0.000655775 0 
33952 1 339.5 44.1686 0 -9.31561e-07 -0.000655906 0 
34052 1 340.5 44.1686 0 -1.11733e-06 -0.000656346 0 
34152 1 341.5 44.1686 0 -1.79054e-06 -0.000657452 0 
34252 1 342.5 44.1686 0 -4.5767e-06 -0.00065984 0 
34352 1 343.5 44.1686 0 -1.21664e-05 -0.00066455 0 
34452 1 344.5 44.1686 0 -2.70169e-05 -0.000673231 0 
34552 1 345.5 44.1686 0 -4.95148e-05 -0.000688026 0 
34652 1 346.5 44.1686 0 -7.85281e-05 -0.000710871 0 
34752 1 347.5 44.1686 0 -0.000116093 -0.000742566 0 
34852 1 348.5 44.1686 0 -0.000170285 -0.000782454 0 
34952 1 349.5 44.1686 0 -0.000245086 -0.000828342 0 
35052 1 350.5 44.1686 0 -0.000321173 -0.000874167 0 
35152 1 351.5 44.1686 0 -0.000358762 -0.000905638 0 
35252 1 352.5 44.1686 0 -0.000339258 -0.000902193 0 
35352 1 353.5 44.1686 0 -0.000291957 -0.000852092 0 
35452 1 354.5 44.1685 0 -0.000244355 -0.000766869 0 
35552 1 355.5 44.1685 0 -0.000171279 -0.000673292 0 
35652 1 356.5 44.1685 0 -6.58619e-05 -0.000594635 0 
35752 1 357.5 44.1685 0 -1.17582e-05 -0.000551055 0 
35852 1 358.5 44.1685 0 -5.50629e-05 -0.000559596 0 
35952 1 359.5 44.1685 0 -0.000104335 -0.00060838 0 
36052 1 360.5 44.1685 0 -0.000124365 -0.00066125 0 
36152 1 361.5 44.1685 0 -0.000188977 -0.000699861 0 
36252 1 362.5 44.1685 0 -0.000215891 -0.000700079 0 
36352 1 363.5 44.1685 0 -0.000116979 -0.000623588 0 
36452 1 364.5 44.1685 0 -7.65993e-05 -0.000533857 0 
36552 1 365.5 44.1685 0 -9.79591e-05 -0.000531811 0 
36652 1 366.5 44.1685 0 -1.04173e-05 -0.000544158 0 
36752 1 367.5 44.1685 0 -5.80174e-05 -0.000526188 0 
36852 1 368.5 44.1685 0 -0.000214289 -0.00059497 0 
36952 1 369.5 44.1684 0 -0.00010566 -0.000657252 0 
37052 1 370.5 44.1684 0 -0.000101898 -0.00062064 0 
37152 1 371.5 44.1684 0 -0.00022589 -0.000623872 0 
37252 1 372.5 44.1684 0 -2.05141e-05 -0.000517745 0 
37352 1 373.5 44.1684 0 -2.00247e-05 -0.000428598 0 
37452 1 374.5 44.1684 0 -0.000146867 -0.000498229 0 
37552 1 375.5 44.1684 0 1.8029e-05 -0.000508708 0 
37652 1 376.5 44.1684 0 -0.000193725 -0.000588747 0 
37752 1 377.5 44.1683 0 -0.000124598 -0.000676441 0 
37852 1 378.5 44.1683 0 -1.57081e-05 -0.000709801 0 
37952 1 379.5 44.1683 0 -3.86862e-06 -0.000744411 0 
38052 1 380.5 44.1683 0 0.000241579 -0.000839691 0 
38152 1 381.5 44.1683 0 0.000436686 -0.00108002 0 
38252 1 382.5 44.1682 0 0.000776746 -0.00150635 0 
38352 1 383.5 44.1682 0 0.000935701 -0.00188242 0 
38452 1 384.5 44.1682 0 0.000948717 -0.00194636 0 
38552 1 385.5 44.1681 0 0.000612484 -0.00145123 0 
38652 1 386.5 44.168 0 -2.43315e-05 -0.000778658 0 
38752 1 387.5 44.168 0 -0.000251274 -0.000289348 0 
38852 1 388.5 44.1679 0 -8.66733e-06 -0.000700746 0 
38952 1 389.5 44.1679 0 0.000350553 -0.00111889 0 
39052 1 390.5 44.1678 0 0.000134842 -0.000552298 0 
39152 1 391.5 44.1677 0 -2.29895e-05 -0.000185146 0 
39252 1 392.5 44.1677 0 7.70014e-05 -0.000367545 0 
39352 1 393.5 44.1676 0 0.000198422 -0.000479432 0 
39452 1 394.5 44.1675 0 -0.000165265 0.000102051 0 
39552 1 395.5 44.1675 0 1.79505e-05 -7.53624e-05 0 
39652 1 396.5 44.1674 0 -6.1414e-06 7.52996e-05 0 
39752 1 397.5 44.1673 0 5.52791e-05 8.84311e-05 0 
39852 2 398.5 44.1673 0 -0.00500411 -0.000397173 0 
39952 2 399.5 44.1673 0 -2.20719e-05 -0.000198667 0 
