ITEM: TIMESTEP
1440
ITEM: NUMBER OF ATOMS
400
ITEM: BOX BOUNDS ff pp pp
0.0000000000000000e+00 4.0000000000000000e+02
0.0000000000000000e+00 8.6602540000000005e+01
0.0000000000000000e+00 1.0000000000000000e+00
ITEM: ATOMS id type x y z fx fy fz 
52 2 0.5 44.1673 0 0 -0.000397333 0 
152 2 1.5 44.1673 0 -1.00938e-05 -0.000397333 0 
252 1 2.5 44.1673 0 -4.58494e-05 9.71652e-05 0 
352 1 3.5 44.1673 0 3.1868e-05 0.00017053 0 
452 1 4.5 44.1673 0 3.26631e-05 0.000206649 0 
552 1 5.5 44.1673 0 5.03829e-05 6.22804e-05 0 
652 1 6.5 44.1673 0 -4.49965e-05 8.15854e-06 0 
752 1 7.5 44.1673 0 6.51558e-05 2.66896e-05 0 
852 1 8.5 44.1673 0 -8.48028e-05 -6.06341e-07 0 
952 1 9.5 44.1673 0 5.96473e-05 -1.76963e-05 0 
1052 1 10.5 44.1673 0 1.90828e-05 8.82407e-05 0 
1152 1 11.5 44.1673 0 -9.74455e-05 4.26759e-05 0 
1252 1 12.5 44.1673 0 7.88529e-05 3.87695e-05 0 
1352 1 13.5 44.1673 0 -6.20018e-05 1.72415e-05 0 
1452 1 14.5 44.1673 0 -1.93013e-05 6.78312e-06 0 
1552 1 15.5 44.1673 0 7.12854e-05 1.57491e-05 0 
1652 1 16.5 44.1673 0 -2.62938e-05 4.3012e-05 0 
1752 1 17.5 44.1673 0 -2.40904e-05 2.22362e-05 0 
1852 1 18.5 44.1673 0 3.08196e-05 2.21191e-05 0 
1952 1 19.5 44.1673 0 -5.1487e-06 3.02625e-05 0 
2052 1 20.5 44.1673 0 -2.48349e-05 1.89652e-05 0 
2152 1 21.5 44.1673 0 9.61415e-06 1.45779e-05 0 
2252 1 22.5 44.1673 0 2.17872e-05 2.48004e-05 0 
2352 1 23.5 44.1673 0 2.29545e-06 3.10342e-05 0 
2452 1 24.5 44.1673 0 -9.56062e-06 2.79978e-05 0 
2552 1 25.5 44.1673 0 -5.35779e-06 2.38667e-05 0 
2652 1 26.5 44.1673 0 6.99831e-07 2.30578e-05 0 
2752 1 27.5 44.1673 0 1.93474e-06 2.4017e-05 0 
2852 1 28.5 44.1673 0 7.73136e-07 2.47488e-05 0 
2952 1 29.5 44.1673 0 -7.2188e-08 2.48962e-05 0 
3052 1 30.5 44.1673 0 -2.06525e-07 2.48154e-05 0 
3152 1 31.5 44.1673 0 -9.55247e-08 2.47463e-05 0 
3252 1 32.5 44.1673 0 -1.43457e-08 2.47256e-05 0 
3352 1 33.5 44.1673 0 7.73288e-09 2.47266e-05 0 
3452 1 34.5 44.1673 0 6.22835e-09 2.47303e-05 0 
3552 1 35.5 44.1673 0 2.27465e-09 2.47322e-05 0 
3652 1 36.5 44.1673 0 4.07447e-10 2.47327e-05 0 
3752 1 37.5 44.1673 0 -6.15189e-11 2.47327e-05 0 
3852 1 38.5 44.1673 0 -5.09252e-11 2.47327e-05 0 
3952 1 39.5 44.1673 0 -2.70886e-11 2.47327e-05 0 
4052 1 40.5 44.1673 0 -3.25556e-11 2.47327e-05 0 
4152 1 41.5 44.1673 0 -2.16878e-22 2.47327e-05 0 
4252 1 42.5 44.1673 0 -2.16878e-22 2.47327e-05 0 
4352 1 43.5 44.1673 0 8.54227e-24 2.47327e-05 0 
4452 1 44.5 44.1673 0 8.54227e-24 2.47327e-05 0 
4552 1 45.5 44.1673 0 -2.16878e-22 2.47327e-05 0 
4652 1 46.5 44.1673 0 8.54227e-24 2.47327e-05 0 
4752 1 47.5 44.1673 0 -2.16878e-22 2.47327e-05 0 
4852 1 48.5 44.1673 0 -2.16878e-22 2.47327e-05 0 
4952 1 49.5 44.1673 0 -2.16878e-22 2.47327e-05 0 
5052 1 50.5 44.1673 0 8.54227e-24 2.47327e-05 0 
5152 1 51.5 44.1673 0 8.54227e-24 2.47327e-05 0 
5252 1 52.5 44.1673 0 -2.16878e-22 2.47327e-05 0 
5352 1 53.5 44.1673 0 8.54227e-24 2.47327e-05 0 
5452 1 54.5 44.1673 0 -2.16878e-22 2.47327e-05 0 
5552 1 55.5 44.1673 0 -2.16878e-22 2.47327e-05 0 
5652 1 56.5 44.1673 0 8.54227e-24 2.47327e-05 0 
5752 1 57.5 44.1673 0 8.54227e-24 2.47327e-05 0 
5852 1 58.5 44.1673 0 -2.16878e-22 2.47327e-05 0 
5952 1 59.5 44.1673 0 8.54227e-24 2.47327e-05 0 
6052 1 60.5 44.1673 0 8.54227e-24 2.47327e-05 0 
6152 1 61.5 44.1673 0 8.54227e-24 2.47327e-05 0 
6252 1 62.5 44.1673 0 8.54227e-24 2.47327e-05 0 
6352 1 63.5 44.1673 0 8.54227e-24 2.47327e-05 0 
6452 1 64.5 44.1673 0 -2.16878e-22 2.47327e-05 0 
6552 1 65.5 44.1673 0 8.54227e-24 2.47327e-05 0 
6652 1 66.5 44.1673 0 -2.16878e-22 2.47327e-05 0 
6752 1 67.5 44.1673 0 -2.16878e-22 2.47327e-05 0 
6852 1 68.5 44.1673 0 -2.16878e-22 2.47327e-05 0 
6952 1 69.5 44.1673 0 8.54227e-24 2.47327e-05 0 
7052 1 70.5 44.1673 0 -2.16878e-22 2.47327e-05 0 
7152 1 71.5 44.1673 0 -2.16878e-22 2.47327e-05 0 
7252 1 72.5 44.1673 0 8.54227e-24 2.47327e-05 0 
7352 1 73.5 44.1673 0 8.54227e-24 2.47327e-05 0 
7452 1 74.5 44.1673 0 -2.16878e-22 2.47327e-05 0 
7552 1 75.5 44.1673 0 8.54227e-24 2.47327e-05 0 
7652 1 76.5 44.1673 0 8.54227e-24 2.47327e-05 0 
7752 1 77.5 44.1673 0 -2.16878e-22 2.47327e-05 0 
7852 1 78.5 44.1673 0 -2.16878e-22 2.47327e-05 0 
7952 1 79.5 44.1673 0 -2.16878e-22 2.47327e-05 0 
8052 1 80.5 44.1673 0 -2.16878e-22 2.47327e-05 0 
8152 1 81.5 44.1673 0 8.54227e-24 2.47327e-05 0 
8252 1 82.5 44.1673 0 8.54227e-24 2.47327e-05 0 
8352 1 83.5 44.1673 0 -2.16878e-22 2.47327e-05 0 
8452 1 84.5 44.1673 0 -2.16878e-22 2.47327e-05 0 
8552 1 85.5 44.1673 0 8.54227e-24 2.47327e-05 0 
8652 1 86.5 44.1673 0 8.54227e-24 2.47327e-05 0 
8752 1 87.5 44.1673 0 -2.16878e-22 2.47327e-05 0 
8852 1 88.5 44.1673 0 8.54227e-24 2.47327e-05 0 
8952 1 89.5 44.1673 0 8.54227e-24 2.47327e-05 0 
9052 1 90.5 44.1673 0 -2.16878e-22 2.47327e-05 0 
9152 1 91.5 44.1673 0 -2.16878e-22 2.47327e-05 0 
9252 1 92.5 44.1673 0 -2.16878e-22 2.47327e-05 0 
9352 1 93.5 44.1673 0 8.54227e-24 2.47327e-05 0 
9452 1 94.5 44.1673 0 -2.16878e-22 2.47327e-05 0 
9552 1 95.5 44.1673 0 8.54227e-24 2.47327e-05 0 
9652 1 96.5 44.1673 0 -2.16878e-22 2.47327e-05 0 
9752 1 97.5 44.1673 0 8.54227e-24 2.47327e-05 0 
9852 1 98.5 44.1673 0 -2.16878e-22 2.47327e-05 0 
9952 1 99.5 44.1673 0 -2.16878e-22 2.47327e-05 0 
10052 1 100.5 44.1673 0 -2.16878e-22 2.47327e-05 0 
10152 1 101.5 44.1673 0 8.54227e-24 2.47327e-05 0 
10252 1 102.5 44.1673 0 8.54227e-24 2.47327e-05 0 
10352 1 103.5 44.1673 0 8.54227e-24 2.47327e-05 0 
10452 1 104.5 44.1673 0 8.54227e-24 2.47327e-05 0 
10552 1 105.5 44.1673 0 -2.16878e-22 2.47327e-05 0 
10652 1 106.5 44.1673 0 -2.16878e-22 2.47327e-05 0 
10752 1 107.5 44.1673 0 8.54227e-24 2.47327e-05 0 
10852 1 108.5 44.1673 0 -2.16878e-22 2.47327e-05 0 
10952 1 109.5 44.1673 0 -2.16878e-22 2.47327e-05 0 
11052 1 110.5 44.1673 0 -2.16878e-22 2.47327e-05 0 
11152 1 111.5 44.1673 0 -2.16878e-22 2.47327e-05 0 
11252 1 112.5 44.1673 0 -2.16878e-22 2.47327e-05 0 
11352 1 113.5 44.1673 0 -2.16878e-22 2.47327e-05 0 
11452 1 114.5 44.1673 0 -2.16878e-22 2.47327e-05 0 
11552 1 115.5 44.1673 0 8.54227e-24 2.47327e-05 0 
11652 1 116.5 44.1673 0 -2.16878e-22 2.47327e-05 0 
11752 1 117.5 44.1673 0 -2.16878e-22 2.47327e-05 0 
11852 1 118.5 44.1673 0 -2.16878e-22 2.47327e-05 0 
11952 1 119.5 44.1673 0 -2.16878e-22 2.47327e-05 0 
12052 1 120.5 44.1673 0 -2.16878e-22 2.47327e-05 0 
12152 1 121.5 44.1673 0 -2.16878e-22 2.47327e-05 0 
12252 1 122.5 44.1673 0 8.54227e-24 2.47327e-05 0 
12352 1 123.5 44.1673 0 8.54227e-24 2.47327e-05 0 
12452 1 124.5 44.1673 0 -2.16878e-22 2.47327e-05 0 
12552 1 125.5 44.1673 0 8.54227e-24 2.47327e-05 0 
12652 1 126.5 44.1673 0 -2.16878e-22 2.47327e-05 0 
12752 1 127.5 44.1673 0 -2.16878e-22 2.47327e-05 0 
12852 1 128.5 44.1673 0 -2.16878e-22 2.47327e-05 0 
12952 1 129.5 44.1673 0 -2.16878e-22 2.47327e-05 0 
13052 1 130.5 44.1673 0 -2.16878e-22 2.47327e-05 0 
13152 1 131.5 44.1673 0 8.54227e-24 2.47327e-05 0 
13252 1 132.5 44.1673 0 8.54227e-24 2.47327e-05 0 
13352 1 133.5 44.1673 0 8.54227e-24 2.47327e-05 0 
13452 1 134.5 44.1673 0 8.54227e-24 2.47327e-05 0 
13552 1 135.5 44.1673 0 -2.16878e-22 2.47327e-05 0 
13652 1 136.5 44.1673 0 -2.16878e-22 2.47327e-05 0 
13752 1 137.5 44.1673 0 8.54227e-24 2.47327e-05 0 
13852 1 138.5 44.1673 0 8.54227e-24 2.47327e-05 0 
13952 1 139.5 44.1673 0 -2.16878e-22 2.47327e-05 0 
14052 1 140.5 44.1673 0 8.54227e-24 2.47327e-05 0 
14152 1 141.5 44.1673 0 8.54227e-24 2.47327e-05 0 
14252 1 142.5 44.1673 0 8.54227e-24 2.47327e-05 0 
14352 1 143.5 44.1673 0 -2.16878e-22 2.47327e-05 0 
14452 1 144.5 44.1673 0 -2.16878e-22 2.47327e-05 0 
14552 1 145.5 44.1673 0 8.54227e-24 2.47327e-05 0 
14652 1 146.5 44.1673 0 -2.16878e-22 2.47327e-05 0 
14752 1 147.5 44.1673 0 8.54227e-24 2.47327e-05 0 
14852 1 148.5 44.1673 0 8.54227e-24 2.47327e-05 0 
14952 1 149.5 44.1673 0 8.54227e-24 2.47327e-05 0 
15052 1 150.5 44.1673 0 8.54227e-24 2.47327e-05 0 
15152 1 151.5 44.1673 0 8.54227e-24 2.47327e-05 0 
15252 1 152.5 44.1673 0 -2.16878e-22 2.47327e-05 0 
15352 1 153.5 44.1673 0 8.54227e-24 2.47327e-05 0 
15452 1 154.5 44.1673 0 2.32443e-10 2.47327e-05 0 
15552 1 155.5 44.1673 0 1.42183e-09 2.47326e-05 0 
15652 1 156.5 44.1673 0 9.57273e-09 2.47326e-05 0 
15752 1 157.5 44.1673 0 6.16073e-08 2.47327e-05 0 
15852 1 158.5 44.1673 0 3.69852e-07 2.47327e-05 0 
15952 1 159.5 44.1673 0 2.06492e-06 2.47327e-05 0 
16052 1 160.5 44.1673 0 1.0687e-05 2.47326e-05 0 
16152 1 161.5 44.1673 0 5.10347e-05 2.47327e-05 0 
16252 1 162.5 44.1673 0 0.000223691 2.47327e-05 0 
16352 1 163.5 44.1673 0 0.000894306 2.47329e-05 0 
16452 1 164.5 44.1673 0 0.0032365 2.47335e-05 0 
16552 1 165.5 44.1673 0 0.0105024 2.47358e-05 0 
16652 1 166.5 44.1673 0 0.0301835 2.4744e-05 0 
16752 1 167.5 44.1673 0 0.0755436 2.47689e-05 0 
16852 1 168.501 44.1673 0 0.160613 2.48371e-05 0 
16952 1 169.502 44.1673 0 0.278406 2.49999e-05 0 
17052 1 170.504 44.1673 0 0.362282 2.5334e-05 0 
17152 1 171.507 44.1673 0 0.275154 2.59088e-05 0 
17252 1 172.511 44.1673 0 -0.0787621 2.67094e-05 0 
17352 1 173.516 44.1673 0 -0.517567 2.75707e-05 0 
17452 1 174.518 44.1673 0 -0.546466 2.82531e-05 0 
17552 1 175.519 44.1673 0 0.0616917 2.87129e-05 0 
17652 1 176.521 44.1673 0 0.584265 2.92713e-05 0 
17752 1 177.524 44.1673 0 0.106325 3.02628e-05 0 
17852 1 178.528 44.1673 0 -0.624546 3.14895e-05 0 
17952 1 179.531 44.1673 0 -0.0880959 3.25522e-05 0 
18052 1 180.533 44.1673 0 0.643351 3.37318e-05 0 
18152 1 181.538 44.1673 0 -0.20774 3.55168e-05 0 
18252 1 182.543 44.1673 0 -0.557313 3.75321e-05 0 
18352 1 183.546 44.1673 0 0.527784 3.94296e-05 0 
18452 1 184.551 44.1673 0 0.0298506 4.1366e-05 0 
18552 1 185.555 44.1673 0 -0.410329 4.33738e-05 0 
18652 1 186.558 44.1673 0 0.256328 4.519e-05 0 
18752 1 187.563 44.1673 0 -1.18635 4.42985e-05 0 
18852 1 188.567 44.1673 0 -0.331731 4.68028e-05 0 
18952 1 189.568 44.1673 0 1.75936 4.91793e-05 0 
19052 1 190.574 44.1673 0 0.489415 4.79768e-05 0 
19152 1 191.58 44.1673 0 -0.0448842 5.18415e-05 0 
19252 1 192.584 44.1673 0 -0.279549 4.8982e-05 0 
19352 1 193.59 44.1673 0 0.720675 5.36198e-05 0 
19452 1 194.599 44.1673 0 -2.14326 5.90827e-05 0 
19552 1 195.604 44.1673 0 0.633826 4.07252e-05 0 
19652 1 196.615 44.1673 0 -0.764159 5.61855e-05 0 
19752 1 197.627 44.1673 0 -1.18308 8.25401e-05 0 
19852 1 198.643 44.1673 0 0.276094 9.33558e-05 0 
19952 1 199.671 44.1673 0 -0.866151 8.33473e-05 0 
20052 3 200.725 44.1673 0 -0.313302 1.09594e-05 0 
20152 1 201.671 44.1673 0 -1.33705 -4.04541e-05 0 
20252 1 202.643 44.1673 0 0.218057 -3.37342e-05 0 
20352 1 203.626 44.1673 0 -1.46445 -2.48313e-05 0 
20452 1 204.614 44.1673 0 -0.29286 4.45313e-06 0 
20552 1 205.604 44.1673 0 0.229527 1.23159e-05 0 
20652 1 206.597 44.1673 0 -1.16664 -1.0252e-05 0 
20752 1 207.589 44.1673 0 1.00001 -2.08865e-06 0 
20852 1 208.583 44.1673 0 0.280838 8.63816e-07 0 
20952 1 209.578 44.1673 0 0.561064 -2.11789e-06 0 
21052 1 210.573 44.1673 0 0.940054 1.79809e-06 0 
21152 1 211.568 44.1673 0 1.1797 2.39239e-07 0 
21252 1 212.568 44.1673 0 -1.24255 3.19025e-06 0 
21352 1 213.563 44.1673 0 -1.29482 4.91553e-06 0 
21452 1 214.557 44.1673 0 0.515312 4.3742e-06 0 
21552 1 215.555 44.1673 0 -0.0749623 6.40035e-06 0 
21652 1 216.55 44.1673 0 -0.0180634 8.19081e-06 0 
21752 1 217.545 44.1673 0 0.349607 1.01876e-05 0 
21852 1 218.542 44.1673 0 -0.413799 1.21568e-05 0 
21952 1 219.537 44.1673 0 -0.167353 1.4083e-05 0 
22052 1 220.533 44.1673 0 0.445297 1.57927e-05 0 
22152 1 221.53 44.1673 0 -0.0891994 1.70303e-05 0 
22252 1 222.528 44.1673 0 -0.440845 1.8138e-05 0 
22352 1 223.524 44.1673 0 0.131309 1.93088e-05 0 
22452 1 224.521 44.1673 0 0.440725 2.02429e-05 0 
22552 1 225.519 44.1673 0 -0.0253018 2.08247e-05 0 
22652 1 226.518 44.1673 0 -0.496744 2.13461e-05 0 
22752 1 227.515 44.1673 0 -0.41918 2.20571e-05 0 
22852 1 228.51 44.1673 0 -0.0237774 2.28958e-05 0 
22952 1 229.506 44.1673 0 0.273907 2.36494e-05 0 
23052 1 230.503 44.1673 0 0.336667 2.4181e-05 0 
23152 1 231.501 44.1673 0 0.254549 2.44878e-05 0 
23252 1 232.501 44.1673 0 0.14633 2.46368e-05 0 
23352 1 233.5 44.1673 0 0.0689006 2.46993e-05 0 
23452 1 234.5 44.1673 0 0.0276111 2.47223e-05 0 
23552 1 235.5 44.1673 0 0.00964319 2.47297e-05 0 
23652 1 236.5 44.1673 0 0.00298361 2.47319e-05 0 
23752 1 237.5 44.1673 0 0.000827761 2.47325e-05 0 
23852 1 238.5 44.1673 0 0.000207867 2.47326e-05 0 
23952 1 239.5 44.1673 0 4.7606e-05 2.47327e-05 0 
24052 1 240.5 44.1673 0 1.00056e-05 2.47327e-05 0 
24152 1 241.5 44.1673 0 1.94006e-06 2.47327e-05 0 
24252 1 242.5 44.1673 0 3.48593e-07 2.47327e-05 0 
24352 1 243.5 44.1673 0 5.82779e-08 2.47327e-05 0 
24452 1 244.5 44.1673 0 9.08446e-09 2.47327e-05 0 
24552 1 245.5 44.1673 0 1.32757e-09 2.47327e-05 0 
24652 1 246.5 44.1673 0 2.17389e-10 2.47327e-05 0 
24752 1 247.5 44.1673 0 8.54227e-24 2.47327e-05 0 
24852 1 248.5 44.1673 0 8.54227e-24 2.47327e-05 0 
24952 1 249.5 44.1673 0 -2.16878e-22 2.47327e-05 0 
25052 1 250.5 44.1673 0 8.54227e-24 2.47327e-05 0 
25152 1 251.5 44.1673 0 8.54227e-24 2.47327e-05 0 
25252 1 252.5 44.1673 0 -2.16878e-22 2.47327e-05 0 
25352 1 253.5 44.1673 0 8.54227e-24 2.47327e-05 0 
25452 1 254.5 44.1673 0 -2.16878e-22 2.47327e-05 0 
25552 1 255.5 44.1673 0 -2.16878e-22 2.47327e-05 0 
25652 1 256.5 44.1673 0 8.54227e-24 2.47327e-05 0 
25752 1 257.5 44.1673 0 8.54227e-24 2.47327e-05 0 
25852 1 258.5 44.1673 0 -2.16878e-22 2.47327e-05 0 
25952 1 259.5 44.1673 0 8.54227e-24 2.47327e-05 0 
26052 1 260.5 44.1673 0 8.54227e-24 2.47327e-05 0 
26152 1 261.5 44.1673 0 8.54227e-24 2.47327e-05 0 
26252 1 262.5 44.1673 0 8.54227e-24 2.47327e-05 0 
26352 1 263.5 44.1673 0 -2.16878e-22 2.47327e-05 0 
26452 1 264.5 44.1673 0 -2.16878e-22 2.47327e-05 0 
26552 1 265.5 44.1673 0 -2.16878e-22 2.47327e-05 0 
26652 1 266.5 44.1673 0 -2.16878e-22 2.47327e-05 0 
26752 1 267.5 44.1673 0 -2.16878e-22 2.47327e-05 0 
26852 1 268.5 44.1673 0 8.54227e-24 2.47327e-05 0 
26952 1 269.5 44.1673 0 8.54227e-24 2.47327e-05 0 
27052 1 270.5 44.1673 0 8.54227e-24 2.47327e-05 0 
27152 1 271.5 44.1673 0 8.54227e-24 2.47327e-05 0 
27252 1 272.5 44.1673 0 -2.16878e-22 2.47327e-05 0 
27352 1 273.5 44.1673 0 -2.16878e-22 2.47327e-05 0 
27452 1 274.5 44.1673 0 8.54227e-24 2.47327e-05 0 
27552 1 275.5 44.1673 0 -2.16878e-22 2.47327e-05 0 
27652 1 276.5 44.1673 0 -2.16878e-22 2.47327e-05 0 
27752 1 277.5 44.1673 0 -2.16878e-22 2.47327e-05 0 
27852 1 278.5 44.1673 0 -2.16878e-22 2.47327e-05 0 
27952 1 279.5 44.1673 0 -2.16878e-22 2.47327e-05 0 
28052 1 280.5 44.1673 0 -2.16878e-22 2.47327e-05 0 
28152 1 281.5 44.1673 0 -2.16878e-22 2.47327e-05 0 
28252 1 282.5 44.1673 0 8.54227e-24 2.47327e-05 0 
28352 1 283.5 44.1673 0 8.54227e-24 2.47327e-05 0 
28452 1 284.5 44.1673 0 -2.16878e-22 2.47327e-05 0 
28552 1 285.5 44.1673 0 -2.16878e-22 2.47327e-05 0 
28652 1 286.5 44.1673 0 8.54227e-24 2.47327e-05 0 
28752 1 287.5 44.1673 0 -2.16878e-22 2.47327e-05 0 
28852 1 288.5 44.1673 0 8.54227e-24 2.47327e-05 0 
28952 1 289.5 44.1673 0 8.54227e-24 2.47327e-05 0 
29052 1 290.5 44.1673 0 8.54227e-24 2.47327e-05 0 
29152 1 291.5 44.1673 0 -2.16878e-22 2.47327e-05 0 
29252 1 292.5 44.1673 0 8.54227e-24 2.47327e-05 0 
29352 1 293.5 44.1673 0 -2.16878e-22 2.47327e-05 0 
29452 1 294.5 44.1673 0 8.54227e-24 2.47327e-05 0 
29552 1 295.5 44.1673 0 8.54227e-24 2.47327e-05 0 
29652 1 296.5 44.1673 0 -2.16878e-22 2.47327e-05 0 
29752 1 297.5 44.1673 0 -2.16878e-22 2.47327e-05 0 
29852 1 298.5 44.1673 0 -2.16878e-22 2.47327e-05 0 
29952 1 299.5 44.1673 0 -2.16878e-22 2.47327e-05 0 
30052 1 300.5 44.1673 0 -2.16878e-22 2.47327e-05 0 
30152 1 301.5 44.1673 0 8.54227e-24 2.47327e-05 0 
30252 1 302.5 44.1673 0 -2.16878e-22 2.47327e-05 0 
30352 1 303.5 44.1673 0 -2.16878e-22 2.47327e-05 0 
30452 1 304.5 44.1673 0 -2.16878e-22 2.47327e-05 0 
30552 1 305.5 44.1673 0 -2.16878e-22 2.47327e-05 0 
30652 1 306.5 44.1673 0 8.54227e-24 2.47327e-05 0 
30752 1 307.5 44.1673 0 8.54227e-24 2.47327e-05 0 
30852 1 308.5 44.1673 0 -2.16878e-22 2.47327e-05 0 
30952 1 309.5 44.1673 0 -2.16878e-22 2.47327e-05 0 
31052 1 310.5 44.1673 0 -2.16878e-22 2.47327e-05 0 
31152 1 311.5 44.1673 0 8.54227e-24 2.47327e-05 0 
31252 1 312.5 44.1673 0 8.54227e-24 2.47327e-05 0 
31352 1 313.5 44.1673 0 -2.16878e-22 2.47327e-05 0 
31452 1 314.5 44.1673 0 -2.16878e-22 2.47327e-05 0 
31552 1 315.5 44.1673 0 8.54227e-24 2.47327e-05 0 
31652 1 316.5 44.1673 0 -2.16878e-22 2.47327e-05 0 
31752 1 317.5 44.1673 0 8.54227e-24 2.47327e-05 0 
31852 1 318.5 44.1673 0 8.54227e-24 2.47327e-05 0 
31952 1 319.5 44.1673 0 8.54227e-24 2.47327e-05 0 
32052 1 320.5 44.1673 0 -2.16878e-22 2.47327e-05 0 
32152 1 321.5 44.1673 0 -2.16878e-22 2.47327e-05 0 
32252 1 322.5 44.1673 0 8.54227e-24 2.47327e-05 0 
32352 1 323.5 44.1673 0 -2.16878e-22 2.47327e-05 0 
32452 1 324.5 44.1673 0 8.54227e-24 2.47327e-05 0 
32552 1 325.5 44.1673 0 8.54227e-24 2.47327e-05 0 
32652 1 326.5 44.1673 0 8.54227e-24 2.47327e-05 0 
32752 1 327.5 44.1673 0 8.54227e-24 2.47327e-05 0 
32852 1 328.5 44.1673 0 -2.16878e-22 2.47327e-05 0 
32952 1 329.5 44.1673 0 8.54227e-24 2.47327e-05 0 
33052 1 330.5 44.1673 0 -2.16878e-22 2.47327e-05 0 
33152 1 331.5 44.1673 0 -2.16878e-22 2.47327e-05 0 
33252 1 332.5 44.1673 0 8.54227e-24 2.47327e-05 0 
33352 1 333.5 44.1673 0 8.54227e-24 2.47327e-05 0 
33452 1 334.5 44.1673 0 8.54227e-24 2.47327e-05 0 
33552 1 335.5 44.1673 0 -2.16878e-22 2.47327e-05 0 
33652 1 336.5 44.1673 0 -2.16878e-22 2.47327e-05 0 
33752 1 337.5 44.1673 0 8.54227e-24 2.47327e-05 0 
33852 1 338.5 44.1673 0 8.54227e-24 2.47327e-05 0 
33952 1 339.5 44.1673 0 -2.16878e-22 2.47327e-05 0 
34052 1 340.5 44.1673 0 8.54227e-24 2.47327e-05 0 
34152 1 341.5 44.1673 0 8.54227e-24 2.47327e-05 0 
34252 1 342.5 44.1673 0 8.54227e-24 2.47327e-05 0 
34352 1 343.5 44.1673 0 -2.16878e-22 2.47327e-05 0 
34452 1 344.5 44.1673 0 8.54227e-24 2.47327e-05 0 
34552 1 345.5 44.1673 0 -2.16878e-22 2.47327e-05 0 
34652 1 346.5 44.1673 0 8.54227e-24 2.47327e-05 0 
34752 1 347.5 44.1673 0 -2.16878e-22 2.47327e-05 0 
34852 1 348.5 44.1673 0 -2.16878e-22 2.47327e-05 0 
34952 1 349.5 44.1673 0 8.54227e-24 2.47327e-05 0 
35052 1 350.5 44.1673 0 -2.16878e-22 2.47327e-05 0 
35152 1 351.5 44.1673 0 8.54227e-24 2.47327e-05 0 
35252 1 352.5 44.1673 0 8.54227e-24 2.47327e-05 0 
35352 1 353.5 44.1673 0 8.54227e-24 2.47327e-05 0 
35452 1 354.5 44.1673 0 8.54227e-24 2.47327e-05 0 
35552 1 355.5 44.1673 0 -2.16878e-22 2.47327e-05 0 
35652 1 356.5 44.1673 0 -2.16878e-22 2.47327e-05 0 
35752 1 357.5 44.1673 0 8.54227e-24 2.47327e-05 0 
35852 1 358.5 44.1673 0 8.54227e-24 2.47327e-05 0 
35952 1 359.5 44.1673 0 8.54227e-24 2.47327e-05 0 
36052 1 360.5 44.1673 0 1.27928e-10 2.47327e-05 0 
36152 1 361.5 44.1673 0 -5.14033e-12 2.47327e-05 0 
36252 1 362.5 44.1673 0 -3.84547e-11 2.47327e-05 0 
36352 1 363.5 44.1673 0 -4.53701e-10 2.47325e-05 0 
36452 1 364.5 44.1673 0 -2.14665e-09 2.47321e-05 0 
36552 1 365.5 44.1673 0 -6.25056e-09 2.47304e-05 0 
36652 1 366.5 44.1673 0 -7.77184e-09 2.47266e-05 0 
36752 1 367.5 44.1673 0 1.43587e-08 2.47256e-05 0 
36852 1 368.5 44.1673 0 9.54465e-08 2.47463e-05 0 
36952 1 369.5 44.1673 0 2.06669e-07 2.48154e-05 0 
37052 1 370.5 44.1673 0 7.20448e-08 2.48963e-05 0 
37152 1 371.5 44.1673 0 -7.72856e-07 2.47488e-05 0 
37252 1 372.5 44.1673 0 -1.93492e-06 2.40171e-05 0 
37352 1 373.5 44.1673 0 -6.99844e-07 2.30578e-05 0 
37452 1 374.5 44.1673 0 5.3576e-06 2.38666e-05 0 
37552 1 375.5 44.1673 0 9.56073e-06 2.79978e-05 0 
37652 1 376.5 44.1673 0 -2.29534e-06 3.10342e-05 0 
37752 1 377.5 44.1673 0 -2.17872e-05 2.48004e-05 0 
37852 1 378.5 44.1673 0 -9.61407e-06 1.45779e-05 0 
37952 1 379.5 44.1673 0 2.48348e-05 1.8965e-05 0 
38052 1 380.5 44.1673 0 5.1486e-06 3.02625e-05 0 
38152 1 381.5 44.1673 0 -3.08193e-05 2.2119e-05 0 
38252 1 382.5 44.1673 0 2.40901e-05 2.22363e-05 0 
38352 1 383.5 44.1673 0 2.6294e-05 4.3012e-05 0 
38452 1 384.5 44.1673 0 -7.12858e-05 1.57491e-05 0 
38552 1 385.5 44.1673 0 1.93019e-05 6.78301e-06 0 
38652 1 386.5 44.1673 0 6.20017e-05 1.72416e-05 0 
38752 1 387.5 44.1673 0 -7.8853e-05 3.87695e-05 0 
38852 1 388.5 44.1673 0 9.74455e-05 4.26761e-05 0 
38952 1 389.5 44.1673 0 -1.90827e-05 8.82405e-05 0 
39052 1 390.5 44.1673 0 -5.96475e-05 -1.76963e-05 0 
39152 1 391.5 44.1673 0 8.48032e-05 -6.06201e-07 0 
39252 1 392.5 44.1673 0 -6.51559e-05 2.66894e-05 0 
39352 1 393.5 44.1673 0 4.49965e-05 8.15902e-06 0 
39452 1 394.5 44.1673 0 -5.03828e-05 6.22801e-05 0 
39552 1 395.5 44.1673 0 -3.26632e-05 0.000206649 0 
39652 1 396.5 44.1673 0 -3.18676e-05 0.00017053 0 
39752 1 397.5 44.1673 0 4.58491e-05 9.71653e-05 0 
39852 2 398.5 44.1673 0 1.00939e-05 -0.000397333 0 
39952 2 399.5 44.1673 0 -2.20719e-05 -0.000198667 0 
