ITEM: TIMESTEP
1640
ITEM: NUMBER OF ATOMS
400
ITEM: BOX BOUNDS ff pp pp
0.0000000000000000e+00 4.0000000000000000e+02
0.0000000000000000e+00 8.6602540000000005e+01
0.0000000000000000e+00 1.0000000000000000e+00
ITEM: ATOMS id type x y z fx fy fz 
52 2 0.5 44.1673 0 0 -0.000397333 0 
152 2 1.5 44.1673 0 0.00154357 -0.000397321 0 
252 1 2.50001 44.1673 0 0.000172358 0.000219324 0 
352 1 3.50001 44.1673 0 0.000432182 0.000748173 0 
452 1 4.50001 44.1673 0 0.000598019 0.00130513 0 
552 1 5.50001 44.1673 0 0.00063402 0.00158735 0 
652 1 6.50001 44.1673 0 0.000765136 0.00190974 0 
752 1 7.50001 44.1673 0 0.00064633 0.00184045 0 
852 1 8.50001 44.1673 0 0.0006957 0.00201345 0 
952 1 9.50001 44.1674 0 0.000617717 0.00215727 0 
1052 1 10.5 44.1674 0 0.000573326 0.00222403 0 
1152 1 11.5 44.1674 0 0.000507841 0.00242304 0 
1252 1 12.5 44.1674 0 0.000449438 0.00258004 0 
1352 1 13.5 44.1674 0 0.000469827 0.0027627 0 
1452 1 14.5 44.1674 0 0.000277472 0.0029561 0 
1552 1 15.5 44.1674 0 0.000389862 0.00305617 0 
1652 1 16.5 44.1674 0 0.000254589 0.00327737 0 
1752 1 17.5 44.1674 0 0.000155774 0.00330277 0 
1852 1 18.5 44.1674 0 0.000243181 0.00348472 0 
1952 1 19.5 44.1674 0 8.15208e-05 0.00355542 0 
2052 1 20.5 44.1674 0 5.61459e-05 0.00356752 0 
2152 1 21.5 44.1674 0 0.000125819 0.0036494 0 
2252 1 22.5 44.1674 0 1.62375e-05 0.00369938 0 
2352 1 23.5 44.1674 0 1.8325e-05 0.00371455 0 
2452 1 24.5 44.1674 0 6.03505e-05 0.00375048 0 
2552 1 25.5 44.1674 0 -9.69382e-06 0.00376235 0 
2652 1 26.5 44.1674 0 -2.1271e-05 0.00374466 0 
2752 1 27.5 44.1674 0 2.74251e-05 0.00375226 0 
2852 1 28.5 44.1674 0 1.24135e-05 0.00377296 0 
2952 1 29.5 44.1674 0 -1.8169e-05 0.00377185 0 
3052 1 30.5 44.1674 0 1.40955e-07 0.00376346 0 
3152 1 31.5 44.1674 0 2.0757e-05 0.00376755 0 
3252 1 32.5 44.1674 0 7.63216e-06 0.00377501 0 
3352 1 33.5 44.1674 0 -1.1359e-05 0.00377462 0 
3452 1 34.5 44.1674 0 -1.16253e-05 0.00377007 0 
3552 1 35.5 44.1674 0 -1.68802e-06 0.0037681 0 
3652 1 36.5 44.1674 0 4.0367e-06 0.00376911 0 
3752 1 37.5 44.1674 0 3.50138e-06 0.0037704 0 
3852 1 38.5 44.1674 0 1.21811e-06 0.00377071 0 
3952 1 39.5 44.1674 0 -3.98917e-08 0.00377044 0 
4052 1 40.5 44.1674 0 -2.60259e-07 0.00377018 0 
4152 1 41.5 44.1674 0 -1.5227e-07 0.00377011 0 
4252 1 42.5 44.1674 0 -6.666e-08 0.00377015 0 
4352 1 43.5 44.1674 0 -3.70284e-08 0.00377021 0 
4452 1 44.5 44.1674 0 -2.56634e-08 0.00377024 0 
4552 1 45.5 44.1674 0 -1.60496e-08 0.00377025 0 
4652 1 46.5 44.1674 0 -8.09056e-09 0.00377026 0 
4752 1 47.5 44.1674 0 -3.21491e-09 0.00377026 0 
4852 1 48.5 44.1674 0 -9.88701e-10 0.00377026 0 
4952 1 49.5 44.1674 0 -2.36943e-10 0.00377026 0 
5052 1 50.5 44.1674 0 -3.75991e-11 0.00377026 0 
5152 1 51.5 44.1674 0 -4.46395e-12 0.00377026 0 
5252 1 52.5 44.1674 0 4.33571e-19 0.00377026 0 
5352 1 53.5 44.1674 0 8.67486e-19 0.00377026 0 
5452 1 54.5 44.1674 0 4.33571e-19 0.00377026 0 
5552 1 55.5 44.1674 0 4.33571e-19 0.00377026 0 
5652 1 56.5 44.1674 0 8.67486e-19 0.00377026 0 
5752 1 57.5 44.1674 0 8.67486e-19 0.00377026 0 
5852 1 58.5 44.1674 0 4.33571e-19 0.00377026 0 
5952 1 59.5 44.1674 0 8.67486e-19 0.00377026 0 
6052 1 60.5 44.1674 0 8.67486e-19 0.00377026 0 
6152 1 61.5 44.1674 0 8.67486e-19 0.00377026 0 
6252 1 62.5 44.1674 0 8.67486e-19 0.00377026 0 
6352 1 63.5 44.1674 0 8.67486e-19 0.00377026 0 
6452 1 64.5 44.1674 0 4.33571e-19 0.00377026 0 
6552 1 65.5 44.1674 0 8.67486e-19 0.00377026 0 
6652 1 66.5 44.1674 0 4.33571e-19 0.00377026 0 
6752 1 67.5 44.1674 0 4.33571e-19 0.00377026 0 
6852 1 68.5 44.1674 0 4.33571e-19 0.00377026 0 
6952 1 69.5 44.1674 0 8.67486e-19 0.00377026 0 
7052 1 70.5 44.1674 0 4.33571e-19 0.00377026 0 
7152 1 71.5 44.1674 0 4.33571e-19 0.00377026 0 
7252 1 72.5 44.1674 0 8.67486e-19 0.00377026 0 
7352 1 73.5 44.1674 0 8.67486e-19 0.00377026 0 
7452 1 74.5 44.1674 0 4.33571e-19 0.00377026 0 
7552 1 75.5 44.1674 0 8.67486e-19 0.00377026 0 
7652 1 76.5 44.1674 0 8.67486e-19 0.00377026 0 
7752 1 77.5 44.1674 0 4.33571e-19 0.00377026 0 
7852 1 78.5 44.1674 0 4.33571e-19 0.00377026 0 
7952 1 79.5 44.1674 0 4.33571e-19 0.00377026 0 
8052 1 80.5 44.1674 0 4.33571e-19 0.00377026 0 
8152 1 81.5 44.1674 0 8.67486e-19 0.00377026 0 
8252 1 82.5 44.1674 0 8.67486e-19 0.00377026 0 
8352 1 83.5 44.1674 0 4.33571e-19 0.00377026 0 
8452 1 84.5 44.1674 0 4.33571e-19 0.00377026 0 
8552 1 85.5 44.1674 0 8.67486e-19 0.00377026 0 
8652 1 86.5 44.1674 0 8.67486e-19 0.00377026 0 
8752 1 87.5 44.1674 0 4.33571e-19 0.00377026 0 
8852 1 88.5 44.1674 0 8.67486e-19 0.00377026 0 
8952 1 89.5 44.1674 0 8.67486e-19 0.00377026 0 
9052 1 90.5 44.1674 0 4.33571e-19 0.00377026 0 
9152 1 91.5 44.1674 0 4.33571e-19 0.00377026 0 
9252 1 92.5 44.1674 0 4.33571e-19 0.00377026 0 
9352 1 93.5 44.1674 0 8.67486e-19 0.00377026 0 
9452 1 94.5 44.1674 0 4.33571e-19 0.00377026 0 
9552 1 95.5 44.1674 0 8.67486e-19 0.00377026 0 
9652 1 96.5 44.1674 0 4.33571e-19 0.00377026 0 
9752 1 97.5 44.1674 0 8.67486e-19 0.00377026 0 
9852 1 98.5 44.1674 0 4.33571e-19 0.00377026 0 
9952 1 99.5 44.1674 0 4.33571e-19 0.00377026 0 
10052 1 100.5 44.1674 0 4.33571e-19 0.00377026 0 
10152 1 101.5 44.1674 0 8.67486e-19 0.00377026 0 
10252 1 102.5 44.1674 0 8.67486e-19 0.00377026 0 
10352 1 103.5 44.1674 0 8.67486e-19 0.00377026 0 
10452 1 104.5 44.1674 0 8.67486e-19 0.00377026 0 
10552 1 105.5 44.1674 0 4.33571e-19 0.00377026 0 
10652 1 106.5 44.1674 0 4.33571e-19 0.00377026 0 
10752 1 107.5 44.1674 0 8.67486e-19 0.00377026 0 
10852 1 108.5 44.1674 0 4.33571e-19 0.00377026 0 
10952 1 109.5 44.1674 0 4.33571e-19 0.00377026 0 
11052 1 110.5 44.1674 0 4.33571e-19 0.00377026 0 
11152 1 111.5 44.1674 0 4.33571e-19 0.00377026 0 
11252 1 112.5 44.1674 0 4.33571e-19 0.00377026 0 
11352 1 113.5 44.1674 0 4.33571e-19 0.00377026 0 
11452 1 114.5 44.1674 0 4.33571e-19 0.00377026 0 
11552 1 115.5 44.1674 0 8.67486e-19 0.00377026 0 
11652 1 116.5 44.1674 0 4.33571e-19 0.00377026 0 
11752 1 117.5 44.1674 0 4.33571e-19 0.00377026 0 
11852 1 118.5 44.1674 0 4.33571e-19 0.00377026 0 
11952 1 119.5 44.1674 0 4.33571e-19 0.00377026 0 
12052 1 120.5 44.1674 0 4.33571e-19 0.00377026 0 
12152 1 121.5 44.1674 0 4.33571e-19 0.00377026 0 
12252 1 122.5 44.1674 0 8.67486e-19 0.00377026 0 
12352 1 123.5 44.1674 0 8.67486e-19 0.00377026 0 
12452 1 124.5 44.1674 0 4.33571e-19 0.00377026 0 
12552 1 125.5 44.1674 0 8.67486e-19 0.00377026 0 
12652 1 126.5 44.1674 0 4.33571e-19 0.00377026 0 
12752 1 127.5 44.1674 0 4.33571e-19 0.00377026 0 
12852 1 128.5 44.1674 0 4.33571e-19 0.00377026 0 
12952 1 129.5 44.1674 0 4.33571e-19 0.00377026 0 
13052 1 130.5 44.1674 0 4.33571e-19 0.00377026 0 
13152 1 131.5 44.1674 0 8.67486e-19 0.00377026 0 
13252 1 132.5 44.1674 0 8.67486e-19 0.00377026 0 
13352 1 133.5 44.1674 0 8.67486e-19 0.00377026 0 
13452 1 134.5 44.1674 0 8.67486e-19 0.00377026 0 
13552 1 135.5 44.1674 0 4.33571e-19 0.00377026 0 
13652 1 136.5 44.1674 0 4.33571e-19 0.00377026 0 
13752 1 137.5 44.1674 0 8.67486e-19 0.00377026 0 
13852 1 138.5 44.1674 0 2.25827e-11 0.00377026 0 
13952 1 139.5 44.1674 0 2.66235e-10 0.00377026 0 
14052 1 140.5 44.1674 0 1.41283e-09 0.00377026 0 
14152 1 141.5 44.1674 0 7.85354e-09 0.00377026 0 
14252 1 142.5 44.1674 0 4.13149e-08 0.00377026 0 
14352 1 143.5 44.1674 0 2.05827e-07 0.00377026 0 
14452 1 144.5 44.1674 0 9.68754e-07 0.00377026 0 
14552 1 145.5 44.1674 0 4.29521e-06 0.00377026 0 
14652 1 146.5 44.1674 0 1.78864e-05 0.00377026 0 
14752 1 147.5 44.1674 0 6.9718e-05 0.00377026 0 
14852 1 148.5 44.1674 0 0.00025337 0.00377026 0 
14952 1 149.5 44.1674 0 0.000854599 0.00377026 0 
15052 1 150.5 44.1674 0 0.00266066 0.00377025 0 
15152 1 151.5 44.1674 0 0.00759498 0.00377023 0 
15252 1 152.5 44.1674 0 0.019711 0.00377017 0 
15352 1 153.5 44.1674 0 0.0459963 0.00377002 0 
15452 1 154.5 44.1674 0 0.0950367 0.00376969 0 
15552 1 155.501 44.1674 0 0.169899 0.00376903 0 
15652 1 156.502 44.1674 0 0.252738 0.00376794 0 
15752 1 157.504 44.1674 0 0.28853 0.00376647 0 
15852 1 158.507 44.1674 0 0.194983 0.00376509 0 
15952 1 159.511 44.1674 0 -0.0674142 0.0037647 0 
16052 1 160.515 44.1674 0 -0.385574 0.00376605 0 
16152 1 161.518 44.1674 0 -0.482246 0.00376867 0 
16252 1 162.519 44.1674 0 -0.160064 0.00377043 0 
16352 1 163.519 44.1674 0 0.336988 0.00376912 0 
16452 1 164.521 44.1674 0 0.398929 0.0037656 0 
16552 1 165.524 44.1674 0 -0.147231 0.00376425 0 
16652 1 166.527 44.1674 0 -0.505748 0.00376717 0 
16752 1 167.528 44.1674 0 -0.00728226 0.0037695 0 
16852 1 168.53 44.1674 0 0.505992 0.00376638 0 
16952 1 169.533 44.1674 0 -0.0104741 0.00376289 0 
17052 1 170.536 44.1674 0 -0.523916 0.00376567 0 
17152 1 171.538 44.1674 0 0.141339 0.00376797 0 
17252 1 172.54 44.1674 0 0.450724 0.00376312 0 
17352 1 173.544 44.1674 0 -0.37841 0.00376105 0 
17452 1 174.547 44.1674 0 -0.20485 0.00376439 0 
17552 1 175.55 44.1674 0 0.468711 0.00376063 0 
17652 1 176.555 44.1674 0 -0.280318 0.00375756 0 
17752 1 177.558 44.1674 0 -0.253162 0.00376394 0 
17852 1 178.56 44.1674 0 0.322409 0.00376115 0 
17952 1 179.563 44.1674 0 -0.584244 0.00375276 0 
18052 1 180.566 44.1674 0 -0.051267 0.00375455 0 
18152 1 181.568 44.1674 0 0.845138 0.00375981 0 
18252 1 182.571 44.1674 0 0.339874 0.00375748 0 
18352 1 183.575 44.1674 0 -0.198846 0.00375242 0 
18452 1 184.58 44.1674 0 -1.53667 0.00374916 0 
18552 1 185.581 44.1674 0 -0.0715346 0.00375125 0 
18652 1 186.584 44.1674 0 0.375349 0.00375078 0 
18752 1 187.588 44.1674 0 -0.569519 0.00375614 0 
18852 1 188.589 44.1674 0 1.65465 0.00375076 0 
18952 1 189.595 44.1674 0 -0.53568 0.00375216 0 
19052 1 190.598 44.1674 0 0.763579 0.00375478 0 
19152 1 191.602 44.1674 0 0.973762 0.0037574 0 
19252 1 192.609 44.1674 0 -1.17943 0.00375656 0 
19352 1 193.613 44.1674 0 0.765524 0.00374272 0 
19452 1 194.621 44.1674 0 0.221098 0.00376423 0 
19552 1 195.629 44.1674 0 -1.5663 0.00376944 0 
19652 1 196.637 44.1674 0 1.31435 0.00380124 0 
19752 1 197.65 44.1674 0 -1.7108 0.00380504 0 
19852 1 198.666 44.1674 0 1.10792 0.00375684 0 
19952 1 199.695 44.1674 0 -1.76773 0.00367365 0 
20052 3 200.746 44.1674 0 1.28785 0.00377531 0 
20152 1 201.694 44.1674 0 -1.29259 0.00385134 0 
20252 1 202.665 44.1674 0 0.943585 0.00375379 0 
20352 1 203.649 44.1674 0 -1.22419 0.00371282 0 
20452 1 204.635 44.1674 0 1.66133 0.0037415 0 
20552 1 205.627 44.1674 0 -1.05152 0.00377405 0 
20652 1 206.619 44.1674 0 0.861627 0.00377968 0 
20752 1 207.612 44.1674 0 1.08592 0.00379548 0 
20852 1 208.608 44.1674 0 -0.72772 0.00377565 0 
20952 1 209.601 44.1674 0 1.73678 0.00378073 0 
21052 1 210.598 44.1674 0 0.346418 0.0037842 0 
21152 1 211.594 44.1674 0 -0.237732 0.00378659 0 
21252 1 212.589 44.1674 0 1.14544 0.00378807 0 
21352 1 213.588 44.1674 0 -1.1475 0.00378348 0 
21452 1 214.584 44.1674 0 -0.00168775 0.00378993 0 
21552 1 215.581 44.1674 0 -0.727214 0.00378866 0 
21652 1 216.579 44.1674 0 -1.37208 0.00378755 0 
21752 1 217.573 44.1674 0 0.644119 0.0037843 0 
21852 1 218.57 44.1674 0 0.925861 0.00377905 0 
21952 1 219.568 44.1674 0 0.49314 0.00378199 0 
22052 1 220.566 44.1674 0 -0.48545 0.0037872 0 
22152 1 221.563 44.1674 0 -0.561256 0.0037849 0 
22252 1 222.559 44.1674 0 0.374448 0.00377697 0 
22352 1 223.557 44.1674 0 -0.159691 0.0037761 0 
22452 1 224.554 44.1674 0 -0.261013 0.00378202 0 
22552 1 225.55 44.1674 0 0.358766 0.00377941 0 
22652 1 226.547 44.1674 0 -0.127038 0.00377596 0 
22752 1 227.544 44.1674 0 -0.298354 0.00377816 0 
22852 1 228.54 44.1674 0 0.301524 0.00377663 0 
22952 1 229.537 44.1674 0 0.0996317 0.00377316 0 
23052 1 230.535 44.1674 0 -0.357857 0.00377477 0 
23152 1 231.532 44.1674 0 0.0175866 0.00377642 0 
23252 1 232.529 44.1674 0 0.348651 0.00377368 0 
23352 1 233.528 44.1674 0 -0.060083 0.00377167 0 
23452 1 234.526 44.1674 0 -0.385138 0.00377371 0 
23552 1 235.523 44.1674 0 -0.0572854 0.00377566 0 
23652 1 236.521 44.1674 0 0.343957 0.00377414 0 
23752 1 237.519 44.1674 0 0.230868 0.00377129 0 
23852 1 238.518 44.1674 0 -0.198335 0.00377054 0 
23952 1 239.517 44.1674 0 -0.435915 0.00377233 0 
24052 1 240.514 44.1674 0 -0.312854 0.0037746 0 
24152 1 241.51 44.1674 0 -0.0224678 0.00377558 0 
24252 1 242.507 44.1674 0 0.20079 0.00377504 0 
24352 1 243.504 44.1674 0 0.27218 0.00377372 0 
24452 1 244.502 44.1674 0 0.232773 0.00377237 0 
24552 1 245.501 44.1674 0 0.155154 0.00377137 0 
24652 1 246.5 44.1674 0 0.0865732 0.00377078 0 
24752 1 247.5 44.1674 0 0.0419101 0.00377048 0 
24852 1 248.5 44.1674 0 0.0179879 0.00377034 0 
24952 1 249.5 44.1674 0 0.0069464 0.00377029 0 
25052 1 250.5 44.1674 0 0.00243966 0.00377027 0 
25152 1 251.5 44.1674 0 0.000785745 0.00377026 0 
25252 1 252.5 44.1674 0 0.000233605 0.00377026 0 
25352 1 253.5 44.1674 0 6.44591e-05 0.00377026 0 
25452 1 254.5 44.1674 0 1.65829e-05 0.00377026 0 
25552 1 255.5 44.1674 0 3.99298e-06 0.00377026 0 
25652 1 256.5 44.1674 0 9.0285e-07 0.00377026 0 
25752 1 257.5 44.1674 0 1.924e-07 0.00377026 0 
25852 1 258.5 44.1674 0 3.86915e-08 0.00377026 0 
25952 1 259.5 44.1674 0 7.28211e-09 0.00377026 0 
26052 1 260.5 44.1674 0 1.34825e-09 0.00377026 0 
26152 1 261.5 44.1674 0 2.85948e-10 0.00377026 0 
26252 1 262.5 44.1674 0 8.67486e-19 0.00377026 0 
26352 1 263.5 44.1674 0 4.33571e-19 0.00377026 0 
26452 1 264.5 44.1674 0 4.33571e-19 0.00377026 0 
26552 1 265.5 44.1674 0 4.33571e-19 0.00377026 0 
26652 1 266.5 44.1674 0 4.33571e-19 0.00377026 0 
26752 1 267.5 44.1674 0 4.33571e-19 0.00377026 0 
26852 1 268.5 44.1674 0 8.67486e-19 0.00377026 0 
26952 1 269.5 44.1674 0 8.67486e-19 0.00377026 0 
27052 1 270.5 44.1674 0 8.67486e-19 0.00377026 0 
27152 1 271.5 44.1674 0 8.67486e-19 0.00377026 0 
27252 1 272.5 44.1674 0 4.33571e-19 0.00377026 0 
27352 1 273.5 44.1674 0 4.33571e-19 0.00377026 0 
27452 1 274.5 44.1674 0 8.67486e-19 0.00377026 0 
27552 1 275.5 44.1674 0 4.33571e-19 0.00377026 0 
27652 1 276.5 44.1674 0 4.33571e-19 0.00377026 0 
27752 1 277.5 44.1674 0 4.33571e-19 0.00377026 0 
27852 1 278.5 44.1674 0 4.33571e-19 0.00377026 0 
27952 1 279.5 44.1674 0 4.33571e-19 0.00377026 0 
28052 1 280.5 44.1674 0 4.33571e-19 0.00377026 0 
28152 1 281.5 44.1674 0 4.33571e-19 0.00377026 0 
28252 1 282.5 44.1674 0 8.67486e-19 0.00377026 0 
28352 1 283.5 44.1674 0 8.67486e-19 0.00377026 0 
28452 1 284.5 44.1674 0 4.33571e-19 0.00377026 0 
28552 1 285.5 44.1674 0 4.33571e-19 0.00377026 0 
28652 1 286.5 44.1674 0 8.67486e-19 0.00377026 0 
28752 1 287.5 44.1674 0 4.33571e-19 0.00377026 0 
28852 1 288.5 44.1674 0 8.67486e-19 0.00377026 0 
28952 1 289.5 44.1674 0 8.67486e-19 0.00377026 0 
29052 1 290.5 44.1674 0 8.67486e-19 0.00377026 0 
29152 1 291.5 44.1674 0 4.33571e-19 0.00377026 0 
29252 1 292.5 44.1674 0 8.67486e-19 0.00377026 0 
29352 1 293.5 44.1674 0 4.33571e-19 0.00377026 0 
29452 1 294.5 44.1674 0 8.67486e-19 0.00377026 0 
29552 1 295.5 44.1674 0 8.67486e-19 0.00377026 0 
29652 1 296.5 44.1674 0 4.33571e-19 0.00377026 0 
29752 1 297.5 44.1674 0 4.33571e-19 0.00377026 0 
29852 1 298.5 44.1674 0 4.33571e-19 0.00377026 0 
29952 1 299.5 44.1674 0 4.33571e-19 0.00377026 0 
30052 1 300.5 44.1674 0 4.33571e-19 0.00377026 0 
30152 1 301.5 44.1674 0 8.67486e-19 0.00377026 0 
30252 1 302.5 44.1674 0 4.33571e-19 0.00377026 0 
30352 1 303.5 44.1674 0 4.33571e-19 0.00377026 0 
30452 1 304.5 44.1674 0 4.33571e-19 0.00377026 0 
30552 1 305.5 44.1674 0 4.33571e-19 0.00377026 0 
30652 1 306.5 44.1674 0 8.67486e-19 0.00377026 0 
30752 1 307.5 44.1674 0 8.67486e-19 0.00377026 0 
30852 1 308.5 44.1674 0 4.33571e-19 0.00377026 0 
30952 1 309.5 44.1674 0 4.33571e-19 0.00377026 0 
31052 1 310.5 44.1674 0 4.33571e-19 0.00377026 0 
31152 1 311.5 44.1674 0 8.67486e-19 0.00377026 0 
31252 1 312.5 44.1674 0 8.67486e-19 0.00377026 0 
31352 1 313.5 44.1674 0 4.33571e-19 0.00377026 0 
31452 1 314.5 44.1674 0 4.33571e-19 0.00377026 0 
31552 1 315.5 44.1674 0 8.67486e-19 0.00377026 0 
31652 1 316.5 44.1674 0 4.33571e-19 0.00377026 0 
31752 1 317.5 44.1674 0 8.67486e-19 0.00377026 0 
31852 1 318.5 44.1674 0 8.67486e-19 0.00377026 0 
31952 1 319.5 44.1674 0 8.67486e-19 0.00377026 0 
32052 1 320.5 44.1674 0 4.33571e-19 0.00377026 0 
32152 1 321.5 44.1674 0 4.33571e-19 0.00377026 0 
32252 1 322.5 44.1674 0 8.67486e-19 0.00377026 0 
32352 1 323.5 44.1674 0 4.33571e-19 0.00377026 0 
32452 1 324.5 44.1674 0 8.67486e-19 0.00377026 0 
32552 1 325.5 44.1674 0 8.67486e-19 0.00377026 0 
32652 1 326.5 44.1674 0 8.67486e-19 0.00377026 0 
32752 1 327.5 44.1674 0 8.67486e-19 0.00377026 0 
32852 1 328.5 44.1674 0 4.33571e-19 0.00377026 0 
32952 1 329.5 44.1674 0 8.67486e-19 0.00377026 0 
33052 1 330.5 44.1674 0 4.33571e-19 0.00377026 0 
33152 1 331.5 44.1674 0 4.33571e-19 0.00377026 0 
33252 1 332.5 44.1674 0 8.67486e-19 0.00377026 0 
33352 1 333.5 44.1674 0 8.67486e-19 0.00377026 0 
33452 1 334.5 44.1674 0 8.67486e-19 0.00377026 0 
33552 1 335.5 44.1674 0 4.33571e-19 0.00377026 0 
33652 1 336.5 44.1674 0 4.33571e-19 0.00377026 0 
33752 1 337.5 44.1674 0 8.67486e-19 0.00377026 0 
33852 1 338.5 44.1674 0 8.67486e-19 0.00377026 0 
33952 1 339.5 44.1674 0 4.33571e-19 0.00377026 0 
34052 1 340.5 44.1674 0 8.67486e-19 0.00377026 0 
34152 1 341.5 44.1674 0 8.67486e-19 0.00377026 0 
34252 1 342.5 44.1674 0 8.67486e-19 0.00377026 0 
34352 1 343.5 44.1674 0 4.33571e-19 0.00377026 0 
34452 1 344.5 44.1674 0 8.67486e-19 0.00377026 0 
34552 1 345.5 44.1674 0 4.33571e-19 0.00377026 0 
34652 1 346.5 44.1674 0 8.67486e-19 0.00377026 0 
34752 1 347.5 44.1674 0 4.33571e-19 0.00377026 0 
34852 1 348.5 44.1674 0 4.33571e-19 0.00377026 0 
34952 1 349.5 44.1674 0 2.05773e-11 0.00377026 0 
35052 1 350.5 44.1674 0 1.94621e-10 0.00377026 0 
35152 1 351.5 44.1674 0 1.31475e-09 0.00377026 0 
35252 1 352.5 44.1674 0 2.91521e-09 0.00377026 0 
35352 1 353.5 44.1674 0 7.95294e-09 0.00377026 0 
35452 1 354.5 44.1674 0 1.62398e-08 0.00377025 0 
35552 1 355.5 44.1674 0 2.56062e-08 0.00377024 0 
35652 1 356.5 44.1674 0 3.7159e-08 0.00377021 0 
35752 1 357.5 44.1674 0 6.6726e-08 0.00377015 0 
35852 1 358.5 44.1674 0 1.52087e-07 0.00377011 0 
35952 1 359.5 44.1674 0 2.60292e-07 0.00377018 0 
36052 1 360.5 44.1674 0 3.95916e-08 0.00377044 0 
36152 1 361.5 44.1674 0 -1.21778e-06 0.00377071 0 
36252 1 362.5 44.1674 0 -3.50159e-06 0.0037704 0 
36352 1 363.5 44.1674 0 -4.03664e-06 0.00376911 0 
36452 1 364.5 44.1674 0 1.68787e-06 0.0037681 0 
36552 1 365.5 44.1674 0 1.16254e-05 0.00377007 0 
36652 1 366.5 44.1674 0 1.13587e-05 0.00377462 0 
36752 1 367.5 44.1674 0 -7.6323e-06 0.00377501 0 
36852 1 368.5 44.1674 0 -2.07569e-05 0.00376755 0 
36952 1 369.5 44.1674 0 -1.4086e-07 0.00376346 0 
37052 1 370.5 44.1674 0 1.81694e-05 0.00377185 0 
37152 1 371.5 44.1674 0 -1.24138e-05 0.00377296 0 
37252 1 372.5 44.1674 0 -2.74251e-05 0.00375226 0 
37352 1 373.5 44.1674 0 2.1271e-05 0.00374466 0 
37452 1 374.5 44.1674 0 9.6939e-06 0.00376235 0 
37552 1 375.5 44.1674 0 -6.03507e-05 0.00375048 0 
37652 1 376.5 44.1674 0 -1.83246e-05 0.00371455 0 
37752 1 377.5 44.1674 0 -1.62376e-05 0.00369938 0 
37852 1 378.5 44.1674 0 -0.000125819 0.0036494 0 
37952 1 379.5 44.1674 0 -5.61463e-05 0.00356752 0 
38052 1 380.5 44.1674 0 -8.15206e-05 0.00355542 0 
38152 1 381.5 44.1674 0 -0.000243181 0.00348472 0 
38252 1 382.5 44.1674 0 -0.000155774 0.00330277 0 
38352 1 383.5 44.1674 0 -0.000254589 0.00327737 0 
38452 1 384.5 44.1674 0 -0.000389862 0.00305617 0 
38552 1 385.5 44.1674 0 -0.000277472 0.0029561 0 
38652 1 386.5 44.1674 0 -0.000469827 0.0027627 0 
38752 1 387.5 44.1674 0 -0.000449438 0.00258004 0 
38852 1 388.5 44.1674 0 -0.000507841 0.00242304 0 
38952 1 389.5 44.1674 0 -0.000573326 0.00222403 0 
39052 1 390.5 44.1674 0 -0.000617717 0.00215727 0 
39152 1 391.5 44.1673 0 -0.0006957 0.00201345 0 
39252 1 392.5 44.1673 0 -0.00064633 0.00184045 0 
39352 1 393.5 44.1673 0 -0.000765135 0.00190974 0 
39452 1 394.5 44.1673 0 -0.00063402 0.00158734 0 
39552 1 395.5 44.1673 0 -0.000598019 0.00130513 0 
39652 1 396.5 44.1673 0 -0.000432182 0.000748173 0 
39752 1 397.5 44.1673 0 -0.000172357 0.000219323 0 
39852 2 398.5 44.1673 0 -0.00154357 -0.000397321 0 
39952 2 399.5 44.1673 0 -2.20719e-05 -0.000198667 0 
