ITEM: TIMESTEP
1980
ITEM: NUMBER OF ATOMS
400
ITEM: BOX BOUNDS ff pp pp
0.0000000000000000e+00 4.0000000000000000e+02
0.0000000000000000e+00 8.6602540000000005e+01
0.0000000000000000e+00 1.0000000000000000e+00
ITEM: ATOMS id type x y z fx fy fz 
52 2 0.5 44.1673 0 0 -0.000397333 0 
152 2 1.5 44.1673 0 0.00506731 -0.000397166 0 
252 1 2.50002 44.1673 0 -3.00385e-05 3.07184e-05 0 
352 1 3.50004 44.1674 0 6.74923e-05 0.000158439 0 
452 1 4.50007 44.1675 0 -0.000103574 -5.98132e-05 0 
552 1 5.50009 44.1675 0 1.86083e-05 0.000212615 0 
652 1 6.50011 44.1676 0 7.74359e-05 0.000477346 0 
752 1 7.50014 44.1677 0 -0.000268416 0.000163903 0 
852 1 8.50016 44.1677 0 7.68879e-05 0.000654953 0 
952 1 9.50018 44.1678 0 7.30892e-07 0.00068982 0 
1052 1 10.5002 44.1679 0 -0.000242115 0.000338466 0 
1152 1 11.5002 44.1679 0 -0.000435359 -5.942e-05 0 
1252 1 12.5002 44.168 0 -3.05688e-06 0.000544121 0 
1352 1 13.5003 44.1681 0 0.000216559 0.00076022 0 
1452 1 14.5003 44.1681 0 -5.63701e-05 0.000138707 0 
1552 1 15.5003 44.1682 0 -0.000659814 -0.000685805 0 
1652 1 16.5003 44.1682 0 -0.000932896 -0.00127074 0 
1752 1 17.5003 44.1683 0 -0.000928691 -0.00123318 0 
1852 1 18.5003 44.1683 0 -0.000734946 -0.000830771 0 
1952 1 19.5003 44.1683 0 -0.000405942 -0.000301253 0 
2052 1 20.5003 44.1684 0 -0.0002613 3.84166e-05 0 
2152 1 21.5003 44.1684 0 -1.62111e-05 0.000234228 0 
2252 1 22.5003 44.1684 0 -5.58482e-05 0.000237938 0 
2352 1 23.5002 44.1684 0 7.88359e-05 0.000199436 0 
2452 1 24.5002 44.1684 0 0.00021516 0.000186224 0 
2552 1 25.5002 44.1685 0 5.37289e-05 0.000254044 0 
2652 1 26.5002 44.1685 0 0.000166795 0.000231482 0 
2752 1 27.5002 44.1685 0 7.14808e-05 0.000402316 0 
2852 1 28.5002 44.1685 0 -3.47672e-05 0.000357983 0 
2952 1 29.5002 44.1685 0 0.000150152 0.000293516 0 
3052 1 30.5002 44.1685 0 9.46893e-05 0.000290871 0 
3152 1 31.5001 44.1685 0 6.55535e-05 0.00019293 0 
3252 1 32.5001 44.1685 0 0.000221393 0.000191247 0 
3352 1 33.5001 44.1686 0 0.00013465 0.000261984 0 
3452 1 34.5001 44.1686 0 3.78276e-05 0.000261372 0 
3552 1 35.5001 44.1686 0 8.68531e-05 0.000282135 0 
3652 1 36.5001 44.1686 0 5.07143e-05 0.000328335 0 
3752 1 37.5001 44.1686 0 5.01945e-05 0.00028841 0 
3852 1 38.5001 44.1686 0 0.000161514 0.000200237 0 
3952 1 39.5001 44.1686 0 0.00019222 0.000150822 0 
4052 1 40.5001 44.1686 0 0.00015417 0.000146529 0 
4152 1 41.5001 44.1686 0 0.000144851 0.000177998 0 
4252 1 42.5 44.1686 0 0.000100729 0.00023388 0 
4352 1 43.5 44.1686 0 2.07341e-05 0.000276141 0 
4452 1 44.5 44.1686 0 1.67017e-05 0.000275229 0 
4552 1 45.5 44.1686 0 9.65993e-05 0.000230238 0 
4652 1 46.5 44.1686 0 0.000176568 0.000151321 0 
4752 1 47.5 44.1686 0 0.000235292 5.7521e-05 0 
4852 1 48.5 44.1686 0 0.000298431 -1.97921e-05 0 
4952 1 49.5 44.1686 0 0.000349393 -5.53722e-05 0 
5052 1 50.5 44.1686 0 0.000347473 -4.78986e-05 0 
5152 1 51.5 44.1686 0 0.000290889 -1.37491e-05 0 
5252 1 52.5 44.1686 0 0.00021534 2.97641e-05 0 
5352 1 53.5 44.1686 0 0.000150988 7.21931e-05 0 
5452 1 54.5 44.1686 0 0.000103791 0.000108471 0 
5552 1 55.5 44.1686 0 6.7962e-05 0.000136328 0 
5652 1 56.5 44.1686 0 3.99814e-05 0.00015554 0 
5752 1 57.5 44.1686 0 2.01976e-05 0.00016752 0 
5852 1 58.5 44.1686 0 8.69766e-06 0.000174377 0 
5952 1 59.5 44.1686 0 3.48563e-06 0.000178023 0 
6052 1 60.5 44.1686 0 1.69239e-06 0.000179809 0 
6152 1 61.5 44.1686 0 1.14755e-06 0.000180588 0 
6252 1 62.5 44.1686 0 8.38031e-07 0.00018087 0 
6352 1 63.5 44.1686 0 5.28462e-07 0.000180946 0 
6452 1 64.5 44.1686 0 2.62136e-07 0.000180962 0 
6552 1 65.5 44.1686 0 8.87684e-08 0.000180971 0 
6652 1 66.5 44.1686 0 4.71572e-09 0.000180985 0 
6752 1 67.5 44.1686 0 -2.19237e-08 0.000181 0 
6852 1 68.5 44.1686 0 -2.23318e-08 0.000181013 0 
6952 1 69.5 44.1686 0 -1.51773e-08 0.000181021 0 
7052 1 70.5 44.1686 0 -8.446e-09 0.000181026 0 
7152 1 71.5 44.1686 0 -4.10369e-09 0.000181029 0 
7252 1 72.5 44.1686 0 -1.77038e-09 0.00018103 0 
7352 1 73.5 44.1686 0 -7.25655e-10 0.00018103 0 
7452 1 74.5 44.1686 0 -2.6257e-10 0.000181031 0 
7552 1 75.5 44.1686 0 -1.12678e-10 0.000181031 0 
7652 1 76.5 44.1686 0 -3.93567e-11 0.000181031 0 
7752 1 77.5 44.1686 0 2.49948e-21 0.000181031 0 
7852 1 78.5 44.1686 0 2.49948e-21 0.000181031 0 
7952 1 79.5 44.1686 0 2.49948e-21 0.000181031 0 
8052 1 80.5 44.1686 0 2.49948e-21 0.000181031 0 
8152 1 81.5 44.1686 0 3.00934e-21 0.000181031 0 
8252 1 82.5 44.1686 0 3.00934e-21 0.000181031 0 
8352 1 83.5 44.1686 0 2.49948e-21 0.000181031 0 
8452 1 84.5 44.1686 0 2.49948e-21 0.000181031 0 
8552 1 85.5 44.1686 0 3.00934e-21 0.000181031 0 
8652 1 86.5 44.1686 0 3.00934e-21 0.000181031 0 
8752 1 87.5 44.1686 0 2.49948e-21 0.000181031 0 
8852 1 88.5 44.1686 0 3.00934e-21 0.000181031 0 
8952 1 89.5 44.1686 0 3.00934e-21 0.000181031 0 
9052 1 90.5 44.1686 0 2.49948e-21 0.000181031 0 
9152 1 91.5 44.1686 0 2.49948e-21 0.000181031 0 
9252 1 92.5 44.1686 0 2.49948e-21 0.000181031 0 
9352 1 93.5 44.1686 0 3.00934e-21 0.000181031 0 
9452 1 94.5 44.1686 0 2.49948e-21 0.000181031 0 
9552 1 95.5 44.1686 0 3.00934e-21 0.000181031 0 
9652 1 96.5 44.1686 0 2.49948e-21 0.000181031 0 
9752 1 97.5 44.1686 0 3.00934e-21 0.000181031 0 
9852 1 98.5 44.1686 0 2.49948e-21 0.000181031 0 
9952 1 99.5 44.1686 0 2.49948e-21 0.000181031 0 
10052 1 100.5 44.1686 0 2.49948e-21 0.000181031 0 
10152 1 101.5 44.1686 0 3.00934e-21 0.000181031 0 
10252 1 102.5 44.1686 0 3.00934e-21 0.000181031 0 
10352 1 103.5 44.1686 0 3.00934e-21 0.000181031 0 
10452 1 104.5 44.1686 0 3.00934e-21 0.000181031 0 
10552 1 105.5 44.1686 0 2.49948e-21 0.000181031 0 
10652 1 106.5 44.1686 0 2.49948e-21 0.000181031 0 
10752 1 107.5 44.1686 0 3.00934e-21 0.000181031 0 
10852 1 108.5 44.1686 0 2.49948e-21 0.000181031 0 
10952 1 109.5 44.1686 0 2.49948e-21 0.000181031 0 
11052 1 110.5 44.1686 0 2.49948e-21 0.000181031 0 
11152 1 111.5 44.1686 0 2.49948e-21 0.000181031 0 
11252 1 112.5 44.1686 0 2.49948e-21 0.000181031 0 
11352 1 113.5 44.1686 0 5.92607e-11 0.000181031 0 
11452 1 114.5 44.1686 0 2.77561e-10 0.000181031 0 
11552 1 115.5 44.1686 0 1.23321e-09 0.000181031 0 
11652 1 116.5 44.1686 0 5.60796e-09 0.000181031 0 
11752 1 117.5 44.1686 0 2.412e-08 0.000181031 0 
11852 1 118.5 44.1686 0 9.97079e-08 0.000181031 0 
11952 1 119.5 44.1686 0 3.94919e-07 0.000181031 0 
12052 1 120.5 44.1686 0 1.49489e-06 0.000181031 0 
12152 1 121.5 44.1686 0 5.39969e-06 0.000181031 0 
12252 1 122.5 44.1686 0 1.85726e-05 0.000181031 0 
12352 1 123.5 44.1686 0 6.06924e-05 0.000181031 0 
12452 1 124.5 44.1686 0 0.000187945 0.000181031 0 
12552 1 125.5 44.1686 0 0.00054988 0.000181031 0 
12652 1 126.5 44.1686 0 0.00151476 0.000181032 0 
12752 1 127.5 44.1686 0 0.00391271 0.000181033 0 
12852 1 128.5 44.1686 0 0.00942999 0.000181036 0 
12952 1 129.5 44.1686 0 0.0210748 0.000181043 0 
13052 1 130.5 44.1686 0 0.0433291 0.000181055 0 
13152 1 131.5 44.1686 0 0.0810785 0.000181073 0 
13252 1 132.501 44.1686 0 0.135975 0.000181091 0 
13352 1 133.502 44.1686 0 0.199502 0.000181092 0 
13452 1 134.504 44.1686 0 0.245161 0.00018104 0 
13552 1 135.506 44.1686 0 0.228202 0.000180876 0 
13652 1 136.51 44.1686 0 0.105747 0.000180547 0 
13752 1 137.514 44.1686 0 -0.118353 0.000180052 0 
13852 1 138.517 44.1686 0 -0.349859 0.000179495 0 
13952 1 139.519 44.1686 0 -0.422005 0.000179066 0 
14052 1 140.52 44.1686 0 -0.218598 0.000178907 0 
14152 1 141.521 44.1686 0 0.160896 0.000178914 0 
14252 1 142.522 44.1686 0 0.386398 0.000178707 0 
14352 1 143.524 44.1686 0 0.1846 0.000177978 0 
14452 1 144.527 44.1686 0 -0.268382 0.000177041 0 
14552 1 145.529 44.1686 0 -0.409794 0.000176851 0 
14652 1 146.53 44.1686 0 0.00416796 0.000178022 0 
14752 1 147.53 44.1686 0 0.412747 0.000179789 0 
14852 1 148.533 44.1686 0 0.154644 0.00018032 0 
14952 1 149.535 44.1686 0 -0.391908 0.000178654 0 
15052 1 150.537 44.1686 0 -0.260388 0.000176204 0 
15152 1 151.538 44.1686 0 0.354835 0.000175344 0 
15252 1 152.54 44.1686 0 0.26611 0.000176857 0 
15352 1 153.543 44.1686 0 -0.385371 0.000178863 0 
15452 1 154.545 44.1686 0 -0.222475 0.000178348 0 
15552 1 155.546 44.1686 0 0.424517 0.000175018 0 
15652 1 156.549 44.1686 0 0.0767913 0.000173208 0 
15752 1 157.552 44.1686 0 -0.451638 0.00017623 0 
15852 1 158.553 44.1686 0 0.136764 0.000178354 0 
15952 1 159.556 44.1686 0 0.34179 0.000174138 0 
16052 1 160.559 44.1686 0 -0.365514 0.000171954 0 
16152 1 161.562 44.1686 0 -0.0596507 0.000177643 0 
16252 1 162.564 44.1686 0 0.374366 0.000178653 0 
16352 1 163.568 44.1686 0 -0.373715 0.000171315 0 
16452 1 164.571 44.1686 0 -0.173417 0.000168427 0 
16552 1 165.572 44.1686 0 0.386721 0.000168889 0 
16652 1 166.575 44.1686 0 -0.24828 0.000173814 0 
16752 1 167.577 44.1686 0 0.0369625 0.00017876 0 
16852 1 168.58 44.1687 0 0.0510554 0.00016381 0 
16952 1 169.582 44.1687 0 -0.657034 0.000168069 0 
17052 1 170.583 44.1687 0 0.568719 0.000178847 0 
17152 1 171.585 44.1687 0 0.603778 0.000167072 0 
17252 1 172.589 44.1687 0 -0.293313 0.000168842 0 
17352 1 173.591 44.1687 0 -0.300896 0.000170354 0 
17452 1 174.594 44.1687 0 -1.231 0.000169797 0 
17552 1 175.595 44.1687 0 0.286093 0.000160851 0 
17652 1 176.595 44.1687 0 1.21769 0.000181677 0 
17752 1 177.599 44.1687 0 -0.162192 0.000164759 0 
17852 1 178.601 44.1687 0 0.53318 0.000162408 0 
17952 1 179.604 44.1687 0 0.0304091 0.000181755 0 
18052 1 180.607 44.1687 0 -0.327096 0.000157536 0 
18152 1 181.61 44.1687 0 -0.735677 0.000159482 0 
18252 1 182.612 44.1687 0 -0.15714 0.000175278 0 
18352 1 183.615 44.1687 0 -0.391404 0.000154621 0 
18452 1 184.617 44.1687 0 -0.690647 0.000163767 0 
18552 1 185.619 44.1687 0 0.844767 0.00018023 0 
18652 1 186.623 44.1687 0 -0.380794 0.000130495 0 
18752 1 187.625 44.1687 0 0.192105 0.00014972 0 
18852 1 188.629 44.1687 0 0.947714 0.000176274 0 
18952 1 189.632 44.1687 0 0.197987 0.000203195 0 
19052 1 190.638 44.1687 0 -0.464344 0.000167381 0 
19152 1 191.64 44.1687 0 1.98566 0.000148743 0 
19252 1 192.647 44.1686 0 -1.3098 0.000186215 0 
19352 1 193.651 44.1686 0 1.34579 0.000145387 0 
19452 1 194.659 44.1686 0 -1.02017 0.000121063 0 
19552 1 195.664 44.1686 0 1.69318 0.000232819 0 
19652 1 196.676 44.1686 0 -1.42045 0.000219719 0 
19752 1 197.686 44.1686 0 0.961407 0.000177321 0 
19852 1 198.704 44.1686 0 -0.557347 0.00012755 0 
19952 1 199.731 44.1686 0 1.01469 0.000171693 0 
20052 3 200.785 44.1686 0 -0.762819 0.000222693 0 
20152 1 201.73 44.1686 0 0.865133 0.000180544 0 
20252 1 202.702 44.1686 0 0.253149 0.000222224 0 
20352 1 203.685 44.1686 0 0.894666 0.000159263 0 
20452 1 204.674 44.1686 0 -0.378115 0.000147443 0 
20552 1 205.664 44.1686 0 1.21251 0.000135496 0 
20652 1 206.657 44.1686 0 0.307486 0.000290217 0 
20752 1 207.651 44.1686 0 0.638183 0.000196532 0 
20852 1 208.646 44.1686 0 -0.303915 0.00016049 0 
20952 1 209.64 44.1686 0 1.61734 0.00020921 0 
21052 1 210.637 44.1686 0 -0.732213 0.000192037 0 
21152 1 211.632 44.1686 0 0.401763 0.000168838 0 
21252 1 212.629 44.1686 0 0.27155 0.000177313 0 
21352 1 213.626 44.1686 0 -0.449202 0.000220414 0 
21452 1 214.623 44.1686 0 -0.553039 0.000214563 0 
21552 1 215.62 44.1686 0 0.00786615 0.000178927 0 
21652 1 216.618 44.1686 0 -1.05323 0.000199281 0 
21752 1 217.615 44.1686 0 -0.360489 0.000201434 0 
21852 1 218.611 44.1686 0 -0.264053 0.000193172 0 
21952 1 219.609 44.1686 0 -0.27767 0.000196306 0 
22052 1 220.606 44.1686 0 0.222194 0.000199702 0 
22152 1 221.602 44.1686 0 0.674776 0.0001798 0 
22252 1 222.6 44.1686 0 0.644042 0.000195898 0 
22352 1 223.599 44.1686 0 -0.0403684 0.000196662 0 
22452 1 224.596 44.1686 0 0.830534 0.000179247 0 
22552 1 225.596 44.1686 0 -0.717824 0.000199725 0 
22652 1 226.594 44.1686 0 -1.4842 0.00019265 0 
22752 1 227.59 44.1686 0 0.198137 0.000189021 0 
22852 1 228.587 44.1686 0 0.397562 0.000188831 0 
22952 1 229.585 44.1686 0 0.683566 0.000195364 0 
23052 1 230.583 44.1686 0 0.118672 0.000181089 0 
23152 1 231.582 44.1686 0 -0.806866 0.000195475 0 
23252 1 232.579 44.1686 0 0.101901 0.000194679 0 
23352 1 233.576 44.1686 0 0.143035 0.000180405 0 
23452 1 234.574 44.1686 0 -0.151999 0.000189309 0 
23552 1 235.572 44.1686 0 0.267559 0.00019379 0 
23652 1 236.57 44.1686 0 -0.205287 0.000190812 0 
23752 1 237.568 44.1686 0 -0.292775 0.000187566 0 
23852 1 238.564 44.1686 0 0.330377 0.000183219 0 
23952 1 239.561 44.1686 0 -0.0454076 0.000184842 0 
24052 1 240.559 44.1686 0 -0.31398 0.000188873 0 
24152 1 241.555 44.1686 0 0.248426 0.000186818 0 
24252 1 242.553 44.1686 0 0.130451 0.000183998 0 
24352 1 243.551 44.1686 0 -0.32023 0.000186004 0 
24452 1 244.548 44.1686 0 0.0349179 0.000187957 0 
24552 1 245.546 44.1686 0 0.283785 0.000186072 0 
24652 1 246.544 44.1686 0 -0.157004 0.000183504 0 
24752 1 247.542 44.1686 0 -0.247376 0.000183528 0 
24852 1 248.54 44.1686 0 0.19983 0.000185244 0 
24952 1 249.538 44.1686 0 0.215635 0.000186161 0 
25052 1 250.537 44.1686 0 -0.221627 0.000185087 0 
25152 1 251.535 44.1686 0 -0.253652 0.000183011 0 
25252 1 252.532 44.1686 0 0.164087 0.000181896 0 
25352 1 253.53 44.1686 0 0.294266 0.000182598 0 
25452 1 254.529 44.1686 0 -0.0621806 0.000184162 0 
25552 1 255.528 44.1686 0 -0.345925 0.000185036 0 
25652 1 256.526 44.1686 0 -0.170854 0.000184722 0 
25752 1 257.523 44.1686 0 0.200924 0.000183878 0 
25852 1 258.521 44.1686 0 0.318613 0.000183273 0 
25952 1 259.521 44.1686 0 0.084468 0.000183097 0 
26052 1 260.52 44.1686 0 -0.242463 0.000183058 0 
26152 1 261.519 44.1686 0 -0.387619 0.00018285 0 
26252 1 262.516 44.1686 0 -0.291467 0.000182419 0 
26352 1 263.513 44.1686 0 -0.0729243 0.000181902 0 
26452 1 264.509 44.1686 0 0.122908 0.000181459 0 
26552 1 265.506 44.1686 0 0.222598 0.000181167 0 
26652 1 266.503 44.1686 0 0.229593 0.000181022 0 
26752 1 267.502 44.1686 0 0.183783 0.000180975 0 
26852 1 268.501 44.1686 0 0.124338 0.000180976 0 
26952 1 269.5 44.1686 0 0.0739054 0.000180993 0 
27052 1 270.5 44.1686 0 0.0394556 0.000181009 0 
27152 1 271.5 44.1686 0 0.0191935 0.00018102 0 
27252 1 272.5 44.1686 0 0.0085951 0.000181025 0 
27352 1 273.5 44.1686 0 0.00357055 0.000181029 0 
27452 1 274.5 44.1686 0 0.00138429 0.00018103 0 
27552 1 275.5 44.1686 0 0.000503318 0.00018103 0 
27652 1 276.5 44.1686 0 0.000172323 0.000181031 0 
27752 1 277.5 44.1686 0 5.5746e-05 0.000181031 0 
27852 1 278.5 44.1686 0 1.70898e-05 0.000181031 0 
27952 1 279.5 44.1686 0 4.97754e-06 0.000181031 0 
28052 1 280.5 44.1686 0 1.38055e-06 0.000181031 0 
28152 1 281.5 44.1686 0 3.65311e-07 0.000181031 0 
28252 1 282.5 44.1686 0 9.2422e-08 0.000181031 0 
28352 1 283.5 44.1686 0 2.24048e-08 0.000181031 0 
28452 1 284.5 44.1686 0 5.18675e-09 0.000181031 0 
28552 1 285.5 44.1686 0 1.19252e-09 0.000181031 0 
28652 1 286.5 44.1686 0 3.07685e-10 0.000181031 0 
28752 1 287.5 44.1686 0 2.49948e-21 0.000181031 0 
28852 1 288.5 44.1686 0 3.00934e-21 0.000181031 0 
28952 1 289.5 44.1686 0 3.00934e-21 0.000181031 0 
29052 1 290.5 44.1686 0 3.00934e-21 0.000181031 0 
29152 1 291.5 44.1686 0 2.49948e-21 0.000181031 0 
29252 1 292.5 44.1686 0 3.00934e-21 0.000181031 0 
29352 1 293.5 44.1686 0 2.49948e-21 0.000181031 0 
29452 1 294.5 44.1686 0 3.00934e-21 0.000181031 0 
29552 1 295.5 44.1686 0 3.00934e-21 0.000181031 0 
29652 1 296.5 44.1686 0 2.49948e-21 0.000181031 0 
29752 1 297.5 44.1686 0 2.49948e-21 0.000181031 0 
29852 1 298.5 44.1686 0 2.49948e-21 0.000181031 0 
29952 1 299.5 44.1686 0 2.49948e-21 0.000181031 0 
30052 1 300.5 44.1686 0 2.49948e-21 0.000181031 0 
30152 1 301.5 44.1686 0 3.00934e-21 0.000181031 0 
30252 1 302.5 44.1686 0 2.49948e-21 0.000181031 0 
30352 1 303.5 44.1686 0 2.49948e-21 0.000181031 0 
30452 1 304.5 44.1686 0 2.49948e-21 0.000181031 0 
30552 1 305.5 44.1686 0 2.49948e-21 0.000181031 0 
30652 1 306.5 44.1686 0 3.00934e-21 0.000181031 0 
30752 1 307.5 44.1686 0 3.00934e-21 0.000181031 0 
30852 1 308.5 44.1686 0 2.49948e-21 0.000181031 0 
30952 1 309.5 44.1686 0 2.49948e-21 0.000181031 0 
31052 1 310.5 44.1686 0 2.49948e-21 0.000181031 0 
31152 1 311.5 44.1686 0 3.00934e-21 0.000181031 0 
31252 1 312.5 44.1686 0 3.00934e-21 0.000181031 0 
31352 1 313.5 44.1686 0 2.49948e-21 0.000181031 0 
31452 1 314.5 44.1686 0 2.49948e-21 0.000181031 0 
31552 1 315.5 44.1686 0 3.00934e-21 0.000181031 0 
31652 1 316.5 44.1686 0 2.49948e-21 0.000181031 0 
31752 1 317.5 44.1686 0 3.00934e-21 0.000181031 0 
31852 1 318.5 44.1686 0 3.00934e-21 0.000181031 0 
31952 1 319.5 44.1686 0 3.00934e-21 0.000181031 0 
32052 1 320.5 44.1686 0 2.49948e-21 0.000181031 0 
32152 1 321.5 44.1686 0 2.49948e-21 0.000181031 0 
32252 1 322.5 44.1686 0 3.00934e-21 0.000181031 0 
32352 1 323.5 44.1686 0 2.49948e-21 0.000181031 0 
32452 1 324.5 44.1686 0 6.55981e-11 0.000181031 0 
32552 1 325.5 44.1686 0 3.80484e-10 0.000181031 0 
32652 1 326.5 44.1686 0 7.69763e-10 0.00018103 0 
32752 1 327.5 44.1686 0 1.82643e-09 0.00018103 0 
32852 1 328.5 44.1686 0 3.89197e-09 0.000181029 0 
32952 1 329.5 44.1686 0 8.4168e-09 0.000181026 0 
33052 1 330.5 44.1686 0 1.51103e-08 0.000181022 0 
33152 1 331.5 44.1686 0 2.25008e-08 0.000181013 0 
33252 1 332.5 44.1686 0 2.20154e-08 0.000181 0 
33352 1 333.5 44.1686 0 -4.92764e-09 0.000180985 0 
33452 1 334.5 44.1686 0 -8.87663e-08 0.000180971 0 
33552 1 335.5 44.1686 0 -2.61742e-07 0.000180962 0 
33652 1 336.5 44.1686 0 -5.28707e-07 0.000180946 0 
33752 1 337.5 44.1686 0 -8.3795e-07 0.00018087 0 
33852 1 338.5 44.1686 0 -1.1477e-06 0.000180588 0 
33952 1 339.5 44.1686 0 -1.69232e-06 0.000179809 0 
34052 1 340.5 44.1686 0 -3.48556e-06 0.000178023 0 
34152 1 341.5 44.1686 0 -8.69758e-06 0.000174377 0 
34252 1 342.5 44.1686 0 -2.01977e-05 0.00016752 0 
34352 1 343.5 44.1686 0 -3.99813e-05 0.00015554 0 
34452 1 344.5 44.1686 0 -6.7962e-05 0.000136328 0 
34552 1 345.5 44.1686 0 -0.000103792 0.000108471 0 
34652 1 346.5 44.1686 0 -0.000150988 7.21931e-05 0 
34752 1 347.5 44.1686 0 -0.00021534 2.97638e-05 0 
34852 1 348.5 44.1686 0 -0.000290888 -1.37489e-05 0 
34952 1 349.5 44.1686 0 -0.000347473 -4.78985e-05 0 
35052 1 350.5 44.1686 0 -0.000349393 -5.53722e-05 0 
35152 1 351.5 44.1686 0 -0.000298431 -1.97919e-05 0 
35252 1 352.5 44.1686 0 -0.000235292 5.75208e-05 0 
35352 1 353.5 44.1686 0 -0.000176568 0.000151322 0 
35452 1 354.5 44.1686 0 -9.65994e-05 0.000230238 0 
35552 1 355.5 44.1686 0 -1.67012e-05 0.00027523 0 
35652 1 356.5 44.1686 0 -2.07339e-05 0.000276141 0 
35752 1 357.5 44.1686 0 -0.000100729 0.000233879 0 
35852 1 358.5 44.1686 0 -0.000144851 0.000177998 0 
35952 1 359.5 44.1686 0 -0.00015417 0.000146529 0 
36052 1 360.5 44.1686 0 -0.00019222 0.000150822 0 
36152 1 361.5 44.1686 0 -0.000161514 0.000200237 0 
36252 1 362.5 44.1686 0 -5.01948e-05 0.00028841 0 
36352 1 363.5 44.1686 0 -5.07138e-05 0.000328335 0 
36452 1 364.5 44.1686 0 -8.68536e-05 0.000282135 0 
36552 1 365.5 44.1686 0 -3.78274e-05 0.000261372 0 
36652 1 366.5 44.1686 0 -0.00013465 0.000261984 0 
36752 1 367.5 44.1685 0 -0.000221393 0.000191247 0 
36852 1 368.5 44.1685 0 -6.55542e-05 0.000192931 0 
36952 1 369.5 44.1685 0 -9.46887e-05 0.000290871 0 
37052 1 370.5 44.1685 0 -0.000150152 0.000293516 0 
37152 1 371.5 44.1685 0 3.47675e-05 0.000357983 0 
37252 1 372.5 44.1685 0 -7.14806e-05 0.000402316 0 
37352 1 373.5 44.1685 0 -0.000166795 0.000231482 0 
37452 1 374.5 44.1685 0 -5.37289e-05 0.000254044 0 
37552 1 375.5 44.1684 0 -0.00021516 0.000186224 0 
37652 1 376.5 44.1684 0 -7.88363e-05 0.000199436 0 
37752 1 377.5 44.1684 0 5.58479e-05 0.000237938 0 
37852 1 378.5 44.1684 0 1.62113e-05 0.000234228 0 
37952 1 379.5 44.1684 0 0.0002613 3.84167e-05 0 
38052 1 380.5 44.1683 0 0.000405942 -0.000301253 0 
38152 1 381.5 44.1683 0 0.000734946 -0.000830771 0 
38252 1 382.5 44.1683 0 0.000928691 -0.00123318 0 
38352 1 383.5 44.1682 0 0.000932896 -0.00127074 0 
38452 1 384.5 44.1682 0 0.000659814 -0.000685805 0 
38552 1 385.5 44.1681 0 5.637e-05 0.000138707 0 
38652 1 386.5 44.1681 0 -0.00021656 0.00076022 0 
38752 1 387.5 44.168 0 3.05699e-06 0.000544121 0 
38852 1 388.5 44.1679 0 0.000435359 -5.94203e-05 0 
38952 1 389.5 44.1679 0 0.000242116 0.000338466 0 
39052 1 390.5 44.1678 0 -7.31509e-07 0.00068982 0 
39152 1 391.5 44.1677 0 -7.68877e-05 0.000654953 0 
39252 1 392.5 44.1677 0 0.000268415 0.000163903 0 
39352 1 393.5 44.1676 0 -7.74362e-05 0.000477346 0 
39452 1 394.5 44.1675 0 -1.86084e-05 0.000212615 0 
39552 1 395.5 44.1675 0 0.000103575 -5.98129e-05 0 
39652 1 396.5 44.1674 0 -6.7492e-05 0.000158438 0 
39752 1 397.5 44.1673 0 3.00382e-05 3.07186e-05 0 
39852 2 398.5 44.1673 0 -0.00506731 -0.000397166 0 
39952 2 399.5 44.1673 0 -2.20719e-05 -0.000198667 0 
