ITEM: TIMESTEP
1760
ITEM: NUMBER OF ATOMS
400
ITEM: BOX BOUNDS ff pp pp
0.0000000000000000e+00 4.0000000000000000e+02
0.0000000000000000e+00 8.6602540000000005e+01
0.0000000000000000e+00 1.0000000000000000e+00
ITEM: ATOMS id type x y z fx fy fz 
52 2 0.5 44.1673 0 0 -0.000397333 0 
152 2 1.5 44.1673 0 0.00421362 -0.000397233 0 
252 1 2.50002 44.1673 0 -0.000294175 -0.000347896 0 
352 1 3.50003 44.1674 0 6.06983e-05 -0.000378737 0 
452 1 4.50005 44.1674 0 0.000129255 -0.000592001 0 
552 1 5.50007 44.1675 0 -0.000308777 -0.00156205 0 
652 1 6.50008 44.1675 0 -0.000691008 -0.00234379 0 
752 1 7.50009 44.1675 0 -0.000694823 -0.00241551 0 
852 1 8.5001 44.1676 0 -0.000292333 -0.00218483 0 
952 1 9.5001 44.1676 0 -0.000152455 -0.00211266 0 
1052 1 10.5001 44.1676 0 0.000167396 -0.00188456 0 
1152 1 11.5001 44.1676 0 0.000210886 -0.00186425 0 
1252 1 12.5001 44.1676 0 0.00029408 -0.00177347 0 
1352 1 13.5001 44.1676 0 0.000234007 -0.00162544 0 
1452 1 14.5001 44.1677 0 0.000262078 -0.00150188 0 
1552 1 15.5001 44.1677 0 0.000154618 -0.0013993 0 
1652 1 16.5001 44.1677 0 0.000124381 -0.00128503 0 
1752 1 17.5001 44.1677 0 0.00013008 -0.00119188 0 
1852 1 18.5001 44.1677 0 -3.51559e-05 -0.00112175 0 
1952 1 19.5 44.1677 0 0.000107424 -0.00118077 0 
2052 1 20.5 44.1677 0 9.0819e-05 -0.00115081 0 
2152 1 21.5 44.1677 0 6.04998e-05 -0.0013574 0 
2252 1 22.5 44.1677 0 0.000288574 -0.00144814 0 
2352 1 23.5 44.1677 0 0.000282574 -0.00158677 0 
2452 1 24.5 44.1678 0 0.000330369 -0.00179872 0 
2552 1 25.5 44.1678 0 0.000496776 -0.0019159 0 
2652 1 26.5 44.1678 0 0.000449819 -0.00199934 0 
2752 1 27.5 44.1678 0 0.000452917 -0.00206528 0 
2852 1 28.5 44.1678 0 0.000515889 -0.00203114 0 
2952 1 29.5 44.1678 0 0.000420631 -0.0019592 0 
3052 1 30.5 44.1678 0 0.000327714 -0.0019125 0 
3152 1 31.5 44.1678 0 0.000314119 -0.00183878 0 
3252 1 32.5 44.1678 0 0.000244587 -0.00173454 0 
3352 1 33.5 44.1678 0 0.000147652 -0.00165463 0 
3452 1 34.5 44.1678 0 0.000111976 -0.0016034 0 
3552 1 35.5 44.1678 0 9.2014e-05 -0.00155828 0 
3652 1 36.5 44.1678 0 4.31902e-05 -0.0015233 0 
3752 1 37.5 44.1678 0 6.05087e-06 -0.00150667 0 
3852 1 38.5 44.1678 0 7.59491e-06 -0.00149913 0 
3952 1 39.5 44.1678 0 1.96534e-05 -0.00149072 0 
4052 1 40.5 44.1678 0 1.61321e-05 -0.00148262 0 
4152 1 41.5 44.1678 0 2.97803e-06 -0.00147881 0 
4252 1 42.5 44.1678 0 -4.96182e-06 -0.00147871 0 
4352 1 43.5 44.1678 0 -4.53126e-06 -0.00147945 0 
4452 1 44.5 44.1678 0 -1.05235e-06 -0.00147956 0 
4552 1 45.5 44.1678 0 1.13917e-06 -0.00147925 0 
4652 1 46.5 44.1678 0 1.4288e-06 -0.00147905 0 
4752 1 47.5 44.1678 0 8.77621e-07 -0.00147906 0 
4852 1 48.5 44.1678 0 3.32708e-07 -0.00147915 0 
4952 1 49.5 44.1678 0 4.06842e-08 -0.0014792 0 
5052 1 50.5 44.1678 0 -5.72707e-08 -0.00147921 0 
5152 1 51.5 44.1678 0 -6.5072e-08 -0.00147918 0 
5252 1 52.5 44.1678 0 -4.60877e-08 -0.00147916 0 
5352 1 53.5 44.1678 0 -2.65642e-08 -0.00147914 0 
5452 1 54.5 44.1678 0 -1.32863e-08 -0.00147913 0 
5552 1 55.5 44.1678 0 -5.87731e-09 -0.00147913 0 
5652 1 56.5 44.1678 0 -2.3495e-09 -0.00147913 0 
5752 1 57.5 44.1678 0 -8.23429e-10 -0.00147913 0 
5852 1 58.5 44.1678 0 -2.74634e-10 -0.00147913 0 
5952 1 59.5 44.1678 0 -8.07534e-11 -0.00147913 0 
6052 1 60.5 44.1678 0 -3.34785e-11 -0.00147913 0 
6152 1 61.5 44.1678 0 2.43695e-21 -0.00147913 0 
6252 1 62.5 44.1678 0 2.43695e-21 -0.00147913 0 
6352 1 63.5 44.1678 0 2.43695e-21 -0.00147913 0 
6452 1 64.5 44.1678 0 2.08389e-21 -0.00147913 0 
6552 1 65.5 44.1678 0 2.43695e-21 -0.00147913 0 
6652 1 66.5 44.1678 0 2.08389e-21 -0.00147913 0 
6752 1 67.5 44.1678 0 2.08389e-21 -0.00147913 0 
6852 1 68.5 44.1678 0 2.08389e-21 -0.00147913 0 
6952 1 69.5 44.1678 0 2.43695e-21 -0.00147913 0 
7052 1 70.5 44.1678 0 2.08389e-21 -0.00147913 0 
7152 1 71.5 44.1678 0 2.08389e-21 -0.00147913 0 
7252 1 72.5 44.1678 0 2.43695e-21 -0.00147913 0 
7352 1 73.5 44.1678 0 2.43695e-21 -0.00147913 0 
7452 1 74.5 44.1678 0 2.08389e-21 -0.00147913 0 
7552 1 75.5 44.1678 0 2.43695e-21 -0.00147913 0 
7652 1 76.5 44.1678 0 2.43695e-21 -0.00147913 0 
7752 1 77.5 44.1678 0 2.08389e-21 -0.00147913 0 
7852 1 78.5 44.1678 0 2.08389e-21 -0.00147913 0 
7952 1 79.5 44.1678 0 2.08389e-21 -0.00147913 0 
8052 1 80.5 44.1678 0 2.08389e-21 -0.00147913 0 
8152 1 81.5 44.1678 0 2.43695e-21 -0.00147913 0 
8252 1 82.5 44.1678 0 2.43695e-21 -0.00147913 0 
8352 1 83.5 44.1678 0 2.08389e-21 -0.00147913 0 
8452 1 84.5 44.1678 0 2.08389e-21 -0.00147913 0 
8552 1 85.5 44.1678 0 2.43695e-21 -0.00147913 0 
8652 1 86.5 44.1678 0 2.43695e-21 -0.00147913 0 
8752 1 87.5 44.1678 0 2.08389e-21 -0.00147913 0 
8852 1 88.5 44.1678 0 2.43695e-21 -0.00147913 0 
8952 1 89.5 44.1678 0 2.43695e-21 -0.00147913 0 
9052 1 90.5 44.1678 0 2.08389e-21 -0.00147913 0 
9152 1 91.5 44.1678 0 2.08389e-21 -0.00147913 0 
9252 1 92.5 44.1678 0 2.08389e-21 -0.00147913 0 
9352 1 93.5 44.1678 0 2.43695e-21 -0.00147913 0 
9452 1 94.5 44.1678 0 2.08389e-21 -0.00147913 0 
9552 1 95.5 44.1678 0 2.43695e-21 -0.00147913 0 
9652 1 96.5 44.1678 0 2.08389e-21 -0.00147913 0 
9752 1 97.5 44.1678 0 2.43695e-21 -0.00147913 0 
9852 1 98.5 44.1678 0 2.08389e-21 -0.00147913 0 
9952 1 99.5 44.1678 0 2.08389e-21 -0.00147913 0 
10052 1 100.5 44.1678 0 2.08389e-21 -0.00147913 0 
10152 1 101.5 44.1678 0 2.43695e-21 -0.00147913 0 
10252 1 102.5 44.1678 0 2.43695e-21 -0.00147913 0 
10352 1 103.5 44.1678 0 2.43695e-21 -0.00147913 0 
10452 1 104.5 44.1678 0 2.43695e-21 -0.00147913 0 
10552 1 105.5 44.1678 0 2.08389e-21 -0.00147913 0 
10652 1 106.5 44.1678 0 2.08389e-21 -0.00147913 0 
10752 1 107.5 44.1678 0 2.43695e-21 -0.00147913 0 
10852 1 108.5 44.1678 0 2.08389e-21 -0.00147913 0 
10952 1 109.5 44.1678 0 2.08389e-21 -0.00147913 0 
11052 1 110.5 44.1678 0 2.08389e-21 -0.00147913 0 
11152 1 111.5 44.1678 0 2.08389e-21 -0.00147913 0 
11252 1 112.5 44.1678 0 2.08389e-21 -0.00147913 0 
11352 1 113.5 44.1678 0 2.08389e-21 -0.00147913 0 
11452 1 114.5 44.1678 0 2.08389e-21 -0.00147913 0 
11552 1 115.5 44.1678 0 2.43695e-21 -0.00147913 0 
11652 1 116.5 44.1678 0 2.08389e-21 -0.00147913 0 
11752 1 117.5 44.1678 0 2.08389e-21 -0.00147913 0 
11852 1 118.5 44.1678 0 2.08389e-21 -0.00147913 0 
11952 1 119.5 44.1678 0 2.08389e-21 -0.00147913 0 
12052 1 120.5 44.1678 0 2.08389e-21 -0.00147913 0 
12152 1 121.5 44.1678 0 2.08389e-21 -0.00147913 0 
12252 1 122.5 44.1678 0 2.43695e-21 -0.00147913 0 
12352 1 123.5 44.1678 0 2.43695e-21 -0.00147913 0 
12452 1 124.5 44.1678 0 2.08389e-21 -0.00147913 0 
12552 1 125.5 44.1678 0 2.43695e-21 -0.00147913 0 
12652 1 126.5 44.1678 0 2.08389e-21 -0.00147913 0 
12752 1 127.5 44.1678 0 2.08389e-21 -0.00147913 0 
12852 1 128.5 44.1678 0 2.08389e-21 -0.00147913 0 
12952 1 129.5 44.1678 0 1.50562e-11 -0.00147913 0 
13052 1 130.5 44.1678 0 2.42877e-10 -0.00147913 0 
13152 1 131.5 44.1678 0 1.13286e-09 -0.00147913 0 
13252 1 132.5 44.1678 0 5.67486e-09 -0.00147913 0 
13352 1 133.5 44.1678 0 2.77656e-08 -0.00147913 0 
13452 1 134.5 44.1678 0 1.28809e-07 -0.00147913 0 
13552 1 135.5 44.1678 0 5.67553e-07 -0.00147913 0 
13652 1 136.5 44.1678 0 2.37119e-06 -0.00147913 0 
13752 1 137.5 44.1678 0 9.37143e-06 -0.00147913 0 
13852 1 138.5 44.1678 0 3.49437e-05 -0.00147913 0 
13952 1 139.5 44.1678 0 0.000122543 -0.00147913 0 
14052 1 140.5 44.1678 0 0.000402729 -0.00147913 0 
14152 1 141.5 44.1678 0 0.00123518 -0.00147912 0 
14252 1 142.5 44.1678 0 0.00351773 -0.00147911 0 
14352 1 143.5 44.1678 0 0.00924621 -0.00147909 0 
14452 1 144.5 44.1678 0 0.0222582 -0.00147904 0 
14552 1 145.5 44.1678 0 0.0485813 -0.00147891 0 
14652 1 146.5 44.1678 0 0.0948094 -0.00147865 0 
14752 1 147.501 44.1678 0 0.162041 -0.0014782 0 
14852 1 148.502 44.1678 0 0.234293 -0.00147752 0 
14952 1 149.504 44.1678 0 0.267326 -0.0014767 0 
15052 1 150.507 44.1678 0 0.196122 -0.00147601 0 
15152 1 151.511 44.1678 0 -0.0168473 -0.00147588 0 
15252 1 152.515 44.1678 0 -0.302704 -0.00147654 0 
15352 1 153.518 44.1678 0 -0.458846 -0.00147757 0 
15452 1 154.519 44.1678 0 -0.28486 -0.0014778 0 
15552 1 155.519 44.1678 0 0.150921 -0.0014762 0 
15652 1 156.52 44.1678 0 0.420788 -0.00147337 0 
15752 1 157.523 44.1678 0 0.149929 -0.00147206 0 
15852 1 158.526 44.1678 0 -0.368546 -0.00147433 0 
15952 1 159.528 44.1678 0 -0.365948 -0.00147783 0 
16052 1 160.528 44.1678 0 0.226762 -0.00147755 0 
16152 1 161.53 44.1678 0 0.421536 -0.0014732 0 
16252 1 162.533 44.1678 0 -0.193765 -0.00147125 0 
16352 1 163.536 44.1678 0 -0.447287 -0.00147501 0 
16452 1 164.537 44.1678 0 0.229026 -0.00147732 0 
16552 1 165.539 44.1678 0 0.388619 -0.00147326 0 
16652 1 166.542 44.1678 0 -0.360349 -0.00147092 0 
16752 1 167.545 44.1678 0 -0.232476 -0.0014753 0 
16852 1 168.547 44.1678 0 0.459364 -0.00147604 0 
16952 1 169.551 44.1678 0 -0.084624 -0.00147049 0 
17052 1 170.554 44.1678 0 -0.378123 -0.00147048 0 
17152 1 171.557 44.1678 0 0.368867 -0.00147344 0 
17252 1 172.56 44.1678 0 -0.131922 -0.0014728 0 
17352 1 173.563 44.1678 0 -0.515547 -0.00147846 0 
17452 1 174.564 44.1678 0 0.435063 -0.00147993 0 
17552 1 175.567 44.1678 0 0.0929764 -0.00147215 0 
17652 1 176.57 44.1678 0 -0.0405679 -0.00148143 0 
17752 1 177.573 44.1678 0 0.246228 -0.00147981 0 
17852 1 178.576 44.1678 0 -1.03732 -0.00148261 0 
17952 1 179.578 44.1678 0 -0.393459 -0.00148656 0 
18052 1 180.58 44.1678 0 0.848847 -0.00147777 0 
18152 1 181.582 44.1678 0 0.763616 -0.00147465 0 
18252 1 182.585 44.1678 0 0.371524 -0.00148836 0 
18352 1 183.589 44.1678 0 -0.688772 -0.00148266 0 
18452 1 184.591 44.1678 0 0.106475 -0.00148444 0 
18552 1 185.596 44.1678 0 -0.868808 -0.00147412 0 
18652 1 186.598 44.1678 0 -0.258396 -0.00148985 0 
18752 1 187.602 44.1678 0 -0.496294 -0.00148534 0 
18852 1 188.605 44.1678 0 -0.283929 -0.0014808 0 
18952 1 189.607 44.1678 0 1.21295 -0.00148696 0 
19052 1 190.614 44.1678 0 -1.8029 -0.00147549 0 
19152 1 191.614 44.1678 0 2.37287 -0.00149777 0 
19252 1 192.622 44.1678 0 -0.35667 -0.00149261 0 
19352 1 193.627 44.1678 0 -0.373991 -0.00150209 0 
19452 1 194.632 44.1678 0 1.6499 -0.00151761 0 
19552 1 195.641 44.1678 0 -0.459257 -0.00150121 0 
19652 1 196.649 44.1678 0 0.835601 -0.00146758 0 
19752 1 197.662 44.1678 0 -0.463386 -0.00151345 0 
19852 1 198.678 44.1678 0 1.05158 -0.00152589 0 
19952 1 199.706 44.1678 0 -0.0740592 -0.00155025 0 
20052 3 200.759 44.1678 0 0.484842 -0.00146603 0 
20152 1 201.706 44.1678 0 0.0569222 -0.0013995 0 
20252 1 202.677 44.1678 0 1.23992 -0.00145223 0 
20352 1 203.661 44.1678 0 -0.0691926 -0.00146348 0 
20452 1 204.648 44.1678 0 0.874667 -0.00152019 0 
20552 1 205.641 44.1678 0 -0.597577 -0.00147394 0 
20652 1 206.631 44.1678 0 2.08292 -0.0014133 0 
20752 1 207.628 44.1678 0 -1.37883 -0.00145926 0 
20852 1 208.621 44.1678 0 0.340756 -0.00146422 0 
20952 1 209.616 44.1678 0 1.13141 -0.00146375 0 
21052 1 210.614 44.1678 0 -2.11517 -0.00147935 0 
21152 1 211.607 44.1678 0 0.965721 -0.00146672 0 
21252 1 212.606 44.1678 0 -1.17476 -0.00148082 0 
21352 1 213.601 44.1678 0 -0.547986 -0.00146465 0 
21452 1 214.598 44.1678 0 -0.444321 -0.00147253 0 
21552 1 215.595 44.1678 0 -0.539455 -0.00148419 0 
21652 1 216.59 44.1678 0 0.529564 -0.00146966 0 
21752 1 217.588 44.1678 0 -0.10493 -0.00147466 0 
21852 1 218.584 44.1678 0 0.864789 -0.00147129 0 
21952 1 219.581 44.1678 0 0.868209 -0.00148353 0 
22052 1 220.58 44.1678 0 0.0919398 -0.00147686 0 
22152 1 221.579 44.1678 0 -1.11375 -0.00146517 0 
22252 1 222.576 44.1678 0 -0.81694 -0.00147697 0 
22352 1 223.572 44.1678 0 0.620146 -0.00147826 0 
22452 1 224.57 44.1678 0 0.186026 -0.00147652 0 
22552 1 225.567 44.1678 0 0.0381566 -0.00148346 0 
22652 1 226.564 44.1678 0 0.193787 -0.00147596 0 
22752 1 227.563 44.1678 0 -0.490675 -0.00147898 0 
22852 1 228.56 44.1678 0 -0.0670381 -0.0014853 0 
22952 1 229.556 44.1678 0 0.338792 -0.00148431 0 
23052 1 230.554 44.1678 0 -0.301979 -0.00148574 0 
23152 1 231.55 44.1678 0 -0.108022 -0.00148579 0 
23252 1 232.547 44.1678 0 0.343428 -0.00148202 0 
23352 1 233.544 44.1678 0 -0.142437 -0.00148262 0 
23452 1 234.542 44.1678 0 -0.257421 -0.00148568 0 
23552 1 235.539 44.1678 0 0.259502 -0.00148406 0 
23652 1 236.537 44.1678 0 0.138796 -0.0014815 0 
23752 1 237.535 44.1678 0 -0.31674 -0.00148348 0 
23852 1 238.532 44.1678 0 -0.099348 -0.00148591 0 
23952 1 239.53 44.1678 0 0.316088 -0.00148401 0 
24052 1 240.528 44.1678 0 0.114317 -0.00148079 0 
24152 1 241.527 44.1678 0 -0.316633 -0.00148109 0 
24252 1 242.525 44.1678 0 -0.250948 -0.00148406 0 
24352 1 243.522 44.1678 0 0.173021 -0.00148561 0 
24452 1 244.52 44.1678 0 0.33982 -0.00148423 0 
24552 1 245.519 44.1678 0 0.0688893 -0.00148176 0 
24652 1 246.518 44.1678 0 -0.295449 -0.00148048 0 
24752 1 247.517 44.1678 0 -0.406704 -0.00148083 0 
24852 1 248.514 44.1678 0 -0.239219 -0.00148177 0 
24952 1 249.51 44.1678 0 0.0191844 -0.00148228 0 
25052 1 250.507 44.1678 0 0.199421 -0.00148206 0 
25152 1 251.504 44.1678 0 0.252433 -0.00148137 0 
25252 1 252.502 44.1678 0 0.216183 -0.0014806 0 
25352 1 253.501 44.1678 0 0.14816 -0.00147997 0 
25452 1 254.5 44.1678 0 0.0863995 -0.00147956 0 
25552 1 255.5 44.1678 0 0.0442454 -0.00147933 0 
25652 1 256.5 44.1678 0 0.0202875 -0.00147921 0 
25752 1 257.5 44.1678 0 0.00844026 -0.00147916 0 
25852 1 258.5 44.1678 0 0.00321726 -0.00147914 0 
25952 1 259.5 44.1678 0 0.00113209 -0.00147913 0 
26052 1 260.5 44.1678 0 0.000369956 -0.00147913 0 
26152 1 261.5 44.1678 0 0.000112833 -0.00147913 0 
26252 1 262.5 44.1678 0 3.22507e-05 -0.00147913 0 
26352 1 263.5 44.1678 0 8.66974e-06 -0.00147913 0 
26452 1 264.5 44.1678 0 2.1986e-06 -0.00147913 0 
26552 1 265.5 44.1678 0 5.27439e-07 -0.00147913 0 
26652 1 266.5 44.1678 0 1.20014e-07 -0.00147913 0 
26752 1 267.5 44.1678 0 2.59339e-08 -0.00147913 0 
26852 1 268.5 44.1678 0 5.3238e-09 -0.00147913 0 
26952 1 269.5 44.1678 0 1.08651e-09 -0.00147913 0 
27052 1 270.5 44.1678 0 2.17406e-10 -0.00147913 0 
27152 1 271.5 44.1678 0 2.43695e-21 -0.00147913 0 
27252 1 272.5 44.1678 0 2.08389e-21 -0.00147913 0 
27352 1 273.5 44.1678 0 2.08389e-21 -0.00147913 0 
27452 1 274.5 44.1678 0 2.43695e-21 -0.00147913 0 
27552 1 275.5 44.1678 0 2.08389e-21 -0.00147913 0 
27652 1 276.5 44.1678 0 2.08389e-21 -0.00147913 0 
27752 1 277.5 44.1678 0 2.08389e-21 -0.00147913 0 
27852 1 278.5 44.1678 0 2.08389e-21 -0.00147913 0 
27952 1 279.5 44.1678 0 2.08389e-21 -0.00147913 0 
28052 1 280.5 44.1678 0 2.08389e-21 -0.00147913 0 
28152 1 281.5 44.1678 0 2.08389e-21 -0.00147913 0 
28252 1 282.5 44.1678 0 2.43695e-21 -0.00147913 0 
28352 1 283.5 44.1678 0 2.43695e-21 -0.00147913 0 
28452 1 284.5 44.1678 0 2.08389e-21 -0.00147913 0 
28552 1 285.5 44.1678 0 2.08389e-21 -0.00147913 0 
28652 1 286.5 44.1678 0 2.43695e-21 -0.00147913 0 
28752 1 287.5 44.1678 0 2.08389e-21 -0.00147913 0 
28852 1 288.5 44.1678 0 2.43695e-21 -0.00147913 0 
28952 1 289.5 44.1678 0 2.43695e-21 -0.00147913 0 
29052 1 290.5 44.1678 0 2.43695e-21 -0.00147913 0 
29152 1 291.5 44.1678 0 2.08389e-21 -0.00147913 0 
29252 1 292.5 44.1678 0 2.43695e-21 -0.00147913 0 
29352 1 293.5 44.1678 0 2.08389e-21 -0.00147913 0 
29452 1 294.5 44.1678 0 2.43695e-21 -0.00147913 0 
29552 1 295.5 44.1678 0 2.43695e-21 -0.00147913 0 
29652 1 296.5 44.1678 0 2.08389e-21 -0.00147913 0 
29752 1 297.5 44.1678 0 2.08389e-21 -0.00147913 0 
29852 1 298.5 44.1678 0 2.08389e-21 -0.00147913 0 
29952 1 299.5 44.1678 0 2.08389e-21 -0.00147913 0 
30052 1 300.5 44.1678 0 2.08389e-21 -0.00147913 0 
30152 1 301.5 44.1678 0 2.43695e-21 -0.00147913 0 
30252 1 302.5 44.1678 0 2.08389e-21 -0.00147913 0 
30352 1 303.5 44.1678 0 2.08389e-21 -0.00147913 0 
30452 1 304.5 44.1678 0 2.08389e-21 -0.00147913 0 
30552 1 305.5 44.1678 0 2.08389e-21 -0.00147913 0 
30652 1 306.5 44.1678 0 2.43695e-21 -0.00147913 0 
30752 1 307.5 44.1678 0 2.43695e-21 -0.00147913 0 
30852 1 308.5 44.1678 0 2.08389e-21 -0.00147913 0 
30952 1 309.5 44.1678 0 2.08389e-21 -0.00147913 0 
31052 1 310.5 44.1678 0 2.08389e-21 -0.00147913 0 
31152 1 311.5 44.1678 0 2.43695e-21 -0.00147913 0 
31252 1 312.5 44.1678 0 2.43695e-21 -0.00147913 0 
31352 1 313.5 44.1678 0 2.08389e-21 -0.00147913 0 
31452 1 314.5 44.1678 0 2.08389e-21 -0.00147913 0 
31552 1 315.5 44.1678 0 2.43695e-21 -0.00147913 0 
31652 1 316.5 44.1678 0 2.08389e-21 -0.00147913 0 
31752 1 317.5 44.1678 0 2.43695e-21 -0.00147913 0 
31852 1 318.5 44.1678 0 2.43695e-21 -0.00147913 0 
31952 1 319.5 44.1678 0 2.43695e-21 -0.00147913 0 
32052 1 320.5 44.1678 0 2.08389e-21 -0.00147913 0 
32152 1 321.5 44.1678 0 2.08389e-21 -0.00147913 0 
32252 1 322.5 44.1678 0 2.43695e-21 -0.00147913 0 
32352 1 323.5 44.1678 0 2.08389e-21 -0.00147913 0 
32452 1 324.5 44.1678 0 2.43695e-21 -0.00147913 0 
32552 1 325.5 44.1678 0 2.43695e-21 -0.00147913 0 
32652 1 326.5 44.1678 0 2.43695e-21 -0.00147913 0 
32752 1 327.5 44.1678 0 2.43695e-21 -0.00147913 0 
32852 1 328.5 44.1678 0 2.08389e-21 -0.00147913 0 
32952 1 329.5 44.1678 0 2.43695e-21 -0.00147913 0 
33052 1 330.5 44.1678 0 2.08389e-21 -0.00147913 0 
33152 1 331.5 44.1678 0 2.08389e-21 -0.00147913 0 
33252 1 332.5 44.1678 0 2.43695e-21 -0.00147913 0 
33352 1 333.5 44.1678 0 2.43695e-21 -0.00147913 0 
33452 1 334.5 44.1678 0 2.43695e-21 -0.00147913 0 
33552 1 335.5 44.1678 0 2.08389e-21 -0.00147913 0 
33652 1 336.5 44.1678 0 2.08389e-21 -0.00147913 0 
33752 1 337.5 44.1678 0 2.43695e-21 -0.00147913 0 
33852 1 338.5 44.1678 0 2.43695e-21 -0.00147913 0 
33952 1 339.5 44.1678 0 2.08389e-21 -0.00147913 0 
34052 1 340.5 44.1678 0 7.26253e-11 -0.00147913 0 
34152 1 341.5 44.1678 0 3.64791e-10 -0.00147913 0 
34252 1 342.5 44.1678 0 8.25767e-10 -0.00147913 0 
34352 1 343.5 44.1678 0 2.30842e-09 -0.00147913 0 
34452 1 344.5 44.1678 0 5.83698e-09 -0.00147913 0 
34552 1 345.5 44.1678 0 1.32739e-08 -0.00147913 0 
34652 1 346.5 44.1678 0 2.65054e-08 -0.00147914 0 
34752 1 347.5 44.1678 0 4.63429e-08 -0.00147916 0 
34852 1 348.5 44.1678 0 6.49151e-08 -0.00147918 0 
34952 1 349.5 44.1678 0 5.72396e-08 -0.00147921 0 
35052 1 350.5 44.1678 0 -4.07161e-08 -0.0014792 0 
35152 1 351.5 44.1678 0 -3.32699e-07 -0.00147915 0 
35252 1 352.5 44.1678 0 -8.77462e-07 -0.00147906 0 
35352 1 353.5 44.1678 0 -1.42883e-06 -0.00147905 0 
35452 1 354.5 44.1678 0 -1.1393e-06 -0.00147925 0 
35552 1 355.5 44.1678 0 1.05226e-06 -0.00147956 0 
35652 1 356.5 44.1678 0 4.53127e-06 -0.00147945 0 
35752 1 357.5 44.1678 0 4.96222e-06 -0.00147871 0 
35852 1 358.5 44.1678 0 -2.97806e-06 -0.00147881 0 
35952 1 359.5 44.1678 0 -1.6132e-05 -0.00148262 0 
36052 1 360.5 44.1678 0 -1.96535e-05 -0.00149072 0 
36152 1 361.5 44.1678 0 -7.59499e-06 -0.00149913 0 
36252 1 362.5 44.1678 0 -6.05062e-06 -0.00150667 0 
36352 1 363.5 44.1678 0 -4.31903e-05 -0.0015233 0 
36452 1 364.5 44.1678 0 -9.2014e-05 -0.00155828 0 
36552 1 365.5 44.1678 0 -0.000111976 -0.0016034 0 
36652 1 366.5 44.1678 0 -0.000147652 -0.00165463 0 
36752 1 367.5 44.1678 0 -0.000244587 -0.00173454 0 
36852 1 368.5 44.1678 0 -0.000314119 -0.00183878 0 
36952 1 369.5 44.1678 0 -0.000327714 -0.0019125 0 
37052 1 370.5 44.1678 0 -0.000420631 -0.00195919 0 
37152 1 371.5 44.1678 0 -0.000515889 -0.00203114 0 
37252 1 372.5 44.1678 0 -0.000452917 -0.00206528 0 
37352 1 373.5 44.1678 0 -0.000449819 -0.00199934 0 
37452 1 374.5 44.1678 0 -0.000496775 -0.0019159 0 
37552 1 375.5 44.1678 0 -0.00033037 -0.00179872 0 
37652 1 376.5 44.1677 0 -0.000282573 -0.00158677 0 
37752 1 377.5 44.1677 0 -0.000288574 -0.00144814 0 
37852 1 378.5 44.1677 0 -6.05e-05 -0.0013574 0 
37952 1 379.5 44.1677 0 -9.08186e-05 -0.00115081 0 
38052 1 380.5 44.1677 0 -0.000107425 -0.00118077 0 
38152 1 381.5 44.1677 0 3.51559e-05 -0.00112175 0 
38252 1 382.5 44.1677 0 -0.00013008 -0.00119188 0 
38352 1 383.5 44.1677 0 -0.000124381 -0.00128503 0 
38452 1 384.5 44.1677 0 -0.000154618 -0.0013993 0 
38552 1 385.5 44.1677 0 -0.000262078 -0.00150188 0 
38652 1 386.5 44.1676 0 -0.000234007 -0.00162544 0 
38752 1 387.5 44.1676 0 -0.000294079 -0.00177347 0 
38852 1 388.5 44.1676 0 -0.000210887 -0.00186425 0 
38952 1 389.5 44.1676 0 -0.000167396 -0.00188456 0 
39052 1 390.5 44.1676 0 0.000152455 -0.00211266 0 
39152 1 391.5 44.1676 0 0.000292333 -0.00218483 0 
39252 1 392.5 44.1675 0 0.000694823 -0.00241551 0 
39352 1 393.5 44.1675 0 0.000691008 -0.00234379 0 
39452 1 394.5 44.1675 0 0.000308777 -0.00156205 0 
39552 1 395.5 44.1674 0 -0.000129255 -0.000592001 0 
39652 1 396.5 44.1674 0 -6.06977e-05 -0.000378737 0 
39752 1 397.5 44.1673 0 0.000294175 -0.000347895 0 
39852 2 398.5 44.1673 0 -0.00421362 -0.000397233 0 
39952 2 399.5 44.1673 0 -2.20719e-05 -0.000198667 0 
