ITEM: TIMESTEP
1420
ITEM: NUMBER OF ATOMS
400
ITEM: BOX BOUNDS ff pp pp
0.0000000000000000e+00 4.0000000000000000e+02
0.0000000000000000e+00 8.6602540000000005e+01
0.0000000000000000e+00 1.0000000000000000e+00
ITEM: ATOMS id type x y z fx fy fz 
52 2 0.5 44.1673 0 0 -0.000397333 0 
152 2 1.5 44.1673 0 -2.87448e-05 -0.000397333 0 
252 1 2.5 44.1673 0 7.32049e-05 -7.68484e-05 0 
352 1 3.5 44.1673 0 -2.97484e-05 -0.000227028 0 
452 1 4.5 44.1673 0 -4.25124e-05 -5.82116e-05 0 
552 1 5.5 44.1673 0 -4.55343e-05 -9.7601e-05 0 
652 1 6.5 44.1673 0 4.5714e-05 5.30471e-05 0 
752 1 7.5 44.1673 0 -8.83429e-05 -7.45834e-06 0 
852 1 8.5 44.1673 0 8.83897e-05 -5.32691e-06 0 
952 1 9.5 44.1673 0 -3.63751e-05 8.57599e-05 0 
1052 1 10.5 44.1673 0 -7.28842e-05 -2.99487e-05 0 
1152 1 11.5 44.1673 0 8.1483e-05 1.33541e-05 0 
1252 1 12.5 44.1673 0 -6.10844e-05 -4.00459e-05 0 
1352 1 13.5 44.1673 0 5.44746e-06 -7.91275e-06 0 
1452 1 14.5 44.1673 0 6.59648e-05 1.92915e-05 0 
1552 1 15.5 44.1673 0 -4.74825e-05 1.43451e-05 0 
1652 1 16.5 44.1673 0 -9.06597e-06 -1.18421e-05 0 
1752 1 17.5 44.1673 0 3.25117e-05 -2.84057e-06 0 
1852 1 18.5 44.1673 0 -1.73425e-05 3.21312e-06 0 
1952 1 19.5 44.1673 0 -1.69137e-05 -8.84232e-06 0 
2052 1 20.5 44.1673 0 2.08861e-05 -6.78152e-06 0 
2152 1 21.5 44.1673 0 1.69872e-05 4.98021e-06 0 
2252 1 22.5 44.1673 0 -6.77814e-06 6.82613e-06 0 
2352 1 23.5 44.1673 0 -1.10542e-05 1.11726e-06 0 
2452 1 24.5 44.1673 0 -2.29714e-06 -2.20574e-06 0 
2552 1 25.5 44.1673 0 2.679e-06 -1.62766e-06 0 
2652 1 26.5 44.1673 0 1.98766e-06 -2.68416e-07 0 
2752 1 27.5 44.1673 0 2.91163e-07 2.65986e-07 0 
2852 1 28.5 44.1673 0 -3.1703e-07 2.13829e-07 0 
2952 1 29.5 44.1673 0 -2.26257e-07 7.42321e-08 0 
3052 1 30.5 44.1673 0 -5.89702e-08 1.32938e-08 0 
3152 1 31.5 44.1673 0 7.5816e-09 6.54933e-09 0 
3252 1 32.5 44.1673 0 1.32248e-08 1.29637e-08 0 
3352 1 33.5 44.1673 0 5.95108e-09 1.73844e-08 0 
3452 1 34.5 44.1673 0 1.42419e-09 1.89161e-08 0 
3552 1 35.5 44.1673 0 1.30631e-11 1.91545e-08 0 
3652 1 36.5 44.1673 0 -1.47638e-10 1.91085e-08 0 
3752 1 37.5 44.1673 0 -6.55765e-11 1.90709e-08 0 
3852 1 38.5 44.1673 0 -3.10389e-11 1.90334e-08 0 
3952 1 39.5 44.1673 0 -1.9398e-11 1.90319e-08 0 
4052 1 40.5 44.1673 0 -4.05654e-24 1.9028e-08 0 
4152 1 41.5 44.1673 0 -4.05654e-24 1.9028e-08 0 
4252 1 42.5 44.1673 0 -4.05654e-24 1.9028e-08 0 
4352 1 43.5 44.1673 0 6.86971e-24 1.9028e-08 0 
4452 1 44.5 44.1673 0 6.86971e-24 1.9028e-08 0 
4552 1 45.5 44.1673 0 -4.05654e-24 1.9028e-08 0 
4652 1 46.5 44.1673 0 6.86971e-24 1.9028e-08 0 
4752 1 47.5 44.1673 0 -4.05654e-24 1.9028e-08 0 
4852 1 48.5 44.1673 0 -4.05654e-24 1.9028e-08 0 
4952 1 49.5 44.1673 0 -4.05654e-24 1.9028e-08 0 
5052 1 50.5 44.1673 0 6.86971e-24 1.9028e-08 0 
5152 1 51.5 44.1673 0 6.86971e-24 1.9028e-08 0 
5252 1 52.5 44.1673 0 -4.05654e-24 1.9028e-08 0 
5352 1 53.5 44.1673 0 6.86971e-24 1.9028e-08 0 
5452 1 54.5 44.1673 0 -4.05654e-24 1.9028e-08 0 
5552 1 55.5 44.1673 0 -4.05654e-24 1.9028e-08 0 
5652 1 56.5 44.1673 0 6.86971e-24 1.9028e-08 0 
5752 1 57.5 44.1673 0 6.86971e-24 1.9028e-08 0 
5852 1 58.5 44.1673 0 -4.05654e-24 1.9028e-08 0 
5952 1 59.5 44.1673 0 6.86971e-24 1.9028e-08 0 
6052 1 60.5 44.1673 0 6.86971e-24 1.9028e-08 0 
6152 1 61.5 44.1673 0 6.86971e-24 1.9028e-08 0 
6252 1 62.5 44.1673 0 6.86971e-24 1.9028e-08 0 
6352 1 63.5 44.1673 0 6.86971e-24 1.9028e-08 0 
6452 1 64.5 44.1673 0 -4.05654e-24 1.9028e-08 0 
6552 1 65.5 44.1673 0 6.86971e-24 1.9028e-08 0 
6652 1 66.5 44.1673 0 -4.05654e-24 1.9028e-08 0 
6752 1 67.5 44.1673 0 -4.05654e-24 1.9028e-08 0 
6852 1 68.5 44.1673 0 -4.05654e-24 1.9028e-08 0 
6952 1 69.5 44.1673 0 6.86971e-24 1.9028e-08 0 
7052 1 70.5 44.1673 0 -4.05654e-24 1.9028e-08 0 
7152 1 71.5 44.1673 0 -4.05654e-24 1.9028e-08 0 
7252 1 72.5 44.1673 0 6.86971e-24 1.9028e-08 0 
7352 1 73.5 44.1673 0 6.86971e-24 1.9028e-08 0 
7452 1 74.5 44.1673 0 -4.05654e-24 1.9028e-08 0 
7552 1 75.5 44.1673 0 6.86971e-24 1.9028e-08 0 
7652 1 76.5 44.1673 0 6.86971e-24 1.9028e-08 0 
7752 1 77.5 44.1673 0 -4.05654e-24 1.9028e-08 0 
7852 1 78.5 44.1673 0 -4.05654e-24 1.9028e-08 0 
7952 1 79.5 44.1673 0 -4.05654e-24 1.9028e-08 0 
8052 1 80.5 44.1673 0 -4.05654e-24 1.9028e-08 0 
8152 1 81.5 44.1673 0 6.86971e-24 1.9028e-08 0 
8252 1 82.5 44.1673 0 6.86971e-24 1.9028e-08 0 
8352 1 83.5 44.1673 0 -4.05654e-24 1.9028e-08 0 
8452 1 84.5 44.1673 0 -4.05654e-24 1.9028e-08 0 
8552 1 85.5 44.1673 0 6.86971e-24 1.9028e-08 0 
8652 1 86.5 44.1673 0 6.86971e-24 1.9028e-08 0 
8752 1 87.5 44.1673 0 -4.05654e-24 1.9028e-08 0 
8852 1 88.5 44.1673 0 6.86971e-24 1.9028e-08 0 
8952 1 89.5 44.1673 0 6.86971e-24 1.9028e-08 0 
9052 1 90.5 44.1673 0 -4.05654e-24 1.9028e-08 0 
9152 1 91.5 44.1673 0 -4.05654e-24 1.9028e-08 0 
9252 1 92.5 44.1673 0 -4.05654e-24 1.9028e-08 0 
9352 1 93.5 44.1673 0 6.86971e-24 1.9028e-08 0 
9452 1 94.5 44.1673 0 -4.05654e-24 1.9028e-08 0 
9552 1 95.5 44.1673 0 6.86971e-24 1.9028e-08 0 
9652 1 96.5 44.1673 0 -4.05654e-24 1.9028e-08 0 
9752 1 97.5 44.1673 0 6.86971e-24 1.9028e-08 0 
9852 1 98.5 44.1673 0 -4.05654e-24 1.9028e-08 0 
9952 1 99.5 44.1673 0 -4.05654e-24 1.9028e-08 0 
10052 1 100.5 44.1673 0 -4.05654e-24 1.9028e-08 0 
10152 1 101.5 44.1673 0 6.86971e-24 1.9028e-08 0 
10252 1 102.5 44.1673 0 6.86971e-24 1.9028e-08 0 
10352 1 103.5 44.1673 0 6.86971e-24 1.9028e-08 0 
10452 1 104.5 44.1673 0 6.86971e-24 1.9028e-08 0 
10552 1 105.5 44.1673 0 -4.05654e-24 1.9028e-08 0 
10652 1 106.5 44.1673 0 -4.05654e-24 1.9028e-08 0 
10752 1 107.5 44.1673 0 6.86971e-24 1.9028e-08 0 
10852 1 108.5 44.1673 0 -4.05654e-24 1.9028e-08 0 
10952 1 109.5 44.1673 0 -4.05654e-24 1.9028e-08 0 
11052 1 110.5 44.1673 0 -4.05654e-24 1.9028e-08 0 
11152 1 111.5 44.1673 0 -4.05654e-24 1.9028e-08 0 
11252 1 112.5 44.1673 0 -4.05654e-24 1.9028e-08 0 
11352 1 113.5 44.1673 0 -4.05654e-24 1.9028e-08 0 
11452 1 114.5 44.1673 0 -4.05654e-24 1.9028e-08 0 
11552 1 115.5 44.1673 0 6.86971e-24 1.9028e-08 0 
11652 1 116.5 44.1673 0 -4.05654e-24 1.9028e-08 0 
11752 1 117.5 44.1673 0 -4.05654e-24 1.9028e-08 0 
11852 1 118.5 44.1673 0 -4.05654e-24 1.9028e-08 0 
11952 1 119.5 44.1673 0 -4.05654e-24 1.9028e-08 0 
12052 1 120.5 44.1673 0 -4.05654e-24 1.9028e-08 0 
12152 1 121.5 44.1673 0 -4.05654e-24 1.9028e-08 0 
12252 1 122.5 44.1673 0 6.86971e-24 1.9028e-08 0 
12352 1 123.5 44.1673 0 6.86971e-24 1.9028e-08 0 
12452 1 124.5 44.1673 0 -4.05654e-24 1.9028e-08 0 
12552 1 125.5 44.1673 0 6.86971e-24 1.9028e-08 0 
12652 1 126.5 44.1673 0 -4.05654e-24 1.9028e-08 0 
12752 1 127.5 44.1673 0 -4.05654e-24 1.9028e-08 0 
12852 1 128.5 44.1673 0 -4.05654e-24 1.9028e-08 0 
12952 1 129.5 44.1673 0 -4.05654e-24 1.9028e-08 0 
13052 1 130.5 44.1673 0 -4.05654e-24 1.9028e-08 0 
13152 1 131.5 44.1673 0 6.86971e-24 1.9028e-08 0 
13252 1 132.5 44.1673 0 6.86971e-24 1.9028e-08 0 
13352 1 133.5 44.1673 0 6.86971e-24 1.9028e-08 0 
13452 1 134.5 44.1673 0 6.86971e-24 1.9028e-08 0 
13552 1 135.5 44.1673 0 -4.05654e-24 1.9028e-08 0 
13652 1 136.5 44.1673 0 -4.05654e-24 1.9028e-08 0 
13752 1 137.5 44.1673 0 6.86971e-24 1.9028e-08 0 
13852 1 138.5 44.1673 0 6.86971e-24 1.9028e-08 0 
13952 1 139.5 44.1673 0 -4.05654e-24 1.9028e-08 0 
14052 1 140.5 44.1673 0 6.86971e-24 1.9028e-08 0 
14152 1 141.5 44.1673 0 6.86971e-24 1.9028e-08 0 
14252 1 142.5 44.1673 0 6.86971e-24 1.9028e-08 0 
14352 1 143.5 44.1673 0 -4.05654e-24 1.9028e-08 0 
14452 1 144.5 44.1673 0 -4.05654e-24 1.9028e-08 0 
14552 1 145.5 44.1673 0 6.86971e-24 1.9028e-08 0 
14652 1 146.5 44.1673 0 -4.05654e-24 1.9028e-08 0 
14752 1 147.5 44.1673 0 6.86971e-24 1.9028e-08 0 
14852 1 148.5 44.1673 0 6.86971e-24 1.9028e-08 0 
14952 1 149.5 44.1673 0 6.86971e-24 1.9028e-08 0 
15052 1 150.5 44.1673 0 6.86971e-24 1.9028e-08 0 
15152 1 151.5 44.1673 0 6.86971e-24 1.9028e-08 0 
15252 1 152.5 44.1673 0 -4.05654e-24 1.9028e-08 0 
15352 1 153.5 44.1673 0 6.86971e-24 1.9028e-08 0 
15452 1 154.5 44.1673 0 6.86971e-24 1.9028e-08 0 
15552 1 155.5 44.1673 0 4.43328e-11 1.90295e-08 0 
15652 1 156.5 44.1673 0 5.27961e-10 1.90323e-08 0 
15752 1 157.5 44.1673 0 3.58184e-09 1.90281e-08 0 
15852 1 158.5 44.1673 0 2.43693e-08 1.9021e-08 0 
15952 1 159.5 44.1673 0 1.55748e-07 1.90125e-08 0 
16052 1 160.5 44.1673 0 9.24578e-07 1.90394e-08 0 
16152 1 161.5 44.1673 0 5.08772e-06 1.90121e-08 0 
16252 1 162.5 44.1673 0 2.5835e-05 1.9012e-08 0 
16352 1 163.5 44.1673 0 0.000120438 1.89925e-08 0 
16452 1 164.5 44.1673 0 0.000512347 1.8887e-08 0 
16552 1 165.5 44.1673 0 0.00197448 1.85682e-08 0 
16652 1 166.5 44.1673 0 0.00683146 1.71443e-08 0 
16752 1 167.5 44.1673 0 0.0209768 1.2154e-08 0 
16852 1 168.5 44.1673 0 0.0562875 -4.41713e-09 0 
16952 1 169.5 44.1673 0 0.129091 -5.21655e-08 0 
17052 1 170.501 44.1673 0 0.244297 -1.73695e-07 0 
17152 1 171.503 44.1673 0 0.357265 -4.39563e-07 0 
17252 1 172.506 44.1673 0 0.341158 -9.29485e-07 0 
17352 1 173.51 44.1673 0 0.0545506 -1.66544e-06 0 
17452 1 174.515 44.1673 0 -0.422951 -2.52783e-06 0 
17552 1 175.518 44.1673 0 -0.625134 -3.27651e-06 0 
17652 1 176.519 44.1673 0 -0.133759 -3.78775e-06 0 
17752 1 177.52 44.1673 0 0.550635 -4.30803e-06 0 
17852 1 178.524 44.1673 0 0.306595 -5.23378e-06 0 
17952 1 179.528 44.1673 0 -0.565765 -6.49774e-06 0 
18052 1 180.531 44.1673 0 -0.295512 -7.65495e-06 0 
18152 1 181.533 44.1673 0 0.647244 -8.83931e-06 0 
18252 1 182.538 44.1673 0 0.00545314 -1.06137e-05 0 
18352 1 183.543 44.1673 0 -0.684743 -1.27328e-05 0 
18452 1 184.547 44.1673 0 0.297658 -1.49324e-05 0 
18552 1 185.552 44.1673 0 0.0386472 -1.74458e-05 0 
18652 1 186.556 44.1673 0 -0.150692 -1.81321e-05 0 
18752 1 187.558 44.1673 0 0.972311 -1.81502e-05 0 
18852 1 188.565 44.1673 0 -1.25247 -2.26556e-05 0 
18952 1 189.57 44.1673 0 -1.45614 -2.14449e-05 0 
19052 1 190.571 44.1673 0 0.730834 -2.31629e-05 0 
19152 1 191.576 44.1673 0 0.477627 -2.68711e-05 0 
19252 1 192.581 44.1673 0 0.816052 -2.17989e-05 0 
19352 1 193.587 44.1673 0 -0.290911 -3.0343e-05 0 
19452 1 194.593 44.1673 0 1.96685 -3.03223e-05 0 
19552 1 195.602 44.1673 0 -0.952902 -1.81512e-05 0 
19652 1 196.611 44.1673 0 0.235178 -2.96823e-05 0 
19752 1 197.622 44.1673 0 0.953537 -4.6557e-05 0 
19852 1 198.641 44.1673 0 -1.08572 -7.04916e-05 0 
19952 1 199.668 44.1673 0 0.435172 -6.40119e-05 0 
20052 3 200.721 44.1673 0 0.00737101 1.11665e-05 0 
20152 1 201.667 44.1673 0 0.914085 6.9472e-05 0 
20252 1 202.64 44.1673 0 -0.79728 5.61252e-05 0 
20352 1 203.621 44.1673 0 1.67297 3.70952e-05 0 
20452 1 204.61 44.1673 0 0.324474 2.01884e-05 0 
20552 1 205.6 44.1673 0 0.210833 1.40222e-05 0 
20652 1 206.592 44.1673 0 1.69116 3.09348e-05 0 
20752 1 207.586 44.1673 0 -0.00394385 2.83057e-05 0 
20852 1 208.581 44.1673 0 0.669137 2.06284e-05 0 
20952 1 209.576 44.1673 0 -0.0146437 2.69094e-05 0 
21052 1 210.572 44.1673 0 -0.224031 2.21902e-05 0 
21152 1 211.57 44.1673 0 -1.95528 2.12892e-05 0 
21252 1 212.564 44.1673 0 -0.604316 2.1951e-05 0 
21352 1 213.557 44.1673 0 1.44604 1.77752e-05 0 
21452 1 214.555 44.1673 0 -0.0739079 1.81976e-05 0 
21552 1 215.551 44.1673 0 -0.214942 1.71523e-05 0 
21652 1 216.546 44.1673 0 0.164174 1.45677e-05 0 
21752 1 217.542 44.1673 0 -0.478278 1.24673e-05 0 
21852 1 218.537 44.1673 0 -0.00372273 1.04804e-05 0 
21952 1 219.533 44.1673 0 0.448124 8.76114e-06 0 
22052 1 220.53 44.1673 0 -0.234406 7.53001e-06 0 
22152 1 221.527 44.1673 0 -0.386653 6.36798e-06 0 
22252 1 222.523 44.1673 0 0.274345 5.17446e-06 0 
22352 1 223.52 44.1673 0 0.394984 4.28706e-06 0 
22452 1 224.519 44.1673 0 -0.184724 3.72923e-06 0 
22552 1 225.517 44.1673 0 -0.546318 3.16506e-06 0 
22652 1 226.514 44.1673 0 -0.327264 2.40701e-06 0 
22752 1 227.509 44.1673 0 0.0915534 1.57919e-06 0 
22852 1 228.505 44.1673 0 0.327547 8.9129e-07 0 
22952 1 229.503 44.1673 0 0.329224 4.39411e-07 0 
23052 1 230.501 44.1673 0 0.222861 1.95545e-07 0 
23152 1 231.5 44.1673 0 0.11763 8.43204e-08 0 
23252 1 232.5 44.1673 0 0.0514055 4.05479e-08 0 
23352 1 233.5 44.1673 0 0.0192263 2.53479e-08 0 
23452 1 234.5 44.1673 0 0.00628703 2.06237e-08 0 
23552 1 235.5 44.1673 0 0.00182481 1.94239e-08 0 
23652 1 236.5 44.1673 0 0.000475494 1.9154e-08 0 
23752 1 237.5 44.1673 0 0.000112228 1.9006e-08 0 
23852 1 238.5 44.1673 0 2.41674e-05 1.90303e-08 0 
23952 1 239.5 44.1673 0 4.777e-06 1.90121e-08 0 
24052 1 240.5 44.1673 0 8.71064e-07 1.90408e-08 0 
24152 1 241.5 44.1673 0 1.47228e-07 1.90182e-08 0 
24252 1 242.5 44.1673 0 2.31412e-08 1.90126e-08 0 
24352 1 243.5 44.1673 0 3.40216e-09 1.90154e-08 0 
24452 1 244.5 44.1673 0 4.84908e-10 1.9021e-08 0 
24552 1 245.5 44.1673 0 4.51561e-11 1.9028e-08 0 
24652 1 246.5 44.1673 0 -4.05654e-24 1.9028e-08 0 
24752 1 247.5 44.1673 0 6.86971e-24 1.9028e-08 0 
24852 1 248.5 44.1673 0 6.86971e-24 1.9028e-08 0 
24952 1 249.5 44.1673 0 -4.05654e-24 1.9028e-08 0 
25052 1 250.5 44.1673 0 6.86971e-24 1.9028e-08 0 
25152 1 251.5 44.1673 0 6.86971e-24 1.9028e-08 0 
25252 1 252.5 44.1673 0 -4.05654e-24 1.9028e-08 0 
25352 1 253.5 44.1673 0 6.86971e-24 1.9028e-08 0 
25452 1 254.5 44.1673 0 -4.05654e-24 1.9028e-08 0 
25552 1 255.5 44.1673 0 -4.05654e-24 1.9028e-08 0 
25652 1 256.5 44.1673 0 6.86971e-24 1.9028e-08 0 
25752 1 257.5 44.1673 0 6.86971e-24 1.9028e-08 0 
25852 1 258.5 44.1673 0 -4.05654e-24 1.9028e-08 0 
25952 1 259.5 44.1673 0 6.86971e-24 1.9028e-08 0 
26052 1 260.5 44.1673 0 6.86971e-24 1.9028e-08 0 
26152 1 261.5 44.1673 0 6.86971e-24 1.9028e-08 0 
26252 1 262.5 44.1673 0 6.86971e-24 1.9028e-08 0 
26352 1 263.5 44.1673 0 -4.05654e-24 1.9028e-08 0 
26452 1 264.5 44.1673 0 -4.05654e-24 1.9028e-08 0 
26552 1 265.5 44.1673 0 -4.05654e-24 1.9028e-08 0 
26652 1 266.5 44.1673 0 -4.05654e-24 1.9028e-08 0 
26752 1 267.5 44.1673 0 -4.05654e-24 1.9028e-08 0 
26852 1 268.5 44.1673 0 6.86971e-24 1.9028e-08 0 
26952 1 269.5 44.1673 0 6.86971e-24 1.9028e-08 0 
27052 1 270.5 44.1673 0 6.86971e-24 1.9028e-08 0 
27152 1 271.5 44.1673 0 6.86971e-24 1.9028e-08 0 
27252 1 272.5 44.1673 0 -4.05654e-24 1.9028e-08 0 
27352 1 273.5 44.1673 0 -4.05654e-24 1.9028e-08 0 
27452 1 274.5 44.1673 0 6.86971e-24 1.9028e-08 0 
27552 1 275.5 44.1673 0 -4.05654e-24 1.9028e-08 0 
27652 1 276.5 44.1673 0 -4.05654e-24 1.9028e-08 0 
27752 1 277.5 44.1673 0 -4.05654e-24 1.9028e-08 0 
27852 1 278.5 44.1673 0 -4.05654e-24 1.9028e-08 0 
27952 1 279.5 44.1673 0 -4.05654e-24 1.9028e-08 0 
28052 1 280.5 44.1673 0 -4.05654e-24 1.9028e-08 0 
28152 1 281.5 44.1673 0 -4.05654e-24 1.9028e-08 0 
28252 1 282.5 44.1673 0 6.86971e-24 1.9028e-08 0 
28352 1 283.5 44.1673 0 6.86971e-24 1.9028e-08 0 
28452 1 284.5 44.1673 0 -4.05654e-24 1.9028e-08 0 
28552 1 285.5 44.1673 0 -4.05654e-24 1.9028e-08 0 
28652 1 286.5 44.1673 0 6.86971e-24 1.9028e-08 0 
28752 1 287.5 44.1673 0 -4.05654e-24 1.9028e-08 0 
28852 1 288.5 44.1673 0 6.86971e-24 1.9028e-08 0 
28952 1 289.5 44.1673 0 6.86971e-24 1.9028e-08 0 
29052 1 290.5 44.1673 0 6.86971e-24 1.9028e-08 0 
29152 1 291.5 44.1673 0 -4.05654e-24 1.9028e-08 0 
29252 1 292.5 44.1673 0 6.86971e-24 1.9028e-08 0 
29352 1 293.5 44.1673 0 -4.05654e-24 1.9028e-08 0 
29452 1 294.5 44.1673 0 6.86971e-24 1.9028e-08 0 
29552 1 295.5 44.1673 0 6.86971e-24 1.9028e-08 0 
29652 1 296.5 44.1673 0 -4.05654e-24 1.9028e-08 0 
29752 1 297.5 44.1673 0 -4.05654e-24 1.9028e-08 0 
29852 1 298.5 44.1673 0 -4.05654e-24 1.9028e-08 0 
29952 1 299.5 44.1673 0 -4.05654e-24 1.9028e-08 0 
30052 1 300.5 44.1673 0 -4.05654e-24 1.9028e-08 0 
30152 1 301.5 44.1673 0 6.86971e-24 1.9028e-08 0 
30252 1 302.5 44.1673 0 -4.05654e-24 1.9028e-08 0 
30352 1 303.5 44.1673 0 -4.05654e-24 1.9028e-08 0 
30452 1 304.5 44.1673 0 -4.05654e-24 1.9028e-08 0 
30552 1 305.5 44.1673 0 -4.05654e-24 1.9028e-08 0 
30652 1 306.5 44.1673 0 6.86971e-24 1.9028e-08 0 
30752 1 307.5 44.1673 0 6.86971e-24 1.9028e-08 0 
30852 1 308.5 44.1673 0 -4.05654e-24 1.9028e-08 0 
30952 1 309.5 44.1673 0 -4.05654e-24 1.9028e-08 0 
31052 1 310.5 44.1673 0 -4.05654e-24 1.9028e-08 0 
31152 1 311.5 44.1673 0 6.86971e-24 1.9028e-08 0 
31252 1 312.5 44.1673 0 6.86971e-24 1.9028e-08 0 
31352 1 313.5 44.1673 0 -4.05654e-24 1.9028e-08 0 
31452 1 314.5 44.1673 0 -4.05654e-24 1.9028e-08 0 
31552 1 315.5 44.1673 0 6.86971e-24 1.9028e-08 0 
31652 1 316.5 44.1673 0 -4.05654e-24 1.9028e-08 0 
31752 1 317.5 44.1673 0 6.86971e-24 1.9028e-08 0 
31852 1 318.5 44.1673 0 6.86971e-24 1.9028e-08 0 
31952 1 319.5 44.1673 0 6.86971e-24 1.9028e-08 0 
32052 1 320.5 44.1673 0 -4.05654e-24 1.9028e-08 0 
32152 1 321.5 44.1673 0 -4.05654e-24 1.9028e-08 0 
32252 1 322.5 44.1673 0 6.86971e-24 1.9028e-08 0 
32352 1 323.5 44.1673 0 -4.05654e-24 1.9028e-08 0 
32452 1 324.5 44.1673 0 6.86971e-24 1.9028e-08 0 
32552 1 325.5 44.1673 0 6.86971e-24 1.9028e-08 0 
32652 1 326.5 44.1673 0 6.86971e-24 1.9028e-08 0 
32752 1 327.5 44.1673 0 6.86971e-24 1.9028e-08 0 
32852 1 328.5 44.1673 0 -4.05654e-24 1.9028e-08 0 
32952 1 329.5 44.1673 0 6.86971e-24 1.9028e-08 0 
33052 1 330.5 44.1673 0 -4.05654e-24 1.9028e-08 0 
33152 1 331.5 44.1673 0 -4.05654e-24 1.9028e-08 0 
33252 1 332.5 44.1673 0 6.86971e-24 1.9028e-08 0 
33352 1 333.5 44.1673 0 6.86971e-24 1.9028e-08 0 
33452 1 334.5 44.1673 0 6.86971e-24 1.9028e-08 0 
33552 1 335.5 44.1673 0 -4.05654e-24 1.9028e-08 0 
33652 1 336.5 44.1673 0 -4.05654e-24 1.9028e-08 0 
33752 1 337.5 44.1673 0 6.86971e-24 1.9028e-08 0 
33852 1 338.5 44.1673 0 6.86971e-24 1.9028e-08 0 
33952 1 339.5 44.1673 0 -4.05654e-24 1.9028e-08 0 
34052 1 340.5 44.1673 0 6.86971e-24 1.9028e-08 0 
34152 1 341.5 44.1673 0 6.86971e-24 1.9028e-08 0 
34252 1 342.5 44.1673 0 6.86971e-24 1.9028e-08 0 
34352 1 343.5 44.1673 0 -4.05654e-24 1.9028e-08 0 
34452 1 344.5 44.1673 0 6.86971e-24 1.9028e-08 0 
34552 1 345.5 44.1673 0 -4.05654e-24 1.9028e-08 0 
34652 1 346.5 44.1673 0 6.86971e-24 1.9028e-08 0 
34752 1 347.5 44.1673 0 -4.05654e-24 1.9028e-08 0 
34852 1 348.5 44.1673 0 -4.05654e-24 1.9028e-08 0 
34952 1 349.5 44.1673 0 6.86971e-24 1.9028e-08 0 
35052 1 350.5 44.1673 0 -4.05654e-24 1.9028e-08 0 
35152 1 351.5 44.1673 0 6.86971e-24 1.9028e-08 0 
35252 1 352.5 44.1673 0 6.86971e-24 1.9028e-08 0 
35352 1 353.5 44.1673 0 6.86971e-24 1.9028e-08 0 
35452 1 354.5 44.1673 0 6.86971e-24 1.9028e-08 0 
35552 1 355.5 44.1673 0 -4.05654e-24 1.9028e-08 0 
35652 1 356.5 44.1673 0 -4.05654e-24 1.9028e-08 0 
35752 1 357.5 44.1673 0 6.86971e-24 1.9028e-08 0 
35852 1 358.5 44.1673 0 6.86971e-24 1.9028e-08 0 
35952 1 359.5 44.1673 0 6.86971e-24 1.9028e-08 0 
36052 1 360.5 44.1673 0 -4.05654e-24 1.9028e-08 0 
36152 1 361.5 44.1673 0 5.93931e-11 1.90295e-08 0 
36252 1 362.5 44.1673 0 1.47854e-10 1.90923e-08 0 
36352 1 363.5 44.1673 0 2.66002e-11 1.91698e-08 0 
36452 1 364.5 44.1673 0 -1.56093e-10 1.91064e-08 0 
36552 1 365.5 44.1673 0 -1.33934e-09 1.87855e-08 0 
36652 1 366.5 44.1673 0 -5.84207e-09 1.75139e-08 0 
36752 1 367.5 44.1673 0 -1.32664e-08 1.30502e-08 0 
36852 1 368.5 44.1673 0 -7.61661e-09 6.51804e-09 0 
36952 1 369.5 44.1673 0 5.88166e-08 1.32513e-08 0 
37052 1 370.5 44.1673 0 2.26532e-07 7.42196e-08 0 
37152 1 371.5 44.1673 0 3.16792e-07 2.13872e-07 0 
37252 1 372.5 44.1673 0 -2.90862e-07 2.65977e-07 0 
37352 1 373.5 44.1673 0 -1.9876e-06 -2.68409e-07 0 
37452 1 374.5 44.1673 0 -2.67889e-06 -1.62764e-06 0 
37552 1 375.5 44.1673 0 2.2969e-06 -2.20579e-06 0 
37652 1 376.5 44.1673 0 1.10542e-05 1.11723e-06 0 
37752 1 377.5 44.1673 0 6.77825e-06 6.82619e-06 0 
37852 1 378.5 44.1673 0 -1.69873e-05 4.98024e-06 0 
37952 1 379.5 44.1673 0 -2.0886e-05 -6.7813e-06 0 
38052 1 380.5 44.1673 0 1.69138e-05 -8.84242e-06 0 
38152 1 381.5 44.1673 0 1.73423e-05 3.2131e-06 0 
38252 1 382.5 44.1673 0 -3.25114e-05 -2.84065e-06 0 
38352 1 383.5 44.1673 0 9.06583e-06 -1.1842e-05 0 
38452 1 384.5 44.1673 0 4.74831e-05 1.43452e-05 0 
38552 1 385.5 44.1673 0 -6.59653e-05 1.92915e-05 0 
38652 1 386.5 44.1673 0 -5.44722e-06 -7.91289e-06 0 
38752 1 387.5 44.1673 0 6.10845e-05 -4.00458e-05 0 
38852 1 388.5 44.1673 0 -8.14831e-05 1.33538e-05 0 
38952 1 389.5 44.1673 0 7.28842e-05 -2.99485e-05 0 
39052 1 390.5 44.1673 0 3.63753e-05 8.57599e-05 0 
39152 1 391.5 44.1673 0 -8.83901e-05 -5.32693e-06 0 
39252 1 392.5 44.1673 0 8.83431e-05 -7.45818e-06 0 
39352 1 393.5 44.1673 0 -4.5714e-05 5.30469e-05 0 
39452 1 394.5 44.1673 0 4.55343e-05 -9.76009e-05 0 
39552 1 395.5 44.1673 0 4.25124e-05 -5.82116e-05 0 
39652 1 396.5 44.1673 0 2.9748e-05 -0.000227028 0 
39752 1 397.5 44.1673 0 -7.32046e-05 -7.68485e-05 0 
39852 2 398.5 44.1673 0 2.87447e-05 -0.000397333 0 
39952 2 399.5 44.1673 0 -2.20719e-05 -0.000198667 0 
