ITEM: TIMESTEP
1560
ITEM: NUMBER OF ATOMS
400
ITEM: BOX BOUNDS ff pp pp
0.0000000000000000e+00 4.0000000000000000e+02
0.0000000000000000e+00 8.6602540000000005e+01
0.0000000000000000e+00 1.0000000000000000e+00
ITEM: ATOMS id type x y z fx fy fz 
52 2 0.5 44.1673 0 0 -0.000397333 0 
152 2 1.5 44.1673 0 1.21321e-05 -0.000397333 0 
252 1 2.5 44.1673 0 -4.88895e-06 7.33169e-05 0 
352 1 3.5 44.1673 0 -1.98486e-05 0.000290121 0 
452 1 4.5 44.1673 0 3.70799e-05 0.00050223 0 
552 1 5.5 44.1673 0 -3.40307e-05 0.0005256 0 
652 1 6.5 44.1673 0 7.61238e-05 0.000565589 0 
752 1 7.5 44.1673 0 4.63077e-05 0.000403392 0 
852 1 8.5 44.1673 0 -1.0783e-07 0.000519403 0 
952 1 9.5 44.1673 0 1.95646e-05 0.000529623 0 
1052 1 10.5 44.1673 0 -1.64076e-05 0.000512435 0 
1152 1 11.5 44.1673 0 6.14641e-05 0.000550983 0 
1252 1 12.5 44.1673 0 -7.19566e-05 0.000580223 0 
1352 1 13.5 44.1673 0 4.69334e-05 0.000564996 0 
1452 1 14.5 44.1673 0 5.10973e-05 0.000594031 0 
1552 1 15.5 44.1673 0 -7.67156e-05 0.000587292 0 
1652 1 16.5 44.1673 0 9.12281e-05 0.000598897 0 
1752 1 17.5 44.1673 0 -3.37162e-05 0.000610782 0 
1852 1 18.5 44.1673 0 -6.20325e-05 0.000591303 0 
1952 1 19.5 44.1673 0 5.76341e-05 0.000576272 0 
2052 1 20.5 44.1673 0 -4.62404e-06 0.000596137 0 
2152 1 21.5 44.1673 0 -2.70459e-05 0.00059052 0 
2252 1 22.5 44.1673 0 3.51352e-05 0.000598449 0 
2352 1 23.5 44.1673 0 6.25868e-06 0.000610293 0 
2452 1 24.5 44.1673 0 -2.78389e-05 0.000596251 0 
2552 1 25.5 44.1673 0 6.6282e-06 0.000588156 0 
2652 1 26.5 44.1673 0 2.06191e-05 0.000599812 0 
2752 1 27.5 44.1673 0 -7.90345e-06 0.000605616 0 
2852 1 28.5 44.1673 0 -1.98531e-05 0.000598098 0 
2952 1 29.5 44.1673 0 -3.94132e-06 0.000592027 0 
3052 1 30.5 44.1673 0 8.94261e-06 0.000593679 0 
3152 1 31.5 44.1673 0 7.17819e-06 0.000597319 0 
3252 1 32.5 44.1673 0 1.04306e-06 0.000598426 0 
3352 1 33.5 44.1673 0 -1.51341e-06 0.000597651 0 
3452 1 34.5 44.1673 0 -1.04314e-06 0.000596872 0 
3552 1 35.5 44.1673 0 -1.89287e-07 0.000596683 0 
3652 1 36.5 44.1673 0 9.87074e-08 0.000596803 0 
3752 1 37.5 44.1673 0 5.77441e-08 0.000596931 0 
3852 1 38.5 44.1673 0 -8.88704e-09 0.000596989 0 
3952 1 39.5 44.1673 0 -2.44272e-08 0.000597002 0 
4052 1 40.5 44.1673 0 -1.50602e-08 0.000597002 0 
4152 1 41.5 44.1673 0 -5.31075e-09 0.000597002 0 
4252 1 42.5 44.1673 0 -9.73612e-10 0.000597002 0 
4352 1 43.5 44.1673 0 1.15599e-10 0.000597002 0 
4452 1 44.5 44.1673 0 1.85362e-10 0.000597002 0 
4552 1 45.5 44.1673 0 6.60035e-11 0.000597002 0 
4652 1 46.5 44.1673 0 8.52212e-12 0.000597002 0 
4752 1 47.5 44.1673 0 1.98787e-11 0.000597002 0 
4852 1 48.5 44.1673 0 -1.63121e-11 0.000597002 0 
4952 1 49.5 44.1673 0 5.07698e-21 0.000597002 0 
5052 1 50.5 44.1673 0 1.51212e-23 0.000597002 0 
5152 1 51.5 44.1673 0 1.51212e-23 0.000597002 0 
5252 1 52.5 44.1673 0 5.07698e-21 0.000597002 0 
5352 1 53.5 44.1673 0 1.51212e-23 0.000597002 0 
5452 1 54.5 44.1673 0 5.07698e-21 0.000597002 0 
5552 1 55.5 44.1673 0 5.07698e-21 0.000597002 0 
5652 1 56.5 44.1673 0 1.51212e-23 0.000597002 0 
5752 1 57.5 44.1673 0 1.51212e-23 0.000597002 0 
5852 1 58.5 44.1673 0 5.07698e-21 0.000597002 0 
5952 1 59.5 44.1673 0 1.51212e-23 0.000597002 0 
6052 1 60.5 44.1673 0 1.51212e-23 0.000597002 0 
6152 1 61.5 44.1673 0 1.51212e-23 0.000597002 0 
6252 1 62.5 44.1673 0 1.51212e-23 0.000597002 0 
6352 1 63.5 44.1673 0 1.51212e-23 0.000597002 0 
6452 1 64.5 44.1673 0 5.07698e-21 0.000597002 0 
6552 1 65.5 44.1673 0 1.51212e-23 0.000597002 0 
6652 1 66.5 44.1673 0 5.07698e-21 0.000597002 0 
6752 1 67.5 44.1673 0 5.07698e-21 0.000597002 0 
6852 1 68.5 44.1673 0 5.07698e-21 0.000597002 0 
6952 1 69.5 44.1673 0 1.51212e-23 0.000597002 0 
7052 1 70.5 44.1673 0 5.07698e-21 0.000597002 0 
7152 1 71.5 44.1673 0 5.07698e-21 0.000597002 0 
7252 1 72.5 44.1673 0 1.51212e-23 0.000597002 0 
7352 1 73.5 44.1673 0 1.51212e-23 0.000597002 0 
7452 1 74.5 44.1673 0 5.07698e-21 0.000597002 0 
7552 1 75.5 44.1673 0 1.51212e-23 0.000597002 0 
7652 1 76.5 44.1673 0 1.51212e-23 0.000597002 0 
7752 1 77.5 44.1673 0 5.07698e-21 0.000597002 0 
7852 1 78.5 44.1673 0 5.07698e-21 0.000597002 0 
7952 1 79.5 44.1673 0 5.07698e-21 0.000597002 0 
8052 1 80.5 44.1673 0 5.07698e-21 0.000597002 0 
8152 1 81.5 44.1673 0 1.51212e-23 0.000597002 0 
8252 1 82.5 44.1673 0 1.51212e-23 0.000597002 0 
8352 1 83.5 44.1673 0 5.07698e-21 0.000597002 0 
8452 1 84.5 44.1673 0 5.07698e-21 0.000597002 0 
8552 1 85.5 44.1673 0 1.51212e-23 0.000597002 0 
8652 1 86.5 44.1673 0 1.51212e-23 0.000597002 0 
8752 1 87.5 44.1673 0 5.07698e-21 0.000597002 0 
8852 1 88.5 44.1673 0 1.51212e-23 0.000597002 0 
8952 1 89.5 44.1673 0 1.51212e-23 0.000597002 0 
9052 1 90.5 44.1673 0 5.07698e-21 0.000597002 0 
9152 1 91.5 44.1673 0 5.07698e-21 0.000597002 0 
9252 1 92.5 44.1673 0 5.07698e-21 0.000597002 0 
9352 1 93.5 44.1673 0 1.51212e-23 0.000597002 0 
9452 1 94.5 44.1673 0 5.07698e-21 0.000597002 0 
9552 1 95.5 44.1673 0 1.51212e-23 0.000597002 0 
9652 1 96.5 44.1673 0 5.07698e-21 0.000597002 0 
9752 1 97.5 44.1673 0 1.51212e-23 0.000597002 0 
9852 1 98.5 44.1673 0 5.07698e-21 0.000597002 0 
9952 1 99.5 44.1673 0 5.07698e-21 0.000597002 0 
10052 1 100.5 44.1673 0 5.07698e-21 0.000597002 0 
10152 1 101.5 44.1673 0 1.51212e-23 0.000597002 0 
10252 1 102.5 44.1673 0 1.51212e-23 0.000597002 0 
10352 1 103.5 44.1673 0 1.51212e-23 0.000597002 0 
10452 1 104.5 44.1673 0 1.51212e-23 0.000597002 0 
10552 1 105.5 44.1673 0 5.07698e-21 0.000597002 0 
10652 1 106.5 44.1673 0 5.07698e-21 0.000597002 0 
10752 1 107.5 44.1673 0 1.51212e-23 0.000597002 0 
10852 1 108.5 44.1673 0 5.07698e-21 0.000597002 0 
10952 1 109.5 44.1673 0 5.07698e-21 0.000597002 0 
11052 1 110.5 44.1673 0 5.07698e-21 0.000597002 0 
11152 1 111.5 44.1673 0 5.07698e-21 0.000597002 0 
11252 1 112.5 44.1673 0 5.07698e-21 0.000597002 0 
11352 1 113.5 44.1673 0 5.07698e-21 0.000597002 0 
11452 1 114.5 44.1673 0 5.07698e-21 0.000597002 0 
11552 1 115.5 44.1673 0 1.51212e-23 0.000597002 0 
11652 1 116.5 44.1673 0 5.07698e-21 0.000597002 0 
11752 1 117.5 44.1673 0 5.07698e-21 0.000597002 0 
11852 1 118.5 44.1673 0 5.07698e-21 0.000597002 0 
11952 1 119.5 44.1673 0 5.07698e-21 0.000597002 0 
12052 1 120.5 44.1673 0 5.07698e-21 0.000597002 0 
12152 1 121.5 44.1673 0 5.07698e-21 0.000597002 0 
12252 1 122.5 44.1673 0 1.51212e-23 0.000597002 0 
12352 1 123.5 44.1673 0 1.51212e-23 0.000597002 0 
12452 1 124.5 44.1673 0 5.07698e-21 0.000597002 0 
12552 1 125.5 44.1673 0 1.51212e-23 0.000597002 0 
12652 1 126.5 44.1673 0 5.07698e-21 0.000597002 0 
12752 1 127.5 44.1673 0 5.07698e-21 0.000597002 0 
12852 1 128.5 44.1673 0 5.07698e-21 0.000597002 0 
12952 1 129.5 44.1673 0 5.07698e-21 0.000597002 0 
13052 1 130.5 44.1673 0 5.07698e-21 0.000597002 0 
13152 1 131.5 44.1673 0 1.51212e-23 0.000597002 0 
13252 1 132.5 44.1673 0 1.51212e-23 0.000597002 0 
13352 1 133.5 44.1673 0 1.51212e-23 0.000597002 0 
13452 1 134.5 44.1673 0 1.51212e-23 0.000597002 0 
13552 1 135.5 44.1673 0 5.07698e-21 0.000597002 0 
13652 1 136.5 44.1673 0 5.07698e-21 0.000597002 0 
13752 1 137.5 44.1673 0 1.51212e-23 0.000597002 0 
13852 1 138.5 44.1673 0 1.51212e-23 0.000597002 0 
13952 1 139.5 44.1673 0 5.07698e-21 0.000597002 0 
14052 1 140.5 44.1673 0 1.51212e-23 0.000597002 0 
14152 1 141.5 44.1673 0 1.51212e-23 0.000597002 0 
14252 1 142.5 44.1673 0 1.51212e-23 0.000597002 0 
14352 1 143.5 44.1673 0 5.07698e-21 0.000597002 0 
14452 1 144.5 44.1673 0 2.25827e-11 0.000597002 0 
14552 1 145.5 44.1673 0 2.53323e-10 0.000597002 0 
14652 1 146.5 44.1673 0 1.53218e-09 0.000597002 0 
14752 1 147.5 44.1673 0 9.06331e-09 0.000597002 0 
14852 1 148.5 44.1673 0 5.11177e-08 0.000597002 0 
14952 1 149.5 44.1673 0 2.7062e-07 0.000597002 0 
15052 1 150.5 44.1673 0 1.34795e-06 0.000597002 0 
15152 1 151.5 44.1673 0 6.28982e-06 0.000597002 0 
15252 1 152.5 44.1673 0 2.73987e-05 0.000597002 0 
15352 1 153.5 44.1673 0 0.00011098 0.000597002 0 
15452 1 154.5 44.1673 0 0.000416061 0.000597002 0 
15552 1 155.5 44.1673 0 0.00143571 0.000597001 0 
15652 1 156.5 44.1673 0 0.00452967 0.000596999 0 
15752 1 157.5 44.1673 0 0.0129576 0.000596993 0 
15852 1 158.5 44.1673 0 0.0332457 0.000596976 0 
15952 1 159.5 44.1673 0 0.075387 0.000596933 0 
16052 1 160.501 44.1673 0 0.147853 0.000596841 0 
16152 1 161.502 44.1673 0 0.242142 0.000596669 0 
16252 1 162.504 44.1673 0 0.309262 0.000596401 0 
16352 1 163.506 44.1673 0 0.254854 0.000596075 0 
16452 1 164.51 44.1673 0 0.00344254 0.000595812 0 
16552 1 165.514 44.1673 0 -0.361006 0.000595762 0 
16652 1 166.517 44.1673 0 -0.528301 0.000595952 0 
16752 1 167.519 44.1673 0 -0.215304 0.000596146 0 
16852 1 168.519 44.1673 0 0.34851 0.000596009 0 
16952 1 169.521 44.1673 0 0.430939 0.000595559 0 
17052 1 170.525 44.1673 0 -0.191643 0.000595296 0 
17152 1 171.528 44.1673 0 -0.534003 0.000595475 0 
17252 1 172.529 44.1673 0 0.107252 0.000595534 0 
17352 1 173.531 44.1673 0 0.530852 0.000595037 0 
17452 1 174.535 44.1673 0 -0.213756 0.000594674 0 
17552 1 175.538 44.1673 0 -0.471025 0.00059487 0 
17652 1 176.54 44.1673 0 0.408414 0.000594697 0 
17752 1 177.544 44.1673 0 0.189434 0.00059406 0 
17852 1 178.549 44.1673 0 -0.517342 0.000593979 0 
17952 1 179.552 44.1673 0 0.261324 0.000593816 0 
18052 1 180.555 44.1673 0 0.000768185 0.000593539 0 
18152 1 181.559 44.1673 0 -0.82024 0.000594898 0 
18252 1 182.56 44.1673 0 0.454896 0.000594542 0 
18352 1 183.564 44.1673 0 0.42753 0.000591869 0 
18452 1 184.568 44.1673 0 0.277019 0.000595665 0 
18552 1 185.57 44.1673 0 0.369992 0.000594814 0 
18652 1 186.576 44.1673 0 -1.85719 0.000592994 0 
18752 1 187.579 44.1673 0 -0.210115 0.000596189 0 
18852 1 188.581 44.1673 0 0.371654 0.000593818 0 
18952 1 189.586 44.1673 0 -0.620287 0.000596886 0 
19052 1 190.588 44.1673 0 1.19535 0.000595529 0 
19152 1 191.593 44.1673 0 0.513828 0.000596167 0 
19252 1 192.599 44.1673 0 -0.438288 0.000603718 0 
19352 1 193.603 44.1673 0 1.61015 0.000597307 0 
19452 1 194.611 44.1673 0 -0.0180052 0.000596272 0 
19552 1 195.619 44.1673 0 -1.00308 0.000599623 0 
19652 1 196.626 44.1673 0 2.02638 0.000622543 0 
19752 1 197.641 44.1673 0 -1.78693 0.0006611 0 
19852 1 198.656 44.1673 0 1.78657 0.000625523 0 
19952 1 199.686 44.1673 0 -2.24669 0.00056414 0 
20052 3 200.736 44.1673 0 2.71482 0.000587354 0 
20152 1 201.685 44.1673 0 -1.7086 0.00061473 0 
20252 1 202.655 44.1673 0 1.80378 0.00054661 0 
20352 1 203.639 44.1673 0 -1.0098 0.000528485 0 
20452 1 204.625 44.1673 0 2.3175 0.000582697 0 
20552 1 205.618 44.1673 0 -0.523764 0.000598105 0 
20652 1 206.61 44.1673 0 0.481925 0.00059681 0 
20752 1 207.602 44.1673 0 1.66873 0.000594376 0 
20852 1 208.599 44.1673 0 -0.419579 0.000587312 0 
20952 1 209.593 44.1673 0 0.498269 0.000596792 0 
21052 1 210.589 44.1673 0 0.534799 0.000596079 0 
21152 1 211.586 44.1673 0 -1.16733 0.000595304 0 
21252 1 212.581 44.1673 0 0.000129292 0.000597592 0 
21352 1 213.579 44.1673 0 -0.851931 0.000595603 0 
21452 1 214.575 44.1673 0 -1.46807 0.00059936 0 
21552 1 215.569 44.1673 0 1.12553 0.000596913 0 
21652 1 216.567 44.1673 0 0.709862 0.000597422 0 
21752 1 217.564 44.1673 0 0.218818 0.000600501 0 
21852 1 218.561 44.1673 0 -0.0250814 0.000597731 0 
21952 1 219.559 44.1673 0 -0.81965 0.000598065 0 
22052 1 220.555 44.1673 0 0.0975665 0.000599429 0 
22152 1 221.551 44.1673 0 0.308854 0.000599234 0 
22252 1 222.548 44.1673 0 -0.412541 0.000599212 0 
22352 1 223.544 44.1673 0 0.0819775 0.000599294 0 
22452 1 224.54 44.1673 0 0.300546 0.000598912 0 
22552 1 225.537 44.1673 0 -0.31773 0.000598817 0 
22652 1 226.534 44.1673 0 -0.139121 0.000598973 0 
22752 1 227.531 44.1673 0 0.368265 0.000598717 0 
22852 1 228.529 44.1673 0 0.0303524 0.000598377 0 
22952 1 229.527 44.1673 0 -0.404414 0.00059844 0 
23052 1 230.524 44.1673 0 -0.0909841 0.00059855 0 
23152 1 231.521 44.1673 0 0.364389 0.000598305 0 
23252 1 232.519 44.1673 0 0.232555 0.000597948 0 
23352 1 233.518 44.1673 0 -0.24472 0.000597869 0 
23452 1 234.517 44.1673 0 -0.466831 0.000598049 0 
23552 1 235.513 44.1673 0 -0.283671 0.000598193 0 
23652 1 236.51 44.1673 0 0.041481 0.000598116 0 
23752 1 237.506 44.1673 0 0.251604 0.000597856 0 
23852 1 238.503 44.1673 0 0.288167 0.000597551 0 
23952 1 239.502 44.1673 0 0.221868 0.000597306 0 
24052 1 240.501 44.1673 0 0.134772 0.000597149 0 
24152 1 241.5 44.1673 0 0.0686784 0.000597065 0 
24252 1 242.5 44.1673 0 0.0303329 0.000597026 0 
24352 1 243.5 44.1673 0 0.0118515 0.000597011 0 
24452 1 244.5 44.1673 0 0.00415514 0.000597005 0 
24552 1 245.5 44.1673 0 0.00132111 0.000597003 0 
24652 1 246.5 44.1673 0 0.000384072 0.000597002 0 
24752 1 247.5 44.1673 0 0.000102773 0.000597002 0 
24852 1 248.5 44.1673 0 2.54518e-05 0.000597002 0 
24952 1 249.5 44.1673 0 5.86056e-06 0.000597002 0 
25052 1 250.5 44.1673 0 1.25974e-06 0.000597002 0 
25152 1 251.5 44.1673 0 2.53597e-07 0.000597002 0 
25252 1 252.5 44.1673 0 4.79829e-08 0.000597002 0 
25352 1 253.5 44.1673 0 8.57149e-09 0.000597002 0 
25452 1 254.5 44.1673 0 1.46022e-09 0.000597002 0 
25552 1 255.5 44.1673 0 2.48741e-10 0.000597002 0 
25652 1 256.5 44.1673 0 1.42624e-11 0.000597002 0 
25752 1 257.5 44.1673 0 1.51212e-23 0.000597002 0 
25852 1 258.5 44.1673 0 5.07698e-21 0.000597002 0 
25952 1 259.5 44.1673 0 1.51212e-23 0.000597002 0 
26052 1 260.5 44.1673 0 1.51212e-23 0.000597002 0 
26152 1 261.5 44.1673 0 1.51212e-23 0.000597002 0 
26252 1 262.5 44.1673 0 1.51212e-23 0.000597002 0 
26352 1 263.5 44.1673 0 5.07698e-21 0.000597002 0 
26452 1 264.5 44.1673 0 5.07698e-21 0.000597002 0 
26552 1 265.5 44.1673 0 5.07698e-21 0.000597002 0 
26652 1 266.5 44.1673 0 5.07698e-21 0.000597002 0 
26752 1 267.5 44.1673 0 5.07698e-21 0.000597002 0 
26852 1 268.5 44.1673 0 1.51212e-23 0.000597002 0 
26952 1 269.5 44.1673 0 1.51212e-23 0.000597002 0 
27052 1 270.5 44.1673 0 1.51212e-23 0.000597002 0 
27152 1 271.5 44.1673 0 1.51212e-23 0.000597002 0 
27252 1 272.5 44.1673 0 5.07698e-21 0.000597002 0 
27352 1 273.5 44.1673 0 5.07698e-21 0.000597002 0 
27452 1 274.5 44.1673 0 1.51212e-23 0.000597002 0 
27552 1 275.5 44.1673 0 5.07698e-21 0.000597002 0 
27652 1 276.5 44.1673 0 5.07698e-21 0.000597002 0 
27752 1 277.5 44.1673 0 5.07698e-21 0.000597002 0 
27852 1 278.5 44.1673 0 5.07698e-21 0.000597002 0 
27952 1 279.5 44.1673 0 5.07698e-21 0.000597002 0 
28052 1 280.5 44.1673 0 5.07698e-21 0.000597002 0 
28152 1 281.5 44.1673 0 5.07698e-21 0.000597002 0 
28252 1 282.5 44.1673 0 1.51212e-23 0.000597002 0 
28352 1 283.5 44.1673 0 1.51212e-23 0.000597002 0 
28452 1 284.5 44.1673 0 5.07698e-21 0.000597002 0 
28552 1 285.5 44.1673 0 5.07698e-21 0.000597002 0 
28652 1 286.5 44.1673 0 1.51212e-23 0.000597002 0 
28752 1 287.5 44.1673 0 5.07698e-21 0.000597002 0 
28852 1 288.5 44.1673 0 1.51212e-23 0.000597002 0 
28952 1 289.5 44.1673 0 1.51212e-23 0.000597002 0 
29052 1 290.5 44.1673 0 1.51212e-23 0.000597002 0 
29152 1 291.5 44.1673 0 5.07698e-21 0.000597002 0 
29252 1 292.5 44.1673 0 1.51212e-23 0.000597002 0 
29352 1 293.5 44.1673 0 5.07698e-21 0.000597002 0 
29452 1 294.5 44.1673 0 1.51212e-23 0.000597002 0 
29552 1 295.5 44.1673 0 1.51212e-23 0.000597002 0 
29652 1 296.5 44.1673 0 5.07698e-21 0.000597002 0 
29752 1 297.5 44.1673 0 5.07698e-21 0.000597002 0 
29852 1 298.5 44.1673 0 5.07698e-21 0.000597002 0 
29952 1 299.5 44.1673 0 5.07698e-21 0.000597002 0 
30052 1 300.5 44.1673 0 5.07698e-21 0.000597002 0 
30152 1 301.5 44.1673 0 1.51212e-23 0.000597002 0 
30252 1 302.5 44.1673 0 5.07698e-21 0.000597002 0 
30352 1 303.5 44.1673 0 5.07698e-21 0.000597002 0 
30452 1 304.5 44.1673 0 5.07698e-21 0.000597002 0 
30552 1 305.5 44.1673 0 5.07698e-21 0.000597002 0 
30652 1 306.5 44.1673 0 1.51212e-23 0.000597002 0 
30752 1 307.5 44.1673 0 1.51212e-23 0.000597002 0 
30852 1 308.5 44.1673 0 5.07698e-21 0.000597002 0 
30952 1 309.5 44.1673 0 5.07698e-21 0.000597002 0 
31052 1 310.5 44.1673 0 5.07698e-21 0.000597002 0 
31152 1 311.5 44.1673 0 1.51212e-23 0.000597002 0 
31252 1 312.5 44.1673 0 1.51212e-23 0.000597002 0 
31352 1 313.5 44.1673 0 5.07698e-21 0.000597002 0 
31452 1 314.5 44.1673 0 5.07698e-21 0.000597002 0 
31552 1 315.5 44.1673 0 1.51212e-23 0.000597002 0 
31652 1 316.5 44.1673 0 5.07698e-21 0.000597002 0 
31752 1 317.5 44.1673 0 1.51212e-23 0.000597002 0 
31852 1 318.5 44.1673 0 1.51212e-23 0.000597002 0 
31952 1 319.5 44.1673 0 1.51212e-23 0.000597002 0 
32052 1 320.5 44.1673 0 5.07698e-21 0.000597002 0 
32152 1 321.5 44.1673 0 5.07698e-21 0.000597002 0 
32252 1 322.5 44.1673 0 1.51212e-23 0.000597002 0 
32352 1 323.5 44.1673 0 5.07698e-21 0.000597002 0 
32452 1 324.5 44.1673 0 1.51212e-23 0.000597002 0 
32552 1 325.5 44.1673 0 1.51212e-23 0.000597002 0 
32652 1 326.5 44.1673 0 1.51212e-23 0.000597002 0 
32752 1 327.5 44.1673 0 1.51212e-23 0.000597002 0 
32852 1 328.5 44.1673 0 5.07698e-21 0.000597002 0 
32952 1 329.5 44.1673 0 1.51212e-23 0.000597002 0 
33052 1 330.5 44.1673 0 5.07698e-21 0.000597002 0 
33152 1 331.5 44.1673 0 5.07698e-21 0.000597002 0 
33252 1 332.5 44.1673 0 1.51212e-23 0.000597002 0 
33352 1 333.5 44.1673 0 1.51212e-23 0.000597002 0 
33452 1 334.5 44.1673 0 1.51212e-23 0.000597002 0 
33552 1 335.5 44.1673 0 5.07698e-21 0.000597002 0 
33652 1 336.5 44.1673 0 5.07698e-21 0.000597002 0 
33752 1 337.5 44.1673 0 1.51212e-23 0.000597002 0 
33852 1 338.5 44.1673 0 1.51212e-23 0.000597002 0 
33952 1 339.5 44.1673 0 5.07698e-21 0.000597002 0 
34052 1 340.5 44.1673 0 1.51212e-23 0.000597002 0 
34152 1 341.5 44.1673 0 1.51212e-23 0.000597002 0 
34252 1 342.5 44.1673 0 1.51212e-23 0.000597002 0 
34352 1 343.5 44.1673 0 5.07698e-21 0.000597002 0 
34452 1 344.5 44.1673 0 1.51212e-23 0.000597002 0 
34552 1 345.5 44.1673 0 5.07698e-21 0.000597002 0 
34652 1 346.5 44.1673 0 1.51212e-23 0.000597002 0 
34752 1 347.5 44.1673 0 5.07698e-21 0.000597002 0 
34852 1 348.5 44.1673 0 5.07698e-21 0.000597002 0 
34952 1 349.5 44.1673 0 1.51212e-23 0.000597002 0 
35052 1 350.5 44.1673 0 5.07698e-21 0.000597002 0 
35152 1 351.5 44.1673 0 1.51212e-23 0.000597002 0 
35252 1 352.5 44.1673 0 1.51212e-23 0.000597002 0 
35352 1 353.5 44.1673 0 7.93805e-13 0.000597002 0 
35452 1 354.5 44.1673 0 -5.16879e-11 0.000597002 0 
35552 1 355.5 44.1673 0 -2.81829e-10 0.000597002 0 
35652 1 356.5 44.1673 0 2.1627e-10 0.000597002 0 
35752 1 357.5 44.1673 0 7.27358e-10 0.000597001 0 
35852 1 358.5 44.1673 0 5.44217e-09 0.000597002 0 
35952 1 359.5 44.1673 0 1.50536e-08 0.000597002 0 
36052 1 360.5 44.1673 0 2.44016e-08 0.000597002 0 
36152 1 361.5 44.1673 0 9.10032e-09 0.000596989 0 
36252 1 362.5 44.1673 0 -5.79433e-08 0.000596931 0 
36352 1 363.5 44.1673 0 -9.86376e-08 0.000596803 0 
36452 1 364.5 44.1673 0 1.89159e-07 0.000596683 0 
36552 1 365.5 44.1673 0 1.04311e-06 0.000596871 0 
36652 1 366.5 44.1673 0 1.51324e-06 0.000597652 0 
36752 1 367.5 44.1673 0 -1.04292e-06 0.000598426 0 
36852 1 368.5 44.1673 0 -7.17816e-06 0.000597319 0 
36952 1 369.5 44.1673 0 -8.94303e-06 0.000593679 0 
37052 1 370.5 44.1673 0 3.9417e-06 0.000592027 0 
37152 1 371.5 44.1673 0 1.9853e-05 0.000598097 0 
37252 1 372.5 44.1673 0 7.90371e-06 0.000605617 0 
37352 1 373.5 44.1673 0 -2.06195e-05 0.000599812 0 
37452 1 374.5 44.1673 0 -6.62817e-06 0.000588156 0 
37552 1 375.5 44.1673 0 2.78388e-05 0.000596251 0 
37652 1 376.5 44.1673 0 -6.25858e-06 0.000610293 0 
37752 1 377.5 44.1673 0 -3.51354e-05 0.000598449 0 
37852 1 378.5 44.1673 0 2.70463e-05 0.00059052 0 
37952 1 379.5 44.1673 0 4.62384e-06 0.000596136 0 
38052 1 380.5 44.1673 0 -5.7634e-05 0.000576272 0 
38152 1 381.5 44.1673 0 6.20323e-05 0.000591303 0 
38252 1 382.5 44.1673 0 3.37165e-05 0.000610782 0 
38352 1 383.5 44.1673 0 -9.12281e-05 0.000598897 0 
38452 1 384.5 44.1673 0 7.67157e-05 0.000587292 0 
38552 1 385.5 44.1673 0 -5.1097e-05 0.00059403 0 
38652 1 386.5 44.1673 0 -4.69336e-05 0.000564997 0 
38752 1 387.5 44.1673 0 7.19567e-05 0.000580223 0 
38852 1 388.5 44.1673 0 -6.14646e-05 0.000550983 0 
38952 1 389.5 44.1673 0 1.64078e-05 0.000512435 0 
39052 1 390.5 44.1673 0 -1.95649e-05 0.000529623 0 
39152 1 391.5 44.1673 0 1.08167e-07 0.000519404 0 
39252 1 392.5 44.1673 0 -4.63078e-05 0.000403392 0 
39352 1 393.5 44.1673 0 -7.6124e-05 0.00056559 0 
39452 1 394.5 44.1673 0 3.40307e-05 0.0005256 0 
39552 1 395.5 44.1673 0 -3.70796e-05 0.00050223 0 
39652 1 396.5 44.1673 0 1.98483e-05 0.000290121 0 
39752 1 397.5 44.1673 0 4.88896e-06 7.33174e-05 0 
39852 2 398.5 44.1673 0 -1.2132e-05 -0.000397333 0 
39952 2 399.5 44.1673 0 -2.20719e-05 -0.000198667 0 
