ITEM: TIMESTEP
1450
ITEM: NUMBER OF ATOMS
400
ITEM: BOX BOUNDS ff pp pp
0.0000000000000000e+00 4.0000000000000000e+02
0.0000000000000000e+00 8.6602540000000005e+01
0.0000000000000000e+00 1.0000000000000000e+00
ITEM: ATOMS id type x y z fx fy fz 
52 2 0.5 44.1673 0 0 -0.000397333 0 
152 2 1.5 44.1673 0 -1.74294e-05 -0.000397333 0 
252 1 2.5 44.1673 0 3.26379e-05 -1.89096e-05 0 
352 1 3.5 44.1673 0 7.33698e-05 -0.000178636 0 
452 1 4.5 44.1673 0 2.31396e-05 -0.00032585 0 
552 1 5.5 44.1673 0 5.70583e-05 -0.000344152 0 
652 1 6.5 44.1673 0 -5.32876e-05 -0.000417762 0 
752 1 7.5 44.1673 0 5.04789e-05 -0.000323832 0 
852 1 8.5 44.1673 0 -9.51623e-06 -0.000338231 0 
952 1 9.5 44.1673 0 -4.65036e-05 -0.000438645 0 
1052 1 10.5 44.1673 0 0.000106178 -0.000343006 0 
1152 1 11.5 44.1673 0 -8.34695e-05 -0.000339148 0 
1252 1 12.5 44.1673 0 7.78347e-06 -0.000327657 0 
1352 1 13.5 44.1673 0 3.00288e-05 -0.00035735 0 
1452 1 14.5 44.1673 0 -8.28429e-05 -0.000350258 0 
1552 1 15.5 44.1673 0 3.84609e-05 -0.000392048 0 
1652 1 16.5 44.1673 0 3.71823e-05 -0.000356259 0 
1752 1 17.5 44.1673 0 -4.24559e-05 -0.00034918 0 
1852 1 18.5 44.1673 0 5.01159e-06 -0.000365616 0 
1952 1 19.5 44.1673 0 2.41758e-05 -0.000356276 0 
2052 1 20.5 44.1673 0 -2.03989e-05 -0.000356679 0 
2152 1 21.5 44.1673 0 -1.54926e-05 -0.000369386 0 
2252 1 22.5 44.1673 0 1.75125e-05 -0.000367985 0 
2352 1 23.5 44.1673 0 1.6569e-05 -0.000357681 0 
2452 1 24.5 44.1673 0 -2.46794e-06 -0.000354686 0 
2552 1 25.5 44.1673 0 -8.41922e-06 -0.000358431 0 
2652 1 26.5 44.1673 0 -3.10496e-06 -0.000361397 0 
2752 1 27.5 44.1673 0 1.16925e-06 -0.000361514 0 
2852 1 28.5 44.1673 0 1.44179e-06 -0.000360646 0 
2952 1 29.5 44.1673 0 4.20947e-07 -0.000360154 0 
3052 1 30.5 44.1673 0 -1.19329e-07 -0.000360095 0 
3152 1 31.5 44.1673 0 -1.52413e-07 -0.000360165 0 
3252 1 32.5 44.1673 0 -5.90531e-08 -0.00036021 0 
3352 1 33.5 44.1673 0 -5.54318e-09 -0.000360222 0 
3452 1 34.5 44.1673 0 6.28032e-09 -0.00036022 0 
3552 1 35.5 44.1673 0 4.11451e-09 -0.000360217 0 
3652 1 36.5 44.1673 0 1.38154e-09 -0.000360216 0 
3752 1 37.5 44.1673 0 1.98298e-10 -0.000360216 0 
3852 1 38.5 44.1673 0 -4.83451e-11 -0.000360216 0 
3952 1 39.5 44.1673 0 -2.73717e-11 -0.000360216 0 
4052 1 40.5 44.1673 0 -1.64655e-11 -0.000360216 0 
4152 1 41.5 44.1673 0 -2.02213e-11 -0.000360216 0 
4252 1 42.5 44.1673 0 -5.39812e-24 -0.000360216 0 
4352 1 43.5 44.1673 0 -4.2244e-21 -0.000360216 0 
4452 1 44.5 44.1673 0 -4.2244e-21 -0.000360216 0 
4552 1 45.5 44.1673 0 -5.39812e-24 -0.000360216 0 
4652 1 46.5 44.1673 0 -4.2244e-21 -0.000360216 0 
4752 1 47.5 44.1673 0 -5.39812e-24 -0.000360216 0 
4852 1 48.5 44.1673 0 -5.39812e-24 -0.000360216 0 
4952 1 49.5 44.1673 0 -5.39812e-24 -0.000360216 0 
5052 1 50.5 44.1673 0 -4.2244e-21 -0.000360216 0 
5152 1 51.5 44.1673 0 -4.2244e-21 -0.000360216 0 
5252 1 52.5 44.1673 0 -5.39812e-24 -0.000360216 0 
5352 1 53.5 44.1673 0 -4.2244e-21 -0.000360216 0 
5452 1 54.5 44.1673 0 -5.39812e-24 -0.000360216 0 
5552 1 55.5 44.1673 0 -5.39812e-24 -0.000360216 0 
5652 1 56.5 44.1673 0 -4.2244e-21 -0.000360216 0 
5752 1 57.5 44.1673 0 -4.2244e-21 -0.000360216 0 
5852 1 58.5 44.1673 0 -5.39812e-24 -0.000360216 0 
5952 1 59.5 44.1673 0 -4.2244e-21 -0.000360216 0 
6052 1 60.5 44.1673 0 -4.2244e-21 -0.000360216 0 
6152 1 61.5 44.1673 0 -4.2244e-21 -0.000360216 0 
6252 1 62.5 44.1673 0 -4.2244e-21 -0.000360216 0 
6352 1 63.5 44.1673 0 -4.2244e-21 -0.000360216 0 
6452 1 64.5 44.1673 0 -5.39812e-24 -0.000360216 0 
6552 1 65.5 44.1673 0 -4.2244e-21 -0.000360216 0 
6652 1 66.5 44.1673 0 -5.39812e-24 -0.000360216 0 
6752 1 67.5 44.1673 0 -5.39812e-24 -0.000360216 0 
6852 1 68.5 44.1673 0 -5.39812e-24 -0.000360216 0 
6952 1 69.5 44.1673 0 -4.2244e-21 -0.000360216 0 
7052 1 70.5 44.1673 0 -5.39812e-24 -0.000360216 0 
7152 1 71.5 44.1673 0 -5.39812e-24 -0.000360216 0 
7252 1 72.5 44.1673 0 -4.2244e-21 -0.000360216 0 
7352 1 73.5 44.1673 0 -4.2244e-21 -0.000360216 0 
7452 1 74.5 44.1673 0 -5.39812e-24 -0.000360216 0 
7552 1 75.5 44.1673 0 -4.2244e-21 -0.000360216 0 
7652 1 76.5 44.1673 0 -4.2244e-21 -0.000360216 0 
7752 1 77.5 44.1673 0 -5.39812e-24 -0.000360216 0 
7852 1 78.5 44.1673 0 -5.39812e-24 -0.000360216 0 
7952 1 79.5 44.1673 0 -5.39812e-24 -0.000360216 0 
8052 1 80.5 44.1673 0 -5.39812e-24 -0.000360216 0 
8152 1 81.5 44.1673 0 -4.2244e-21 -0.000360216 0 
8252 1 82.5 44.1673 0 -4.2244e-21 -0.000360216 0 
8352 1 83.5 44.1673 0 -5.39812e-24 -0.000360216 0 
8452 1 84.5 44.1673 0 -5.39812e-24 -0.000360216 0 
8552 1 85.5 44.1673 0 -4.2244e-21 -0.000360216 0 
8652 1 86.5 44.1673 0 -4.2244e-21 -0.000360216 0 
8752 1 87.5 44.1673 0 -5.39812e-24 -0.000360216 0 
8852 1 88.5 44.1673 0 -4.2244e-21 -0.000360216 0 
8952 1 89.5 44.1673 0 -4.2244e-21 -0.000360216 0 
9052 1 90.5 44.1673 0 -5.39812e-24 -0.000360216 0 
9152 1 91.5 44.1673 0 -5.39812e-24 -0.000360216 0 
9252 1 92.5 44.1673 0 -5.39812e-24 -0.000360216 0 
9352 1 93.5 44.1673 0 -4.2244e-21 -0.000360216 0 
9452 1 94.5 44.1673 0 -5.39812e-24 -0.000360216 0 
9552 1 95.5 44.1673 0 -4.2244e-21 -0.000360216 0 
9652 1 96.5 44.1673 0 -5.39812e-24 -0.000360216 0 
9752 1 97.5 44.1673 0 -4.2244e-21 -0.000360216 0 
9852 1 98.5 44.1673 0 -5.39812e-24 -0.000360216 0 
9952 1 99.5 44.1673 0 -5.39812e-24 -0.000360216 0 
10052 1 100.5 44.1673 0 -5.39812e-24 -0.000360216 0 
10152 1 101.5 44.1673 0 -4.2244e-21 -0.000360216 0 
10252 1 102.5 44.1673 0 -4.2244e-21 -0.000360216 0 
10352 1 103.5 44.1673 0 -4.2244e-21 -0.000360216 0 
10452 1 104.5 44.1673 0 -4.2244e-21 -0.000360216 0 
10552 1 105.5 44.1673 0 -5.39812e-24 -0.000360216 0 
10652 1 106.5 44.1673 0 -5.39812e-24 -0.000360216 0 
10752 1 107.5 44.1673 0 -4.2244e-21 -0.000360216 0 
10852 1 108.5 44.1673 0 -5.39812e-24 -0.000360216 0 
10952 1 109.5 44.1673 0 -5.39812e-24 -0.000360216 0 
11052 1 110.5 44.1673 0 -5.39812e-24 -0.000360216 0 
11152 1 111.5 44.1673 0 -5.39812e-24 -0.000360216 0 
11252 1 112.5 44.1673 0 -5.39812e-24 -0.000360216 0 
11352 1 113.5 44.1673 0 -5.39812e-24 -0.000360216 0 
11452 1 114.5 44.1673 0 -5.39812e-24 -0.000360216 0 
11552 1 115.5 44.1673 0 -4.2244e-21 -0.000360216 0 
11652 1 116.5 44.1673 0 -5.39812e-24 -0.000360216 0 
11752 1 117.5 44.1673 0 -5.39812e-24 -0.000360216 0 
11852 1 118.5 44.1673 0 -5.39812e-24 -0.000360216 0 
11952 1 119.5 44.1673 0 -5.39812e-24 -0.000360216 0 
12052 1 120.5 44.1673 0 -5.39812e-24 -0.000360216 0 
12152 1 121.5 44.1673 0 -5.39812e-24 -0.000360216 0 
12252 1 122.5 44.1673 0 -4.2244e-21 -0.000360216 0 
12352 1 123.5 44.1673 0 -4.2244e-21 -0.000360216 0 
12452 1 124.5 44.1673 0 -5.39812e-24 -0.000360216 0 
12552 1 125.5 44.1673 0 -4.2244e-21 -0.000360216 0 
12652 1 126.5 44.1673 0 -5.39812e-24 -0.000360216 0 
12752 1 127.5 44.1673 0 -5.39812e-24 -0.000360216 0 
12852 1 128.5 44.1673 0 -5.39812e-24 -0.000360216 0 
12952 1 129.5 44.1673 0 -5.39812e-24 -0.000360216 0 
13052 1 130.5 44.1673 0 -5.39812e-24 -0.000360216 0 
13152 1 131.5 44.1673 0 -4.2244e-21 -0.000360216 0 
13252 1 132.5 44.1673 0 -4.2244e-21 -0.000360216 0 
13352 1 133.5 44.1673 0 -4.2244e-21 -0.000360216 0 
13452 1 134.5 44.1673 0 -4.2244e-21 -0.000360216 0 
13552 1 135.5 44.1673 0 -5.39812e-24 -0.000360216 0 
13652 1 136.5 44.1673 0 -5.39812e-24 -0.000360216 0 
13752 1 137.5 44.1673 0 -4.2244e-21 -0.000360216 0 
13852 1 138.5 44.1673 0 -4.2244e-21 -0.000360216 0 
13952 1 139.5 44.1673 0 -5.39812e-24 -0.000360216 0 
14052 1 140.5 44.1673 0 -4.2244e-21 -0.000360216 0 
14152 1 141.5 44.1673 0 -4.2244e-21 -0.000360216 0 
14252 1 142.5 44.1673 0 -4.2244e-21 -0.000360216 0 
14352 1 143.5 44.1673 0 -5.39812e-24 -0.000360216 0 
14452 1 144.5 44.1673 0 -5.39812e-24 -0.000360216 0 
14552 1 145.5 44.1673 0 -4.2244e-21 -0.000360216 0 
14652 1 146.5 44.1673 0 -5.39812e-24 -0.000360216 0 
14752 1 147.5 44.1673 0 -4.2244e-21 -0.000360216 0 
14852 1 148.5 44.1673 0 -4.2244e-21 -0.000360216 0 
14952 1 149.5 44.1673 0 -4.2244e-21 -0.000360216 0 
15052 1 150.5 44.1673 0 -4.2244e-21 -0.000360216 0 
15152 1 151.5 44.1673 0 -4.2244e-21 -0.000360216 0 
15252 1 152.5 44.1673 0 -5.39812e-24 -0.000360216 0 
15352 1 153.5 44.1673 0 1.2793e-10 -0.000360216 0 
15452 1 154.5 44.1673 0 9.02886e-10 -0.000360216 0 
15552 1 155.5 44.1673 0 6.03798e-09 -0.000360216 0 
15652 1 156.5 44.1673 0 3.87268e-08 -0.000360216 0 
15752 1 157.5 44.1673 0 2.33928e-07 -0.000360216 0 
15852 1 158.5 44.1673 0 1.31496e-06 -0.000360216 0 
15952 1 159.5 44.1673 0 6.86562e-06 -0.000360216 0 
16052 1 160.5 44.1673 0 3.31527e-05 -0.000360216 0 
16152 1 161.5 44.1673 0 0.000147324 -0.000360216 0 
16252 1 162.5 44.1673 0 0.00059898 -0.000360215 0 
16352 1 163.5 44.1673 0 0.00221251 -0.000360215 0 
16452 1 164.5 44.1673 0 0.00736069 -0.000360213 0 
16552 1 165.5 44.1673 0 0.0218114 -0.000360207 0 
16652 1 166.5 44.1673 0 0.0567168 -0.00036019 0 
16752 1 167.5 44.1673 0 0.126687 -0.000360146 0 
16852 1 168.501 44.1673 0 0.235022 -0.000360052 0 
16952 1 169.503 44.1673 0 0.340185 -0.00035988 0 
17052 1 170.506 44.1673 0 0.328257 -0.000359626 0 
17152 1 171.51 44.1673 0 0.0708533 -0.000359349 0 
17252 1 172.514 44.1673 0 -0.373845 -0.000359161 0 
17352 1 173.517 44.1673 0 -0.605089 -0.00035913 0 
17452 1 174.519 44.1673 0 -0.211556 -0.000359137 0 
17552 1 175.52 44.1673 0 0.466019 -0.000358934 0 
17652 1 176.523 44.1673 0 0.40389 -0.000358486 0 
17752 1 177.527 44.1673 0 -0.424287 -0.000358112 0 
17852 1 178.53 44.1673 0 -0.457035 -0.000357942 0 
17952 1 179.532 44.1673 0 0.487436 -0.000357563 0 
18052 1 180.535 44.1673 0 0.279625 -0.000356816 0 
18152 1 181.54 44.1673 0 -0.650701 -0.000356189 0 
18252 1 182.544 44.1673 0 0.122047 -0.000355618 0 
18352 1 183.548 44.1673 0 0.518119 -0.000354882 0 
18452 1 184.553 44.1673 0 -0.581098 -0.000354632 0 
18552 1 185.557 44.1673 0 -0.122982 -0.000353633 0 
18652 1 186.56 44.1673 0 -0.299203 -0.00035255 0 
18752 1 187.564 44.1673 0 -0.737986 -0.000354392 0 
18852 1 188.566 44.1673 0 1.47466 -0.000351597 0 
18952 1 189.57 44.1673 0 0.94973 -0.000352399 0 
19052 1 190.576 44.1673 0 -0.392038 -0.000353357 0 
19152 1 191.582 44.1673 0 -0.734219 -0.000350416 0 
19252 1 192.586 44.1673 0 0.278167 -0.000356766 0 
19352 1 193.593 44.1673 0 -1.11091 -0.000351697 0 
19452 1 194.599 44.1673 0 -1.41737 -0.000352049 0 
19552 1 195.605 44.1673 0 1.62437 -0.000360481 0 
19652 1 196.617 44.1673 0 -2.62551 -0.000366515 0 
19752 1 197.626 44.1673 0 1.14348 -0.000390961 0 
19852 1 198.645 44.1673 0 -1.168 -0.000346927 0 
19952 1 199.671 44.1673 0 1.14303 -0.000308785 0 
20052 3 200.727 44.1673 0 -2.12414 -0.000354718 0 
20152 1 201.671 44.1673 0 0.596626 -0.000398638 0 
20252 1 202.645 44.1673 0 -1.18465 -0.000346346 0 
20352 1 203.627 44.1673 0 0.0974924 -0.00031669 0 
20452 1 204.617 44.1673 0 -2.43416 -0.000353366 0 
20552 1 205.605 44.1673 0 1.01357 -0.000357709 0 
20652 1 206.599 44.1673 0 -1.56287 -0.000366669 0 
20752 1 207.592 44.1673 0 -0.671224 -0.000365352 0 
20852 1 208.585 44.1673 0 0.398712 -0.000361134 0 
20952 1 209.58 44.1673 0 -0.144747 -0.000368423 0 
21052 1 210.575 44.1673 0 0.406269 -0.000364866 0 
21152 1 211.569 44.1673 0 1.47246 -0.000366598 0 
21252 1 212.566 44.1673 0 0.846052 -0.000366854 0 
21352 1 213.565 44.1673 0 -1.36036 -0.000364758 0 
21452 1 214.56 44.1673 0 -0.460061 -0.000366714 0 
21552 1 215.556 44.1673 0 0.115953 -0.000365365 0 
21652 1 216.553 44.1673 0 -0.320585 -0.000364781 0 
21752 1 217.547 44.1673 0 0.374032 -0.000364812 0 
21852 1 218.543 44.1673 0 0.08803 -0.000364197 0 
21952 1 219.54 44.1673 0 -0.487811 -0.000363711 0 
22052 1 220.535 44.1673 0 0.182076 -0.000363239 0 
22152 1 221.531 44.1673 0 0.326601 -0.00036266 0 
22252 1 222.529 44.1673 0 -0.349464 -0.000362323 0 
22352 1 223.526 44.1673 0 -0.273302 -0.000362137 0 
22452 1 224.522 44.1673 0 0.344586 -0.000361806 0 
22552 1 225.52 44.1673 0 0.322839 -0.000361436 0 
22652 1 226.519 44.1673 0 -0.245376 -0.000361268 0 
22752 1 227.517 44.1673 0 -0.525794 -0.00036126 0 
22852 1 228.513 44.1673 0 -0.285777 -0.000361206 0 
22952 1 229.509 44.1673 0 0.103682 -0.000361016 0 
23052 1 230.505 44.1673 0 0.315072 -0.000360755 0 
23152 1 231.503 44.1673 0 0.313735 -0.000360523 0 
23252 1 232.501 44.1673 0 0.21448 -0.000360365 0 
23352 1 233.5 44.1673 0 0.11542 -0.000360279 0 
23452 1 234.5 44.1673 0 0.0517629 -0.000360239 0 
23552 1 235.5 44.1673 0 0.0199695 -0.000360223 0 
23652 1 236.5 44.1673 0 0.00676433 -0.000360218 0 
23752 1 237.5 44.1673 0 0.00204126 -0.000360216 0 
23852 1 238.5 44.1673 0 0.000554799 -0.000360216 0 
23952 1 239.5 44.1673 0 0.000136984 -0.000360216 0 
24052 1 240.5 44.1673 0 3.09405e-05 -0.000360216 0 
24152 1 241.5 44.1673 0 6.43037e-06 -0.000360216 0 
24252 1 242.5 44.1673 0 1.23578e-06 -0.000360216 0 
24352 1 243.5 44.1673 0 2.20509e-07 -0.000360216 0 
24452 1 244.5 44.1673 0 3.66879e-08 -0.000360216 0 
24552 1 245.5 44.1673 0 5.71841e-09 -0.000360216 0 
24652 1 246.5 44.1673 0 8.32497e-10 -0.000360216 0 
24752 1 247.5 44.1673 0 1.24168e-10 -0.000360216 0 
24852 1 248.5 44.1673 0 -4.2244e-21 -0.000360216 0 
24952 1 249.5 44.1673 0 -5.39812e-24 -0.000360216 0 
25052 1 250.5 44.1673 0 -4.2244e-21 -0.000360216 0 
25152 1 251.5 44.1673 0 -4.2244e-21 -0.000360216 0 
25252 1 252.5 44.1673 0 -5.39812e-24 -0.000360216 0 
25352 1 253.5 44.1673 0 -4.2244e-21 -0.000360216 0 
25452 1 254.5 44.1673 0 -5.39812e-24 -0.000360216 0 
25552 1 255.5 44.1673 0 -5.39812e-24 -0.000360216 0 
25652 1 256.5 44.1673 0 -4.2244e-21 -0.000360216 0 
25752 1 257.5 44.1673 0 -4.2244e-21 -0.000360216 0 
25852 1 258.5 44.1673 0 -5.39812e-24 -0.000360216 0 
25952 1 259.5 44.1673 0 -4.2244e-21 -0.000360216 0 
26052 1 260.5 44.1673 0 -4.2244e-21 -0.000360216 0 
26152 1 261.5 44.1673 0 -4.2244e-21 -0.000360216 0 
26252 1 262.5 44.1673 0 -4.2244e-21 -0.000360216 0 
26352 1 263.5 44.1673 0 -5.39812e-24 -0.000360216 0 
26452 1 264.5 44.1673 0 -5.39812e-24 -0.000360216 0 
26552 1 265.5 44.1673 0 -5.39812e-24 -0.000360216 0 
26652 1 266.5 44.1673 0 -5.39812e-24 -0.000360216 0 
26752 1 267.5 44.1673 0 -5.39812e-24 -0.000360216 0 
26852 1 268.5 44.1673 0 -4.2244e-21 -0.000360216 0 
26952 1 269.5 44.1673 0 -4.2244e-21 -0.000360216 0 
27052 1 270.5 44.1673 0 -4.2244e-21 -0.000360216 0 
27152 1 271.5 44.1673 0 -4.2244e-21 -0.000360216 0 
27252 1 272.5 44.1673 0 -5.39812e-24 -0.000360216 0 
27352 1 273.5 44.1673 0 -5.39812e-24 -0.000360216 0 
27452 1 274.5 44.1673 0 -4.2244e-21 -0.000360216 0 
27552 1 275.5 44.1673 0 -5.39812e-24 -0.000360216 0 
27652 1 276.5 44.1673 0 -5.39812e-24 -0.000360216 0 
27752 1 277.5 44.1673 0 -5.39812e-24 -0.000360216 0 
27852 1 278.5 44.1673 0 -5.39812e-24 -0.000360216 0 
27952 1 279.5 44.1673 0 -5.39812e-24 -0.000360216 0 
28052 1 280.5 44.1673 0 -5.39812e-24 -0.000360216 0 
28152 1 281.5 44.1673 0 -5.39812e-24 -0.000360216 0 
28252 1 282.5 44.1673 0 -4.2244e-21 -0.000360216 0 
28352 1 283.5 44.1673 0 -4.2244e-21 -0.000360216 0 
28452 1 284.5 44.1673 0 -5.39812e-24 -0.000360216 0 
28552 1 285.5 44.1673 0 -5.39812e-24 -0.000360216 0 
28652 1 286.5 44.1673 0 -4.2244e-21 -0.000360216 0 
28752 1 287.5 44.1673 0 -5.39812e-24 -0.000360216 0 
28852 1 288.5 44.1673 0 -4.2244e-21 -0.000360216 0 
28952 1 289.5 44.1673 0 -4.2244e-21 -0.000360216 0 
29052 1 290.5 44.1673 0 -4.2244e-21 -0.000360216 0 
29152 1 291.5 44.1673 0 -5.39812e-24 -0.000360216 0 
29252 1 292.5 44.1673 0 -4.2244e-21 -0.000360216 0 
29352 1 293.5 44.1673 0 -5.39812e-24 -0.000360216 0 
29452 1 294.5 44.1673 0 -4.2244e-21 -0.000360216 0 
29552 1 295.5 44.1673 0 -4.2244e-21 -0.000360216 0 
29652 1 296.5 44.1673 0 -5.39812e-24 -0.000360216 0 
29752 1 297.5 44.1673 0 -5.39812e-24 -0.000360216 0 
29852 1 298.5 44.1673 0 -5.39812e-24 -0.000360216 0 
29952 1 299.5 44.1673 0 -5.39812e-24 -0.000360216 0 
30052 1 300.5 44.1673 0 -5.39812e-24 -0.000360216 0 
30152 1 301.5 44.1673 0 -4.2244e-21 -0.000360216 0 
30252 1 302.5 44.1673 0 -5.39812e-24 -0.000360216 0 
30352 1 303.5 44.1673 0 -5.39812e-24 -0.000360216 0 
30452 1 304.5 44.1673 0 -5.39812e-24 -0.000360216 0 
30552 1 305.5 44.1673 0 -5.39812e-24 -0.000360216 0 
30652 1 306.5 44.1673 0 -4.2244e-21 -0.000360216 0 
30752 1 307.5 44.1673 0 -4.2244e-21 -0.000360216 0 
30852 1 308.5 44.1673 0 -5.39812e-24 -0.000360216 0 
30952 1 309.5 44.1673 0 -5.39812e-24 -0.000360216 0 
31052 1 310.5 44.1673 0 -5.39812e-24 -0.000360216 0 
31152 1 311.5 44.1673 0 -4.2244e-21 -0.000360216 0 
31252 1 312.5 44.1673 0 -4.2244e-21 -0.000360216 0 
31352 1 313.5 44.1673 0 -5.39812e-24 -0.000360216 0 
31452 1 314.5 44.1673 0 -5.39812e-24 -0.000360216 0 
31552 1 315.5 44.1673 0 -4.2244e-21 -0.000360216 0 
31652 1 316.5 44.1673 0 -5.39812e-24 -0.000360216 0 
31752 1 317.5 44.1673 0 -4.2244e-21 -0.000360216 0 
31852 1 318.5 44.1673 0 -4.2244e-21 -0.000360216 0 
31952 1 319.5 44.1673 0 -4.2244e-21 -0.000360216 0 
32052 1 320.5 44.1673 0 -5.39812e-24 -0.000360216 0 
32152 1 321.5 44.1673 0 -5.39812e-24 -0.000360216 0 
32252 1 322.5 44.1673 0 -4.2244e-21 -0.000360216 0 
32352 1 323.5 44.1673 0 -5.39812e-24 -0.000360216 0 
32452 1 324.5 44.1673 0 -4.2244e-21 -0.000360216 0 
32552 1 325.5 44.1673 0 -4.2244e-21 -0.000360216 0 
32652 1 326.5 44.1673 0 -4.2244e-21 -0.000360216 0 
32752 1 327.5 44.1673 0 -4.2244e-21 -0.000360216 0 
32852 1 328.5 44.1673 0 -5.39812e-24 -0.000360216 0 
32952 1 329.5 44.1673 0 -4.2244e-21 -0.000360216 0 
33052 1 330.5 44.1673 0 -5.39812e-24 -0.000360216 0 
33152 1 331.5 44.1673 0 -5.39812e-24 -0.000360216 0 
33252 1 332.5 44.1673 0 -4.2244e-21 -0.000360216 0 
33352 1 333.5 44.1673 0 -4.2244e-21 -0.000360216 0 
33452 1 334.5 44.1673 0 -4.2244e-21 -0.000360216 0 
33552 1 335.5 44.1673 0 -5.39812e-24 -0.000360216 0 
33652 1 336.5 44.1673 0 -5.39812e-24 -0.000360216 0 
33752 1 337.5 44.1673 0 -4.2244e-21 -0.000360216 0 
33852 1 338.5 44.1673 0 -4.2244e-21 -0.000360216 0 
33952 1 339.5 44.1673 0 -5.39812e-24 -0.000360216 0 
34052 1 340.5 44.1673 0 -4.2244e-21 -0.000360216 0 
34152 1 341.5 44.1673 0 -4.2244e-21 -0.000360216 0 
34252 1 342.5 44.1673 0 -4.2244e-21 -0.000360216 0 
34352 1 343.5 44.1673 0 -5.39812e-24 -0.000360216 0 
34452 1 344.5 44.1673 0 -4.2244e-21 -0.000360216 0 
34552 1 345.5 44.1673 0 -5.39812e-24 -0.000360216 0 
34652 1 346.5 44.1673 0 -4.2244e-21 -0.000360216 0 
34752 1 347.5 44.1673 0 -5.39812e-24 -0.000360216 0 
34852 1 348.5 44.1673 0 -5.39812e-24 -0.000360216 0 
34952 1 349.5 44.1673 0 -4.2244e-21 -0.000360216 0 
35052 1 350.5 44.1673 0 -5.39812e-24 -0.000360216 0 
35152 1 351.5 44.1673 0 -4.2244e-21 -0.000360216 0 
35252 1 352.5 44.1673 0 -4.2244e-21 -0.000360216 0 
35352 1 353.5 44.1673 0 -4.2244e-21 -0.000360216 0 
35452 1 354.5 44.1673 0 -4.2244e-21 -0.000360216 0 
35552 1 355.5 44.1673 0 -5.39812e-24 -0.000360216 0 
35652 1 356.5 44.1673 0 -5.39812e-24 -0.000360216 0 
35752 1 357.5 44.1673 0 -4.2244e-21 -0.000360216 0 
35852 1 358.5 44.1673 0 -4.2244e-21 -0.000360216 0 
35952 1 359.5 44.1673 0 4.51654e-11 -0.000360216 0 
36052 1 360.5 44.1673 0 1.31502e-10 -0.000360215 0 
36152 1 361.5 44.1673 0 -2.45889e-10 -0.000360216 0 
36252 1 362.5 44.1673 0 4.57051e-12 -0.000360216 0 
36352 1 363.5 44.1673 0 -1.33808e-09 -0.000360216 0 
36452 1 364.5 44.1673 0 -4.02268e-09 -0.000360217 0 
36552 1 365.5 44.1673 0 -6.25708e-09 -0.00036022 0 
36652 1 366.5 44.1673 0 5.52242e-09 -0.000360222 0 
36752 1 367.5 44.1673 0 5.88782e-08 -0.000360211 0 
36852 1 368.5 44.1673 0 1.52525e-07 -0.000360165 0 
36952 1 369.5 44.1673 0 1.19472e-07 -0.000360095 0 
37052 1 370.5 44.1673 0 -4.21041e-07 -0.000360154 0 
37152 1 371.5 44.1673 0 -1.44166e-06 -0.000360646 0 
37252 1 372.5 44.1673 0 -1.16955e-06 -0.000361514 0 
37352 1 373.5 44.1673 0 3.10499e-06 -0.000361397 0 
37452 1 374.5 44.1673 0 8.41904e-06 -0.000358431 0 
37552 1 375.5 44.1673 0 2.46829e-06 -0.000354686 0 
37652 1 376.5 44.1673 0 -1.65692e-05 -0.000357681 0 
37752 1 377.5 44.1673 0 -1.75123e-05 -0.000367985 0 
37852 1 378.5 44.1673 0 1.54925e-05 -0.000369386 0 
37952 1 379.5 44.1673 0 2.0399e-05 -0.000356679 0 
38052 1 380.5 44.1673 0 -2.4176e-05 -0.000356276 0 
38152 1 381.5 44.1673 0 -5.01161e-06 -0.000365616 0 
38252 1 382.5 44.1673 0 4.24558e-05 -0.000349181 0 
38352 1 383.5 44.1673 0 -3.71824e-05 -0.000356259 0 
38452 1 384.5 44.1673 0 -3.8461e-05 -0.000392048 0 
38552 1 385.5 44.1673 0 8.28431e-05 -0.000350258 0 
38652 1 386.5 44.1673 0 -3.0029e-05 -0.00035735 0 
38752 1 387.5 44.1673 0 -7.78361e-06 -0.000327657 0 
38852 1 388.5 44.1673 0 8.34699e-05 -0.000339148 0 
38952 1 389.5 44.1673 0 -0.000106179 -0.000343006 0 
39052 1 390.5 44.1673 0 4.65039e-05 -0.000438645 0 
39152 1 391.5 44.1673 0 9.51617e-06 -0.000338231 0 
39252 1 392.5 44.1673 0 -5.04789e-05 -0.000323832 0 
39352 1 393.5 44.1673 0 5.32875e-05 -0.000417762 0 
39452 1 394.5 44.1673 0 -5.70584e-05 -0.000344152 0 
39552 1 395.5 44.1673 0 -2.31394e-05 -0.00032585 0 
39652 1 396.5 44.1673 0 -7.33697e-05 -0.000178636 0 
39752 1 397.5 44.1673 0 -3.2638e-05 -1.89096e-05 0 
39852 2 398.5 44.1673 0 1.74294e-05 -0.000397333 0 
39952 2 399.5 44.1673 0 -2.20719e-05 -0.000198667 0 
