ITEM: TIMESTEP
1800
ITEM: NUMBER OF ATOMS
400
ITEM: BOX BOUNDS ff pp pp
0.0000000000000000e+00 4.0000000000000000e+02
0.0000000000000000e+00 8.6602540000000005e+01
0.0000000000000000e+00 1.0000000000000000e+00
ITEM: ATOMS id type x y z fx fy fz 
52 2 0.5 44.1673 0 0 -0.000397333 0 
152 2 1.5 44.1673 0 0.00416121 -0.000397228 0 
252 1 2.50002 44.1673 0 0.000381728 0.000160709 0 
352 1 3.50004 44.1674 0 -6.10269e-06 -0.000322914 0 
452 1 4.50006 44.1674 0 -5.68375e-05 -0.000310987 0 
552 1 5.50007 44.1675 0 0.00028207 0.000255642 0 
652 1 6.50009 44.1675 0 -3.045e-05 0.000239382 0 
752 1 7.50011 44.1676 0 -0.000508261 -0.000269314 0 
852 1 8.50012 44.1676 0 -0.000816317 -0.000670055 0 
952 1 9.50013 44.1676 0 -0.000762609 -0.000317713 0 
1052 1 10.5001 44.1677 0 -0.000466022 8.62075e-05 0 
1152 1 11.5001 44.1677 0 -0.000295844 0.000576127 0 
1252 1 12.5001 44.1677 0 -5.09838e-05 0.000830915 0 
1352 1 13.5001 44.1677 0 -4.6884e-05 0.00084472 0 
1452 1 14.5001 44.1677 0 9.54733e-05 0.000803009 0 
1552 1 15.5001 44.1678 0 5.74262e-05 0.000691382 0 
1652 1 16.5001 44.1678 0 0.000256457 0.000528551 0 
1752 1 17.5001 44.1678 0 0.000240102 0.000492574 0 
1852 1 18.5001 44.1678 0 0.000223253 0.00036974 0 
1952 1 19.5001 44.1678 0 0.000343806 0.000443394 0 
2052 1 20.5001 44.1678 0 0.000145404 0.000443537 0 
2152 1 21.5001 44.1678 0 0.000191375 0.000531323 0 
2252 1 22.5001 44.1678 0 0.000202933 0.000635655 0 
2352 1 23.5001 44.1679 0 -2.84034e-05 0.000711364 0 
2452 1 24.5 44.1679 0 9.57519e-05 0.000752169 0 
2552 1 25.5 44.1679 0 9.67815e-05 0.000754764 0 
2652 1 26.5 44.1679 0 3.00332e-05 0.000675177 0 
2752 1 27.5 44.1679 0 0.000208503 0.000566257 0 
2852 1 28.5 44.1679 0 0.000279819 0.000450002 0 
2952 1 29.5 44.1679 0 0.000284895 0.000276481 0 
3052 1 30.5 44.1679 0 0.000419547 0.000144922 0 
3152 1 31.5 44.1679 0 0.000473222 0.000108717 0 
3252 1 32.5 44.1679 0 0.000417806 9.30695e-05 0 
3352 1 33.5 44.1679 0 0.000408122 9.26422e-05 0 
3452 1 34.5 44.1679 0 0.000387277 0.000146838 0 
3552 1 35.5 44.1679 0 0.000294663 0.000229615 0 
3652 1 36.5 44.1679 0 0.000215305 0.000303563 0 
3752 1 37.5 44.1679 0 0.00017845 0.00036929 0 
3852 1 38.5 44.1679 0 0.00012869 0.000428519 0 
3952 1 39.5 44.1679 0 6.24976e-05 0.000470154 0 
4052 1 40.5 44.1679 0 2.40022e-05 0.00049295 0 
4152 1 41.5 44.1679 0 2.08e-05 0.000507333 0 
4252 1 42.5 44.1679 0 2.3835e-05 0.000519657 0 
4352 1 43.5 44.1679 0 1.60035e-05 0.000528723 0 
4452 1 44.5 44.1679 0 3.77627e-06 0.000533017 0 
4552 1 45.5 44.1679 0 -2.93234e-06 0.000534056 0 
4652 1 46.5 44.1679 0 -3.03337e-06 0.00053415 0 
4752 1 47.5 44.1679 0 -7.08005e-07 0.000534336 0 
4852 1 48.5 44.1679 0 8.69275e-07 0.000534581 0 
4952 1 49.5 44.1679 0 1.13261e-06 0.000534685 0 
5052 1 50.5 44.1679 0 7.44552e-07 0.000534653 0 
5152 1 51.5 44.1679 0 3.12946e-07 0.000534588 0 
5252 1 52.5 44.1679 0 5.69113e-08 0.000534554 0 
5352 1 53.5 44.1679 0 -4.09629e-08 0.000534558 0 
5452 1 54.5 44.1679 0 -5.51772e-08 0.000534579 0 
5552 1 55.5 44.1679 0 -4.08237e-08 0.000534599 0 
5652 1 56.5 44.1679 0 -2.38442e-08 0.000534613 0 
5752 1 57.5 44.1679 0 -1.19401e-08 0.000534621 0 
5852 1 58.5 44.1679 0 -5.32584e-09 0.000534625 0 
5952 1 59.5 44.1679 0 -2.11091e-09 0.000534626 0 
6052 1 60.5 44.1679 0 -7.58177e-10 0.000534627 0 
6152 1 61.5 44.1679 0 -2.52613e-10 0.000534627 0 
6252 1 62.5 44.1679 0 -9.06011e-11 0.000534627 0 
6352 1 63.5 44.1679 0 -3.34772e-11 0.000534627 0 
6452 1 64.5 44.1679 0 1.60982e-21 0.000534627 0 
6552 1 65.5 44.1679 0 1.98666e-21 0.000534627 0 
6652 1 66.5 44.1679 0 1.60982e-21 0.000534627 0 
6752 1 67.5 44.1679 0 1.60982e-21 0.000534627 0 
6852 1 68.5 44.1679 0 1.60982e-21 0.000534627 0 
6952 1 69.5 44.1679 0 1.98666e-21 0.000534627 0 
7052 1 70.5 44.1679 0 1.60982e-21 0.000534627 0 
7152 1 71.5 44.1679 0 1.60982e-21 0.000534627 0 
7252 1 72.5 44.1679 0 1.98666e-21 0.000534627 0 
7352 1 73.5 44.1679 0 1.98666e-21 0.000534627 0 
7452 1 74.5 44.1679 0 1.60982e-21 0.000534627 0 
7552 1 75.5 44.1679 0 1.98666e-21 0.000534627 0 
7652 1 76.5 44.1679 0 1.98666e-21 0.000534627 0 
7752 1 77.5 44.1679 0 1.60982e-21 0.000534627 0 
7852 1 78.5 44.1679 0 1.60982e-21 0.000534627 0 
7952 1 79.5 44.1679 0 1.60982e-21 0.000534627 0 
8052 1 80.5 44.1679 0 1.60982e-21 0.000534627 0 
8152 1 81.5 44.1679 0 1.98666e-21 0.000534627 0 
8252 1 82.5 44.1679 0 1.98666e-21 0.000534627 0 
8352 1 83.5 44.1679 0 1.60982e-21 0.000534627 0 
8452 1 84.5 44.1679 0 1.60982e-21 0.000534627 0 
8552 1 85.5 44.1679 0 1.98666e-21 0.000534627 0 
8652 1 86.5 44.1679 0 1.98666e-21 0.000534627 0 
8752 1 87.5 44.1679 0 1.60982e-21 0.000534627 0 
8852 1 88.5 44.1679 0 1.98666e-21 0.000534627 0 
8952 1 89.5 44.1679 0 1.98666e-21 0.000534627 0 
9052 1 90.5 44.1679 0 1.60982e-21 0.000534627 0 
9152 1 91.5 44.1679 0 1.60982e-21 0.000534627 0 
9252 1 92.5 44.1679 0 1.60982e-21 0.000534627 0 
9352 1 93.5 44.1679 0 1.98666e-21 0.000534627 0 
9452 1 94.5 44.1679 0 1.60982e-21 0.000534627 0 
9552 1 95.5 44.1679 0 1.98666e-21 0.000534627 0 
9652 1 96.5 44.1679 0 1.60982e-21 0.000534627 0 
9752 1 97.5 44.1679 0 1.98666e-21 0.000534627 0 
9852 1 98.5 44.1679 0 1.60982e-21 0.000534627 0 
9952 1 99.5 44.1679 0 1.60982e-21 0.000534627 0 
10052 1 100.5 44.1679 0 1.60982e-21 0.000534627 0 
10152 1 101.5 44.1679 0 1.98666e-21 0.000534627 0 
10252 1 102.5 44.1679 0 1.98666e-21 0.000534627 0 
10352 1 103.5 44.1679 0 1.98666e-21 0.000534627 0 
10452 1 104.5 44.1679 0 1.98666e-21 0.000534627 0 
10552 1 105.5 44.1679 0 1.60982e-21 0.000534627 0 
10652 1 106.5 44.1679 0 1.60982e-21 0.000534627 0 
10752 1 107.5 44.1679 0 1.98666e-21 0.000534627 0 
10852 1 108.5 44.1679 0 1.60982e-21 0.000534627 0 
10952 1 109.5 44.1679 0 1.60982e-21 0.000534627 0 
11052 1 110.5 44.1679 0 1.60982e-21 0.000534627 0 
11152 1 111.5 44.1679 0 1.60982e-21 0.000534627 0 
11252 1 112.5 44.1679 0 1.60982e-21 0.000534627 0 
11352 1 113.5 44.1679 0 1.60982e-21 0.000534627 0 
11452 1 114.5 44.1679 0 1.60982e-21 0.000534627 0 
11552 1 115.5 44.1679 0 1.98666e-21 0.000534627 0 
11652 1 116.5 44.1679 0 1.60982e-21 0.000534627 0 
11752 1 117.5 44.1679 0 1.60982e-21 0.000534627 0 
11852 1 118.5 44.1679 0 1.60982e-21 0.000534627 0 
11952 1 119.5 44.1679 0 1.60982e-21 0.000534627 0 
12052 1 120.5 44.1679 0 1.60982e-21 0.000534627 0 
12152 1 121.5 44.1679 0 1.60982e-21 0.000534627 0 
12252 1 122.5 44.1679 0 1.98666e-21 0.000534627 0 
12352 1 123.5 44.1679 0 1.98666e-21 0.000534627 0 
12452 1 124.5 44.1679 0 1.60982e-21 0.000534627 0 
12552 1 125.5 44.1679 0 1.98666e-21 0.000534627 0 
12652 1 126.5 44.1679 0 1.88163e-11 0.000534627 0 
12752 1 127.5 44.1679 0 2.06889e-10 0.000534627 0 
12852 1 128.5 44.1679 0 1.01602e-09 0.000534627 0 
12952 1 129.5 44.1679 0 5.0466e-09 0.000534627 0 
13052 1 130.5 44.1679 0 2.39492e-08 0.000534627 0 
13152 1 131.5 44.1679 0 1.09011e-07 0.000534627 0 
13252 1 132.5 44.1679 0 4.71527e-07 0.000534627 0 
13352 1 133.5 44.1679 0 1.93805e-06 0.000534627 0 
13452 1 134.5 44.1679 0 7.55013e-06 0.000534627 0 
13552 1 135.5 44.1679 0 2.78113e-05 0.000534627 0 
13652 1 136.5 44.1679 0 9.65836e-05 0.000534627 0 
13752 1 137.5 44.1679 0 0.00031518 0.000534627 0 
13852 1 138.5 44.1679 0 0.000962753 0.000534628 0 
13952 1 139.5 44.1679 0 0.00274021 0.00053463 0 
14052 1 140.5 44.1679 0 0.00722706 0.000534635 0 
14152 1 141.5 44.1679 0 0.0175408 0.000534646 0 
14252 1 142.5 44.1679 0 0.0388313 0.00053467 0 
14352 1 143.5 44.1679 0 0.0774682 0.000534714 0 
14452 1 144.501 44.1679 0 0.136869 0.000534781 0 
14552 1 145.502 44.1679 0 0.208292 0.000534855 0 
14652 1 146.504 44.1679 0 0.259362 0.00053488 0 
14752 1 147.506 44.1679 0 0.232927 0.000534748 0 
14852 1 148.51 44.1679 0 0.0769182 0.000534328 0 
14952 1 149.513 44.1679 0 -0.189066 0.000533581 0 
15052 1 150.517 44.1679 0 -0.418714 0.000532729 0 
15152 1 151.519 44.1679 0 -0.396794 0.000532288 0 
15252 1 152.519 44.1679 0 -0.0527671 0.000532806 0 
15352 1 153.52 44.1679 0 0.343262 0.000534351 0 
15452 1 154.522 44.1679 0 0.340377 0.000536137 0 
15552 1 155.524 44.1679 0 -0.127864 0.00053679 0 
15652 1 156.527 44.1679 0 -0.45756 0.000535575 0 
15752 1 157.528 44.1679 0 -0.110269 0.000533478 0 
15852 1 158.529 44.1679 0 0.418904 0.000532537 0 
15952 1 159.531 44.1679 0 0.202438 0.000533847 0 
16052 1 160.534 44.1679 0 -0.419832 0.000535776 0 
16152 1 161.536 44.1679 0 -0.227732 0.000535308 0 
16252 1 162.537 44.1679 0 0.433553 0.000532556 0 
16352 1 163.54 44.1679 0 0.132002 0.000531904 0 
16452 1 164.543 44.1679 0 -0.478627 0.00053496 0 
16552 1 165.545 44.1679 0 0.0550259 0.000535656 0 
16652 1 166.547 44.1679 0 0.424941 0.000531981 0 
16752 1 167.551 44.1679 0 -0.314279 0.000532559 0 
16852 1 168.554 44.1679 0 -0.184291 0.000537522 0 
16952 1 169.557 44.1679 0 0.403966 0.000536416 0 
17052 1 170.561 44.1679 0 -0.318669 0.000534095 0 
17152 1 171.563 44.1679 0 -0.259207 0.000535449 0 
17252 1 172.565 44.1679 0 0.500643 0.00053183 0 
17352 1 173.568 44.1679 0 -0.206459 0.000535225 0 
17452 1 174.571 44.1679 0 -0.285149 0.000537795 0 
17552 1 175.573 44.1679 0 -0.12626 0.000527683 0 
17652 1 176.575 44.1679 0 -0.158255 0.000534506 0 
17752 1 177.576 44.1679 0 1.18322 0.000537313 0 
17852 1 178.58 44.1679 0 0.148308 0.00053665 0 
17952 1 179.584 44.1679 0 -1.11283 0.000524264 0 
18052 1 180.586 44.1679 0 -0.345836 0.000533564 0 
18152 1 181.589 44.1679 0 -0.636762 0.000524413 0 
18252 1 182.59 44.1679 0 0.654575 0.000535248 0 
18352 1 183.593 44.1679 0 0.257887 0.000523751 0 
18452 1 184.596 44.1679 0 0.213928 0.000523643 0 
18552 1 185.598 44.1679 0 0.893167 0.000543819 0 
18652 1 186.602 44.1679 0 0.0127078 0.000529819 0 
18752 1 187.605 44.1679 0 0.00900218 0.000514518 0 
18852 1 188.609 44.1679 0 -0.530591 0.000545279 0 
18952 1 189.613 44.1679 0 0.814886 0.000526653 0 
19052 1 190.618 44.1679 0 -2.01503 0.000520802 0 
19152 1 191.621 44.1679 0 0.634462 0.000526461 0 
19252 1 192.627 44.1679 0 -0.225271 0.000503809 0 
19352 1 193.633 44.1679 0 -1.56105 0.000493301 0 
19452 1 194.638 44.1679 0 0.810057 0.000518444 0 
19552 1 195.646 44.1679 0 -0.76316 0.000595801 0 
19652 1 196.655 44.1679 0 -0.0527184 0.000562189 0 
19752 1 197.667 44.1679 0 -0.570968 0.00043089 0 
19852 1 198.684 44.1679 0 0.137534 0.000465844 0 
19952 1 199.711 44.1679 0 -0.0813966 0.000593337 0 
20052 3 200.766 44.1679 0 -0.713222 0.000538599 0 
20152 1 201.711 44.1679 0 -0.410918 0.000497407 0 
20252 1 202.684 44.1679 0 -0.242096 0.000578104 0 
20352 1 203.667 44.1679 0 -0.644828 0.000635566 0 
20452 1 204.655 44.1679 0 -0.646953 0.000455304 0 
20552 1 205.646 44.1679 0 -0.937923 0.000470378 0 
20652 1 206.637 44.1679 0 0.870839 0.000569244 0 
20752 1 207.633 44.1679 0 -2.20375 0.000585479 0 
20852 1 208.625 44.1679 0 0.804989 0.000559196 0 
20952 1 209.621 44.1679 0 -0.129123 0.000538778 0 
21052 1 210.617 44.1679 0 -0.987253 0.000551489 0 
21152 1 211.612 44.1679 0 1.24573 0.000538061 0 
21252 1 212.608 44.1679 0 -0.256992 0.000530256 0 
21352 1 213.604 44.1679 0 0.705842 0.000550339 0 
21452 1 214.601 44.1679 0 0.414792 0.000539504 0 
21552 1 215.597 44.1679 0 0.920287 0.000526093 0 
21652 1 216.596 44.1679 0 -0.0524247 0.000550103 0 
21752 1 217.593 44.1679 0 -0.061424 0.000549086 0 
21852 1 218.59 44.1679 0 -0.0207063 0.000532341 0 
21952 1 219.589 44.1679 0 -1.06666 0.000546647 0 
22052 1 220.585 44.1679 0 -0.533866 0.000540061 0 
22152 1 221.583 44.1679 0 -0.451839 0.000540491 0 
22252 1 222.579 44.1679 0 0.981091 0.000530503 0 
22352 1 223.576 44.1679 0 1.06306 0.000535634 0 
22452 1 224.575 44.1679 0 -0.658482 0.000537215 0 
22552 1 225.573 44.1679 0 -0.395942 0.000541525 0 
22652 1 226.57 44.1679 0 -0.121317 0.000530463 0 
22752 1 227.567 44.1679 0 0.0175673 0.000535012 0 
22852 1 228.564 44.1679 0 0.408224 0.000538361 0 
22952 1 229.563 44.1679 0 -0.296922 0.000533598 0 
23052 1 230.56 44.1679 0 -0.28242 0.000534272 0 
23152 1 231.556 44.1679 0 0.350181 0.000533232 0 
23252 1 232.553 44.1679 0 -0.121516 0.00053281 0 
23352 1 233.551 44.1679 0 -0.270308 0.000536468 0 
23452 1 234.547 44.1679 0 0.295194 0.00053671 0 
23552 1 235.545 44.1679 0 0.0602231 0.000534137 0 
23652 1 236.543 44.1679 0 -0.329128 0.000534866 0 
23752 1 237.54 44.1679 0 0.0883927 0.0005369 0 
23852 1 238.537 44.1679 0 0.282165 0.000536047 0 
23952 1 239.536 44.1679 0 -0.181225 0.000533961 0 
24052 1 240.534 44.1679 0 -0.271752 0.000533934 0 
24152 1 241.531 44.1679 0 0.183175 0.000535546 0 
24252 1 242.529 44.1679 0 0.280804 0.000536347 0 
24352 1 243.528 44.1679 0 -0.143544 0.000535287 0 
24452 1 244.526 44.1679 0 -0.35485 0.000533501 0 
24552 1 245.524 44.1679 0 -0.045151 0.000532705 0 
24652 1 246.521 44.1679 0 0.307356 0.000533492 0 
24752 1 247.52 44.1679 0 0.251341 0.000535145 0 
24852 1 248.519 44.1679 0 -0.106421 0.000536472 0 
24952 1 249.518 44.1679 0 -0.377204 0.000536804 0 
25052 1 250.516 44.1679 0 -0.357393 0.000536299 0 
25152 1 251.513 44.1679 0 -0.13479 0.000535504 0 
25252 1 252.509 44.1679 0 0.0994886 0.000534852 0 
25352 1 253.506 44.1679 0 0.228026 0.000534497 0 
25452 1 254.503 44.1679 0 0.242513 0.000534391 0 
25552 1 255.502 44.1679 0 0.19152 0.000534419 0 
25652 1 256.501 44.1679 0 0.12499 0.000534487 0 
25752 1 257.5 44.1679 0 0.0705739 0.000534548 0 
25852 1 258.5 44.1679 0 0.0353663 0.000534588 0 
25952 1 259.5 44.1679 0 0.0159895 0.00053461 0 
26052 1 260.5 44.1679 0 0.00659765 0.00053462 0 
26152 1 261.5 44.1679 0 0.00250615 0.000534624 0 
26252 1 262.5 44.1679 0 0.000882305 0.000534626 0 
26352 1 263.5 44.1679 0 0.000289465 0.000534627 0 
26452 1 264.5 44.1679 0 8.88992e-05 0.000534627 0 
26552 1 265.5 44.1679 0 2.56559e-05 0.000534627 0 
26652 1 266.5 44.1679 0 6.9805e-06 0.000534627 0 
26752 1 267.5 44.1679 0 1.79579e-06 0.000534627 0 
26852 1 268.5 44.1679 0 4.37908e-07 0.000534627 0 
26952 1 269.5 44.1679 0 1.01418e-07 0.000534627 0 
27052 1 270.5 44.1679 0 2.23751e-08 0.000534627 0 
27152 1 271.5 44.1679 0 4.7278e-09 0.000534627 0 
27252 1 272.5 44.1679 0 9.86273e-10 0.000534627 0 
27352 1 273.5 44.1679 0 1.8061e-10 0.000534627 0 
27452 1 274.5 44.1679 0 1.98666e-21 0.000534627 0 
27552 1 275.5 44.1679 0 1.60982e-21 0.000534627 0 
27652 1 276.5 44.1679 0 1.60982e-21 0.000534627 0 
27752 1 277.5 44.1679 0 1.60982e-21 0.000534627 0 
27852 1 278.5 44.1679 0 1.60982e-21 0.000534627 0 
27952 1 279.5 44.1679 0 1.60982e-21 0.000534627 0 
28052 1 280.5 44.1679 0 1.60982e-21 0.000534627 0 
28152 1 281.5 44.1679 0 1.60982e-21 0.000534627 0 
28252 1 282.5 44.1679 0 1.98666e-21 0.000534627 0 
28352 1 283.5 44.1679 0 1.98666e-21 0.000534627 0 
28452 1 284.5 44.1679 0 1.60982e-21 0.000534627 0 
28552 1 285.5 44.1679 0 1.60982e-21 0.000534627 0 
28652 1 286.5 44.1679 0 1.98666e-21 0.000534627 0 
28752 1 287.5 44.1679 0 1.60982e-21 0.000534627 0 
28852 1 288.5 44.1679 0 1.98666e-21 0.000534627 0 
28952 1 289.5 44.1679 0 1.98666e-21 0.000534627 0 
29052 1 290.5 44.1679 0 1.98666e-21 0.000534627 0 
29152 1 291.5 44.1679 0 1.60982e-21 0.000534627 0 
29252 1 292.5 44.1679 0 1.98666e-21 0.000534627 0 
29352 1 293.5 44.1679 0 1.60982e-21 0.000534627 0 
29452 1 294.5 44.1679 0 1.98666e-21 0.000534627 0 
29552 1 295.5 44.1679 0 1.98666e-21 0.000534627 0 
29652 1 296.5 44.1679 0 1.60982e-21 0.000534627 0 
29752 1 297.5 44.1679 0 1.60982e-21 0.000534627 0 
29852 1 298.5 44.1679 0 1.60982e-21 0.000534627 0 
29952 1 299.5 44.1679 0 1.60982e-21 0.000534627 0 
30052 1 300.5 44.1679 0 1.60982e-21 0.000534627 0 
30152 1 301.5 44.1679 0 1.98666e-21 0.000534627 0 
30252 1 302.5 44.1679 0 1.60982e-21 0.000534627 0 
30352 1 303.5 44.1679 0 1.60982e-21 0.000534627 0 
30452 1 304.5 44.1679 0 1.60982e-21 0.000534627 0 
30552 1 305.5 44.1679 0 1.60982e-21 0.000534627 0 
30652 1 306.5 44.1679 0 1.98666e-21 0.000534627 0 
30752 1 307.5 44.1679 0 1.98666e-21 0.000534627 0 
30852 1 308.5 44.1679 0 1.60982e-21 0.000534627 0 
30952 1 309.5 44.1679 0 1.60982e-21 0.000534627 0 
31052 1 310.5 44.1679 0 1.60982e-21 0.000534627 0 
31152 1 311.5 44.1679 0 1.98666e-21 0.000534627 0 
31252 1 312.5 44.1679 0 1.98666e-21 0.000534627 0 
31352 1 313.5 44.1679 0 1.60982e-21 0.000534627 0 
31452 1 314.5 44.1679 0 1.60982e-21 0.000534627 0 
31552 1 315.5 44.1679 0 1.98666e-21 0.000534627 0 
31652 1 316.5 44.1679 0 1.60982e-21 0.000534627 0 
31752 1 317.5 44.1679 0 1.98666e-21 0.000534627 0 
31852 1 318.5 44.1679 0 1.98666e-21 0.000534627 0 
31952 1 319.5 44.1679 0 1.98666e-21 0.000534627 0 
32052 1 320.5 44.1679 0 1.60982e-21 0.000534627 0 
32152 1 321.5 44.1679 0 1.60982e-21 0.000534627 0 
32252 1 322.5 44.1679 0 1.98666e-21 0.000534627 0 
32352 1 323.5 44.1679 0 1.60982e-21 0.000534627 0 
32452 1 324.5 44.1679 0 1.98666e-21 0.000534627 0 
32552 1 325.5 44.1679 0 1.98666e-21 0.000534627 0 
32652 1 326.5 44.1679 0 1.98666e-21 0.000534627 0 
32752 1 327.5 44.1679 0 1.98666e-21 0.000534627 0 
32852 1 328.5 44.1679 0 1.60982e-21 0.000534627 0 
32952 1 329.5 44.1679 0 1.98666e-21 0.000534627 0 
33052 1 330.5 44.1679 0 1.60982e-21 0.000534627 0 
33152 1 331.5 44.1679 0 1.60982e-21 0.000534627 0 
33252 1 332.5 44.1679 0 1.98666e-21 0.000534627 0 
33352 1 333.5 44.1679 0 1.98666e-21 0.000534627 0 
33452 1 334.5 44.1679 0 1.98666e-21 0.000534627 0 
33552 1 335.5 44.1679 0 1.60982e-21 0.000534627 0 
33652 1 336.5 44.1679 0 1.60982e-21 0.000534627 0 
33752 1 337.5 44.1679 0 5.46322e-11 0.000534627 0 
33852 1 338.5 44.1679 0 3.58253e-10 0.000534627 0 
33952 1 339.5 44.1679 0 8.09078e-10 0.000534627 0 
34052 1 340.5 44.1679 0 2.08612e-09 0.000534626 0 
34152 1 341.5 44.1679 0 5.17092e-09 0.000534625 0 
34252 1 342.5 44.1679 0 1.19895e-08 0.000534621 0 
34352 1 343.5 44.1679 0 2.3991e-08 0.000534613 0 
34452 1 344.5 44.1679 0 4.07659e-08 0.000534599 0 
34552 1 345.5 44.1679 0 5.52047e-08 0.000534579 0 
34652 1 346.5 44.1679 0 4.0748e-08 0.000534558 0 
34752 1 347.5 44.1679 0 -5.68468e-08 0.000534554 0 
34852 1 348.5 44.1679 0 -3.12738e-07 0.000534588 0 
34952 1 349.5 44.1679 0 -7.44554e-07 0.000534653 0 
35052 1 350.5 44.1679 0 -1.13271e-06 0.000534685 0 
35152 1 351.5 44.1679 0 -8.69446e-07 0.000534581 0 
35252 1 352.5 44.1679 0 7.08075e-07 0.000534336 0 
35352 1 353.5 44.1679 0 3.03332e-06 0.00053415 0 
35452 1 354.5 44.1679 0 2.93249e-06 0.000534056 0 
35552 1 355.5 44.1679 0 -3.77608e-06 0.000533017 0 
35652 1 356.5 44.1679 0 -1.60039e-05 0.000528723 0 
35752 1 357.5 44.1679 0 -2.38351e-05 0.000519658 0 
35852 1 358.5 44.1679 0 -2.08e-05 0.000507333 0 
35952 1 359.5 44.1679 0 -2.40023e-05 0.00049295 0 
36052 1 360.5 44.1679 0 -6.24975e-05 0.000470153 0 
36152 1 361.5 44.1679 0 -0.00012869 0.000428519 0 
36252 1 362.5 44.1679 0 -0.00017845 0.00036929 0 
36352 1 363.5 44.1679 0 -0.000215305 0.000303563 0 
36452 1 364.5 44.1679 0 -0.000294663 0.000229614 0 
36552 1 365.5 44.1679 0 -0.000387277 0.000146838 0 
36652 1 366.5 44.1679 0 -0.000408122 9.26421e-05 0 
36752 1 367.5 44.1679 0 -0.000417806 9.30697e-05 0 
36852 1 368.5 44.1679 0 -0.000473222 0.000108717 0 
36952 1 369.5 44.1679 0 -0.000419547 0.000144921 0 
37052 1 370.5 44.1679 0 -0.000284895 0.000276481 0 
37152 1 371.5 44.1679 0 -0.000279819 0.000450002 0 
37252 1 372.5 44.1679 0 -0.000208503 0.000566257 0 
37352 1 373.5 44.1679 0 -3.00337e-05 0.000675177 0 
37452 1 374.5 44.1679 0 -9.67811e-05 0.000754764 0 
37552 1 375.5 44.1679 0 -9.57521e-05 0.000752169 0 
37652 1 376.5 44.1679 0 2.84034e-05 0.000711364 0 
37752 1 377.5 44.1678 0 -0.000202932 0.000635655 0 
37852 1 378.5 44.1678 0 -0.000191375 0.000531323 0 
37952 1 379.5 44.1678 0 -0.000145404 0.000443537 0 
38052 1 380.5 44.1678 0 -0.000343806 0.000443394 0 
38152 1 381.5 44.1678 0 -0.000223253 0.00036974 0 
38252 1 382.5 44.1678 0 -0.000240103 0.000492574 0 
38352 1 383.5 44.1678 0 -0.000256457 0.000528551 0 
38452 1 384.5 44.1678 0 -5.74261e-05 0.000691381 0 
38552 1 385.5 44.1677 0 -9.54729e-05 0.000803008 0 
38652 1 386.5 44.1677 0 4.68838e-05 0.00084472 0 
38752 1 387.5 44.1677 0 5.0984e-05 0.000830915 0 
38852 1 388.5 44.1677 0 0.000295843 0.000576127 0 
38952 1 389.5 44.1677 0 0.000466022 8.62077e-05 0 
39052 1 390.5 44.1676 0 0.000762609 -0.000317713 0 
39152 1 391.5 44.1676 0 0.000816316 -0.000670055 0 
39252 1 392.5 44.1676 0 0.000508262 -0.000269314 0 
39352 1 393.5 44.1675 0 3.045e-05 0.000239383 0 
39452 1 394.5 44.1675 0 -0.00028207 0.000255642 0 
39552 1 395.5 44.1674 0 5.68371e-05 -0.000310987 0 
39652 1 396.5 44.1674 0 6.10288e-06 -0.000322914 0 
39752 1 397.5 44.1673 0 -0.000381728 0.000160709 0 
39852 2 398.5 44.1673 0 -0.00416121 -0.000397228 0 
39952 2 399.5 44.1673 0 -2.20719e-05 -0.000198667 0 
