ITEM: TIMESTEP
1940
ITEM: NUMBER OF ATOMS
400
ITEM: BOX BOUNDS ff pp pp
0.0000000000000000e+00 4.0000000000000000e+02
0.0000000000000000e+00 8.6602540000000005e+01
0.0000000000000000e+00 1.0000000000000000e+00
ITEM: ATOMS id type x y z fx fy fz 
52 2 0.5 44.1673 0 0 -0.000397333 0 
152 2 1.5 44.1673 0 0.00488574 -0.000397179 0 
252 1 2.50002 44.1673 0 9.22929e-05 -0.000103458 0 
352 1 3.50004 44.1674 0 -5.8217e-05 -0.000395477 0 
452 1 4.50006 44.1675 0 5.32883e-05 -8.8288e-05 0 
552 1 5.50009 44.1675 0 -0.000157724 -0.000265368 0 
652 1 6.50011 44.1676 0 -0.00015244 -0.000392486 0 
752 1 7.50013 44.1676 0 0.000120405 5.77253e-05 0 
852 1 8.50015 44.1677 0 4.71034e-05 -0.000418792 0 
952 1 9.50018 44.1678 0 -0.000302671 -0.000824331 0 
1052 1 10.5002 44.1678 0 -7.30379e-05 -0.000501543 0 
1152 1 11.5002 44.1679 0 0.000179252 0.000238247 0 
1252 1 12.5002 44.168 0 3.8574e-05 -7.17069e-05 0 
1352 1 13.5002 44.168 0 -0.00060982 -0.00070421 0 
1452 1 14.5003 44.1681 0 -0.000929166 -0.00124247 0 
1552 1 15.5003 44.1681 0 -0.000919084 -0.00131636 0 
1652 1 16.5003 44.1682 0 -0.000776333 -0.00109357 0 
1752 1 17.5003 44.1682 0 -0.000393274 -0.00076452 0 
1852 1 18.5003 44.1682 0 -0.000214272 -0.00054731 0 
1952 1 19.5002 44.1682 0 4.83084e-05 -0.000410832 0 
2052 1 20.5002 44.1682 0 2.71985e-05 -0.000231986 0 
2152 1 21.5002 44.1683 0 0.000105796 -0.000148853 0 
2252 1 22.5002 44.1683 0 0.000109834 -5.88932e-07 0 
2352 1 23.5002 44.1683 0 -5.73572e-05 -3.09267e-05 0 
2452 1 24.5002 44.1683 0 0.000170163 -2.43779e-05 0 
2552 1 25.5002 44.1683 0 4.54775e-05 -8.39925e-05 0 
2652 1 26.5002 44.1683 0 0.000106261 -0.000166646 0 
2752 1 27.5001 44.1683 0 0.000273847 -0.00022882 0 
2852 1 28.5001 44.1684 0 7.43297e-05 -0.000186828 0 
2952 1 29.5001 44.1684 0 0.000105063 -0.000153754 0 
3052 1 30.5001 44.1684 0 0.000162575 -7.01089e-05 0 
3152 1 31.5001 44.1684 0 -6.77275e-06 -4.95912e-05 0 
3252 1 32.5001 44.1684 0 3.64174e-05 -0.000102314 0 
3352 1 33.5001 44.1684 0 0.00014952 -0.000112605 0 
3452 1 34.5001 44.1684 0 0.000124545 -0.00015983 0 
3552 1 35.5001 44.1684 0 0.000176743 -0.000256325 0 
3652 1 36.5001 44.1684 0 0.000229235 -0.000276594 0 
3752 1 37.5001 44.1684 0 0.000145233 -0.000219433 0 
3852 1 38.5 44.1684 0 7.70844e-05 -0.000159254 0 
3952 1 39.5 44.1684 0 6.78422e-05 -0.000114391 0 
4052 1 40.5 44.1684 0 3.76707e-05 -9.85163e-05 0 
4152 1 41.5 44.1685 0 4.63393e-05 -0.000136553 0 
4252 1 42.5 44.1685 0 0.00014652 -0.000218887 0 
4352 1 43.5 44.1685 0 0.000252591 -0.000315402 0 
4452 1 44.5 44.1685 0 0.000303628 -0.000403984 0 
4552 1 45.5 44.1685 0 0.000333168 -0.000464652 0 
4652 1 46.5 44.1685 0 0.000357773 -0.000480685 0 
4752 1 47.5 44.1685 0 0.000343387 -0.000454669 0 
4852 1 48.5 44.1685 0 0.000277655 -0.000406777 0 
4952 1 49.5 44.1685 0 0.000194493 -0.0003565 0 
5052 1 50.5 44.1685 0 0.000129057 -0.000312778 0 
5152 1 51.5 44.1685 0 8.72686e-05 -0.000277563 0 
5252 1 52.5 44.1685 0 5.82633e-05 -0.000251138 0 
5352 1 53.5 44.1685 0 3.47809e-05 -0.000233203 0 
5452 1 54.5 44.1685 0 1.70262e-05 -0.000222326 0 
5552 1 55.5 44.1685 0 6.4763e-06 -0.000216329 0 
5652 1 56.5 44.1685 0 2.03298e-06 -0.000213237 0 
5752 1 57.5 44.1685 0 9.40798e-07 -0.000211738 0 
5852 1 58.5 44.1685 0 8.87189e-07 -0.000211087 0 
5952 1 59.5 44.1685 0 8.17803e-07 -0.000210863 0 
6052 1 60.5 44.1685 0 5.74766e-07 -0.00021082 0 
6152 1 61.5 44.1685 0 2.99527e-07 -0.000210825 0 
6252 1 62.5 44.1685 0 1.03558e-07 -0.000210826 0 
6352 1 63.5 44.1685 0 4.9875e-09 -0.000210816 0 
6452 1 64.5 44.1685 0 -2.66344e-08 -0.0002108 0 
6552 1 65.5 44.1685 0 -2.69239e-08 -0.000210786 0 
6652 1 66.5 44.1685 0 -1.82277e-08 -0.000210776 0 
6752 1 67.5 44.1685 0 -1.00974e-08 -0.00021077 0 
6852 1 68.5 44.1685 0 -4.87384e-09 -0.000210767 0 
6952 1 69.5 44.1685 0 -2.10168e-09 -0.000210766 0 
7052 1 70.5 44.1685 0 -8.10163e-10 -0.000210765 0 
7152 1 71.5 44.1685 0 -3.2087e-10 -0.000210765 0 
7252 1 72.5 44.1685 0 -1.1751e-10 -0.000210765 0 
7352 1 73.5 44.1685 0 -4.87865e-11 -0.000210765 0 
7452 1 74.5 44.1685 0 1.98816e-21 -0.000210765 0 
7552 1 75.5 44.1685 0 2.46431e-21 -0.000210765 0 
7652 1 76.5 44.1685 0 2.46431e-21 -0.000210765 0 
7752 1 77.5 44.1685 0 1.98816e-21 -0.000210765 0 
7852 1 78.5 44.1685 0 1.98816e-21 -0.000210765 0 
7952 1 79.5 44.1685 0 1.98816e-21 -0.000210765 0 
8052 1 80.5 44.1685 0 1.98816e-21 -0.000210765 0 
8152 1 81.5 44.1685 0 2.46431e-21 -0.000210765 0 
8252 1 82.5 44.1685 0 2.46431e-21 -0.000210765 0 
8352 1 83.5 44.1685 0 1.98816e-21 -0.000210765 0 
8452 1 84.5 44.1685 0 1.98816e-21 -0.000210765 0 
8552 1 85.5 44.1685 0 2.46431e-21 -0.000210765 0 
8652 1 86.5 44.1685 0 2.46431e-21 -0.000210765 0 
8752 1 87.5 44.1685 0 1.98816e-21 -0.000210765 0 
8852 1 88.5 44.1685 0 2.46431e-21 -0.000210765 0 
8952 1 89.5 44.1685 0 2.46431e-21 -0.000210765 0 
9052 1 90.5 44.1685 0 1.98816e-21 -0.000210765 0 
9152 1 91.5 44.1685 0 1.98816e-21 -0.000210765 0 
9252 1 92.5 44.1685 0 1.98816e-21 -0.000210765 0 
9352 1 93.5 44.1685 0 2.46431e-21 -0.000210765 0 
9452 1 94.5 44.1685 0 1.98816e-21 -0.000210765 0 
9552 1 95.5 44.1685 0 2.46431e-21 -0.000210765 0 
9652 1 96.5 44.1685 0 1.98816e-21 -0.000210765 0 
9752 1 97.5 44.1685 0 2.46431e-21 -0.000210765 0 
9852 1 98.5 44.1685 0 1.98816e-21 -0.000210765 0 
9952 1 99.5 44.1685 0 1.98816e-21 -0.000210765 0 
10052 1 100.5 44.1685 0 1.98816e-21 -0.000210765 0 
10152 1 101.5 44.1685 0 2.46431e-21 -0.000210765 0 
10252 1 102.5 44.1685 0 2.46431e-21 -0.000210765 0 
10352 1 103.5 44.1685 0 2.46431e-21 -0.000210765 0 
10452 1 104.5 44.1685 0 2.46431e-21 -0.000210765 0 
10552 1 105.5 44.1685 0 1.98816e-21 -0.000210765 0 
10652 1 106.5 44.1685 0 1.98816e-21 -0.000210765 0 
10752 1 107.5 44.1685 0 2.46431e-21 -0.000210765 0 
10852 1 108.5 44.1685 0 1.98816e-21 -0.000210765 0 
10952 1 109.5 44.1685 0 1.98816e-21 -0.000210765 0 
11052 1 110.5 44.1685 0 1.98816e-21 -0.000210765 0 
11152 1 111.5 44.1685 0 1.98816e-21 -0.000210765 0 
11252 1 112.5 44.1685 0 1.98816e-21 -0.000210765 0 
11352 1 113.5 44.1685 0 1.98816e-21 -0.000210765 0 
11452 1 114.5 44.1685 0 1.98816e-21 -0.000210765 0 
11552 1 115.5 44.1685 0 2.46431e-21 -0.000210765 0 
11652 1 116.5 44.1685 0 6.77249e-11 -0.000210765 0 
11752 1 117.5 44.1685 0 3.0485e-10 -0.000210765 0 
11852 1 118.5 44.1685 0 1.43679e-09 -0.000210765 0 
11952 1 119.5 44.1685 0 6.5697e-09 -0.000210765 0 
12052 1 120.5 44.1685 0 2.87015e-08 -0.000210765 0 
12152 1 121.5 44.1685 0 1.20279e-07 -0.000210765 0 
12252 1 122.5 44.1685 0 4.82257e-07 -0.000210765 0 
12352 1 123.5 44.1685 0 1.84547e-06 -0.000210765 0 
12452 1 124.5 44.1685 0 6.72778e-06 -0.000210765 0 
12552 1 125.5 44.1685 0 2.33169e-05 -0.000210765 0 
12652 1 126.5 44.1685 0 7.66387e-05 -0.000210765 0 
12752 1 127.5 44.1685 0 0.000238229 -0.000210765 0 
12852 1 128.5 44.1685 0 0.00069811 -0.000210764 0 
12952 1 129.5 44.1685 0 0.00192139 -0.000210762 0 
13052 1 130.5 44.1685 0 0.00494458 -0.000210757 0 
13152 1 131.5 44.1685 0 0.0118332 -0.000210744 0 
13252 1 132.5 44.1685 0 0.0261554 -0.000210715 0 
13352 1 133.5 44.1685 0 0.0529206 -0.000210655 0 
13452 1 134.501 44.1685 0 0.096817 -0.000210541 0 
13552 1 135.501 44.1685 0 0.157275 -0.000210346 0 
13652 1 136.503 44.1685 0 0.220207 -0.000210053 0 
13752 1 137.504 44.1685 0 0.250865 -0.000209677 0 
13852 1 138.507 44.1685 0 0.199265 -0.000209289 0 
13952 1 139.511 44.1685 0 0.0315286 -0.000209014 0 
14052 1 140.515 44.1685 0 -0.216951 -0.000208973 0 
14152 1 141.518 44.1685 0 -0.410527 -0.000209182 0 
14252 1 142.52 44.1685 0 -0.374409 -0.000209495 0 
14352 1 143.52 44.1685 0 -0.0618763 -0.000209697 0 
14452 1 144.521 44.1685 0 0.305333 -0.000209713 0 
14552 1 145.522 44.1685 0 0.353322 -0.000209691 0 
14652 1 146.525 44.1685 0 -0.0288943 -0.000209707 0 
14752 1 147.528 44.1685 0 -0.412305 -0.000209348 0 
14852 1 148.529 44.1685 0 -0.257273 -0.000208015 0 
14952 1 149.529 44.1685 0 0.273065 -0.000206037 0 
15052 1 150.531 44.1685 0 0.370886 -0.000205216 0 
15152 1 151.534 44.1685 0 -0.175632 -0.000207021 0 
15252 1 152.536 44.1685 0 -0.436377 -0.000209675 0 
15352 1 153.537 44.1685 0 0.110336 -0.000209411 0 
15452 1 154.538 44.1685 0 0.436223 -0.000205876 0 
15552 1 155.541 44.1685 0 -0.15028 -0.000203786 0 
15652 1 156.544 44.1685 0 -0.425417 -0.000206257 0 
15752 1 157.545 44.1685 0 0.242748 -0.000209011 0 
15852 1 158.547 44.1685 0 0.328968 -0.00020703 0 
15952 1 159.551 44.1685 0 -0.381245 -0.000203547 0 
16052 1 160.553 44.1685 0 -0.128469 -0.000204722 0 
16152 1 161.555 44.1685 0 0.42984 -0.00020706 0 
16252 1 162.558 44.1685 0 -0.189138 -0.000203786 0 
16352 1 163.562 44.1685 0 -0.280351 -0.000200094 0 
16452 1 164.564 44.1685 0 0.385966 -0.000202905 0 
16552 1 165.567 44.1685 0 -0.193082 -0.000206666 0 
16652 1 166.57 44.1685 0 -0.368581 -0.000208952 0 
16752 1 167.571 44.1685 0 0.393392 -0.000208897 0 
16852 1 168.574 44.1685 0 -0.152469 -0.000199753 0 
16952 1 169.577 44.1685 0 -0.108406 -0.000205399 0 
17052 1 170.578 44.1685 0 0.490001 -0.000215305 0 
17152 1 171.581 44.1685 0 -0.401534 -0.000199582 0 
17252 1 172.583 44.1685 0 -0.465648 -0.000207826 0 
17352 1 173.586 44.1685 0 -0.219433 -0.000212585 0 
17452 1 174.587 44.1685 0 0.489945 -0.000208497 0 
17552 1 175.588 44.1685 0 1.41624 -0.000195275 0 
17652 1 176.593 44.1685 0 -0.711763 -0.000222937 0 
17752 1 177.595 44.1685 0 -0.783643 -0.000204079 0 
17852 1 178.597 44.1685 0 -0.0630944 -0.000212537 0 
17952 1 179.6 44.1685 0 -0.762119 -0.000207997 0 
18052 1 180.601 44.1685 0 0.327486 -0.000210024 0 
18152 1 181.604 44.1685 0 -0.14215 -0.000221493 0 
18252 1 182.606 44.1685 0 0.846668 -0.000197673 0 
18352 1 183.608 44.1685 0 0.332831 -0.000214517 0 
18452 1 184.612 44.1685 0 0.00652494 -0.000218339 0 
18552 1 185.614 44.1685 0 0.994317 -0.000200513 0 
18652 1 186.619 44.1685 0 -0.612905 -0.000223608 0 
18752 1 187.622 44.1685 0 -0.320938 -0.000254294 0 
18852 1 188.624 44.1685 0 0.726638 -0.000218919 0 
18952 1 189.63 44.1685 0 -1.31822 -0.000215791 0 
19052 1 190.633 44.1685 0 -0.52551 -0.000191945 0 
19152 1 191.637 44.1685 0 0.876145 -0.000172609 0 
19252 1 192.644 44.1685 0 -1.94746 -0.000218295 0 
19352 1 193.647 44.1685 0 0.88077 -0.000259702 0 
19452 1 194.655 44.1685 0 -1.46828 -0.000207632 0 
19552 1 195.66 44.1685 0 1.29748 -0.000194523 0 
19652 1 196.672 44.1685 0 -1.91828 -0.000171228 0 
19752 1 197.681 44.1685 0 1.13902 -0.000182095 0 
19852 1 198.7 44.1685 0 -1.2569 -0.000217134 0 
19952 1 199.726 44.1685 0 0.943258 -0.000259994 0 
20052 3 200.782 44.1685 0 -1.5291 -0.000192496 0 
20152 1 201.727 44.1685 0 0.4241 -0.000142791 0 
20252 1 202.7 44.1685 0 -1.0263 -0.000248909 0 
20352 1 203.682 44.1685 0 0.242181 -0.000229722 0 
20452 1 204.672 44.1685 0 -1.55592 -0.000249994 0 
20552 1 205.661 44.1685 0 0.272008 -0.000205422 0 
20652 1 206.654 44.1685 0 -0.669796 -0.000187514 0 
20752 1 207.647 44.1685 0 -0.0448993 -0.000165433 0 
20852 1 208.643 44.1685 0 -1.4264 -0.000242831 0 
20952 1 209.636 44.1685 0 1.2195 -0.00024181 0 
21052 1 210.633 44.1685 0 -0.783775 -0.000220294 0 
21152 1 211.628 44.1685 0 -0.223814 -0.00020786 0 
21252 1 212.623 44.1685 0 1.0027 -0.000202085 0 
21352 1 213.621 44.1685 0 0.00791423 -0.000175171 0 
21452 1 214.617 44.1685 0 0.270327 -0.000200127 0 
21552 1 215.613 44.1685 0 1.16884 -0.000233475 0 
21652 1 216.612 44.1685 0 -0.0365288 -0.000202036 0 
21752 1 217.608 44.1685 0 0.469036 -0.000206615 0 
21852 1 218.606 44.1685 0 0.195239 -0.00022595 0 
21952 1 219.604 44.1685 0 -0.564958 -0.000196005 0 
22052 1 220.602 44.1685 0 -0.2915 -0.000214728 0 
22152 1 221.6 44.1685 0 -0.975124 -0.000217955 0 
22252 1 222.596 44.1685 0 -0.00570725 -0.000207572 0 
22352 1 223.594 44.1685 0 -0.453849 -0.000217979 0 
22452 1 224.591 44.1685 0 0.301278 -0.000205357 0 
22552 1 225.587 44.1685 0 1.67932 -0.000225045 0 
22652 1 226.587 44.1685 0 -0.154057 -0.000213099 0 
22752 1 227.586 44.1685 0 -0.84432 -0.000208119 0 
22852 1 228.583 44.1685 0 -0.418117 -0.000216565 0 
22952 1 229.58 44.1685 0 -0.00420186 -0.000222847 0 
23052 1 230.578 44.1685 0 0.541884 -0.000205961 0 
23152 1 231.576 44.1685 0 -0.134785 -0.000219425 0 
23252 1 232.573 44.1685 0 -0.164908 -0.000221282 0 
23352 1 233.571 44.1685 0 0.263211 -0.000211019 0 
23452 1 234.57 44.1685 0 -0.326467 -0.000213767 0 
23552 1 235.567 44.1685 0 -0.121941 -0.000217563 0 
23652 1 236.563 44.1685 0 0.328237 -0.000219372 0 
23752 1 237.561 44.1685 0 -0.24117 -0.000220421 0 
23852 1 238.558 44.1685 0 -0.176533 -0.00021757 0 
23952 1 239.555 44.1685 0 0.338108 -0.000215376 0 
24052 1 240.552 44.1685 0 -0.0663345 -0.000216781 0 
24152 1 241.55 44.1685 0 -0.288372 -0.000217044 0 
24252 1 242.547 44.1685 0 0.211848 -0.000214467 0 
24352 1 243.545 44.1685 0 0.165808 -0.000213482 0 
24452 1 244.543 44.1685 0 -0.28809 -0.000215736 0 
24552 1 245.541 44.1685 0 -0.084505 -0.0002171 0 
24652 1 246.538 44.1685 0 0.298275 -0.000215042 0 
24752 1 247.537 44.1685 0 0.0352957 -0.000212393 0 
24852 1 248.536 44.1685 0 -0.319614 -0.000212581 0 
24952 1 249.533 44.1685 0 -0.0775742 -0.000214809 0 
25052 1 250.531 44.1685 0 0.298068 -0.000216024 0 
25152 1 251.529 44.1685 0 0.156791 -0.000215074 0 
25252 1 252.528 44.1685 0 -0.253061 -0.000213275 0 
25352 1 253.527 44.1685 0 -0.310598 -0.000212145 0 
25452 1 254.524 44.1685 0 0.0340629 -0.000211866 0 
25552 1 255.522 44.1685 0 0.315318 -0.000211873 0 
25652 1 256.521 44.1685 0 0.221024 -0.000211856 0 
25752 1 257.52 44.1685 0 -0.11253 -0.000211901 0 
25852 1 258.519 44.1685 0 -0.360649 -0.000212109 0 
25952 1 259.517 44.1685 0 -0.355664 -0.000212381 0 
26052 1 260.514 44.1685 0 -0.162722 -0.000212522 0 
26152 1 261.51 44.1685 0 0.0595372 -0.000212429 0 
26252 1 262.507 44.1685 0 0.200277 -0.000212139 0 
26352 1 263.504 44.1685 0 0.237121 -0.000211766 0 
26452 1 264.502 44.1685 0 0.203612 -0.000211416 0 
26552 1 265.501 44.1685 0 0.144035 -0.000211147 0 
26652 1 266.501 44.1685 0 0.0883009 -0.000210969 0 
26752 1 267.5 44.1685 0 0.0481959 -0.000210865 0 
26852 1 268.5 44.1685 0 0.0238195 -0.00021081 0 
26952 1 269.5 44.1685 0 0.0107845 -0.000210784 0 
27052 1 270.5 44.1685 0 0.00451182 -0.000210772 0 
27152 1 271.5 44.1685 0 0.00175583 -0.000210768 0 
27252 1 272.5 44.1685 0 0.000639019 -0.000210766 0 
27352 1 273.5 44.1685 0 0.000218451 -0.000210765 0 
27452 1 274.5 44.1685 0 7.04057e-05 -0.000210765 0 
27552 1 275.5 44.1685 0 2.14612e-05 -0.000210765 0 
27652 1 276.5 44.1685 0 6.20407e-06 -0.000210765 0 
27752 1 277.5 44.1685 0 1.705e-06 -0.000210765 0 
27852 1 278.5 44.1685 0 4.46366e-07 -0.000210765 0 
27952 1 279.5 44.1685 0 1.11647e-07 -0.000210765 0 
28052 1 280.5 44.1685 0 2.66156e-08 -0.000210765 0 
28152 1 281.5 44.1685 0 6.12758e-09 -0.000210765 0 
28252 1 282.5 44.1685 0 1.35547e-09 -0.000210765 0 
28352 1 283.5 44.1685 0 3.60373e-10 -0.000210765 0 
28452 1 284.5 44.1685 0 1.98816e-21 -0.000210765 0 
28552 1 285.5 44.1685 0 1.98816e-21 -0.000210765 0 
28652 1 286.5 44.1685 0 2.46431e-21 -0.000210765 0 
28752 1 287.5 44.1685 0 1.98816e-21 -0.000210765 0 
28852 1 288.5 44.1685 0 2.46431e-21 -0.000210765 0 
28952 1 289.5 44.1685 0 2.46431e-21 -0.000210765 0 
29052 1 290.5 44.1685 0 2.46431e-21 -0.000210765 0 
29152 1 291.5 44.1685 0 1.98816e-21 -0.000210765 0 
29252 1 292.5 44.1685 0 2.46431e-21 -0.000210765 0 
29352 1 293.5 44.1685 0 1.98816e-21 -0.000210765 0 
29452 1 294.5 44.1685 0 2.46431e-21 -0.000210765 0 
29552 1 295.5 44.1685 0 2.46431e-21 -0.000210765 0 
29652 1 296.5 44.1685 0 1.98816e-21 -0.000210765 0 
29752 1 297.5 44.1685 0 1.98816e-21 -0.000210765 0 
29852 1 298.5 44.1685 0 1.98816e-21 -0.000210765 0 
29952 1 299.5 44.1685 0 1.98816e-21 -0.000210765 0 
30052 1 300.5 44.1685 0 1.98816e-21 -0.000210765 0 
30152 1 301.5 44.1685 0 2.46431e-21 -0.000210765 0 
30252 1 302.5 44.1685 0 1.98816e-21 -0.000210765 0 
30352 1 303.5 44.1685 0 1.98816e-21 -0.000210765 0 
30452 1 304.5 44.1685 0 1.98816e-21 -0.000210765 0 
30552 1 305.5 44.1685 0 1.98816e-21 -0.000210765 0 
30652 1 306.5 44.1685 0 2.46431e-21 -0.000210765 0 
30752 1 307.5 44.1685 0 2.46431e-21 -0.000210765 0 
30852 1 308.5 44.1685 0 1.98816e-21 -0.000210765 0 
30952 1 309.5 44.1685 0 1.98816e-21 -0.000210765 0 
31052 1 310.5 44.1685 0 1.98816e-21 -0.000210765 0 
31152 1 311.5 44.1685 0 2.46431e-21 -0.000210765 0 
31252 1 312.5 44.1685 0 2.46431e-21 -0.000210765 0 
31352 1 313.5 44.1685 0 1.98816e-21 -0.000210765 0 
31452 1 314.5 44.1685 0 1.98816e-21 -0.000210765 0 
31552 1 315.5 44.1685 0 2.46431e-21 -0.000210765 0 
31652 1 316.5 44.1685 0 1.98816e-21 -0.000210765 0 
31752 1 317.5 44.1685 0 2.46431e-21 -0.000210765 0 
31852 1 318.5 44.1685 0 2.46431e-21 -0.000210765 0 
31952 1 319.5 44.1685 0 2.46431e-21 -0.000210765 0 
32052 1 320.5 44.1685 0 1.98816e-21 -0.000210765 0 
32152 1 321.5 44.1685 0 1.98816e-21 -0.000210765 0 
32252 1 322.5 44.1685 0 2.46431e-21 -0.000210765 0 
32352 1 323.5 44.1685 0 1.98816e-21 -0.000210765 0 
32452 1 324.5 44.1685 0 2.46431e-21 -0.000210765 0 
32552 1 325.5 44.1685 0 2.46431e-21 -0.000210765 0 
32652 1 326.5 44.1685 0 2.46431e-21 -0.000210765 0 
32752 1 327.5 44.1685 0 8.68795e-11 -0.000210765 0 
32852 1 328.5 44.1685 0 4.267e-10 -0.000210765 0 
32952 1 329.5 44.1685 0 9.23306e-10 -0.000210765 0 
33052 1 330.5 44.1685 0 2.02407e-09 -0.000210766 0 
33152 1 331.5 44.1685 0 4.84961e-09 -0.000210767 0 
33252 1 332.5 44.1685 0 9.9959e-09 -0.00021077 0 
33352 1 333.5 44.1685 0 1.8303e-08 -0.000210776 0 
33452 1 334.5 44.1685 0 2.69879e-08 -0.000210786 0 
33552 1 335.5 44.1685 0 2.65609e-08 -0.0002108 0 
33652 1 336.5 44.1685 0 -5.1833e-09 -0.000210816 0 
33752 1 337.5 44.1685 0 -1.03347e-07 -0.000210826 0 
33852 1 338.5 44.1685 0 -2.99493e-07 -0.000210825 0 
33952 1 339.5 44.1685 0 -5.74822e-07 -0.00021082 0 
34052 1 340.5 44.1685 0 -8.17971e-07 -0.000210863 0 
34152 1 341.5 44.1685 0 -8.87297e-07 -0.000211087 0 
34252 1 342.5 44.1685 0 -9.40769e-07 -0.000211737 0 
34352 1 343.5 44.1685 0 -2.03291e-06 -0.000213237 0 
34452 1 344.5 44.1685 0 -6.47637e-06 -0.000216329 0 
34552 1 345.5 44.1685 0 -1.7026e-05 -0.000222325 0 
34652 1 346.5 44.1685 0 -3.47808e-05 -0.000233203 0 
34752 1 347.5 44.1685 0 -5.82635e-05 -0.000251138 0 
34852 1 348.5 44.1685 0 -8.72686e-05 -0.000277562 0 
34952 1 349.5 44.1685 0 -0.000129057 -0.000312778 0 
35052 1 350.5 44.1685 0 -0.000194493 -0.0003565 0 
35152 1 351.5 44.1685 0 -0.000277655 -0.000406777 0 
35252 1 352.5 44.1685 0 -0.000343387 -0.000454669 0 
35352 1 353.5 44.1685 0 -0.000357773 -0.000480685 0 
35452 1 354.5 44.1685 0 -0.000333168 -0.000464652 0 
35552 1 355.5 44.1685 0 -0.000303628 -0.000403984 0 
35652 1 356.5 44.1685 0 -0.000252591 -0.000315402 0 
35752 1 357.5 44.1685 0 -0.00014652 -0.000218887 0 
35852 1 358.5 44.1685 0 -4.63392e-05 -0.000136552 0 
35952 1 359.5 44.1684 0 -3.76705e-05 -9.85164e-05 0 
36052 1 360.5 44.1684 0 -6.78425e-05 -0.000114391 0 
36152 1 361.5 44.1684 0 -7.70847e-05 -0.000159254 0 
36252 1 362.5 44.1684 0 -0.000145233 -0.000219433 0 
36352 1 363.5 44.1684 0 -0.000229235 -0.000276595 0 
36452 1 364.5 44.1684 0 -0.000176743 -0.000256324 0 
36552 1 365.5 44.1684 0 -0.000124544 -0.00015983 0 
36652 1 366.5 44.1684 0 -0.00014952 -0.000112605 0 
36752 1 367.5 44.1684 0 -3.64171e-05 -0.000102314 0 
36852 1 368.5 44.1684 0 6.77268e-06 -4.95909e-05 0 
36952 1 369.5 44.1684 0 -0.000162575 -7.01093e-05 0 
37052 1 370.5 44.1684 0 -0.000105063 -0.000153754 0 
37152 1 371.5 44.1684 0 -7.43294e-05 -0.000186828 0 
37252 1 372.5 44.1683 0 -0.000273848 -0.00022882 0 
37352 1 373.5 44.1683 0 -0.000106261 -0.000166646 0 
37452 1 374.5 44.1683 0 -4.54776e-05 -8.39924e-05 0 
37552 1 375.5 44.1683 0 -0.000170162 -2.43779e-05 0 
37652 1 376.5 44.1683 0 5.73575e-05 -3.09264e-05 0 
37752 1 377.5 44.1683 0 -0.000109833 -5.893e-07 0 
37852 1 378.5 44.1683 0 -0.000105796 -0.000148853 0 
37952 1 379.5 44.1682 0 -2.71985e-05 -0.000231986 0 
38052 1 380.5 44.1682 0 -4.83086e-05 -0.000410831 0 
38152 1 381.5 44.1682 0 0.000214272 -0.00054731 0 
38252 1 382.5 44.1682 0 0.000393274 -0.000764519 0 
38352 1 383.5 44.1682 0 0.000776333 -0.00109357 0 
38452 1 384.5 44.1681 0 0.000919084 -0.00131636 0 
38552 1 385.5 44.1681 0 0.000929166 -0.00124247 0 
38652 1 386.5 44.168 0 0.00060982 -0.00070421 0 
38752 1 387.5 44.168 0 -3.85738e-05 -7.17067e-05 0 
38852 1 388.5 44.1679 0 -0.000179253 0.000238247 0 
38952 1 389.5 44.1678 0 7.30382e-05 -0.000501543 0 
39052 1 390.5 44.1678 0 0.00030267 -0.000824331 0 
39152 1 391.5 44.1677 0 -4.7103e-05 -0.000418792 0 
39252 1 392.5 44.1676 0 -0.000120405 5.77255e-05 0 
39352 1 393.5 44.1676 0 0.000152441 -0.000392486 0 
39452 1 394.5 44.1675 0 0.000157723 -0.000265368 0 
39552 1 395.5 44.1675 0 -5.32881e-05 -8.82875e-05 0 
39652 1 396.5 44.1674 0 5.82166e-05 -0.000395477 0 
39752 1 397.5 44.1673 0 -9.22929e-05 -0.000103458 0 
39852 2 398.5 44.1673 0 -0.00488574 -0.000397179 0 
39952 2 399.5 44.1673 0 -2.20719e-05 -0.000198667 0 
