ITEM: TIMESTEP
1910
ITEM: NUMBER OF ATOMS
400
ITEM: BOX BOUNDS ff pp pp
0.0000000000000000e+00 4.0000000000000000e+02
0.0000000000000000e+00 8.6602540000000005e+01
0.0000000000000000e+00 1.0000000000000000e+00
ITEM: ATOMS id type x y z fx fy fz 
52 2 0.5 44.1673 0 0 -0.000397333 0 
152 2 1.5 44.1673 0 0.00491565 -0.000397184 0 
252 1 2.50002 44.1673 0 -0.000183913 4.4177e-05 0 
352 1 3.50004 44.1674 0 -2.10576e-05 0.000405587 0 
452 1 4.50006 44.1674 0 -0.000152818 0.000243818 0 
552 1 5.50009 44.1675 0 -0.000119113 0.000363452 0 
652 1 6.50011 44.1676 0 0.000224582 0.000812197 0 
752 1 7.50013 44.1676 0 -0.000144943 0.000263977 0 
852 1 8.50015 44.1677 0 -0.000397423 0.000134294 0 
952 1 9.50017 44.1677 0 -3.63424e-05 0.000484842 0 
1052 1 10.5002 44.1678 0 0.000123544 0.000876837 0 
1152 1 11.5002 44.1679 0 -8.36596e-05 0.000188588 0 
1252 1 12.5002 44.1679 0 -0.000692146 -0.000645545 0 
1352 1 13.5002 44.168 0 -0.000823824 -0.00112947 0 
1452 1 14.5002 44.168 0 -0.000829703 -0.00113024 0 
1552 1 15.5002 44.168 0 -0.000541608 -0.000780846 0 
1652 1 16.5002 44.1681 0 -0.000319535 -0.000342938 0 
1752 1 17.5002 44.1681 0 -9.23553e-05 -8.5062e-06 0 
1852 1 18.5002 44.1681 0 -1.12456e-05 0.000240471 0 
1952 1 19.5002 44.1681 0 -5.89499e-07 0.000351527 0 
2052 1 20.5002 44.1681 0 9.70854e-05 0.000340837 0 
2152 1 21.5002 44.1682 0 1.37641e-05 0.000278401 0 
2252 1 22.5002 44.1682 0 0.000179528 0.000155063 0 
2352 1 23.5002 44.1682 0 0.000218999 0.000185219 0 
2452 1 24.5001 44.1682 0 7.61697e-05 0.000104799 0 
2552 1 25.5001 44.1682 0 0.000245355 0.0001993 0 
2652 1 26.5001 44.1682 0 8.25017e-05 0.000255984 0 
2752 1 27.5001 44.1682 0 -4.81154e-06 0.00028469 0 
2852 1 28.5001 44.1682 0 0.000138411 0.000329271 0 
2952 1 29.5001 44.1683 0 3.451e-05 0.000294817 0 
3052 1 30.5001 44.1683 0 7.37431e-05 0.000187586 0 
3152 1 31.5001 44.1683 0 0.000238762 0.000149901 0 
3252 1 32.5001 44.1683 0 0.00019139 0.000122536 0 
3352 1 33.5001 44.1683 0 0.000168277 6.86797e-05 0 
3452 1 34.5001 44.1683 0 0.000198259 0.000105082 0 
3552 1 35.5 44.1683 0 0.00010036 0.000206031 0 
3652 1 36.5 44.1683 0 2.36877e-05 0.000259775 0 
3752 1 37.5 44.1683 0 5.44199e-05 0.000260532 0 
3852 1 38.5 44.1683 0 7.91654e-05 0.000227269 0 
3952 1 39.5 44.1683 0 0.000118365 0.00014768 0 
4052 1 40.5 44.1683 0 0.000229626 3.94804e-05 0 
4152 1 41.5 44.1683 0 0.000330193 -5.77021e-05 0 
4252 1 42.5 44.1683 0 0.000356738 -0.000124575 0 
4352 1 43.5 44.1683 0 0.000354354 -0.00015403 0 
4452 1 44.5 44.1683 0 0.000351742 -0.000140758 0 
4552 1 45.5 44.1683 0 0.000317333 -9.38397e-05 0 
4652 1 46.5 44.1683 0 0.000240063 -3.57056e-05 0 
4752 1 47.5 44.1684 0 0.000156254 1.60283e-05 0 
4852 1 48.5 44.1684 0 9.87615e-05 5.66273e-05 0 
4952 1 49.5 44.1684 0 6.70129e-05 8.76233e-05 0 
5052 1 50.5 44.1684 0 4.54882e-05 0.000110242 0 
5152 1 51.5 44.1684 0 2.64927e-05 0.000125084 0 
5252 1 52.5 44.1684 0 1.16632e-05 0.000133623 0 
5352 1 53.5 44.1684 0 3.36705e-06 0.000138043 0 
5452 1 54.5 44.1684 0 5.66444e-07 0.000140217 0 
5552 1 55.5 44.1684 0 4.24904e-07 0.000141251 0 
5652 1 56.5 44.1684 0 7.66901e-07 0.000141688 0 
5752 1 57.5 44.1684 0 7.94971e-07 0.000141818 0 
5852 1 58.5 44.1684 0 5.52175e-07 0.000141821 0 
5952 1 59.5 44.1684 0 2.70502e-07 0.000141801 0 
6052 1 60.5 44.1684 0 7.9403e-08 0.000141796 0 
6152 1 61.5 44.1684 0 -9.26912e-09 0.000141806 0 
6252 1 62.5 44.1684 0 -3.29238e-08 0.000141823 0 
6352 1 63.5 44.1684 0 -2.86843e-08 0.000141837 0 
6452 1 64.5 44.1684 0 -1.81756e-08 0.000141847 0 
6552 1 65.5 44.1684 0 -9.67434e-09 0.000141853 0 
6652 1 66.5 44.1684 0 -4.51288e-09 0.000141856 0 
6752 1 67.5 44.1684 0 -1.88973e-09 0.000141857 0 
6852 1 68.5 44.1684 0 -7.13525e-10 0.000141858 0 
6952 1 69.5 44.1684 0 -2.52952e-10 0.000141858 0 
7052 1 70.5 44.1684 0 -1.14011e-10 0.000141858 0 
7152 1 71.5 44.1684 0 -3.34815e-11 0.000141858 0 
7252 1 72.5 44.1684 0 2.56809e-21 0.000141858 0 
7352 1 73.5 44.1684 0 2.56809e-21 0.000141858 0 
7452 1 74.5 44.1684 0 2.11554e-21 0.000141858 0 
7552 1 75.5 44.1684 0 2.56809e-21 0.000141858 0 
7652 1 76.5 44.1684 0 2.56809e-21 0.000141858 0 
7752 1 77.5 44.1684 0 2.11554e-21 0.000141858 0 
7852 1 78.5 44.1684 0 2.11554e-21 0.000141858 0 
7952 1 79.5 44.1684 0 2.11554e-21 0.000141858 0 
8052 1 80.5 44.1684 0 2.11554e-21 0.000141858 0 
8152 1 81.5 44.1684 0 2.56809e-21 0.000141858 0 
8252 1 82.5 44.1684 0 2.56809e-21 0.000141858 0 
8352 1 83.5 44.1684 0 2.11554e-21 0.000141858 0 
8452 1 84.5 44.1684 0 2.11554e-21 0.000141858 0 
8552 1 85.5 44.1684 0 2.56809e-21 0.000141858 0 
8652 1 86.5 44.1684 0 2.56809e-21 0.000141858 0 
8752 1 87.5 44.1684 0 2.11554e-21 0.000141858 0 
8852 1 88.5 44.1684 0 2.56809e-21 0.000141858 0 
8952 1 89.5 44.1684 0 2.56809e-21 0.000141858 0 
9052 1 90.5 44.1684 0 2.11554e-21 0.000141858 0 
9152 1 91.5 44.1684 0 2.11554e-21 0.000141858 0 
9252 1 92.5 44.1684 0 2.11554e-21 0.000141858 0 
9352 1 93.5 44.1684 0 2.56809e-21 0.000141858 0 
9452 1 94.5 44.1684 0 2.11554e-21 0.000141858 0 
9552 1 95.5 44.1684 0 2.56809e-21 0.000141858 0 
9652 1 96.5 44.1684 0 2.11554e-21 0.000141858 0 
9752 1 97.5 44.1684 0 2.56809e-21 0.000141858 0 
9852 1 98.5 44.1684 0 2.11554e-21 0.000141858 0 
9952 1 99.5 44.1684 0 2.11554e-21 0.000141858 0 
10052 1 100.5 44.1684 0 2.11554e-21 0.000141858 0 
10152 1 101.5 44.1684 0 2.56809e-21 0.000141858 0 
10252 1 102.5 44.1684 0 2.56809e-21 0.000141858 0 
10352 1 103.5 44.1684 0 2.56809e-21 0.000141858 0 
10452 1 104.5 44.1684 0 2.56809e-21 0.000141858 0 
10552 1 105.5 44.1684 0 2.11554e-21 0.000141858 0 
10652 1 106.5 44.1684 0 2.11554e-21 0.000141858 0 
10752 1 107.5 44.1684 0 2.56809e-21 0.000141858 0 
10852 1 108.5 44.1684 0 2.11554e-21 0.000141858 0 
10952 1 109.5 44.1684 0 2.11554e-21 0.000141858 0 
11052 1 110.5 44.1684 0 2.11554e-21 0.000141858 0 
11152 1 111.5 44.1684 0 2.11554e-21 0.000141858 0 
11252 1 112.5 44.1684 0 2.11554e-21 0.000141858 0 
11352 1 113.5 44.1684 0 2.11554e-21 0.000141858 0 
11452 1 114.5 44.1684 0 2.11554e-21 0.000141858 0 
11552 1 115.5 44.1684 0 2.56809e-21 0.000141858 0 
11652 1 116.5 44.1684 0 2.11554e-21 0.000141858 0 
11752 1 117.5 44.1684 0 2.11554e-21 0.000141858 0 
11852 1 118.5 44.1684 0 3.95103e-11 0.000141858 0 
11952 1 119.5 44.1684 0 2.17313e-10 0.000141858 0 
12052 1 120.5 44.1684 0 1.09925e-09 0.000141858 0 
12152 1 121.5 44.1684 0 5.04547e-09 0.000141858 0 
12252 1 122.5 44.1684 0 2.2599e-08 0.000141858 0 
12352 1 123.5 44.1684 0 9.67833e-08 0.000141858 0 
12452 1 124.5 44.1684 0 3.96455e-07 0.000141858 0 
12552 1 125.5 44.1684 0 1.54897e-06 0.000141858 0 
12652 1 126.5 44.1684 0 5.76107e-06 0.000141858 0 
12752 1 127.5 44.1684 0 2.03555e-05 0.000141858 0 
12852 1 128.5 44.1684 0 6.81555e-05 0.000141858 0 
12952 1 129.5 44.1684 0 0.000215642 0.000141858 0 
13052 1 130.5 44.1684 0 0.00064264 0.000141858 0 
13152 1 131.5 44.1684 0 0.00179702 0.000141859 0 
13252 1 132.5 44.1684 0 0.00469375 0.000141862 0 
13352 1 133.5 44.1684 0 0.0113883 0.000141868 0 
13452 1 134.5 44.1684 0 0.0254886 0.000141881 0 
13552 1 135.5 44.1684 0 0.0521464 0.000141906 0 
13652 1 136.501 44.1684 0 0.096306 0.000141944 0 
13752 1 137.501 44.1684 0 0.15761 0.000141993 0 
13852 1 138.502 44.1684 0 0.221716 0.000142028 0 
13952 1 139.504 44.1684 0 0.252657 0.000141994 0 
14052 1 140.507 44.1684 0 0.198528 0.000141809 0 
14152 1 141.511 44.1684 0 0.0248814 0.000141399 0 
14252 1 142.515 44.1684 0 -0.228895 0.000140777 0 
14352 1 143.518 44.1684 0 -0.418544 0.000140102 0 
14452 1 144.52 44.1684 0 -0.364455 0.000139623 0 
14552 1 145.52 44.1684 0 -0.0319918 0.000139468 0 
14652 1 146.521 44.1684 0 0.329447 0.000139465 0 
14752 1 147.522 44.1684 0 0.335438 0.000139326 0 
14852 1 148.525 44.1684 0 -0.0819663 0.000139165 0 
14952 1 149.527 44.1684 0 -0.431411 0.000139664 0 
15052 1 150.529 44.1684 0 -0.197498 0.000141127 0 
15152 1 151.529 44.1684 0 0.333663 0.000142269 0 
15252 1 152.531 44.1684 0 0.320359 0.000140988 0 
15352 1 153.534 44.1684 0 -0.269421 0.000137718 0 
15452 1 154.536 44.1684 0 -0.392032 0.000136557 0 
15552 1 155.537 44.1684 0 0.231249 0.000139712 0 
15652 1 156.539 44.1684 0 0.382187 0.000142814 0 
15752 1 157.542 44.1684 0 -0.288448 0.00014064 0 
15852 1 158.544 44.1684 0 -0.331716 0.000136784 0 
15952 1 159.545 44.1684 0 0.374554 0.000138273 0 
16052 1 160.548 44.1684 0 0.169161 0.000141977 0 
16152 1 161.551 44.1684 0 -0.44875 0.000140066 0 
16252 1 162.553 44.1684 0 0.0901889 0.000137046 0 
16352 1 163.556 44.1684 0 0.354518 0.000140956 0 
16452 1 164.56 44.1684 0 -0.376952 0.000144704 0 
16552 1 165.563 44.1684 0 -0.0659362 0.000141429 0 
16652 1 166.565 44.1684 0 0.324999 0.000139457 0 
16752 1 167.568 44.1684 0 -0.417297 0.000139211 0 
16852 1 168.57 44.1684 0 0.0153235 0.000138436 0 
16952 1 169.572 44.1684 0 0.369241 0.00014776 0 
17052 1 170.575 44.1684 0 -0.615893 0.000145815 0 
17152 1 171.577 44.1684 0 0.0548083 0.000134778 0 
17252 1 172.578 44.1684 0 0.700213 0.000150643 0 
17352 1 173.581 44.1684 0 -0.0136843 0.000148023 0 
17452 1 174.585 44.1684 0 -0.361966 0.000143068 0 
17552 1 175.587 44.1684 0 -1.11606 0.000139157 0 
17652 1 176.588 44.1684 0 0.102743 0.000156225 0 
17752 1 177.59 44.1684 0 1.13486 0.000143878 0 
17852 1 178.592 44.1684 0 0.17415 0.000157439 0 
17952 1 179.595 44.1684 0 0.453473 0.000143082 0 
18052 1 180.599 44.1684 0 -0.488732 0.000150447 0 
18152 1 181.601 44.1684 0 -0.00938323 0.000156191 0 
18252 1 182.604 44.1684 0 -0.581391 0.000143938 0 
18352 1 183.607 44.1684 0 -0.968121 0.000158669 0 
18452 1 184.608 44.1684 0 0.584591 0.000153197 0 
18552 1 185.613 44.1684 0 -0.795974 0.000136805 0 
18652 1 186.614 44.1684 0 0.222695 0.000153205 0 
18752 1 187.617 44.1684 0 0.679208 0.000164313 0 
18852 1 188.621 44.1684 0 0.159642 0.000127185 0 
18952 1 189.625 44.1684 0 -0.248858 0.000144706 0 
19052 1 190.628 44.1684 0 1.85173 0.000136916 0 
19152 1 191.634 44.1684 0 -1.10617 0.000186159 0 
19252 1 192.638 44.1684 0 0.991019 0.000190149 0 
19352 1 193.643 44.1684 0 0.240076 0.000150725 0 
19452 1 194.65 44.1684 0 0.0824946 0.000130827 0 
19552 1 195.658 44.1684 0 -0.0828355 0.000127332 0 
19652 1 196.666 44.1684 0 0.131042 0.000110645 0 
19752 1 197.678 44.1684 0 0.500474 0.000216848 0 
19852 1 198.696 44.1684 0 -0.526061 0.000199668 0 
19952 1 199.723 44.1684 0 0.346434 0.000137164 0 
20052 3 200.776 44.1684 0 0.163253 0.000135127 0 
20152 1 201.722 44.1684 0 0.69324 0.00011238 0 
20252 1 202.695 44.1684 0 -0.249634 0.000116407 0 
20352 1 203.677 44.1684 0 0.863828 7.59203e-05 0 
20452 1 204.665 44.1684 0 0.482623 0.000221152 0 
20552 1 205.656 44.1684 0 0.672676 0.000145696 0 
20652 1 206.649 44.1684 0 -0.197337 0.000128753 0 
20752 1 207.642 44.1684 0 1.40333 0.000115397 0 
20852 1 208.638 44.1684 0 0.0866129 9.45569e-05 0 
20952 1 209.633 44.1684 0 -0.0881626 0.000114252 0 
21052 1 210.628 44.1684 0 1.22366 0.000144259 0 
21152 1 211.625 44.1684 0 -0.656756 0.000140882 0 
21252 1 212.621 44.1684 0 0.105495 0.000150449 0 
21352 1 213.618 44.1684 0 0.00884422 0.000127384 0 
21452 1 214.615 44.1684 0 -0.550717 0.000131788 0 
21552 1 215.613 44.1684 0 -0.941688 0.000145544 0 
21652 1 216.608 44.1684 0 0.128623 0.000127008 0 
21752 1 217.607 44.1684 0 -1.06599 0.000121819 0 
21852 1 218.603 44.1684 0 -0.106514 0.000141601 0 
21952 1 219.6 44.1684 0 0.333306 0.000125287 0 
22052 1 220.597 44.1684 0 0.146235 0.000134351 0 
22152 1 221.594 44.1684 0 0.811518 0.000141152 0 
22252 1 222.592 44.1684 0 0.37338 0.00012301 0 
22352 1 223.59 44.1684 0 0.58599 0.000138773 0 
22452 1 224.589 44.1684 0 -0.834891 0.000133681 0 
22552 1 225.587 44.1684 0 -1.24395 0.00014175 0 
22652 1 226.584 44.1684 0 0.199882 0.000138054 0 
22752 1 227.58 44.1684 0 0.523408 0.000133579 0 
22852 1 228.578 44.1684 0 0.524711 0.000134616 0 
22952 1 229.577 44.1684 0 -0.258075 0.000149004 0 
23052 1 230.575 44.1684 0 -0.538511 0.000134991 0 
23152 1 231.571 44.1684 0 0.365575 0.000136658 0 
23252 1 232.57 44.1684 0 -0.00177721 0.000146249 0 
23352 1 233.568 44.1684 0 -0.3343 0.000143184 0 
23452 1 234.565 44.1684 0 0.274569 0.000141985 0 
23552 1 235.562 44.1684 0 -0.0694655 0.000141452 0 
23652 1 236.559 44.1684 0 -0.324472 0.000139694 0 
23752 1 237.556 44.1684 0 0.276502 0.00014257 0 
23852 1 238.553 44.1684 0 0.100918 0.000145472 0 
23952 1 239.551 44.1684 0 -0.335036 0.000143539 0 
24052 1 240.548 44.1684 0 0.0941752 0.00014249 0 
24152 1 241.545 44.1684 0 0.260297 0.000145044 0 
24252 1 242.544 44.1684 0 -0.22389 0.000145639 0 
24352 1 243.541 44.1684 0 -0.184519 0.000142715 0 
24452 1 244.539 44.1684 0 0.26615 0.000141631 0 
24552 1 245.537 44.1684 0 0.125126 0.000144336 0 
24652 1 246.536 44.1684 0 -0.295576 0.000146508 0 
24752 1 247.533 44.1684 0 -0.150842 0.000145167 0 
24852 1 248.531 44.1684 0 0.267407 0.00014254 0 
24952 1 249.529 44.1684 0 0.209052 0.000141714 0 
25052 1 250.528 44.1684 0 -0.210354 0.000142831 0 
25152 1 251.527 44.1684 0 -0.332133 0.000144086 0 
25252 1 252.524 44.1684 0 -0.00909729 0.000144458 0 
25352 1 253.522 44.1684 0 0.304731 0.000144305 0 
25452 1 254.52 44.1684 0 0.244218 0.000144188 0 
25552 1 255.52 44.1684 0 -0.0872691 0.000144146 0 
25652 1 256.519 44.1684 0 -0.353826 0.000143928 0 
25752 1 257.517 44.1684 0 -0.363911 0.000143434 0 
25852 1 258.514 44.1684 0 -0.173424 0.000142803 0 
25952 1 259.51 44.1684 0 0.053931 0.000142248 0 
26052 1 260.507 44.1684 0 0.199847 0.00014189 0 
26152 1 261.504 44.1684 0 0.238785 0.00014173 0 
26252 1 262.502 44.1684 0 0.204945 0.000141703 0 
26352 1 263.501 44.1684 0 0.144307 0.000141735 0 
26452 1 264.501 44.1684 0 0.0878226 0.00014178 0 
26552 1 265.5 44.1684 0 0.0474897 0.000141815 0 
26652 1 266.5 44.1684 0 0.0232143 0.000141837 0 
26752 1 267.5 44.1684 0 0.010381 0.000141848 0 
26852 1 268.5 44.1684 0 0.0042842 0.000141854 0 
26952 1 269.5 44.1684 0 0.00164282 0.000141856 0 
27052 1 270.5 44.1684 0 0.000588524 0.000141857 0 
27152 1 271.5 44.1684 0 0.00019785 0.000141858 0 
27252 1 272.5 44.1684 0 6.26524e-05 0.000141858 0 
27352 1 273.5 44.1684 0 1.87488e-05 0.000141858 0 
27452 1 274.5 44.1684 0 5.31669e-06 0.000141858 0 
27552 1 275.5 44.1684 0 1.43227e-06 0.000141858 0 
27652 1 276.5 44.1684 0 3.67208e-07 0.000141858 0 
27752 1 277.5 44.1684 0 8.99331e-08 0.000141858 0 
27852 1 278.5 44.1684 0 2.09718e-08 0.000141858 0 
27952 1 279.5 44.1684 0 4.69808e-09 0.000141858 0 
28052 1 280.5 44.1684 0 1.07887e-09 0.000141858 0 
28152 1 281.5 44.1684 0 2.18229e-10 0.000141858 0 
28252 1 282.5 44.1684 0 2.56809e-21 0.000141858 0 
28352 1 283.5 44.1684 0 2.56809e-21 0.000141858 0 
28452 1 284.5 44.1684 0 2.11554e-21 0.000141858 0 
28552 1 285.5 44.1684 0 2.11554e-21 0.000141858 0 
28652 1 286.5 44.1684 0 2.56809e-21 0.000141858 0 
28752 1 287.5 44.1684 0 2.11554e-21 0.000141858 0 
28852 1 288.5 44.1684 0 2.56809e-21 0.000141858 0 
28952 1 289.5 44.1684 0 2.56809e-21 0.000141858 0 
29052 1 290.5 44.1684 0 2.56809e-21 0.000141858 0 
29152 1 291.5 44.1684 0 2.11554e-21 0.000141858 0 
29252 1 292.5 44.1684 0 2.56809e-21 0.000141858 0 
29352 1 293.5 44.1684 0 2.11554e-21 0.000141858 0 
29452 1 294.5 44.1684 0 2.56809e-21 0.000141858 0 
29552 1 295.5 44.1684 0 2.56809e-21 0.000141858 0 
29652 1 296.5 44.1684 0 2.11554e-21 0.000141858 0 
29752 1 297.5 44.1684 0 2.11554e-21 0.000141858 0 
29852 1 298.5 44.1684 0 2.11554e-21 0.000141858 0 
29952 1 299.5 44.1684 0 2.11554e-21 0.000141858 0 
30052 1 300.5 44.1684 0 2.11554e-21 0.000141858 0 
30152 1 301.5 44.1684 0 2.56809e-21 0.000141858 0 
30252 1 302.5 44.1684 0 2.11554e-21 0.000141858 0 
30352 1 303.5 44.1684 0 2.11554e-21 0.000141858 0 
30452 1 304.5 44.1684 0 2.11554e-21 0.000141858 0 
30552 1 305.5 44.1684 0 2.11554e-21 0.000141858 0 
30652 1 306.5 44.1684 0 2.56809e-21 0.000141858 0 
30752 1 307.5 44.1684 0 2.56809e-21 0.000141858 0 
30852 1 308.5 44.1684 0 2.11554e-21 0.000141858 0 
30952 1 309.5 44.1684 0 2.11554e-21 0.000141858 0 
31052 1 310.5 44.1684 0 2.11554e-21 0.000141858 0 
31152 1 311.5 44.1684 0 2.56809e-21 0.000141858 0 
31252 1 312.5 44.1684 0 2.56809e-21 0.000141858 0 
31352 1 313.5 44.1684 0 2.11554e-21 0.000141858 0 
31452 1 314.5 44.1684 0 2.11554e-21 0.000141858 0 
31552 1 315.5 44.1684 0 2.56809e-21 0.000141858 0 
31652 1 316.5 44.1684 0 2.11554e-21 0.000141858 0 
31752 1 317.5 44.1684 0 2.56809e-21 0.000141858 0 
31852 1 318.5 44.1684 0 2.56809e-21 0.000141858 0 
31952 1 319.5 44.1684 0 2.56809e-21 0.000141858 0 
32052 1 320.5 44.1684 0 2.11554e-21 0.000141858 0 
32152 1 321.5 44.1684 0 2.11554e-21 0.000141858 0 
32252 1 322.5 44.1684 0 2.56809e-21 0.000141858 0 
32352 1 323.5 44.1684 0 2.11554e-21 0.000141858 0 
32452 1 324.5 44.1684 0 2.56809e-21 0.000141858 0 
32552 1 325.5 44.1684 0 2.56809e-21 0.000141858 0 
32652 1 326.5 44.1684 0 2.56809e-21 0.000141858 0 
32752 1 327.5 44.1684 0 2.56809e-21 0.000141858 0 
32852 1 328.5 44.1684 0 2.11554e-21 0.000141858 0 
32952 1 329.5 44.1684 0 4.84275e-11 0.000141858 0 
33052 1 330.5 44.1684 0 3.85906e-10 0.000141858 0 
33152 1 331.5 44.1684 0 7.71907e-10 0.000141858 0 
33252 1 332.5 44.1684 0 1.84831e-09 0.000141857 0 
33352 1 333.5 44.1684 0 4.43255e-09 0.000141856 0 
33452 1 334.5 44.1684 0 9.64262e-09 0.000141853 0 
33552 1 335.5 44.1684 0 1.82795e-08 0.000141847 0 
33652 1 336.5 44.1684 0 2.8828e-08 0.000141837 0 
33752 1 337.5 44.1684 0 3.26598e-08 0.000141823 0 
33852 1 338.5 44.1684 0 9.30769e-09 0.000141806 0 
33952 1 339.5 44.1684 0 -7.92977e-08 0.000141796 0 
34052 1 340.5 44.1684 0 -2.70358e-07 0.000141801 0 
34152 1 341.5 44.1684 0 -5.51989e-07 0.000141821 0 
34252 1 342.5 44.1684 0 -7.95175e-07 0.000141818 0 
34352 1 343.5 44.1684 0 -7.66895e-07 0.000141688 0 
34452 1 344.5 44.1684 0 -4.24823e-07 0.000141251 0 
34552 1 345.5 44.1684 0 -5.66468e-07 0.000140217 0 
34652 1 346.5 44.1684 0 -3.36706e-06 0.000138043 0 
34752 1 347.5 44.1684 0 -1.16631e-05 0.000133623 0 
34852 1 348.5 44.1684 0 -2.64927e-05 0.000125084 0 
34952 1 349.5 44.1684 0 -4.54881e-05 0.000110242 0 
35052 1 350.5 44.1684 0 -6.70131e-05 8.76233e-05 0 
35152 1 351.5 44.1684 0 -9.87613e-05 5.66273e-05 0 
35252 1 352.5 44.1684 0 -0.000156254 1.60284e-05 0 
35352 1 353.5 44.1683 0 -0.000240063 -3.57055e-05 0 
35452 1 354.5 44.1683 0 -0.000317333 -9.38397e-05 0 
35552 1 355.5 44.1683 0 -0.000351742 -0.000140758 0 
35652 1 356.5 44.1683 0 -0.000354354 -0.00015403 0 
35752 1 357.5 44.1683 0 -0.000356738 -0.000124575 0 
35852 1 358.5 44.1683 0 -0.000330193 -5.77022e-05 0 
35952 1 359.5 44.1683 0 -0.000229626 3.94803e-05 0 
36052 1 360.5 44.1683 0 -0.000118365 0.00014768 0 
36152 1 361.5 44.1683 0 -7.91652e-05 0.000227269 0 
36252 1 362.5 44.1683 0 -5.44201e-05 0.000260532 0 
36352 1 363.5 44.1683 0 -2.36881e-05 0.000259775 0 
36452 1 364.5 44.1683 0 -0.00010036 0.000206031 0 
36552 1 365.5 44.1683 0 -0.000198259 0.000105081 0 
36652 1 366.5 44.1683 0 -0.000168277 6.86799e-05 0 
36752 1 367.5 44.1683 0 -0.00019139 0.000122536 0 
36852 1 368.5 44.1683 0 -0.000238761 0.000149901 0 
36952 1 369.5 44.1683 0 -7.37435e-05 0.000187586 0 
37052 1 370.5 44.1683 0 -3.45099e-05 0.000294816 0 
37152 1 371.5 44.1682 0 -0.000138411 0.000329271 0 
37252 1 372.5 44.1682 0 4.81125e-06 0.00028469 0 
37352 1 373.5 44.1682 0 -8.25013e-05 0.000255984 0 
37452 1 374.5 44.1682 0 -0.000245355 0.0001993 0 
37552 1 375.5 44.1682 0 -7.61695e-05 0.000104799 0 
37652 1 376.5 44.1682 0 -0.000218999 0.000185219 0 
37752 1 377.5 44.1682 0 -0.000179528 0.000155063 0 
37852 1 378.5 44.1682 0 -1.37645e-05 0.000278401 0 
37952 1 379.5 44.1681 0 -9.70855e-05 0.000340838 0 
38052 1 380.5 44.1681 0 5.89882e-07 0.000351526 0 
38152 1 381.5 44.1681 0 1.12455e-05 0.000240471 0 
38252 1 382.5 44.1681 0 9.23557e-05 -8.50634e-06 0 
38352 1 383.5 44.1681 0 0.000319535 -0.000342938 0 
38452 1 384.5 44.168 0 0.000541608 -0.000780847 0 
38552 1 385.5 44.168 0 0.000829703 -0.00113024 0 
38652 1 386.5 44.168 0 0.000823824 -0.00112947 0 
38752 1 387.5 44.1679 0 0.000692146 -0.000645545 0 
38852 1 388.5 44.1679 0 8.36599e-05 0.000188588 0 
38952 1 389.5 44.1678 0 -0.000123544 0.000876837 0 
39052 1 390.5 44.1677 0 3.63423e-05 0.000484842 0 
39152 1 391.5 44.1677 0 0.000397423 0.000134294 0 
39252 1 392.5 44.1676 0 0.000144943 0.000263976 0 
39352 1 393.5 44.1676 0 -0.000224582 0.000812197 0 
39452 1 394.5 44.1675 0 0.000119113 0.000363452 0 
39552 1 395.5 44.1674 0 0.000152818 0.000243818 0 
39652 1 396.5 44.1674 0 2.10577e-05 0.000405587 0 
39752 1 397.5 44.1673 0 0.000183913 4.41769e-05 0 
39852 2 398.5 44.1673 0 -0.00491565 -0.000397184 0 
39952 2 399.5 44.1673 0 -2.20719e-05 -0.000198667 0 
