ITEM: TIMESTEP
1590
ITEM: NUMBER OF ATOMS
400
ITEM: BOX BOUNDS ff pp pp
0.0000000000000000e+00 4.0000000000000000e+02
0.0000000000000000e+00 8.6602540000000005e+01
0.0000000000000000e+00 1.0000000000000000e+00
ITEM: ATOMS id type x y z fx fy fz 
52 2 0.5 44.1673 0 0 -0.000397333 0 
152 2 1.5 44.1673 0 0.000114339 -0.000397333 0 
252 1 2.5 44.1673 0 0.000184246 0.000110739 0 
352 1 3.5 44.1673 0 0.000207689 0.000152338 0 
452 1 4.5 44.1673 0 0.000139776 0.000307319 0 
552 1 5.5 44.1673 0 0.00017105 0.000563856 0 
652 1 6.5 44.1673 0 0.000146873 0.000741682 0 
752 1 7.5 44.1673 0 7.48437e-05 0.00098302 0 
852 1 8.5 44.1673 0 0.000184164 0.000943149 0 
952 1 9.5 44.1673 0 6.68421e-05 0.00108187 0 
1052 1 10.5 44.1673 0 0.000138818 0.00113992 0 
1152 1 11.5 44.1673 0 3.37167e-05 0.0011973 0 
1252 1 12.5 44.1673 0 8.8267e-05 0.00118246 0 
1352 1 13.5 44.1673 0 8.02686e-05 0.00126869 0 
1452 1 14.5 44.1673 0 -6.90826e-05 0.00129829 0 
1552 1 15.5 44.1673 0 0.000117123 0.00130669 0 
1652 1 16.5 44.1673 0 -2.82291e-05 0.00137156 0 
1752 1 17.5 44.1673 0 1.23547e-06 0.00133504 0 
1852 1 18.5 44.1673 0 8.65514e-05 0.00135602 0 
1952 1 19.5 44.1673 0 -4.46402e-05 0.00141888 0 
2052 1 20.5 44.1673 0 -2.22042e-05 0.00138283 0 
2152 1 21.5 44.1673 0 4.55135e-05 0.00138094 0 
2252 1 22.5 44.1673 0 -2.39568e-05 0.00138642 0 
2352 1 23.5 44.1673 0 -1.66296e-05 0.00137517 0 
2452 1 24.5 44.1673 0 3.62572e-05 0.00139064 0 
2552 1 25.5 44.1673 0 2.62166e-06 0.00140473 0 
2652 1 26.5 44.1673 0 -2.30652e-05 0.00139209 0 
2752 1 27.5 44.1673 0 8.53922e-06 0.00138446 0 
2852 1 28.5 44.1673 0 1.97264e-05 0.0013941 0 
2952 1 29.5 44.1673 0 -5.32514e-06 0.00139984 0 
3052 1 30.5 44.1673 0 -1.7922e-05 0.00139441 0 
3152 1 31.5 44.1673 0 -6.37417e-06 0.00138893 0 
3252 1 32.5 44.1673 0 5.63244e-06 0.00138934 0 
3352 1 33.5 44.1673 0 6.39645e-06 0.00139202 0 
3452 1 34.5 44.1673 0 2.09919e-06 0.00139321 0 
3552 1 35.5 44.1673 0 -5.24944e-07 0.00139286 0 
3652 1 36.5 44.1673 0 -7.62901e-07 0.00139227 0 
3752 1 37.5 44.1673 0 -2.87817e-07 0.00139206 0 
3852 1 38.5 44.1673 0 -2.23079e-08 0.0013921 0 
3952 1 39.5 44.1673 0 1.09403e-08 0.0013922 0 
4052 1 40.5 44.1673 0 -1.28154e-08 0.00139225 0 
4152 1 41.5 44.1673 0 -2.00676e-08 0.00139228 0 
4252 1 42.5 44.1673 0 -1.32083e-08 0.00139228 0 
4352 1 43.5 44.1673 0 -5.5636e-09 0.00139228 0 
4452 1 44.5 44.1673 0 -1.54671e-09 0.00139228 0 
4552 1 45.5 44.1673 0 -2.04278e-10 0.00139228 0 
4652 1 46.5 44.1673 0 4.81078e-11 0.00139228 0 
4752 1 47.5 44.1673 0 1.67914e-11 0.00139228 0 
4852 1 48.5 44.1673 0 4.12426e-11 0.00139228 0 
4952 1 49.5 44.1673 0 -1.16456e-11 0.00139228 0 
5052 1 50.5 44.1673 0 -1.08442e-19 0.00139228 0 
5152 1 51.5 44.1673 0 -1.08442e-19 0.00139228 0 
5252 1 52.5 44.1673 0 -5.42484e-20 0.00139228 0 
5352 1 53.5 44.1673 0 -1.08442e-19 0.00139228 0 
5452 1 54.5 44.1673 0 -5.42484e-20 0.00139228 0 
5552 1 55.5 44.1673 0 -5.42484e-20 0.00139228 0 
5652 1 56.5 44.1673 0 -1.08442e-19 0.00139228 0 
5752 1 57.5 44.1673 0 -1.08442e-19 0.00139228 0 
5852 1 58.5 44.1673 0 -5.42484e-20 0.00139228 0 
5952 1 59.5 44.1673 0 -1.08442e-19 0.00139228 0 
6052 1 60.5 44.1673 0 -1.08442e-19 0.00139228 0 
6152 1 61.5 44.1673 0 -1.08442e-19 0.00139228 0 
6252 1 62.5 44.1673 0 -1.08442e-19 0.00139228 0 
6352 1 63.5 44.1673 0 -1.08442e-19 0.00139228 0 
6452 1 64.5 44.1673 0 -5.42484e-20 0.00139228 0 
6552 1 65.5 44.1673 0 -1.08442e-19 0.00139228 0 
6652 1 66.5 44.1673 0 -5.42484e-20 0.00139228 0 
6752 1 67.5 44.1673 0 -5.42484e-20 0.00139228 0 
6852 1 68.5 44.1673 0 -5.42484e-20 0.00139228 0 
6952 1 69.5 44.1673 0 -1.08442e-19 0.00139228 0 
7052 1 70.5 44.1673 0 -5.42484e-20 0.00139228 0 
7152 1 71.5 44.1673 0 -5.42484e-20 0.00139228 0 
7252 1 72.5 44.1673 0 -1.08442e-19 0.00139228 0 
7352 1 73.5 44.1673 0 -1.08442e-19 0.00139228 0 
7452 1 74.5 44.1673 0 -5.42484e-20 0.00139228 0 
7552 1 75.5 44.1673 0 -1.08442e-19 0.00139228 0 
7652 1 76.5 44.1673 0 -1.08442e-19 0.00139228 0 
7752 1 77.5 44.1673 0 -5.42484e-20 0.00139228 0 
7852 1 78.5 44.1673 0 -5.42484e-20 0.00139228 0 
7952 1 79.5 44.1673 0 -5.42484e-20 0.00139228 0 
8052 1 80.5 44.1673 0 -5.42484e-20 0.00139228 0 
8152 1 81.5 44.1673 0 -1.08442e-19 0.00139228 0 
8252 1 82.5 44.1673 0 -1.08442e-19 0.00139228 0 
8352 1 83.5 44.1673 0 -5.42484e-20 0.00139228 0 
8452 1 84.5 44.1673 0 -5.42484e-20 0.00139228 0 
8552 1 85.5 44.1673 0 -1.08442e-19 0.00139228 0 
8652 1 86.5 44.1673 0 -1.08442e-19 0.00139228 0 
8752 1 87.5 44.1673 0 -5.42484e-20 0.00139228 0 
8852 1 88.5 44.1673 0 -1.08442e-19 0.00139228 0 
8952 1 89.5 44.1673 0 -1.08442e-19 0.00139228 0 
9052 1 90.5 44.1673 0 -5.42484e-20 0.00139228 0 
9152 1 91.5 44.1673 0 -5.42484e-20 0.00139228 0 
9252 1 92.5 44.1673 0 -5.42484e-20 0.00139228 0 
9352 1 93.5 44.1673 0 -1.08442e-19 0.00139228 0 
9452 1 94.5 44.1673 0 -5.42484e-20 0.00139228 0 
9552 1 95.5 44.1673 0 -1.08442e-19 0.00139228 0 
9652 1 96.5 44.1673 0 -5.42484e-20 0.00139228 0 
9752 1 97.5 44.1673 0 -1.08442e-19 0.00139228 0 
9852 1 98.5 44.1673 0 -5.42484e-20 0.00139228 0 
9952 1 99.5 44.1673 0 -5.42484e-20 0.00139228 0 
10052 1 100.5 44.1673 0 -5.42484e-20 0.00139228 0 
10152 1 101.5 44.1673 0 -1.08442e-19 0.00139228 0 
10252 1 102.5 44.1673 0 -1.08442e-19 0.00139228 0 
10352 1 103.5 44.1673 0 -1.08442e-19 0.00139228 0 
10452 1 104.5 44.1673 0 -1.08442e-19 0.00139228 0 
10552 1 105.5 44.1673 0 -5.42484e-20 0.00139228 0 
10652 1 106.5 44.1673 0 -5.42484e-20 0.00139228 0 
10752 1 107.5 44.1673 0 -1.08442e-19 0.00139228 0 
10852 1 108.5 44.1673 0 -5.42484e-20 0.00139228 0 
10952 1 109.5 44.1673 0 -5.42484e-20 0.00139228 0 
11052 1 110.5 44.1673 0 -5.42484e-20 0.00139228 0 
11152 1 111.5 44.1673 0 -5.42484e-20 0.00139228 0 
11252 1 112.5 44.1673 0 -5.42484e-20 0.00139228 0 
11352 1 113.5 44.1673 0 -5.42484e-20 0.00139228 0 
11452 1 114.5 44.1673 0 -5.42484e-20 0.00139228 0 
11552 1 115.5 44.1673 0 -1.08442e-19 0.00139228 0 
11652 1 116.5 44.1673 0 -5.42484e-20 0.00139228 0 
11752 1 117.5 44.1673 0 -5.42484e-20 0.00139228 0 
11852 1 118.5 44.1673 0 -5.42484e-20 0.00139228 0 
11952 1 119.5 44.1673 0 -5.42484e-20 0.00139228 0 
12052 1 120.5 44.1673 0 -5.42484e-20 0.00139228 0 
12152 1 121.5 44.1673 0 -5.42484e-20 0.00139228 0 
12252 1 122.5 44.1673 0 -1.08442e-19 0.00139228 0 
12352 1 123.5 44.1673 0 -1.08442e-19 0.00139228 0 
12452 1 124.5 44.1673 0 -5.42484e-20 0.00139228 0 
12552 1 125.5 44.1673 0 -1.08442e-19 0.00139228 0 
12652 1 126.5 44.1673 0 -5.42484e-20 0.00139228 0 
12752 1 127.5 44.1673 0 -5.42484e-20 0.00139228 0 
12852 1 128.5 44.1673 0 -5.42484e-20 0.00139228 0 
12952 1 129.5 44.1673 0 -5.42484e-20 0.00139228 0 
13052 1 130.5 44.1673 0 -5.42484e-20 0.00139228 0 
13152 1 131.5 44.1673 0 -1.08442e-19 0.00139228 0 
13252 1 132.5 44.1673 0 -1.08442e-19 0.00139228 0 
13352 1 133.5 44.1673 0 -1.08442e-19 0.00139228 0 
13452 1 134.5 44.1673 0 -1.08442e-19 0.00139228 0 
13552 1 135.5 44.1673 0 -5.42484e-20 0.00139228 0 
13652 1 136.5 44.1673 0 -5.42484e-20 0.00139228 0 
13752 1 137.5 44.1673 0 -1.08442e-19 0.00139228 0 
13852 1 138.5 44.1673 0 -1.08442e-19 0.00139228 0 
13952 1 139.5 44.1673 0 -5.42484e-20 0.00139228 0 
14052 1 140.5 44.1673 0 -1.08442e-19 0.00139228 0 
14152 1 141.5 44.1673 0 -1.08442e-19 0.00139228 0 
14252 1 142.5 44.1673 0 4.51561e-11 0.00139228 0 
14352 1 143.5 44.1673 0 4.02105e-10 0.00139228 0 
14452 1 144.5 44.1673 0 2.35005e-09 0.00139228 0 
14552 1 145.5 44.1673 0 1.33597e-08 0.00139228 0 
14652 1 146.5 44.1673 0 7.19213e-08 0.00139228 0 
14752 1 147.5 44.1673 0 3.66615e-07 0.00139228 0 
14852 1 148.5 44.1673 0 1.75751e-06 0.00139228 0 
14952 1 149.5 44.1673 0 7.90503e-06 0.00139228 0 
15052 1 150.5 44.1673 0 3.32428e-05 0.00139228 0 
15152 1 151.5 44.1673 0 0.0001302 0.00139228 0 
15252 1 152.5 44.1673 0 0.000472792 0.00139228 0 
15352 1 153.5 44.1673 0 0.00158324 0.00139228 0 
15452 1 154.5 44.1673 0 0.00485745 0.00139227 0 
15552 1 155.5 44.1673 0 0.0135432 0.00139224 0 
15652 1 156.5 44.1673 0 0.0339563 0.00139217 0 
15752 1 157.5 44.1673 0 0.0754708 0.00139199 0 
15852 1 158.501 44.1673 0 0.145616 0.00139158 0 
15952 1 159.502 44.1673 0 0.23575 0.00139079 0 
16052 1 160.503 44.1673 0 0.299931 0.00138947 0 
16152 1 161.506 44.1673 0 0.250858 0.00138762 0 
16252 1 162.51 44.1673 0 0.0170551 0.00138561 0 
16352 1 163.514 44.1673 0 -0.33145 0.00138408 0 
16452 1 164.517 44.1673 0 -0.515833 0.00138347 0 
16552 1 165.518 44.1673 0 -0.257083 0.0013834 0 
16652 1 166.519 44.1673 0 0.285967 0.00138269 0 
16752 1 167.521 44.1673 0 0.452511 0.0013807 0 
16852 1 168.524 44.1673 0 -0.0842791 0.00137852 0 
16952 1 169.527 44.1673 0 -0.531558 0.00137764 0 
17052 1 170.528 44.1673 0 -0.0453182 0.00137721 0 
17152 1 171.53 44.1673 0 0.529609 0.00137511 0 
17252 1 172.533 44.1673 0 -0.0152913 0.00137221 0 
17352 1 173.537 44.1673 0 -0.541425 0.0013709 0 
17452 1 174.539 44.1673 0 0.202381 0.00136956 0 
17552 1 175.542 44.1673 0 0.418771 0.001366 0 
17652 1 176.546 44.1673 0 -0.447179 0.00136307 0 
17752 1 177.55 44.1673 0 -0.070679 0.00136133 0 
17852 1 178.553 44.1673 0 0.300307 0.00135792 0 
17952 1 179.557 44.1673 0 -0.635635 0.00135669 0 
18052 1 180.559 44.1673 0 0.194641 0.00135872 0 
18152 1 181.561 44.1673 0 0.883862 0.00135602 0 
18252 1 182.566 44.1673 0 -0.604691 0.00135286 0 
18352 1 183.569 44.1673 0 -0.647774 0.00135625 0 
18452 1 184.572 44.1673 0 -0.609399 0.00135177 0 
18552 1 185.574 44.1673 0 0.281715 0.00135154 0 
18652 1 186.577 44.1673 0 1.32174 0.00135445 0 
18752 1 187.581 44.1673 0 -0.152078 0.00135054 0 
18852 1 188.585 44.1673 0 0.662141 0.00135248 0 
18952 1 189.589 44.1673 0 -0.143125 0.0013511 0 
19052 1 190.594 44.1673 0 -0.758214 0.00134956 0 
19152 1 191.599 44.1673 0 0.0433451 0.00135355 0 
19252 1 192.603 44.1673 0 -0.415181 0.00135193 0 
19352 1 193.61 44.1673 0 -1.6252 0.00134363 0 
19452 1 194.614 44.1673 0 1.18867 0.00135297 0 
19552 1 195.624 44.1673 0 -1.5596 0.00137738 0 
19652 1 196.632 44.1673 0 0.194572 0.00136501 0 
19752 1 197.643 44.1673 0 -0.248425 0.00132268 0 
19852 1 198.661 44.1673 0 -0.454997 0.00130547 0 
19952 1 199.688 44.1673 0 0.360847 0.00133125 0 
20052 3 200.743 44.1673 0 -1.26032 0.00140687 0 
20152 1 201.688 44.1673 0 0.329835 0.00145694 0 
20252 1 202.661 44.1673 0 -1.03164 0.0014608 0 
20352 1 203.644 44.1673 0 -0.478322 0.00144269 0 
20452 1 204.632 44.1673 0 -0.468894 0.00140103 0 
20552 1 205.623 44.1673 0 -1.46127 0.0014026 0 
20652 1 206.614 44.1673 0 0.793628 0.00143645 0 
20752 1 207.61 44.1673 0 -1.60568 0.0014397 0 
20852 1 208.602 44.1673 0 -0.132676 0.00143022 0 
20952 1 209.597 44.1673 0 0.431608 0.00143048 0 
21052 1 210.593 44.1673 0 -0.364093 0.00143459 0 
21152 1 211.588 44.1673 0 0.678875 0.00143219 0 
21252 1 212.584 44.1673 0 0.859944 0.00143284 0 
21352 1 213.58 44.1673 0 0.17422 0.00143376 0 
21452 1 214.577 44.1673 0 1.10772 0.00143017 0 
21552 1 215.575 44.1673 0 -0.546523 0.00143437 0 
21652 1 216.572 44.1673 0 -1.1909 0.00143189 0 
21752 1 217.569 44.1673 0 -0.475047 0.00142842 0 
21852 1 218.565 44.1673 0 0.0989369 0.00143151 0 
21952 1 219.56 44.1673 0 0.953499 0.00142804 0 
22052 1 220.559 44.1673 0 -0.0544631 0.00142633 0 
22152 1 221.557 44.1673 0 -0.68216 0.00142807 0 
22252 1 222.552 44.1673 0 0.252956 0.00142642 0 
22352 1 223.549 44.1673 0 0.0148399 0.00142299 0 
22452 1 224.546 44.1673 0 -0.351239 0.00142105 0 
22552 1 225.541 44.1673 0 0.272528 0.00141826 0 
22652 1 226.538 44.1673 0 0.151431 0.001415 0 
22752 1 227.536 44.1673 0 -0.370513 0.0014134 0 
22852 1 228.533 44.1673 0 0.00576148 0.00141188 0 
22952 1 229.53 44.1673 0 0.361305 0.00140929 0 
23052 1 230.528 44.1673 0 -0.0835452 0.00140741 0 
23152 1 231.526 44.1673 0 -0.394528 0.00140673 0 
23252 1 232.523 44.1673 0 -0.00696717 0.0014056 0 
23352 1 233.52 44.1673 0 0.375296 0.00140355 0 
23452 1 234.519 44.1673 0 0.178916 0.0014018 0 
23552 1 235.518 44.1673 0 -0.276875 0.00140114 0 
23652 1 236.516 44.1673 0 -0.453501 0.00140091 0 
23752 1 237.513 44.1673 0 -0.258112 0.00140011 0 
23852 1 238.509 44.1673 0 0.0522183 0.00139852 0 
23952 1 239.506 44.1673 0 0.247297 0.00139658 0 
24052 1 240.503 44.1673 0 0.279627 0.00139486 0 
24152 1 241.502 44.1673 0 0.216119 0.00139364 0 
24252 1 242.501 44.1673 0 0.132759 0.00139292 0 
24352 1 243.5 44.1673 0 0.0687471 0.00139255 0 
24452 1 244.5 44.1673 0 0.0309687 0.00139238 0 
24552 1 245.5 44.1673 0 0.012379 0.00139232 0 
24652 1 246.5 44.1673 0 0.00445187 0.00139229 0 
24752 1 247.5 44.1673 0 0.00145529 0.00139229 0 
24852 1 248.5 44.1673 0 0.000435894 0.00139228 0 
24952 1 249.5 44.1673 0 0.000120402 0.00139228 0 
25052 1 250.5 44.1673 0 3.08333e-05 0.00139228 0 
25152 1 251.5 44.1673 0 7.35353e-06 0.00139228 0 
25252 1 252.5 44.1673 0 1.63954e-06 0.00139228 0 
25352 1 253.5 44.1673 0 3.42936e-07 0.00139228 0 
25452 1 254.5 44.1673 0 6.74614e-08 0.00139228 0 
25552 1 255.5 44.1673 0 1.25445e-08 0.00139228 0 
25652 1 256.5 44.1673 0 2.16402e-09 0.00139228 0 
25752 1 257.5 44.1673 0 4.58133e-10 0.00139228 0 
25852 1 258.5 44.1673 0 1.50572e-11 0.00139228 0 
25952 1 259.5 44.1673 0 -1.08442e-19 0.00139228 0 
26052 1 260.5 44.1673 0 -1.08442e-19 0.00139228 0 
26152 1 261.5 44.1673 0 -1.08442e-19 0.00139228 0 
26252 1 262.5 44.1673 0 -1.08442e-19 0.00139228 0 
26352 1 263.5 44.1673 0 -5.42484e-20 0.00139228 0 
26452 1 264.5 44.1673 0 -5.42484e-20 0.00139228 0 
26552 1 265.5 44.1673 0 -5.42484e-20 0.00139228 0 
26652 1 266.5 44.1673 0 -5.42484e-20 0.00139228 0 
26752 1 267.5 44.1673 0 -5.42484e-20 0.00139228 0 
26852 1 268.5 44.1673 0 -1.08442e-19 0.00139228 0 
26952 1 269.5 44.1673 0 -1.08442e-19 0.00139228 0 
27052 1 270.5 44.1673 0 -1.08442e-19 0.00139228 0 
27152 1 271.5 44.1673 0 -1.08442e-19 0.00139228 0 
27252 1 272.5 44.1673 0 -5.42484e-20 0.00139228 0 
27352 1 273.5 44.1673 0 -5.42484e-20 0.00139228 0 
27452 1 274.5 44.1673 0 -1.08442e-19 0.00139228 0 
27552 1 275.5 44.1673 0 -5.42484e-20 0.00139228 0 
27652 1 276.5 44.1673 0 -5.42484e-20 0.00139228 0 
27752 1 277.5 44.1673 0 -5.42484e-20 0.00139228 0 
27852 1 278.5 44.1673 0 -5.42484e-20 0.00139228 0 
27952 1 279.5 44.1673 0 -5.42484e-20 0.00139228 0 
28052 1 280.5 44.1673 0 -5.42484e-20 0.00139228 0 
28152 1 281.5 44.1673 0 -5.42484e-20 0.00139228 0 
28252 1 282.5 44.1673 0 -1.08442e-19 0.00139228 0 
28352 1 283.5 44.1673 0 -1.08442e-19 0.00139228 0 
28452 1 284.5 44.1673 0 -5.42484e-20 0.00139228 0 
28552 1 285.5 44.1673 0 -5.42484e-20 0.00139228 0 
28652 1 286.5 44.1673 0 -1.08442e-19 0.00139228 0 
28752 1 287.5 44.1673 0 -5.42484e-20 0.00139228 0 
28852 1 288.5 44.1673 0 -1.08442e-19 0.00139228 0 
28952 1 289.5 44.1673 0 -1.08442e-19 0.00139228 0 
29052 1 290.5 44.1673 0 -1.08442e-19 0.00139228 0 
29152 1 291.5 44.1673 0 -5.42484e-20 0.00139228 0 
29252 1 292.5 44.1673 0 -1.08442e-19 0.00139228 0 
29352 1 293.5 44.1673 0 -5.42484e-20 0.00139228 0 
29452 1 294.5 44.1673 0 -1.08442e-19 0.00139228 0 
29552 1 295.5 44.1673 0 -1.08442e-19 0.00139228 0 
29652 1 296.5 44.1673 0 -5.42484e-20 0.00139228 0 
29752 1 297.5 44.1673 0 -5.42484e-20 0.00139228 0 
29852 1 298.5 44.1673 0 -5.42484e-20 0.00139228 0 
29952 1 299.5 44.1673 0 -5.42484e-20 0.00139228 0 
30052 1 300.5 44.1673 0 -5.42484e-20 0.00139228 0 
30152 1 301.5 44.1673 0 -1.08442e-19 0.00139228 0 
30252 1 302.5 44.1673 0 -5.42484e-20 0.00139228 0 
30352 1 303.5 44.1673 0 -5.42484e-20 0.00139228 0 
30452 1 304.5 44.1673 0 -5.42484e-20 0.00139228 0 
30552 1 305.5 44.1673 0 -5.42484e-20 0.00139228 0 
30652 1 306.5 44.1673 0 -1.08442e-19 0.00139228 0 
30752 1 307.5 44.1673 0 -1.08442e-19 0.00139228 0 
30852 1 308.5 44.1673 0 -5.42484e-20 0.00139228 0 
30952 1 309.5 44.1673 0 -5.42484e-20 0.00139228 0 
31052 1 310.5 44.1673 0 -5.42484e-20 0.00139228 0 
31152 1 311.5 44.1673 0 -1.08442e-19 0.00139228 0 
31252 1 312.5 44.1673 0 -1.08442e-19 0.00139228 0 
31352 1 313.5 44.1673 0 -5.42484e-20 0.00139228 0 
31452 1 314.5 44.1673 0 -5.42484e-20 0.00139228 0 
31552 1 315.5 44.1673 0 -1.08442e-19 0.00139228 0 
31652 1 316.5 44.1673 0 -5.42484e-20 0.00139228 0 
31752 1 317.5 44.1673 0 -1.08442e-19 0.00139228 0 
31852 1 318.5 44.1673 0 -1.08442e-19 0.00139228 0 
31952 1 319.5 44.1673 0 -1.08442e-19 0.00139228 0 
32052 1 320.5 44.1673 0 -5.42484e-20 0.00139228 0 
32152 1 321.5 44.1673 0 -5.42484e-20 0.00139228 0 
32252 1 322.5 44.1673 0 -1.08442e-19 0.00139228 0 
32352 1 323.5 44.1673 0 -5.42484e-20 0.00139228 0 
32452 1 324.5 44.1673 0 -1.08442e-19 0.00139228 0 
32552 1 325.5 44.1673 0 -1.08442e-19 0.00139228 0 
32652 1 326.5 44.1673 0 -1.08442e-19 0.00139228 0 
32752 1 327.5 44.1673 0 -1.08442e-19 0.00139228 0 
32852 1 328.5 44.1673 0 -5.42484e-20 0.00139228 0 
32952 1 329.5 44.1673 0 -1.08442e-19 0.00139228 0 
33052 1 330.5 44.1673 0 -5.42484e-20 0.00139228 0 
33152 1 331.5 44.1673 0 -5.42484e-20 0.00139228 0 
33252 1 332.5 44.1673 0 -1.08442e-19 0.00139228 0 
33352 1 333.5 44.1673 0 -1.08442e-19 0.00139228 0 
33452 1 334.5 44.1673 0 -1.08442e-19 0.00139228 0 
33552 1 335.5 44.1673 0 -5.42484e-20 0.00139228 0 
33652 1 336.5 44.1673 0 -5.42484e-20 0.00139228 0 
33752 1 337.5 44.1673 0 -1.08442e-19 0.00139228 0 
33852 1 338.5 44.1673 0 -1.08442e-19 0.00139228 0 
33952 1 339.5 44.1673 0 -5.42484e-20 0.00139228 0 
34052 1 340.5 44.1673 0 -1.08442e-19 0.00139228 0 
34152 1 341.5 44.1673 0 -1.08442e-19 0.00139228 0 
34252 1 342.5 44.1673 0 -1.08442e-19 0.00139228 0 
34352 1 343.5 44.1673 0 -5.42484e-20 0.00139228 0 
34452 1 344.5 44.1673 0 -1.08442e-19 0.00139228 0 
34552 1 345.5 44.1673 0 -5.42484e-20 0.00139228 0 
34652 1 346.5 44.1673 0 -1.08442e-19 0.00139228 0 
34752 1 347.5 44.1673 0 -5.42484e-20 0.00139228 0 
34852 1 348.5 44.1673 0 -5.42484e-20 0.00139228 0 
34952 1 349.5 44.1673 0 -1.08442e-19 0.00139228 0 
35052 1 350.5 44.1673 0 -5.42484e-20 0.00139228 0 
35152 1 351.5 44.1673 0 -1.08442e-19 0.00139228 0 
35252 1 352.5 44.1673 0 -4.43718e-11 0.00139228 0 
35352 1 353.5 44.1673 0 -1.2305e-10 0.00139228 0 
35452 1 354.5 44.1673 0 4.04745e-10 0.00139228 0 
35552 1 355.5 44.1673 0 1.52258e-09 0.00139228 0 
35652 1 356.5 44.1673 0 5.36334e-09 0.00139228 0 
35752 1 357.5 44.1673 0 1.33612e-08 0.00139228 0 
35852 1 358.5 44.1673 0 1.98053e-08 0.00139227 0 
35952 1 359.5 44.1673 0 1.29926e-08 0.00139225 0 
36052 1 360.5 44.1673 0 -1.10603e-08 0.0013922 0 
36152 1 361.5 44.1673 0 2.23512e-08 0.0013921 0 
36252 1 362.5 44.1673 0 2.87761e-07 0.00139206 0 
36352 1 363.5 44.1673 0 7.62924e-07 0.00139227 0 
36452 1 364.5 44.1673 0 5.2493e-07 0.00139286 0 
36552 1 365.5 44.1673 0 -2.09897e-06 0.00139321 0 
36652 1 366.5 44.1673 0 -6.39646e-06 0.00139202 0 
36752 1 367.5 44.1673 0 -5.63255e-06 0.00138934 0 
36852 1 368.5 44.1673 0 6.37426e-06 0.00138893 0 
36952 1 369.5 44.1673 0 1.79222e-05 0.00139441 0 
37052 1 370.5 44.1673 0 5.32503e-06 0.00139984 0 
37152 1 371.5 44.1673 0 -1.97266e-05 0.0013941 0 
37252 1 372.5 44.1673 0 -8.53933e-06 0.00138446 0 
37352 1 373.5 44.1673 0 2.30654e-05 0.00139209 0 
37452 1 374.5 44.1673 0 -2.62156e-06 0.00140473 0 
37552 1 375.5 44.1673 0 -3.62572e-05 0.00139064 0 
37652 1 376.5 44.1673 0 1.66298e-05 0.00137517 0 
37752 1 377.5 44.1673 0 2.39567e-05 0.00138642 0 
37852 1 378.5 44.1673 0 -4.55136e-05 0.00138094 0 
37952 1 379.5 44.1673 0 2.22042e-05 0.00138283 0 
38052 1 380.5 44.1673 0 4.46401e-05 0.00141888 0 
38152 1 381.5 44.1673 0 -8.65511e-05 0.00135602 0 
38252 1 382.5 44.1673 0 -1.23549e-06 0.00133504 0 
38352 1 383.5 44.1673 0 2.82287e-05 0.00137156 0 
38452 1 384.5 44.1673 0 -0.000117122 0.00130669 0 
38552 1 385.5 44.1673 0 6.90821e-05 0.00129829 0 
38652 1 386.5 44.1673 0 -8.02686e-05 0.00126869 0 
38752 1 387.5 44.1673 0 -8.8267e-05 0.00118246 0 
38852 1 388.5 44.1673 0 -3.37163e-05 0.00119729 0 
38952 1 389.5 44.1673 0 -0.000138818 0.00113992 0 
39052 1 390.5 44.1673 0 -6.68419e-05 0.00108187 0 
39152 1 391.5 44.1673 0 -0.000184165 0.000943149 0 
39252 1 392.5 44.1673 0 -7.48433e-05 0.00098302 0 
39352 1 393.5 44.1673 0 -0.000146872 0.000741682 0 
39452 1 394.5 44.1673 0 -0.00017105 0.000563856 0 
39552 1 395.5 44.1673 0 -0.000139777 0.00030732 0 
39652 1 396.5 44.1673 0 -0.00020769 0.000152338 0 
39752 1 397.5 44.1673 0 -0.000184246 0.000110738 0 
39852 2 398.5 44.1673 0 -0.000114339 -0.000397333 0 
39952 2 399.5 44.1673 0 -2.20719e-05 -0.000198667 0 
