ITEM: TIMESTEP
1850
ITEM: NUMBER OF ATOMS
400
ITEM: BOX BOUNDS ff pp pp
0.0000000000000000e+00 4.0000000000000000e+02
0.0000000000000000e+00 8.6602540000000005e+01
0.0000000000000000e+00 1.0000000000000000e+00
ITEM: ATOMS id type x y z fx fy fz 
52 2 0.5 44.1673 0 0 -0.000397333 0 
152 2 1.5 44.1673 0 0.00465494 -0.000397202 0 
252 1 2.50002 44.1673 0 -7.34955e-05 -0.000150433 0 
352 1 3.50004 44.1674 0 -0.000131885 -0.00017645 0 
452 1 4.50006 44.1674 0 -6.90328e-07 0.000188536 0 
552 1 5.50008 44.1675 0 -0.000322138 -0.000142966 0 
652 1 6.5001 44.1675 0 -0.000240113 0.000227202 0 
752 1 7.50012 44.1676 0 3.76966e-05 0.000773523 0 
852 1 8.50014 44.1677 0 8.34744e-05 0.000843775 0 
952 1 9.50015 44.1677 0 -0.000524048 -0.00011466 0 
1052 1 10.5002 44.1678 0 -0.000856141 -0.000627903 0 
1152 1 11.5002 44.1678 0 -0.000858843 -0.000765454 0 
1252 1 12.5002 44.1678 0 -0.000545403 -0.000620168 0 
1352 1 13.5002 44.1679 0 -0.000330522 -0.000288315 0 
1452 1 14.5002 44.1679 0 1.48197e-05 -0.000118284 0 
1552 1 15.5002 44.1679 0 0.000108853 1.50428e-05 0 
1652 1 16.5002 44.1679 0 0.000142906 8.17361e-05 0 
1752 1 17.5001 44.1679 0 0.000150606 0.000261222 0 
1852 1 18.5001 44.1679 0 2.29759e-05 0.000313588 0 
1952 1 19.5001 44.168 0 0.000172532 0.000427846 0 
2052 1 20.5001 44.168 0 -1.30121e-05 0.000451722 0 
2152 1 21.5001 44.168 0 6.51945e-05 0.000408518 0 
2252 1 22.5001 44.168 0 0.000168361 0.000344847 0 
2352 1 23.5001 44.168 0 6.06823e-05 0.000274063 0 
2452 1 24.5001 44.168 0 0.000241344 9.57834e-05 0 
2552 1 25.5001 44.168 0 0.000261545 0.000127778 0 
2652 1 26.5001 44.168 0 0.000151442 0.000116292 0 
2752 1 27.5001 44.168 0 0.00024953 0.000130972 0 
2852 1 28.5001 44.168 0 0.000163849 0.00023468 0 
2952 1 29.5001 44.1681 0 1.46479e-05 0.000281006 0 
3052 1 30.5 44.1681 0 7.70757e-05 0.000324855 0 
3152 1 31.5 44.1681 0 8.08626e-05 0.000365546 0 
3252 1 32.5 44.1681 0 5.38822e-05 0.000291262 0 
3352 1 33.5 44.1681 0 0.000175374 0.000153685 0 
3452 1 34.5 44.1681 0 0.000287358 4.37336e-05 0 
3552 1 35.5 44.1681 0 0.000322285 -5.46087e-05 0 
3652 1 36.5 44.1681 0 0.000383291 -0.000143641 0 
3752 1 37.5 44.1681 0 0.00042943 -0.000183033 0 
3852 1 38.5 44.1681 0 0.000389849 -0.000169927 0 
3952 1 39.5 44.1681 0 0.000324544 -0.00012841 0 
4052 1 40.5 44.1681 0 0.000283513 -6.88068e-05 0 
4152 1 41.5 44.1681 0 0.00023176 3.51092e-07 0 
4252 1 42.5 44.1681 0 0.000151843 6.15117e-05 0 
4352 1 43.5 44.1681 0 8.13195e-05 0.000104317 0 
4452 1 44.5 44.1681 0 4.74694e-05 0.000132619 0 
4552 1 45.5 44.1681 0 3.70027e-05 0.000153317 0 
4652 1 46.5 44.1681 0 2.76894e-05 0.000168479 0 
4752 1 47.5 44.1681 0 1.44302e-05 0.000177798 0 
4852 1 48.5 44.1681 0 3.50017e-06 0.00018229 0 
4952 1 49.5 44.1681 0 -1.14634e-06 0.000184109 0 
5052 1 50.5 44.1681 0 -1.1639e-06 0.000184909 0 
5152 1 51.5 44.1681 0 1.23327e-07 0.000185343 0 
5252 1 52.5 44.1681 0 8.60866e-07 0.000185542 0 
5352 1 53.5 44.1681 0 8.47836e-07 0.000185572 0 
5452 1 54.5 44.1681 0 5.12752e-07 0.00018553 0 
5552 1 55.5 44.1681 0 2.018e-07 0.000185492 0 
5652 1 56.5 44.1681 0 2.66718e-08 0.000185484 0 
5752 1 57.5 44.1681 0 -3.66518e-08 0.000185497 0 
5852 1 58.5 44.1681 0 -4.27083e-08 0.000185516 0 
5952 1 59.5 44.1681 0 -3.02063e-08 0.000185532 0 
6052 1 60.5 44.1681 0 -1.71213e-08 0.000185542 0 
6152 1 61.5 44.1681 0 -8.42141e-09 0.000185547 0 
6252 1 62.5 44.1681 0 -3.66366e-09 0.000185549 0 
6352 1 63.5 44.1681 0 -1.43702e-09 0.000185551 0 
6452 1 64.5 44.1681 0 -5.21398e-10 0.000185551 0 
6552 1 65.5 44.1681 0 -1.7778e-10 0.000185551 0 
6652 1 66.5 44.1681 0 -7.53999e-11 0.000185551 0 
6752 1 67.5 44.1681 0 -1.21145e-11 0.000185551 0 
6852 1 68.5 44.1681 0 -8.65466e-19 0.000185551 0 
6952 1 69.5 44.1681 0 -8.65057e-19 0.000185551 0 
7052 1 70.5 44.1681 0 -8.65466e-19 0.000185551 0 
7152 1 71.5 44.1681 0 -8.65466e-19 0.000185551 0 
7252 1 72.5 44.1681 0 -8.65057e-19 0.000185551 0 
7352 1 73.5 44.1681 0 -8.65057e-19 0.000185551 0 
7452 1 74.5 44.1681 0 -8.65466e-19 0.000185551 0 
7552 1 75.5 44.1681 0 -8.65057e-19 0.000185551 0 
7652 1 76.5 44.1681 0 -8.65057e-19 0.000185551 0 
7752 1 77.5 44.1681 0 -8.65466e-19 0.000185551 0 
7852 1 78.5 44.1681 0 -8.65466e-19 0.000185551 0 
7952 1 79.5 44.1681 0 -8.65466e-19 0.000185551 0 
8052 1 80.5 44.1681 0 -8.65466e-19 0.000185551 0 
8152 1 81.5 44.1681 0 -8.65057e-19 0.000185551 0 
8252 1 82.5 44.1681 0 -8.65057e-19 0.000185551 0 
8352 1 83.5 44.1681 0 -8.65466e-19 0.000185551 0 
8452 1 84.5 44.1681 0 -8.65466e-19 0.000185551 0 
8552 1 85.5 44.1681 0 -8.65057e-19 0.000185551 0 
8652 1 86.5 44.1681 0 -8.65057e-19 0.000185551 0 
8752 1 87.5 44.1681 0 -8.65466e-19 0.000185551 0 
8852 1 88.5 44.1681 0 -8.65057e-19 0.000185551 0 
8952 1 89.5 44.1681 0 -8.65057e-19 0.000185551 0 
9052 1 90.5 44.1681 0 -8.65466e-19 0.000185551 0 
9152 1 91.5 44.1681 0 -8.65466e-19 0.000185551 0 
9252 1 92.5 44.1681 0 -8.65466e-19 0.000185551 0 
9352 1 93.5 44.1681 0 -8.65057e-19 0.000185551 0 
9452 1 94.5 44.1681 0 -8.65466e-19 0.000185551 0 
9552 1 95.5 44.1681 0 -8.65057e-19 0.000185551 0 
9652 1 96.5 44.1681 0 -8.65466e-19 0.000185551 0 
9752 1 97.5 44.1681 0 -8.65057e-19 0.000185551 0 
9852 1 98.5 44.1681 0 -8.65466e-19 0.000185551 0 
9952 1 99.5 44.1681 0 -8.65466e-19 0.000185551 0 
10052 1 100.5 44.1681 0 -8.65466e-19 0.000185551 0 
10152 1 101.5 44.1681 0 -8.65057e-19 0.000185551 0 
10252 1 102.5 44.1681 0 -8.65057e-19 0.000185551 0 
10352 1 103.5 44.1681 0 -8.65057e-19 0.000185551 0 
10452 1 104.5 44.1681 0 -8.65057e-19 0.000185551 0 
10552 1 105.5 44.1681 0 -8.65466e-19 0.000185551 0 
10652 1 106.5 44.1681 0 -8.65466e-19 0.000185551 0 
10752 1 107.5 44.1681 0 -8.65057e-19 0.000185551 0 
10852 1 108.5 44.1681 0 -8.65466e-19 0.000185551 0 
10952 1 109.5 44.1681 0 -8.65466e-19 0.000185551 0 
11052 1 110.5 44.1681 0 -8.65466e-19 0.000185551 0 
11152 1 111.5 44.1681 0 -8.65466e-19 0.000185551 0 
11252 1 112.5 44.1681 0 -8.65466e-19 0.000185551 0 
11352 1 113.5 44.1681 0 -8.65466e-19 0.000185551 0 
11452 1 114.5 44.1681 0 -8.65466e-19 0.000185551 0 
11552 1 115.5 44.1681 0 -8.65057e-19 0.000185551 0 
11652 1 116.5 44.1681 0 -8.65466e-19 0.000185551 0 
11752 1 117.5 44.1681 0 -8.65466e-19 0.000185551 0 
11852 1 118.5 44.1681 0 -8.65466e-19 0.000185551 0 
11952 1 119.5 44.1681 0 -8.65466e-19 0.000185551 0 
12052 1 120.5 44.1681 0 -8.65466e-19 0.000185551 0 
12152 1 121.5 44.1681 0 -8.65466e-19 0.000185551 0 
12252 1 122.5 44.1681 0 7.52808e-12 0.000185551 0 
12352 1 123.5 44.1681 0 1.26009e-10 0.000185551 0 
12452 1 124.5 44.1681 0 5.83374e-10 0.000185551 0 
12552 1 125.5 44.1681 0 2.89994e-09 0.000185551 0 
12652 1 126.5 44.1681 0 1.35307e-08 0.000185551 0 
12752 1 127.5 44.1681 0 6.08636e-08 0.000185551 0 
12852 1 128.5 44.1681 0 2.60971e-07 0.000185551 0 
12952 1 129.5 44.1681 0 1.06598e-06 0.000185551 0 
13052 1 130.5 44.1681 0 4.1389e-06 0.000185551 0 
13152 1 131.5 44.1681 0 1.52429e-05 0.000185551 0 
13252 1 132.5 44.1681 0 5.31088e-05 0.000185551 0 
13352 1 133.5 44.1681 0 0.000174549 0.000185551 0 
13452 1 134.5 44.1681 0 0.00053933 0.000185551 0 
13552 1 135.5 44.1681 0 0.00156051 0.000185552 0 
13652 1 136.5 44.1681 0 0.00420831 0.000185553 0 
13752 1 137.5 44.1681 0 0.0105168 0.000185554 0 
13852 1 138.5 44.1681 0 0.0241795 0.000185555 0 
13952 1 139.5 44.1681 0 0.0506634 0.00018555 0 
14052 1 140.501 44.1681 0 0.0954897 0.00018552 0 
14152 1 141.501 44.1681 0 0.158794 0.000185423 0 
14252 1 142.502 44.1681 0 0.225654 0.000185172 0 
14352 1 143.504 44.1681 0 0.257284 0.000184632 0 
14452 1 144.507 44.1681 0 0.197331 0.000183649 0 
14552 1 145.511 44.1681 0 0.0101412 0.000182149 0 
14652 1 146.515 44.1681 0 -0.255314 0.000180279 0 
14752 1 147.518 44.1681 0 -0.434873 0.000178484 0 
14852 1 148.519 44.1681 0 -0.339525 0.000177329 0 
14952 1 149.52 44.1681 0 0.0341757 0.000177071 0 
15052 1 150.52 44.1681 0 0.373795 0.000177378 0 
15152 1 151.522 44.1681 0 0.282532 0.000177595 0 
15252 1 152.525 44.1681 0 -0.195527 0.000177393 0 
15352 1 153.527 44.1681 0 -0.443506 0.000176905 0 
15452 1 154.528 44.1681 0 -0.0486932 0.000175933 0 
15552 1 155.529 44.1681 0 0.425193 0.000173658 0 
15652 1 156.532 44.1681 0 0.160927 0.000170608 0 
15752 1 157.535 44.1681 0 -0.423726 0.000169736 0 
15852 1 158.536 44.1681 0 -0.210752 0.000171835 0 
15952 1 159.537 44.1681 0 0.42414 0.000172064 0 
16052 1 160.54 44.1681 0 0.146078 0.000167147 0 
16152 1 161.543 44.1681 0 -0.466958 0.000163789 0 
16252 1 162.545 44.1681 0 -0.00061414 0.000167009 0 
16352 1 163.547 44.1681 0 0.445828 0.000167228 0 
16452 1 164.55 44.1681 0 -0.23794 0.000159574 0 
16552 1 165.553 44.1681 0 -0.282943 0.000157983 0 
16652 1 166.555 44.1681 0 0.413567 0.00016366 0 
16752 1 167.559 44.1681 0 -0.0998427 0.000159971 0 
16852 1 168.562 44.1681 0 -0.374737 0.000153185 0 
16952 1 169.564 44.1681 0 0.314635 0.000153305 0 
17052 1 170.567 44.1681 0 -0.221192 0.000149818 0 
17152 1 171.569 44.1681 0 -0.245437 0.000154779 0 
17252 1 172.571 44.1681 0 0.630318 0.000158944 0 
17352 1 173.575 44.1681 0 -0.178192 0.000143834 0 
17452 1 174.577 44.1681 0 -0.189227 0.000155739 0 
17552 1 175.579 44.1681 0 -0.232449 0.000153833 0 
17652 1 176.582 44.1681 0 -0.939137 0.000142387 0 
17752 1 177.582 44.1681 0 1.15276 0.000151235 0 
17852 1 178.584 44.1681 0 1.03297 0.000163239 0 
17952 1 179.589 44.1681 0 -0.507837 0.000140408 0 
18052 1 180.591 44.1681 0 -0.20351 0.000157975 0 
18152 1 181.594 44.1681 0 -0.664864 0.000145521 0 
18252 1 182.597 44.1681 0 -0.225445 0.000154158 0 
18352 1 183.599 44.1681 0 -0.561779 0.000148448 0 
18452 1 184.602 44.1681 0 0.0123083 0.000144965 0 
18552 1 185.604 44.1681 0 0.398437 0.000165882 0 
18652 1 186.607 44.1681 0 0.470374 0.000141895 0 
18752 1 187.611 44.1681 0 -0.124664 0.000138103 0 
18852 1 188.613 44.1681 0 1.0632 0.000148613 0 
18952 1 189.618 44.1681 0 0.518661 0.000151697 0 
19052 1 190.623 44.1681 0 -1.33894 0.000122784 0 
19152 1 191.625 44.1681 0 2.51049 0.000138418 0 
19252 1 192.633 44.1681 0 -1.96662 0.000127995 0 
19352 1 193.636 44.1681 0 0.779003 0.000147854 0 
19452 1 194.644 44.1681 0 -0.462542 0.000179183 0 
19552 1 195.651 44.1681 0 0.275218 0.000205165 0 
19652 1 196.661 44.1681 0 -0.674104 0.000157651 0 
19752 1 197.672 44.1681 0 -0.271692 0.000192668 0 
19852 1 198.689 44.1681 0 0.160993 0.000117666 0 
19952 1 199.717 44.1681 0 -0.316016 0.000114569 0 
20052 3 200.77 44.1681 0 -0.0464166 0.000219188 0 
20152 1 201.716 44.1681 0 -0.384864 0.000248629 0 
20252 1 202.688 44.1681 0 0.623461 0.000222412 0 
20352 1 203.671 44.1681 0 -0.189619 0.000166384 0 
20452 1 204.659 44.1681 0 0.177998 0.000201258 0 
20552 1 205.65 44.1681 0 0.0308059 0.000159807 0 
20652 1 206.642 44.1681 0 1.04077 0.00023125 0 
20752 1 207.636 44.1681 0 0.128046 0.000227574 0 
20852 1 208.631 44.1681 0 -0.457016 0.000222903 0 
20952 1 209.624 44.1681 0 2.49656 0.000238205 0 
21052 1 210.622 44.1681 0 -1.26721 0.000239848 0 
21152 1 211.616 44.1681 0 1.27149 0.000223299 0 
21252 1 212.613 44.1681 0 0.508723 0.000214079 0 
21352 1 213.611 44.1681 0 -0.233676 0.000235589 0 
21452 1 214.607 44.1681 0 0.142958 0.000225488 0 
21552 1 215.605 44.1681 0 -0.267647 0.00019834 0 
21652 1 216.602 44.1681 0 -0.582853 0.000234283 0 
21752 1 217.6 44.1681 0 -0.74402 0.000220718 0 
21852 1 218.597 44.1681 0 -0.358669 0.000215536 0 
21952 1 219.593 44.1681 0 -0.311725 0.000224813 0 
22052 1 220.59 44.1681 0 0.211607 0.000210871 0 
22152 1 221.588 44.1681 0 0.272932 0.000225903 0 
22252 1 222.584 44.1681 0 1.36831 0.000208122 0 
22352 1 223.583 44.1681 0 0.274281 0.000220901 0 
22452 1 224.583 44.1681 0 -1.52974 0.000229636 0 
22552 1 225.578 44.1681 0 -0.129222 0.00021357 0 
22652 1 226.576 44.1681 0 0.191166 0.000214886 0 
22752 1 227.574 44.1681 0 0.0562198 0.000225714 0 
22852 1 228.571 44.1681 0 0.436504 0.000210686 0 
22952 1 229.569 44.1681 0 -0.328875 0.000216976 0 
23052 1 230.567 44.1681 0 -0.177102 0.000221317 0 
23152 1 231.564 44.1681 0 0.272277 0.000215913 0 
23252 1 232.562 44.1681 0 -0.32006 0.000215307 0 
23352 1 233.558 44.1681 0 -0.0919466 0.000210695 0 
23452 1 234.555 44.1681 0 0.3458 0.00020803 0 
23552 1 235.553 44.1681 0 -0.199445 0.000211906 0 
23652 1 236.55 44.1681 0 -0.207408 0.000210177 0 
23752 1 237.546 44.1681 0 0.307427 0.000204277 0 
23852 1 238.544 44.1681 0 0.013204 0.000204274 0 
23952 1 239.542 44.1681 0 -0.316348 0.000206101 0 
24052 1 240.54 44.1681 0 0.105153 0.000203022 0 
24152 1 241.537 44.1681 0 0.273121 0.000199254 0 
24252 1 242.536 44.1681 0 -0.17604 0.000199532 0 
24352 1 243.534 44.1681 0 -0.276741 0.000200928 0 
24452 1 244.531 44.1681 0 0.159476 0.00019975 0 
24552 1 245.529 44.1681 0 0.29334 0.000196996 0 
24652 1 246.528 44.1681 0 -0.0998117 0.000194971 0 
24752 1 247.527 44.1681 0 -0.355602 0.000194093 0 
24852 1 248.524 44.1681 0 -0.102979 0.000193686 0 
24952 1 249.522 44.1681 0 0.269593 0.000193532 0 
25052 1 250.52 44.1681 0 0.288088 0.000193705 0 
25152 1 251.519 44.1681 0 -0.0310853 0.000193858 0 
25252 1 252.519 44.1681 0 -0.336117 0.000193411 0 
25352 1 253.517 44.1681 0 -0.380898 0.000192158 0 
25452 1 254.514 44.1681 0 -0.197027 0.000190407 0 
25552 1 255.51 44.1681 0 0.0415846 0.000188661 0 
25652 1 256.507 44.1681 0 0.199339 0.000187285 0 
25752 1 257.504 44.1681 0 0.243087 0.000186389 0 
25852 1 258.502 44.1681 0 0.208448 0.000185898 0 
25952 1 259.501 44.1681 0 0.145315 0.000185669 0 
26052 1 260.501 44.1681 0 0.0870539 0.00018558 0 
26152 1 261.5 44.1681 0 0.0461381 0.000185553 0 
26252 1 262.5 44.1681 0 0.022027 0.000185547 0 
26352 1 263.5 44.1681 0 0.00959103 0.000185548 0 
26452 1 264.5 44.1681 0 0.00384375 0.00018555 0 
26552 1 265.5 44.1681 0 0.00142787 0.00018555 0 
26652 1 266.5 44.1681 0 0.000494448 0.000185551 0 
26752 1 267.5 44.1681 0 0.000160349 0.000185551 0 
26852 1 268.5 44.1681 0 4.88899e-05 0.000185551 0 
26952 1 269.5 44.1681 0 1.4062e-05 0.000185551 0 
27052 1 270.5 44.1681 0 3.82592e-06 0.000185551 0 
27152 1 271.5 44.1681 0 9.87469e-07 0.000185551 0 
27252 1 272.5 44.1681 0 2.42252e-07 0.000185551 0 
27352 1 273.5 44.1681 0 5.66537e-08 0.000185551 0 
27452 1 274.5 44.1681 0 1.26349e-08 0.000185551 0 
27552 1 275.5 44.1681 0 2.66662e-09 0.000185551 0 
27652 1 276.5 44.1681 0 6.06795e-10 0.000185551 0 
27752 1 277.5 44.1681 0 7.52654e-11 0.000185551 0 
27852 1 278.5 44.1681 0 -8.65466e-19 0.000185551 0 
27952 1 279.5 44.1681 0 -8.65466e-19 0.000185551 0 
28052 1 280.5 44.1681 0 -8.65466e-19 0.000185551 0 
28152 1 281.5 44.1681 0 -8.65466e-19 0.000185551 0 
28252 1 282.5 44.1681 0 -8.65057e-19 0.000185551 0 
28352 1 283.5 44.1681 0 -8.65057e-19 0.000185551 0 
28452 1 284.5 44.1681 0 -8.65466e-19 0.000185551 0 
28552 1 285.5 44.1681 0 -8.65466e-19 0.000185551 0 
28652 1 286.5 44.1681 0 -8.65057e-19 0.000185551 0 
28752 1 287.5 44.1681 0 -8.65466e-19 0.000185551 0 
28852 1 288.5 44.1681 0 -8.65057e-19 0.000185551 0 
28952 1 289.5 44.1681 0 -8.65057e-19 0.000185551 0 
29052 1 290.5 44.1681 0 -8.65057e-19 0.000185551 0 
29152 1 291.5 44.1681 0 -8.65466e-19 0.000185551 0 
29252 1 292.5 44.1681 0 -8.65057e-19 0.000185551 0 
29352 1 293.5 44.1681 0 -8.65466e-19 0.000185551 0 
29452 1 294.5 44.1681 0 -8.65057e-19 0.000185551 0 
29552 1 295.5 44.1681 0 -8.65057e-19 0.000185551 0 
29652 1 296.5 44.1681 0 -8.65466e-19 0.000185551 0 
29752 1 297.5 44.1681 0 -8.65466e-19 0.000185551 0 
29852 1 298.5 44.1681 0 -8.65466e-19 0.000185551 0 
29952 1 299.5 44.1681 0 -8.65466e-19 0.000185551 0 
30052 1 300.5 44.1681 0 -8.65466e-19 0.000185551 0 
30152 1 301.5 44.1681 0 -8.65057e-19 0.000185551 0 
30252 1 302.5 44.1681 0 -8.65466e-19 0.000185551 0 
30352 1 303.5 44.1681 0 -8.65466e-19 0.000185551 0 
30452 1 304.5 44.1681 0 -8.65466e-19 0.000185551 0 
30552 1 305.5 44.1681 0 -8.65466e-19 0.000185551 0 
30652 1 306.5 44.1681 0 -8.65057e-19 0.000185551 0 
30752 1 307.5 44.1681 0 -8.65057e-19 0.000185551 0 
30852 1 308.5 44.1681 0 -8.65466e-19 0.000185551 0 
30952 1 309.5 44.1681 0 -8.65466e-19 0.000185551 0 
31052 1 310.5 44.1681 0 -8.65466e-19 0.000185551 0 
31152 1 311.5 44.1681 0 -8.65057e-19 0.000185551 0 
31252 1 312.5 44.1681 0 -8.65057e-19 0.000185551 0 
31352 1 313.5 44.1681 0 -8.65466e-19 0.000185551 0 
31452 1 314.5 44.1681 0 -8.65466e-19 0.000185551 0 
31552 1 315.5 44.1681 0 -8.65057e-19 0.000185551 0 
31652 1 316.5 44.1681 0 -8.65466e-19 0.000185551 0 
31752 1 317.5 44.1681 0 -8.65057e-19 0.000185551 0 
31852 1 318.5 44.1681 0 -8.65057e-19 0.000185551 0 
31952 1 319.5 44.1681 0 -8.65057e-19 0.000185551 0 
32052 1 320.5 44.1681 0 -8.65466e-19 0.000185551 0 
32152 1 321.5 44.1681 0 -8.65466e-19 0.000185551 0 
32252 1 322.5 44.1681 0 -8.65057e-19 0.000185551 0 
32352 1 323.5 44.1681 0 -8.65466e-19 0.000185551 0 
32452 1 324.5 44.1681 0 -8.65057e-19 0.000185551 0 
32552 1 325.5 44.1681 0 -8.65057e-19 0.000185551 0 
32652 1 326.5 44.1681 0 -8.65057e-19 0.000185551 0 
32752 1 327.5 44.1681 0 -8.65057e-19 0.000185551 0 
32852 1 328.5 44.1681 0 -8.65466e-19 0.000185551 0 
32952 1 329.5 44.1681 0 -8.65057e-19 0.000185551 0 
33052 1 330.5 44.1681 0 -8.65466e-19 0.000185551 0 
33152 1 331.5 44.1681 0 -8.65466e-19 0.000185551 0 
33252 1 332.5 44.1681 0 -8.65057e-19 0.000185551 0 
33352 1 333.5 44.1681 0 1.64654e-12 0.000185551 0 
33452 1 334.5 44.1681 0 2.78796e-10 0.000185551 0 
33552 1 335.5 44.1681 0 5.67786e-10 0.000185551 0 
33652 1 336.5 44.1681 0 1.45524e-09 0.000185551 0 
33752 1 337.5 44.1681 0 3.5659e-09 0.000185549 0 
33852 1 338.5 44.1681 0 8.39382e-09 0.000185547 0 
33952 1 339.5 44.1681 0 1.71687e-08 0.000185542 0 
34052 1 340.5 44.1681 0 3.04091e-08 0.000185532 0 
34152 1 341.5 44.1681 0 4.25669e-08 0.000185516 0 
34252 1 342.5 44.1681 0 3.65723e-08 0.000185497 0 
34352 1 343.5 44.1681 0 -2.66224e-08 0.000185484 0 
34452 1 344.5 44.1681 0 -2.01797e-07 0.000185492 0 
34552 1 345.5 44.1681 0 -5.12605e-07 0.00018553 0 
34652 1 346.5 44.1681 0 -8.48049e-07 0.000185572 0 
34752 1 347.5 44.1681 0 -8.60958e-07 0.000185542 0 
34852 1 348.5 44.1681 0 -1.23303e-07 0.000185343 0 
34952 1 349.5 44.1681 0 1.16391e-06 0.000184909 0 
35052 1 350.5 44.1681 0 1.14643e-06 0.000184109 0 
35152 1 351.5 44.1681 0 -3.50002e-06 0.00018229 0 
35252 1 352.5 44.1681 0 -1.44302e-05 0.000177798 0 
35352 1 353.5 44.1681 0 -2.76894e-05 0.000168479 0 
35452 1 354.5 44.1681 0 -3.70027e-05 0.000153317 0 
35552 1 355.5 44.1681 0 -4.74691e-05 0.000132619 0 
35652 1 356.5 44.1681 0 -8.13195e-05 0.000104317 0 
35752 1 357.5 44.1681 0 -0.000151843 6.15117e-05 0 
35852 1 358.5 44.1681 0 -0.00023176 3.51253e-07 0 
35952 1 359.5 44.1681 0 -0.000283513 -6.88069e-05 0 
36052 1 360.5 44.1681 0 -0.000324544 -0.00012841 0 
36152 1 361.5 44.1681 0 -0.00038985 -0.000169927 0 
36252 1 362.5 44.1681 0 -0.000429429 -0.000183033 0 
36352 1 363.5 44.1681 0 -0.000383291 -0.000143641 0 
36452 1 364.5 44.1681 0 -0.000322285 -5.46087e-05 0 
36552 1 365.5 44.1681 0 -0.000287357 4.37337e-05 0 
36652 1 366.5 44.1681 0 -0.000175375 0.000153684 0 
36752 1 367.5 44.1681 0 -5.38821e-05 0.000291262 0 
36852 1 368.5 44.1681 0 -8.08624e-05 0.000365546 0 
36952 1 369.5 44.1681 0 -7.70758e-05 0.000324854 0 
37052 1 370.5 44.1681 0 -1.4648e-05 0.000281006 0 
37152 1 371.5 44.168 0 -0.000163849 0.000234679 0 
37252 1 372.5 44.168 0 -0.00024953 0.000130972 0 
37352 1 373.5 44.168 0 -0.000151442 0.000116292 0 
37452 1 374.5 44.168 0 -0.000261545 0.000127778 0 
37552 1 375.5 44.168 0 -0.000241344 9.57833e-05 0 
37652 1 376.5 44.168 0 -6.06824e-05 0.000274063 0 
37752 1 377.5 44.168 0 -0.000168361 0.000344847 0 
37852 1 378.5 44.168 0 -6.51947e-05 0.000408518 0 
37952 1 379.5 44.168 0 1.30122e-05 0.000451722 0 
38052 1 380.5 44.168 0 -0.000172532 0.000427846 0 
38152 1 381.5 44.1679 0 -2.29756e-05 0.000313588 0 
38252 1 382.5 44.1679 0 -0.000150606 0.000261222 0 
38352 1 383.5 44.1679 0 -0.000142906 8.17357e-05 0 
38452 1 384.5 44.1679 0 -0.000108853 1.50429e-05 0 
38552 1 385.5 44.1679 0 -1.48201e-05 -0.000118284 0 
38652 1 386.5 44.1679 0 0.000330522 -0.000288315 0 
38752 1 387.5 44.1678 0 0.000545403 -0.000620168 0 
38852 1 388.5 44.1678 0 0.000858842 -0.000765455 0 
38952 1 389.5 44.1678 0 0.000856141 -0.000627902 0 
39052 1 390.5 44.1677 0 0.000524048 -0.00011466 0 
39152 1 391.5 44.1677 0 -8.34745e-05 0.000843775 0 
39252 1 392.5 44.1676 0 -3.76964e-05 0.000773523 0 
39352 1 393.5 44.1675 0 0.000240113 0.000227202 0 
39452 1 394.5 44.1675 0 0.000322138 -0.000142966 0 
39552 1 395.5 44.1674 0 6.90525e-07 0.000188536 0 
39652 1 396.5 44.1674 0 0.000131886 -0.00017645 0 
39752 1 397.5 44.1673 0 7.34953e-05 -0.000150433 0 
39852 2 398.5 44.1673 0 -0.00465494 -0.000397202 0 
39952 2 399.5 44.1673 0 -2.20719e-05 -0.000198667 0 
